\relax 
\providecommand\zref@newlabel[2]{}
\catcode`"\active
\catcode`-\active
\providecommand\HyperFirstAtBeginDocument{\AtBeginDocument}
\HyperFirstAtBeginDocument{\ifx\hyper@anchor\@undefined
\global\let\oldcontentsline\contentsline
\gdef\contentsline#1#2#3#4{\oldcontentsline{#1}{#2}{#3}}
\global\let\oldnewlabel\newlabel
\gdef\newlabel#1#2{\newlabelxx{#1}#2}
\gdef\newlabelxx#1#2#3#4#5#6{\oldnewlabel{#1}{{#2}{#3}}}
\AtEndDocument{\ifx\hyper@anchor\@undefined
\let\contentsline\oldcontentsline
\let\newlabel\oldnewlabel
\fi}
\fi}
\global\let\hyper@last\relax 
\gdef\HyperFirstAtBeginDocument#1{#1}
\providecommand*\HyPL@Entry[1]{}
\HyPL@Entry{0<</P()>>}
\select@language{czech}
\@writefile{toc}{\select@language{czech}}
\@writefile{lof}{\select@language{czech}}
\@writefile{lot}{\select@language{czech}}
\select@language{english}
\@writefile{toc}{\select@language{english}}
\@writefile{lof}{\select@language{english}}
\@writefile{lot}{\select@language{english}}
\select@language{czech}
\@writefile{toc}{\select@language{czech}}
\@writefile{lof}{\select@language{czech}}
\@writefile{lot}{\select@language{czech}}
\citation{rdoc}
\HyPL@Entry{6<</S/D>>}
\@writefile{toc}{\contentsline {section}{\numberline {1}Předmluva}{1}{section.1}}
\newlabel{sec:p_edmluva}{{1}{1}{Předmluva\relax }{section.1}{}}
\citation{rabout}
\@writefile{toc}{\contentsline {section}{\numberline {2}Úvod do R}{2}{section.2}}
\newlabel{sec:uvod_do_r}{{2}{2}{Úvod do R\relax }{section.2}{}}
\@writefile{toc}{\contentsline {subsection}{\numberline {2.1}O systému R}{2}{subsection.2.1}}
\newlabel{sub:o_r}{{2.1}{2}{O systému R\relax }{subsection.2.1}{}}
\@writefile{toc}{\contentsline {subsection}{\numberline {2.2}Práce s~R}{2}{subsection.2.2}}
\newlabel{sub:prace_s_r}{{2.2}{2}{Práce s~R\relax }{subsection.2.2}{}}
\@writefile{lol}{\contentsline {lstlisting}{outputs/R\textunderscore startup.txt}{2}{lstlisting.-1}}
\citation{fox}
\citation{fox}
\@writefile{lol}{\contentsline {lstlisting}{../R/math\textunderscore 1\textunderscore result.txt}{3}{lstlisting.-6}}
\@writefile{lol}{\contentsline {lstlisting}{../R/math\textunderscore 2\textunderscore result.txt}{3}{lstlisting.-7}}
\@writefile{lol}{\contentsline {lstlisting}{../R/basic\textunderscore functions\textunderscore result.txt}{3}{lstlisting.-8}}
\@writefile{toc}{\contentsline {subsection}{\numberline {2.3}Grafy v~R}{4}{subsection.2.3}}
\newlabel{sub:grafy_v_r}{{2.3}{4}{Grafy v~R\relax }{subsection.2.3}{}}
\citation{outlierboxplot}
\citation{boxplot}
\citation{rdoc}
\citation{violinplot}
\citation{bpplot}
\@writefile{toc}{\contentsline {section}{\numberline {3}Jednorozměrná data}{5}{section.3}}
\newlabel{sec:1d}{{3}{5}{Jednorozměrná data\relax }{section.3}{}}
\@writefile{toc}{\contentsline {subsection}{\numberline {3.1}Krabičkový graf}{5}{subsection.3.1}}
\newlabel{sub:krabi_kov_graf}{{3.1}{5}{Krabičkový graf\relax }{subsection.3.1}{}}
\citation{sectioned_density}
\citation{sectioned_density}
\@writefile{lol}{\contentsline {lstlisting}{../R/boxplot\textunderscore with\textunderscore mean\textunderscore result.txt}{6}{lstlisting.-9}}
\@writefile{lof}{\contentsline {figure}{\numberline {3.1.1}{\ignorespaces Krabičkový graf s~křížkem v~místě průměru\relax }}{6}{figure.caption.1}}
\providecommand*\caption@xref[2]{\@setref\relax\@undefined{#1}}
\newlabel{img:boxplot_with_mean}{{3.1.1}{6}{Krabičkový graf s~křížkem v~místě průměru\relax \relax }{figure.caption.1}{}}
\@writefile{lot}{\contentsline {table}{\numberline {3.1.1}{\ignorespaces Specifické parametry pro tvorbu krabičkového grafu\relax }}{7}{table.caption.2}}
\newlabel{tab:boxplot}{{3.1.1}{7}{Specifické parametry pro tvorbu krabičkového grafu\relax \relax }{table.caption.2}{}}
\@writefile{lol}{\contentsline {lstlisting}{../R/boxplot\textunderscore customized\textunderscore result.txt}{7}{lstlisting.-10}}
\@writefile{lof}{\contentsline {figure}{\numberline {3.1.2}{\ignorespaces Přizpůsobený krabičkový graf\relax }}{7}{figure.caption.3}}
\newlabel{img:boxplot_customized}{{3.1.2}{7}{Přizpůsobený krabičkový graf\relax \relax }{figure.caption.3}{}}
\citation{boxplot}
\@writefile{lol}{\contentsline {lstlisting}{../R/boxplot\textunderscore vs\textunderscore reality\textunderscore result.txt}{8}{lstlisting.-11}}
\@writefile{lof}{\contentsline {figure}{\numberline {3.1.3}{\ignorespaces Pomocí krabičkového grafu mnohdy nedokážeme rozeznat různé tvary rozdělení\relax }}{8}{figure.caption.4}}
\newlabel{img:boxplot_vs_reality}{{3.1.3}{8}{Pomocí krabičkového grafu mnohdy nedokážeme rozeznat různé tvary rozdělení\relax \relax }{figure.caption.4}{}}
\citation{dalgaard}
\citation{scott}
\citation{Wand96data-basedchoice}
\@writefile{toc}{\contentsline {subsection}{\numberline {3.2}Histogram}{9}{subsection.3.2}}
\newlabel{sub:histogram}{{3.2}{9}{Histogram\relax }{subsection.3.2}{}}
\@writefile{lol}{\contentsline {lstlisting}{../R/histogram\textunderscore default\textunderscore result.txt}{9}{lstlisting.-12}}
\@writefile{lof}{\contentsline {figure}{\numberline {3.2.1}{\ignorespaces Histogram ve výchozím nastavení\relax }}{9}{figure.caption.5}}
\newlabel{img:histogram_default}{{3.2.1}{9}{Histogram ve výchozím nastavení\relax \relax }{figure.caption.5}{}}
\newlabel{eq:sturges_k}{{1}{9}{Histogram\relax }{equation.3.1}{}}
\citation{scott}
\newlabel{eq:scott_h}{{3}{10}{Histogram\relax }{equation.3.3}{}}
\newlabel{eq:fd}{{4}{10}{Histogram\relax }{equation.3.4}{}}
\@writefile{lol}{\contentsline {lstlisting}{../R/histogram\textunderscore breaks\textunderscore result.txt}{10}{lstlisting.-13}}
\@writefile{lof}{\contentsline {figure}{\numberline {3.2.2}{\ignorespaces Důležitost správné šířky intervalu pro histogram\relax }}{10}{figure.caption.6}}
\newlabel{img:histogram_breaks}{{3.2.2}{10}{Důležitost správné šířky intervalu pro histogram\relax \relax }{figure.caption.6}{}}
\@writefile{lot}{\contentsline {table}{\numberline {3.2.1}{\ignorespaces Specifické parametry pro tvorbu histogramu\relax }}{11}{table.caption.7}}
\newlabel{tab:histogram}{{3.2.1}{11}{Specifické parametry pro tvorbu histogramu\relax \relax }{table.caption.7}{}}
\@writefile{lol}{\contentsline {lstlisting}{../R/hist\textunderscore outlier\textunderscore result.txt}{12}{lstlisting.-14}}
\@writefile{lof}{\contentsline {figure}{\numberline {3.2.3}{\ignorespaces Detekce odlehlých pozorování pomocí histogramu\relax }}{12}{figure.caption.8}}
\newlabel{img:hist_outlier}{{3.2.3}{12}{Detekce odlehlých pozorování pomocí histogramu\relax \relax }{figure.caption.8}{}}
\@writefile{lol}{\contentsline {lstlisting}{../R/hist\textunderscore rotated\textunderscore result.txt}{12}{lstlisting.-15}}
\@writefile{lof}{\contentsline {figure}{\numberline {3.2.4}{\ignorespaces Otočený histogram\relax }}{12}{figure.caption.9}}
\newlabel{img:hist_rotated}{{3.2.4}{12}{Otočený histogram\relax \relax }{figure.caption.9}{}}
\citation{Řezáč2007thesis}
\citation{kernel}
\citation{scott1992multivariate}
\citation{kerneldensity}
\@writefile{toc}{\contentsline {subsection}{\numberline {3.3}Jádrový odhad hustoty}{13}{subsection.3.3}}
\newlabel{sub:j_drov_odhad_hustoty}{{3.3}{13}{Jádrový odhad hustoty\relax }{subsection.3.3}{}}
\@writefile{lol}{\contentsline {lstlisting}{../R/kernels\textunderscore list\textunderscore result.txt}{13}{lstlisting.-16}}
\@writefile{lol}{\contentsline {lstlisting}{../R/density\textunderscore result.txt}{14}{lstlisting.-17}}
\@writefile{lof}{\contentsline {figure}{\numberline {3.3.1}{\ignorespaces Jádrový odhad hustoty ve výchozím nastavení\relax }}{14}{figure.caption.10}}
\newlabel{img:density}{{3.3.1}{14}{Jádrový odhad hustoty ve výchozím nastavení\relax \relax }{figure.caption.10}{}}
\@writefile{lol}{\contentsline {lstlisting}{../R/density\textunderscore bw\textunderscore result.txt}{14}{lstlisting.-18}}
\@writefile{lof}{\contentsline {figure}{\numberline {3.3.2}{\ignorespaces Různé šířky vyhlazovacího okna pro stejnou jádrovou funkci\relax }}{14}{figure.caption.11}}
\newlabel{img:density_bw}{{3.3.2}{14}{Různé šířky vyhlazovacího okna pro stejnou jádrovou funkci\relax \relax }{figure.caption.11}{}}
\citation{qqplot}
\@writefile{lol}{\contentsline {lstlisting}{../R/hist\textunderscore density\textunderscore result.txt}{15}{lstlisting.-19}}
\@writefile{lof}{\contentsline {figure}{\numberline {3.3.3}{\ignorespaces Jádrový odhad hustoty vkreslený do histogramu\relax }}{15}{figure.caption.12}}
\newlabel{img:hist_density}{{3.3.3}{15}{Jádrový odhad hustoty vkreslený do histogramu\relax \relax }{figure.caption.12}{}}
\@writefile{toc}{\contentsline {subsection}{\numberline {3.4}QQ graf}{15}{subsection.3.4}}
\newlabel{sub:qq_plot}{{3.4}{15}{QQ graf\relax }{subsection.3.4}{}}
\citation{violinplot}
\@writefile{lol}{\contentsline {lstlisting}{../R/qqnorm\textunderscore result.txt}{16}{lstlisting.-20}}
\@writefile{lof}{\contentsline {figure}{\numberline {3.4.1}{\ignorespaces QQ graf pro náhodný výběr z~normálního rozdělení\relax }}{16}{figure.caption.13}}
\newlabel{img:qqnorm}{{3.4.1}{16}{QQ graf pro náhodný výběr z~normálního rozdělení\relax \relax }{figure.caption.13}{}}
\@writefile{lol}{\contentsline {lstlisting}{../R/qqplot\textunderscore result.txt}{17}{lstlisting.-21}}
\@writefile{lof}{\contentsline {figure}{\numberline {3.4.2}{\ignorespaces QQ graf pro spotřebu automobilů a~výběr z~rovnoměrného rozdělení\relax }}{17}{figure.caption.14}}
\newlabel{img:qqplot}{{3.4.2}{17}{QQ graf pro spotřebu automobilů a~výběr z~rovnoměrného rozdělení\relax \relax }{figure.caption.14}{}}
\@writefile{lol}{\contentsline {lstlisting}{../R/qqnorm\textunderscore various\textunderscore result.txt}{17}{lstlisting.-22}}
\@writefile{lof}{\contentsline {figure}{\numberline {3.4.3}{\ignorespaces Bežné tvary QQ grafu společně s~jejich významem\relax }}{17}{figure.caption.15}}
\newlabel{img:qqnorm_various}{{3.4.3}{17}{Bežné tvary QQ grafu společně s~jejich významem\relax \relax }{figure.caption.15}{}}
\citation{Rvioplot}
\@writefile{toc}{\contentsline {subsection}{\numberline {3.5}Violin plot}{18}{subsection.3.5}}
\newlabel{sub:violin_plot}{{3.5}{18}{Violin plot\relax }{subsection.3.5}{}}
\@writefile{lol}{\contentsline {lstlisting}{../R/vioplot\textunderscore result.txt}{18}{lstlisting.-23}}
\@writefile{lof}{\contentsline {figure}{\numberline {3.5.1}{\ignorespaces Violin plot\relax }}{18}{figure.caption.16}}
\newlabel{img:vioplot}{{3.5.1}{18}{Violin plot\relax \relax }{figure.caption.16}{}}
\@writefile{lol}{\contentsline {lstlisting}{../R/vioplot\textunderscore vs\textunderscore reality\textunderscore result.txt}{19}{lstlisting.-24}}
\@writefile{lof}{\contentsline {figure}{\numberline {3.5.2}{\ignorespaces Pomocí violin plotu dokážeme na rozdíl od krabičkového grafu rozeznat různá rozdělení\relax }}{19}{figure.caption.17}}
\newlabel{img:vioplot_vs_reality}{{3.5.2}{19}{Pomocí violin plotu dokážeme na rozdíl od krabičkového grafu rozeznat různá rozdělení\relax \relax }{figure.caption.17}{}}
\@writefile{lol}{\contentsline {lstlisting}{../R/vioplot\textunderscore vs\textunderscore boxplot\textunderscore result.txt}{20}{lstlisting.-25}}
\@writefile{lof}{\contentsline {figure}{\numberline {3.5.3}{\ignorespaces Violin plot nám dává daleko více informací o~rozdělení proměnné než krabičkový graf\relax }}{20}{figure.caption.18}}
\newlabel{img:vioplot_vs_boxplot}{{3.5.3}{20}{Violin plot nám dává daleko více informací o~rozdělení proměnné než krabičkový graf\relax \relax }{figure.caption.18}{}}
\@writefile{toc}{\contentsline {subsection}{\numberline {3.6}Grafy pro kategoriální proměnné}{20}{subsection.3.6}}
\newlabel{sub:dal_zaj_mav_grafy}{{3.6}{20}{Grafy pro kategoriální proměnné\relax }{subsection.3.6}{}}
\@writefile{toc}{\contentsline {subsubsection}{\numberline {3.6.1}Výsečový graf}{20}{subsubsection.3.6.1}}
\newlabel{ssub:kol_ov_graf}{{3.6.1}{20}{Výsečový graf\relax }{subsubsection.3.6.1}{}}
\citation{wordcloud}
\@writefile{lol}{\contentsline {lstlisting}{../R/pie\textunderscore better\textunderscore result.txt}{21}{lstlisting.-26}}
\@writefile{lof}{\contentsline {figure}{\numberline {3.6.1}{\ignorespaces Výsečový graf pro četnosti výrobců automobilů\relax }}{21}{figure.caption.19}}
\newlabel{img:pie_better}{{3.6.1}{21}{Výsečový graf pro četnosti výrobců automobilů\relax \relax }{figure.caption.19}{}}
\@writefile{toc}{\contentsline {subsubsection}{\numberline {3.6.2}Wordcloud}{21}{subsubsection.3.6.2}}
\newlabel{ssub:wordcloud}{{3.6.2}{21}{Wordcloud\relax }{subsubsection.3.6.2}{}}
\@writefile{lol}{\contentsline {lstlisting}{../R/wordcloud\textunderscore result.txt}{22}{lstlisting.-27}}
\@writefile{lof}{\contentsline {figure}{\numberline {3.6.2}{\ignorespaces Wordcloud\relax }}{22}{figure.caption.20}}
\newlabel{img:wordcloud}{{3.6.2}{22}{Wordcloud\relax \relax }{figure.caption.20}{}}
\citation{fox}
\citation{bagplot}
\citation{bagplot}
\citation{tukey_74_mathematics}
\@writefile{toc}{\contentsline {section}{\numberline {4}Dvourozměrná data}{23}{section.4}}
\newlabel{sec:2d}{{4}{23}{Dvourozměrná data\relax }{section.4}{}}
\@writefile{toc}{\contentsline {subsection}{\numberline {4.1}XY graf}{23}{subsection.4.1}}
\newlabel{sub:xy_graf}{{4.1}{23}{XY graf\relax }{subsection.4.1}{}}
\citation{aplpack}
\@writefile{lol}{\contentsline {lstlisting}{../R/xy\textunderscore graph\textunderscore result.txt}{24}{lstlisting.-28}}
\@writefile{lof}{\contentsline {figure}{\numberline {4.1.1}{\ignorespaces XY graf vykreslující hodnoty spotřeby na 100 kilometrů v~závislosti na objemu motoru\relax }}{24}{figure.caption.21}}
\newlabel{img:xy_graph}{{4.1.1}{24}{XY graf vykreslující hodnoty spotřeby na 100 kilometrů v~závislosti na objemu motoru\relax \relax }{figure.caption.21}{}}
\@writefile{toc}{\contentsline {subsection}{\numberline {4.2}Bagplot}{24}{subsection.4.2}}
\newlabel{sub:bagplot}{{4.2}{24}{Bagplot\relax }{subsection.4.2}{}}
\@writefile{lol}{\contentsline {lstlisting}{../R/bagplot\textunderscore result.txt}{25}{lstlisting.-29}}
\@writefile{lof}{\contentsline {figure}{\numberline {4.2.1}{\ignorespaces Bagplot pro spotřebu automobilů a~objem motoru\relax }}{25}{figure.caption.22}}
\newlabel{img:bagplot}{{4.2.1}{25}{Bagplot pro spotřebu automobilů a~objem motoru\relax \relax }{figure.caption.22}{}}
\@writefile{lot}{\contentsline {table}{\numberline {4.2.1}{\ignorespaces Specifické parametry pro tvorbu bagplotu\relax }}{25}{table.caption.23}}
\newlabel{tab:bagplot}{{4.2.1}{25}{Specifické parametry pro tvorbu bagplotu\relax \relax }{table.caption.23}{}}
\@writefile{toc}{\contentsline {subsection}{\numberline {4.3}Vícenásobný krabičkový graf}{25}{subsection.4.3}}
\newlabel{sub:multiple_boxplot}{{4.3}{25}{Vícenásobný krabičkový graf\relax }{subsection.4.3}{}}
\@writefile{lol}{\contentsline {lstlisting}{../R/multi\textunderscore boxplot\textunderscore result.txt}{26}{lstlisting.-30}}
\@writefile{lof}{\contentsline {figure}{\numberline {4.3.1}{\ignorespaces Krabičkové grafy pro spotřebu automobilů pro jednotlivé počty válců motoru\relax }}{26}{figure.caption.24}}
\newlabel{img:multi_boxplot}{{4.3.1}{26}{Krabičkové grafy pro spotřebu automobilů pro jednotlivé počty válců motoru\relax \relax }{figure.caption.24}{}}
\@writefile{lol}{\contentsline {lstlisting}{../R/multi\textunderscore boxplot\textunderscore varwidth\textunderscore result.txt}{27}{lstlisting.-31}}
\@writefile{lof}{\contentsline {figure}{\numberline {4.3.2}{\ignorespaces Krabičkové grafy pro spotřebu automobilů pro jednotlivé počty válců motoru šíroké dle relativní četnosti skupin\relax }}{27}{figure.caption.25}}
\newlabel{img:multi_boxplot_varwidth}{{4.3.2}{27}{Krabičkové grafy pro spotřebu automobilů pro jednotlivé počty válců motoru šíroké dle relativní četnosti skupin\relax \relax }{figure.caption.25}{}}
\citation{sectioned_density}
\citation{sectioned_density}
\citation{denstrip}
\@writefile{lol}{\contentsline {lstlisting}{../R/boxplot\textunderscore seasonal\textunderscore result.txt}{28}{lstlisting.-32}}
\@writefile{lof}{\contentsline {figure}{\numberline {4.3.3}{\ignorespaces Zkoumání sezónnosti časové řady pomocí krabičkového grafu\relax }}{28}{figure.caption.26}}
\newlabel{img:boxplot_seasonal}{{4.3.3}{28}{Zkoumání sezónnosti časové řady pomocí krabičkového grafu\relax \relax }{figure.caption.26}{}}
\@writefile{toc}{\contentsline {subsection}{\numberline {4.4}Sectioned density plot}{28}{subsection.4.4}}
\newlabel{sub:sectioned_density_plot}{{4.4}{28}{Sectioned density plot\relax }{subsection.4.4}{}}
\@writefile{lol}{\contentsline {lstlisting}{../R/sectioned\textunderscore density\textunderscore creation\textunderscore result.txt}{29}{lstlisting.-33}}
\@writefile{lof}{\contentsline {figure}{\numberline {4.4.1}{\ignorespaces Tvorba sectioned density plotu\relax }}{29}{figure.caption.27}}
\newlabel{img:sectioned_density_creation}{{4.4.1}{29}{Tvorba sectioned density plotu\relax \relax }{figure.caption.27}{}}
\@writefile{lol}{\contentsline {lstlisting}{../R/sec\textunderscore dens\textunderscore hist\textunderscore result.txt}{29}{lstlisting.-34}}
\@writefile{lof}{\contentsline {figure}{\numberline {4.4.2}{\ignorespaces Sectioned density plot s~histogramem na pozadí\relax }}{29}{figure.caption.28}}
\newlabel{img:sec_dens_hist}{{4.4.2}{29}{Sectioned density plot s~histogramem na pozadí\relax \relax }{figure.caption.28}{}}
\@writefile{lol}{\contentsline {lstlisting}{../R/sec\textunderscore dens\textunderscore result.txt}{30}{lstlisting.-35}}
\@writefile{lof}{\contentsline {figure}{\numberline {4.4.3}{\ignorespaces Porovnání rozdělení výběrů o~různém rozsahu ze stejné populace\relax }}{30}{figure.caption.29}}
\newlabel{img:sec_dens}{{4.4.3}{30}{Porovnání rozdělení výběrů o~různém rozsahu ze stejné populace\relax \relax }{figure.caption.29}{}}
\@writefile{toc}{\contentsline {subsection}{\numberline {4.5}Histogramy}{30}{subsection.4.5}}
\newlabel{sub:multi_hist}{{4.5}{30}{Histogramy\relax }{subsection.4.5}{}}
\@writefile{lol}{\contentsline {lstlisting}{../R/life\textunderscore tree\textunderscore result.txt}{31}{lstlisting.-36}}
\@writefile{lof}{\contentsline {figure}{\numberline {4.5.1}{\ignorespaces Ukázka demografického stromu života\relax }}{31}{figure.caption.30}}
\newlabel{img:life_tree}{{4.5.1}{31}{Ukázka demografického stromu života\relax \relax }{figure.caption.30}{}}
\citation{rainbowPlots}
\citation{demography}
\@writefile{toc}{\contentsline {section}{\numberline {5}Vícerozměrná data}{32}{section.5}}
\newlabel{sec:3d}{{5}{32}{Vícerozměrná data\relax }{section.5}{}}
\@writefile{toc}{\contentsline {subsection}{\numberline {5.1}Rainbow plot}{32}{subsection.5.1}}
\newlabel{sub:rainbow_plot}{{5.1}{32}{Rainbow plot\relax }{subsection.5.1}{}}
\citation{rainbowPlots}
\citation{rgl}
\@writefile{lol}{\contentsline {lstlisting}{../R/rainbow\textunderscore plot\textunderscore result.txt}{33}{lstlisting.-37}}
\@writefile{lof}{\contentsline {figure}{\numberline {5.1.1}{\ignorespaces Rainbow plot pro míry úmrtnosti v~Českých zemích\relax }}{33}{figure.caption.31}}
\newlabel{img:rainbow_plot}{{5.1.1}{33}{Rainbow plot pro míry úmrtnosti v~Českých zemích\relax \relax }{figure.caption.31}{}}
\@writefile{toc}{\contentsline {subsection}{\numberline {5.2}Interaktivní 3D graf}{33}{subsection.5.2}}
\newlabel{sub:interaktivn_3d_graf}{{5.2}{33}{Interaktivní 3D graf\relax }{subsection.5.2}{}}
\@writefile{lol}{\contentsline {lstlisting}{../R/rainbow\textunderscore ts\textunderscore result.txt}{34}{lstlisting.-38}}
\@writefile{lof}{\contentsline {figure}{\numberline {5.1.2}{\ignorespaces Rainbow plot poukazující na přítomnost trendové složky v~časové řadě\relax }}{34}{figure.caption.32}}
\newlabel{img:rainbow_ts}{{5.1.2}{34}{Rainbow plot poukazující na přítomnost trendové složky v~časové řadě\relax \relax }{figure.caption.32}{}}
\@writefile{lol}{\contentsline {lstlisting}{../R/plot3d\textunderscore result.txt}{34}{lstlisting.-39}}
\@writefile{lof}{\contentsline {figure}{\numberline {5.2.1}{\ignorespaces Interaktivní 3D graf\relax }}{34}{figure.caption.33}}
\newlabel{img:plot3d}{{5.2.1}{34}{Interaktivní 3D graf\relax \relax }{figure.caption.33}{}}
\citation{mosaic}
\citation{vcd}
\citation{mosaic}
\@writefile{toc}{\contentsline {subsection}{\numberline {5.3}Mozaikový graf}{35}{subsection.5.3}}
\newlabel{sub:vizualizace_tab}{{5.3}{35}{Mozaikový graf\relax }{subsection.5.3}{}}
\@writefile{lol}{\contentsline {lstlisting}{../R/mosaic\textunderscore default\textunderscore result.txt}{35}{lstlisting.-40}}
\@writefile{lof}{\contentsline {figure}{\numberline {5.3.1}{\ignorespaces Mozaikový graf ve výchozím nastavení\relax }}{35}{figure.caption.34}}
\newlabel{img:mosaic_default}{{5.3.1}{35}{Mozaikový graf ve výchozím nastavení\relax \relax }{figure.caption.34}{}}
\citation{ellipse}
\citation{Murdoch1996}
\@writefile{lol}{\contentsline {lstlisting}{../R/mosaic\textunderscore shaded\textunderscore result.txt}{36}{lstlisting.-41}}
\@writefile{lof}{\contentsline {figure}{\numberline {5.3.2}{\ignorespaces Mozaikový graf s~barevným znázorněním velikosti reziduí\relax }}{36}{figure.caption.35}}
\newlabel{img:mosaic_shaded}{{5.3.2}{36}{Mozaikový graf s~barevným znázorněním velikosti reziduí\relax \relax }{figure.caption.35}{}}
\@writefile{toc}{\contentsline {subsection}{\numberline {5.4}Vizualizace korelační matice}{36}{subsection.5.4}}
\newlabel{sub:vizualizace_korela_n_matice}{{5.4}{36}{Vizualizace korelační matice\relax }{subsection.5.4}{}}
\@writefile{lol}{\contentsline {lstlisting}{../R/plotcorr\textunderscore result.txt}{37}{lstlisting.-42}}
\@writefile{lof}{\contentsline {figure}{\numberline {5.4.1}{\ignorespaces Vizualizace korelační matice pomocí funkce \color@fb@x {}{Gray}{}{lightGray}{\fontsize  {9pt}{10pt}{\ttfamily  {plotcorr()}}}\relax }}{37}{figure.caption.36}}
\newlabel{img:plotcorr}{{5.4.1}{37}{Vizualizace korelační matice pomocí funkce \code {plotcorr()}\relax \relax }{figure.caption.36}{}}
\@writefile{lol}{\contentsline {lstlisting}{../R/plotcorr\textunderscore col\textunderscore result.txt}{37}{lstlisting.-43}}
\@writefile{lof}{\contentsline {figure}{\numberline {5.4.2}{\ignorespaces Vizualizace korelační matice pomocí funkce s~využitím barev\relax }}{37}{figure.caption.37}}
\newlabel{img:plotcorr_col}{{5.4.2}{37}{Vizualizace korelační matice pomocí funkce s~využitím barev\relax \relax }{figure.caption.37}{}}
\@writefile{toc}{\contentsline {section}{\numberline {6}Univerzální nastavení a~úpravy grafů}{38}{section.6}}
\newlabel{sec:nastaveni_grafu}{{6}{38}{Univerzální nastavení a~úpravy grafů\relax }{section.6}{}}
\@writefile{toc}{\contentsline {subsection}{\numberline {6.1}Kombinování grafů}{38}{subsection.6.1}}
\newlabel{sub:kombinace_grafu}{{6.1}{38}{Kombinování grafů\relax }{subsection.6.1}{}}
\@writefile{toc}{\contentsline {subsubsection}{\numberline {6.1.1}Více grafů v~jednom obrázku}{38}{subsubsection.6.1.1}}
\newlabel{ssub:v_ce_graf_v_jednom_obr_zku}{{6.1.1}{38}{Více grafů v~jednom obrázku\relax }{subsubsection.6.1.1}{}}
\@writefile{lol}{\contentsline {lstlisting}{../R/mfrow\textunderscore result.txt}{38}{lstlisting.-44}}
\@writefile{lof}{\contentsline {figure}{\numberline {6.1.1}{\ignorespaces Rozdělení grafu do mřížky pomocí \color@fb@x {}{Gray}{}{lightGray}{\fontsize  {9pt}{10pt}{\ttfamily  {mfrow}}}\relax }}{38}{figure.caption.38}}
\newlabel{img:mfrow}{{6.1.1}{38}{Rozdělení grafu do mřížky pomocí \code {mfrow}\relax \relax }{figure.caption.38}{}}
\@writefile{lol}{\contentsline {lstlisting}{../R/layout\textunderscore result.txt}{39}{lstlisting.-45}}
\@writefile{lof}{\contentsline {figure}{\numberline {6.1.2}{\ignorespaces Rozdělení grafu pomocí \color@fb@x {}{Gray}{}{lightGray}{\fontsize  {9pt}{10pt}{\ttfamily  {layout()}}}\relax }}{39}{figure.caption.39}}
\newlabel{img:layout}{{6.1.2}{39}{Rozdělení grafu pomocí \code {layout()}\relax \relax }{figure.caption.39}{}}
\@writefile{toc}{\contentsline {subsection}{\numberline {6.2}Přidání bodů do grafu}{39}{subsection.6.2}}
\newlabel{sub:pridani_bodu}{{6.2}{39}{Přidání bodů do grafu\relax }{subsection.6.2}{}}
\@writefile{toc}{\contentsline {subsection}{\numberline {6.3}Přidání čar do grafu}{39}{subsection.6.3}}
\newlabel{sub:pridani_car}{{6.3}{39}{Přidání čar do grafu\relax }{subsection.6.3}{}}
\@writefile{toc}{\contentsline {subsubsection}{\numberline {6.3.1}Přidání přímky}{39}{subsubsection.6.3.1}}
\newlabel{ssub:p_id_n_p_mky}{{6.3.1}{39}{Přidání přímky\relax }{subsubsection.6.3.1}{}}
\@writefile{lol}{\contentsline {lstlisting}{../R/points\textunderscore result.txt}{40}{lstlisting.-46}}
\@writefile{lof}{\contentsline {figure}{\numberline {6.2.1}{\ignorespaces Přidání bodu do grafu pomocí \color@fb@x {}{Gray}{}{lightGray}{\fontsize  {9pt}{10pt}{\ttfamily  {points()}}}\relax }}{40}{figure.caption.40}}
\newlabel{img:points}{{6.2.1}{40}{Přidání bodu do grafu pomocí \code {points()}\relax \relax }{figure.caption.40}{}}
\@writefile{lol}{\contentsline {lstlisting}{../R/pch\textunderscore symbols\textunderscore result.txt}{40}{lstlisting.-47}}
\@writefile{lof}{\contentsline {figure}{\numberline {6.2.2}{\ignorespaces Seznam základních znaků pro vykreslení bodu a~jejich číselných protějšků\relax }}{40}{figure.caption.41}}
\newlabel{img:pch_symbols}{{6.2.2}{40}{Seznam základních znaků pro vykreslení bodu a~jejich číselných protějšků\relax \relax }{figure.caption.41}{}}
\@writefile{lol}{\contentsline {lstlisting}{../R/abline\textunderscore result.txt}{41}{lstlisting.-48}}
\@writefile{lof}{\contentsline {figure}{\numberline {6.3.1}{\ignorespaces Přidání přímek pomocí \color@fb@x {}{Gray}{}{lightGray}{\fontsize  {9pt}{10pt}{\ttfamily  {abline()}}}\relax }}{41}{figure.caption.42}}
\newlabel{img:abline}{{6.3.1}{41}{Přidání přímek pomocí \code {abline()}\relax \relax }{figure.caption.42}{}}
\@writefile{toc}{\contentsline {subsubsection}{\numberline {6.3.2}Přidání grafu dle předpisu funkce}{41}{subsubsection.6.3.2}}
\newlabel{ssub:p_id_n_grafu_funkce}{{6.3.2}{41}{Přidání grafu dle předpisu funkce\relax }{subsubsection.6.3.2}{}}
\@writefile{toc}{\contentsline {subsubsection}{\numberline {6.3.3}Přidání specifických čar}{41}{subsubsection.6.3.3}}
\newlabel{ssub:funkce_lines}{{6.3.3}{41}{Přidání specifických čar\relax }{subsubsection.6.3.3}{}}
\@writefile{lot}{\contentsline {table}{\numberline {6.3.1}{\ignorespaces Specifické parametry pro funkci lines()\relax }}{41}{table.caption.45}}
\newlabel{tab:lines}{{6.3.1}{41}{Specifické parametry pro funkci lines()\relax \relax }{table.caption.45}{}}
\@writefile{lol}{\contentsline {lstlisting}{../R/curve\textunderscore result.txt}{42}{lstlisting.-49}}
\@writefile{lof}{\contentsline {figure}{\numberline {6.3.2}{\ignorespaces Přidání grafů funkcí do grafu\relax }}{42}{figure.caption.43}}
\newlabel{img:curve}{{6.3.2}{42}{Přidání grafů funkcí do grafu\relax \relax }{figure.caption.43}{}}
\@writefile{lol}{\contentsline {lstlisting}{../R/house\textunderscore result.txt}{42}{lstlisting.-50}}
\@writefile{lof}{\contentsline {figure}{\numberline {6.3.3}{\ignorespaces Propojení bodů pomocí funkce \color@fb@x {}{Gray}{}{lightGray}{\fontsize  {9pt}{10pt}{\ttfamily  {lines()}}}\relax }}{42}{figure.caption.44}}
\newlabel{img:house}{{6.3.3}{42}{Propojení bodů pomocí funkce \code {lines()}\relax \relax }{figure.caption.44}{}}
\@writefile{lol}{\contentsline {lstlisting}{../R/line\textunderscore types\textunderscore result.txt}{43}{lstlisting.-51}}
\@writefile{lof}{\contentsline {figure}{\numberline {6.3.4}{\ignorespaces Seznam možných druhů čar\relax }}{43}{figure.caption.46}}
\newlabel{img:line_types}{{6.3.4}{43}{Seznam možných druhů čar\relax \relax }{figure.caption.46}{}}
\@writefile{toc}{\contentsline {section}{\numberline {7}Vytvořené funkce}{44}{section.7}}
\newlabel{sec:vytvorene_funkce}{{7}{44}{Vytvořené funkce\relax }{section.7}{}}
\@writefile{toc}{\contentsline {subsection}{\numberline {7.1}Rainbow plot funkce}{44}{subsection.7.1}}
\newlabel{sub:plot_rainbow}{{7.1}{44}{Rainbow plot funkce\relax }{subsection.7.1}{}}
\@writefile{lol}{\contentsline {lstlisting}{../R/plot.rainbow\textunderscore function\textunderscore result.txt}{44}{lstlisting.-52}}
\@writefile{toc}{\contentsline {subsection}{\numberline {7.2}Funkce pro tvorbu stromu života}{45}{subsection.7.2}}
\newlabel{sub:plot_life_tree}{{7.2}{45}{Funkce pro tvorbu stromu života\relax }{subsection.7.2}{}}
\@writefile{lol}{\contentsline {lstlisting}{../R/plot.lifeTree\textunderscore function\textunderscore result.txt}{45}{lstlisting.-53}}
\@writefile{toc}{\contentsline {subsection}{\numberline {7.3}Funkce popisující vznik sectioned density plotu}{46}{subsection.7.3}}
\newlabel{sub:tvorba_sec_dens}{{7.3}{46}{Funkce popisující vznik sectioned density plotu\relax }{subsection.7.3}{}}
\@writefile{lol}{\contentsline {lstlisting}{../R/plot.explainSectionedDensity\textunderscore function\textunderscore result.txt}{46}{lstlisting.-54}}
\bibstyle{plain}
\bibdata{biblio}
\@writefile{toc}{\contentsline {section}{\numberline {8}Závěr}{47}{section.8}}
\newlabel{sec:z_v_r}{{8}{47}{Závěr\relax }{section.8}{}}
\bibcite{Rvioplot}{1}
\bibcite{rgl}{2}
\bibcite{sectioned_density}{3}
\bibcite{dalgaard}{4}
\bibcite{kernel}{5}
\bibcite{bpplot}{6}
\bibcite{wordcloud}{7}
\bibcite{fox}{8}
\bibcite{mosaic}{9}
\bibcite{violinplot}{10}
\bibcite{forecast}{11}
\bibcite{demography}{12}
\bibcite{rainbowPlots}{13}
\bibcite{denstrip}{14}
\bibcite{qqplot}{15}
\@writefile{toc}{\contentsline {section}{\numberline {9}Reference}{48}{section.9}}
\bibcite{vcd}{16}
\bibcite{Murdoch1996}{17}
\bibcite{ellipse}{18}
\bibcite{bagplot}{19}
\bibcite{rdoc}{20}
\bibcite{rabout}{21}
\bibcite{Řezáč2007thesis}{22}
\bibcite{scott}{23}
\bibcite{scott1992multivariate}{24}
\bibcite{kerneldensity}{25}
\bibcite{outlierboxplot}{26}
\bibcite{tukey_74_mathematics}{27}
\bibcite{Wand96data-basedchoice}{28}
\bibcite{boxplot}{29}
\bibcite{aplpack}{30}
\citation{forecast}
\@writefile{toc}{\contentsline {section}{\numberline {A}Příloha}{51}{appendix.A}}
\newlabel{sec:p_loha}{{A}{51}{Příloha\relax }{appendix.A}{}}
\@writefile{toc}{\contentsline {subsection}{\numberline {A.1}Použitá data}{51}{subsection.A.1}}
\newlabel{ssec:zdroje_dat}{{A.1}{51}{Použitá data\relax }{subsection.A.1}{}}
\@writefile{toc}{\contentsline {subsubsection}{\numberline {A.1.1}Spotřeba automobilů 2012}{51}{subsubsection.A.1.1}}
\newlabel{data:car_fuel}{{A.1.1}{51}{Spotřeba automobilů 2012\relax }{subsubsection.A.1.1}{}}
\newlabel{eq:fuel_conversion}{{6}{51}{Spotřeba automobilů 2012\relax }{equation.A.6}{}}
\@writefile{lol}{\contentsline {lstlisting}{../R/data\textunderscore fuel\textunderscore result.txt}{51}{lstlisting.-55}}
\@writefile{toc}{\contentsline {subsubsection}{\numberline {A.1.2}Produkce plynu v~Austrálii}{51}{subsubsection.A.1.2}}
\newlabel{data:gas}{{A.1.2}{51}{Produkce plynu v~Austrálii\relax }{subsubsection.A.1.2}{}}
\@writefile{lol}{\contentsline {lstlisting}{../R/data\textunderscore gas\textunderscore result.txt}{51}{lstlisting.-56}}
\citation{demography}
\@writefile{toc}{\contentsline {subsubsection}{\numberline {A.1.3}Návštěvnost ČR}{52}{subsubsection.A.1.3}}
\newlabel{data:navstevnost}{{A.1.3}{52}{Návštěvnost ČR\relax }{subsubsection.A.1.3}{}}
\@writefile{lol}{\contentsline {lstlisting}{../R/data\textunderscore navstevnost\textunderscore result.txt}{52}{lstlisting.-57}}
\@writefile{toc}{\contentsline {subsubsection}{\numberline {A.1.4}Míry úmrtnosti v~ČR}{52}{subsubsection.A.1.4}}
\newlabel{data:mort}{{A.1.4}{52}{Míry úmrtnosti v~ČR\relax }{subsubsection.A.1.4}{}}
\@writefile{lol}{\contentsline {lstlisting}{../R/data\textunderscore mort\textunderscore result.txt}{52}{lstlisting.-58}}
\citation{rdoc}
\citation{rdoc}
\@writefile{toc}{\contentsline {subsubsection}{\numberline {A.1.5}Střední stav populace ČR}{53}{subsubsection.A.1.5}}
\newlabel{data:life_tree}{{A.1.5}{53}{Střední stav populace ČR\relax }{subsubsection.A.1.5}{}}
\@writefile{lol}{\contentsline {lstlisting}{../R/data\textunderscore tree\textunderscore result.txt}{53}{lstlisting.-59}}
\@writefile{toc}{\contentsline {subsubsection}{\numberline {A.1.6}Barva očí a~vlasů}{53}{subsubsection.A.1.6}}
\newlabel{data:haireye}{{A.1.6}{53}{Barva očí a~vlasů\relax }{subsubsection.A.1.6}{}}
\@writefile{lol}{\contentsline {lstlisting}{../R/data\textunderscore haireye\textunderscore result.txt}{53}{lstlisting.-60}}
\@writefile{toc}{\contentsline {subsubsection}{\numberline {A.1.7}Údaje o~automobilech}{54}{subsubsection.A.1.7}}
\newlabel{data:mtcars}{{A.1.7}{54}{Údaje o~automobilech\relax }{subsubsection.A.1.7}{}}
\@writefile{lol}{\contentsline {lstlisting}{../R/data\textunderscore mtcars\textunderscore result.txt}{54}{lstlisting.-61}}
\@writefile{toc}{\contentsline {subsection}{\numberline {A.2}Grafy}{54}{subsection.A.2}}
\newlabel{sub:grafy}{{A.2}{54}{Grafy\relax }{subsection.A.2}{}}
\@writefile{lol}{\contentsline {lstlisting}{../R/kernels\textunderscore result.txt}{54}{lstlisting.-62}}
\@writefile{lof}{\contentsline {figure}{\numberline {A.2.1}{\ignorespaces Vykreslení jádrových funkcí do jednoho souřadnicového systému\relax }}{54}{figure.caption.47}}
\newlabel{img:kernels}{{A.2.1}{54}{Vykreslení jádrových funkcí do jednoho souřadnicového systému\relax \relax }{figure.caption.47}{}}
\@writefile{lol}{\contentsline {lstlisting}{../R/halfspace\textunderscore result.txt}{55}{lstlisting.-63}}
\@writefile{lof}{\contentsline {figure}{\numberline {A.2.2}{\ignorespaces Výpočet hloubky ve dvou rozměrech\relax }}{55}{figure.caption.48}}
\newlabel{img:halfspace}{{A.2.2}{55}{Výpočet hloubky ve dvou rozměrech\relax \relax }{figure.caption.48}{}}
