%!PS-Adobe-3.0 EPSF-3.0
%%DocumentNeededResources: font Helvetica
%%+ font Helvetica-Bold
%%+ font Helvetica-Oblique
%%+ font Helvetica-BoldOblique
%%+ font Symbol
%%Title: R Graphics Output
%%Creator: R Software
%%Pages: (atend)
%%BoundingBox: 0 0 504 504
%%EndComments
%%BeginProlog
/bp  { gs sRGB gs } def
% begin .ps.prolog
/gs  { gsave } bind def
/gr  { grestore } bind def
/ep  { showpage gr gr } bind def
/m   { moveto } bind def
/l  { rlineto } bind def
/np  { newpath } bind def
/cp  { closepath } bind def
/f   { fill } bind def
/o   { stroke } bind def
/c   { newpath 0 360 arc } bind def
/r   { 4 2 roll moveto 1 copy 3 -1 roll exch 0 exch rlineto 0 rlineto -1 mul 0 exch rlineto closepath } bind def
/p1  { stroke } bind def
/p2  { gsave bg fill grestore newpath } bind def
/p3  { gsave bg fill grestore stroke } bind def
/p6  { gsave bg eofill grestore newpath } bind def
/p7  { gsave bg eofill grestore stroke } bind def
/t   { 5 -2 roll moveto gsave rotate
       1 index stringwidth pop
       mul neg 0 rmoveto show grestore } bind def
/ta  { 4 -2 roll moveto gsave rotate show } bind def
/tb  { 2 -1 roll 0 rmoveto show } bind def
/cl  { grestore gsave newpath 3 index 3 index moveto 1 index
       4 -1 roll lineto  exch 1 index lineto lineto
       closepath clip newpath } bind def
/rgb { setrgbcolor } bind def
/s   { scalefont setfont } bind def
% end   .ps.prolog
/sRGB { [ /CIEBasedABC
          << /DecodeLMN
               [ { dup 0.03928 le
                        {12.92321 div}
                        {0.055 add 1.055 div 2.4 exp }
                     ifelse
                 } bind dup dup
               ]
             /MatrixLMN [0.412457 0.212673 0.019334
                         0.357576 0.715152 0.119192
                         0.180437 0.072175 0.950301]
             /WhitePoint [0.9505 1.0 1.0890]
           >>
         ] setcolorspace } bind def
/srgb { setcolor } bind def
%%IncludeResource: font Helvetica
/Helvetica findfont
dup length dict begin
  {1 index /FID ne {def} {pop pop} ifelse} forall
  /Encoding ISOLatin1Encoding def
  currentdict
  end
/Font1 exch definefont pop
%%IncludeResource: font Helvetica-Bold
/Helvetica-Bold findfont
dup length dict begin
  {1 index /FID ne {def} {pop pop} ifelse} forall
  /Encoding ISOLatin1Encoding def
  currentdict
  end
/Font2 exch definefont pop
%%IncludeResource: font Helvetica-Oblique
/Helvetica-Oblique findfont
dup length dict begin
  {1 index /FID ne {def} {pop pop} ifelse} forall
  /Encoding ISOLatin1Encoding def
  currentdict
  end
/Font3 exch definefont pop
%%IncludeResource: font Helvetica-BoldOblique
/Helvetica-BoldOblique findfont
dup length dict begin
  {1 index /FID ne {def} {pop pop} ifelse} forall
  /Encoding ISOLatin1Encoding def
  currentdict
  end
/Font4 exch definefont pop
%%IncludeResource: font Symbol
/Symbol findfont
dup length dict begin
  {1 index /FID ne {def} {pop pop} ifelse} forall
  currentdict
  end
/Font5 exch definefont pop
%%EndProlog
%%Page: 1 1
bp
59.04 325.44 473.76 444.96 cl
0 0 0 srgb
0.75 setlinewidth
[] 0 setdash
1 setlinecap
1 setlinejoin
10.00 setmiterlimit
np
74.40 367.59 m
0 72.94 l
o
np
96.99 367.59 m
0 7.19 l
o
np
119.58 367.59 m
0 -25.57 l
o
np
142.16 367.59 m
0 -6.66 l
o
np
164.75 367.59 m
0 -6.45 l
o
np
187.34 367.59 m
0 -17.25 l
o
np
209.93 367.59 m
0 -6.75 l
o
np
232.52 367.59 m
0 5.69 l
o
np
255.11 367.59 m
0 5.06 l
o
np
277.69 367.59 m
0 10.70 l
o
np
300.28 367.59 m
0 24.64 l
o
np
322.87 367.59 m
0 0.91 l
o
np
345.46 367.59 m
0 -37.72 l
o
np
368.05 367.59 m
0 -3.67 l
o
np
390.64 367.59 m
0 2.54 l
o
np
413.22 367.59 m
0 -6.53 l
o
np
435.81 367.59 m
0 10.53 l
o
np
458.40 367.59 m
0 14.54 l
o
0.00 0.00 504.00 504.00 cl
0 0 0 srgb
0.75 setlinewidth
[] 0 setdash
1 setlinecap
1 setlinejoin
10.00 setmiterlimit
np
74.40 325.44 m
338.82 0 l
o
np
74.40 325.44 m
0 -7.20 l
o
np
187.34 325.44 m
0 -7.20 l
o
np
300.28 325.44 m
0 -7.20 l
o
np
413.22 325.44 m
0 -7.20 l
o
/Font1 findfont 12 s
74.40 299.52 (0) .5 0 t
187.34 299.52 (5) .5 0 t
300.28 299.52 (10) .5 0 t
413.22 299.52 (15) .5 0 t
np
59.04 331.11 m
0 109.42 l
o
np
59.04 331.11 m
-7.20 0 l
o
np
59.04 367.59 m
-7.20 0 l
o
np
59.04 404.06 m
-7.20 0 l
o
np
59.04 440.53 m
-7.20 0 l
o
41.76 331.11 (-0.5) .5 90 t
41.76 367.59 (0.0) .5 90 t
41.76 404.06 (0.5) .5 90 t
41.76 440.53 (1.0) .5 90 t
np
59.04 325.44 m
414.72 0 l
0 119.52 l
-414.72 0 l
0 -119.52 l
o
0.00 252.00 504.00 504.00 cl
/Font1 findfont 12 s
0 0 0 srgb
266.40 270.72 (Lag) .5 0 t
12.96 373.20 (A) 90 ta
-0.360 (CF) tb gr
59.04 325.44 473.76 444.96 cl
0 0 0 srgb
0.75 setlinewidth
[] 0 setdash
1 setlinecap
1 setlinejoin
10.00 setmiterlimit
np
59.04 367.59 m
414.72 0 l
o
0 0 1 srgb
0.75 setlinewidth
[ 2.25 3.75] 0 setdash
np
59.04 386.04 m
414.72 0 l
o
np
59.04 349.13 m
414.72 0 l
o
0.00 252.00 504.00 504.00 cl
/Font2 findfont 14 s
0 0 0 srgb
266.40 473.76 (Series  random) .5 0 t
59.04 73.44 473.76 192.96 cl
59.04 73.44 473.76 192.96 cl
0 0 0 srgb
0.75 setlinewidth
[] 0 setdash
1 setlinecap
1 setlinejoin
10.00 setmiterlimit
np
74.40 145.62 m
0 16.73 l
o
np
98.40 145.62 m
0 -61.69 l
o
np
122.40 145.62 m
0 -1.63 l
o
np
146.40 145.62 m
0 -39.97 l
o
np
170.40 145.62 m
0 -49.15 l
o
np
194.40 145.62 m
0 -38.34 l
o
np
218.40 145.62 m
0 -36.27 l
o
np
242.40 145.62 m
0 -36.65 l
o
np
266.40 145.62 m
0 -12.19 l
o
np
290.40 145.62 m
0 38.98 l
o
np
314.40 145.62 m
0 3.56 l
o
np
338.40 145.62 m
0 -67.75 l
o
np
362.40 145.62 m
0 14.99 l
o
np
386.40 145.62 m
0 -53.55 l
o
np
410.40 145.62 m
0 -10.88 l
o
np
434.40 145.62 m
0 9.41 l
o
np
458.40 145.62 m
0 -19.09 l
o
0.00 0.00 504.00 504.00 cl
0 0 0 srgb
0.75 setlinewidth
[] 0 setdash
1 setlinecap
1 setlinejoin
10.00 setmiterlimit
np
170.40 73.44 m
240.00 0 l
o
np
170.40 73.44 m
0 -7.20 l
o
np
290.40 73.44 m
0 -7.20 l
o
np
410.40 73.44 m
0 -7.20 l
o
/Font1 findfont 12 s
170.40 47.52 (5) .5 0 t
290.40 47.52 (10) .5 0 t
410.40 47.52 (15) .5 0 t
np
59.04 77.78 m
0 101.76 l
o
np
59.04 77.78 m
-7.20 0 l
o
np
59.04 94.74 m
-7.20 0 l
o
np
59.04 111.70 m
-7.20 0 l
o
np
59.04 128.66 m
-7.20 0 l
o
np
59.04 145.62 m
-7.20 0 l
o
np
59.04 162.58 m
-7.20 0 l
o
np
59.04 179.54 m
-7.20 0 l
o
41.76 77.78 (-0.4) .5 90 t
41.76 111.70 (-0.2) .5 90 t
41.76 145.62 (0.0) .5 90 t
41.76 179.54 (0.2) .5 90 t
np
59.04 73.44 m
414.72 0 l
0 119.52 l
-414.72 0 l
0 -119.52 l
o
0.00 0.00 504.00 252.00 cl
/Font1 findfont 12 s
0 0 0 srgb
266.40 18.72 (Lag) .5 0 t
12.96 102.53 (P) 90 ta
-0.480 (ar) tb
0.480 (tial A) tb
-0.360 (CF) tb gr
59.04 73.44 473.76 192.96 cl
0 0 0 srgb
0.75 setlinewidth
[] 0 setdash
1 setlinecap
1 setlinejoin
10.00 setmiterlimit
np
59.04 145.62 m
414.72 0 l
o
0 0 1 srgb
0.75 setlinewidth
[ 2.25 3.75] 0 setdash
np
59.04 188.53 m
414.72 0 l
o
np
59.04 102.71 m
414.72 0 l
o
0.00 0.00 504.00 252.00 cl
/Font2 findfont 14 s
0 0 0 srgb
266.40 221.76 (Series  random) .5 0 t
ep
%%Trailer
%%Pages: 1
%%EOF
