%!PS-Adobe-3.0 EPSF-3.0
%%DocumentNeededResources: font Helvetica
%%+ font Helvetica-Bold
%%+ font Helvetica-Oblique
%%+ font Helvetica-BoldOblique
%%+ font Symbol
%%Title: R Graphics Output
%%Creator: R Software
%%Pages: (atend)
%%BoundingBox: 0 0 504 504
%%EndComments
%%BeginProlog
/bp  { gs sRGB gs } def
% begin .ps.prolog
/gs  { gsave } bind def
/gr  { grestore } bind def
/ep  { showpage gr gr } bind def
/m   { moveto } bind def
/l  { rlineto } bind def
/np  { newpath } bind def
/cp  { closepath } bind def
/f   { fill } bind def
/o   { stroke } bind def
/c   { newpath 0 360 arc } bind def
/r   { 4 2 roll moveto 1 copy 3 -1 roll exch 0 exch rlineto 0 rlineto -1 mul 0 exch rlineto closepath } bind def
/p1  { stroke } bind def
/p2  { gsave bg fill grestore newpath } bind def
/p3  { gsave bg fill grestore stroke } bind def
/p6  { gsave bg eofill grestore newpath } bind def
/p7  { gsave bg eofill grestore stroke } bind def
/t   { 5 -2 roll moveto gsave rotate
       1 index stringwidth pop
       mul neg 0 rmoveto show grestore } bind def
/ta  { 4 -2 roll moveto gsave rotate show } bind def
/tb  { 2 -1 roll 0 rmoveto show } bind def
/cl  { grestore gsave newpath 3 index 3 index moveto 1 index
       4 -1 roll lineto  exch 1 index lineto lineto
       closepath clip newpath } bind def
/rgb { setrgbcolor } bind def
/s   { scalefont setfont } bind def
% end   .ps.prolog
/sRGB { [ /CIEBasedABC
          << /DecodeLMN
               [ { dup 0.03928 le
                        {12.92321 div}
                        {0.055 add 1.055 div 2.4 exp }
                     ifelse
                 } bind dup dup
               ]
             /MatrixLMN [0.412457 0.212673 0.019334
                         0.357576 0.715152 0.119192
                         0.180437 0.072175 0.950301]
             /WhitePoint [0.9505 1.0 1.0890]
           >>
         ] setcolorspace } bind def
/srgb { setcolor } bind def
%%IncludeResource: font Helvetica
/Helvetica findfont
dup length dict begin
  {1 index /FID ne {def} {pop pop} ifelse} forall
  /Encoding ISOLatin1Encoding def
  currentdict
  end
/Font1 exch definefont pop
%%IncludeResource: font Helvetica-Bold
/Helvetica-Bold findfont
dup length dict begin
  {1 index /FID ne {def} {pop pop} ifelse} forall
  /Encoding ISOLatin1Encoding def
  currentdict
  end
/Font2 exch definefont pop
%%IncludeResource: font Helvetica-Oblique
/Helvetica-Oblique findfont
dup length dict begin
  {1 index /FID ne {def} {pop pop} ifelse} forall
  /Encoding ISOLatin1Encoding def
  currentdict
  end
/Font3 exch definefont pop
%%IncludeResource: font Helvetica-BoldOblique
/Helvetica-BoldOblique findfont
dup length dict begin
  {1 index /FID ne {def} {pop pop} ifelse} forall
  /Encoding ISOLatin1Encoding def
  currentdict
  end
/Font4 exch definefont pop
%%IncludeResource: font Symbol
/Symbol findfont
dup length dict begin
  {1 index /FID ne {def} {pop pop} ifelse} forall
  currentdict
  end
/Font5 exch definefont pop
%%EndProlog
%%Page: 1 1
bp
0.00 0.00 504.00 504.00 cl
0 0 0 srgb
0.75 setlinewidth
[] 0 setdash
1 setlinecap
1 setlinejoin
10.00 setmiterlimit
np
59.04 87.20 m
0 344.00 l
o
np
59.04 87.20 m
-7.20 0 l
o
np
59.04 173.20 m
-7.20 0 l
o
np
59.04 259.20 m
-7.20 0 l
o
np
59.04 345.20 m
-7.20 0 l
o
np
59.04 431.20 m
-7.20 0 l
o
/Font1 findfont 12 s
41.76 87.20 (-4) .5 90 t
41.76 173.20 (-2) .5 90 t
41.76 259.20 (0) .5 90 t
41.76 345.20 (2) .5 90 t
41.76 431.20 (4) .5 90 t
0.00 0.00 252.00 504.00 cl
/Font1 findfont 12 s
0 0 0 srgb
140.40 18.72 (x) .5 0 t
12.96 259.20 (y) .5 90 t
59.04 73.44 221.76 444.96 cl
0 0 0 srgb
0.75 setlinewidth
[] 0 setdash
1 setlinecap
1 setlinejoin
10.00 setmiterlimit
np
164.64 184.36 m
-11.12 -32.24 l
-9.94 -10.21 l
-3.84 -3.88 l
-23.46 33.48 l
-4.90 87.23 l
-1.12 29.56 l
4.62 25.52 l
7.34 32.93 l
1.91 3.51 l
19.20 26.57 l
7.29 4.85 l
2.67 -6.83 l
7.44 -24.80 l
1.87 -11.30 l
2.68 -34.71 l
1.94 -70.82 l
-2.58 -48.86 l
o
/bg { 0.6667 0.8000 1 srgb } def
np
 164.64 184.36 m
-11.12 -32.24 l
-9.94 -10.21 l
-3.84 -3.88 l
-23.46 33.48 l
-4.90 87.23 l
-1.12 29.56 l
4.62 25.52 l
7.34 32.93 l
1.91 3.51 l
19.20 26.57 l
7.29 4.85 l
2.67 -6.83 l
7.44 -24.80 l
1.87 -11.30 l
2.68 -34.71 l
1.94 -70.82 l
cp p3
/bg { 0.2000 0.3333 1 srgb } def
150.29 210.77 1.08 c p2
152.96 270.30 1.08 c p2
154.88 270.11 1.08 c p2
127.70 341.12 1.08 c p2
148.53 193.27 1.08 c p2
147.38 302.65 1.08 c p2
160.41 254.29 1.08 c p2
126.31 258.86 1.08 c p2
133.81 308.24 1.08 c p2
165.28 304.04 1.08 c p2
132.50 201.94 1.08 c p2
146.42 222.47 1.08 c p2
143.68 162.20 1.08 c p2
155.80 223.84 1.08 c p2
139.22 216.57 1.08 c p2
123.88 255.50 1.08 c p2
155.20 190.62 1.08 c p2
141.55 211.38 1.08 c p2
147.44 199.75 1.08 c p2
130.04 265.40 1.08 c p2
148.04 226.51 1.08 c p2
144.20 173.85 1.08 c p2
138.88 327.27 1.08 c p2
136.69 221.43 1.08 c p2
154.56 262.20 1.08 c p2
122.51 285.25 1.08 c p2
129.57 281.86 1.08 c p2
152.20 290.11 1.08 c p2
157.73 303.06 1.08 c p2
133.04 184.19 1.08 c p2
126.71 237.94 1.08 c p2
144.99 181.87 1.08 c p2
135.50 213.82 1.08 c p2
155.45 303.40 1.08 c p2
128.23 282.16 1.08 c p2
133.42 302.98 1.08 c p2
134.17 302.92 1.08 c p2
125.39 257.32 1.08 c p2
148.83 324.56 1.08 c p2
155.17 247.91 1.08 c p2
153.07 357.61 1.08 c p2
130.67 317.75 1.08 c p2
135.97 209.60 1.08 c p2
144.70 208.56 1.08 c p2
155.30 286.62 1.08 c p2
162.77 312.66 1.08 c p2
133.80 183.34 1.08 c p2
160.61 290.42 1.08 c p2
129.73 196.99 1.08 c p2
141.43 321.35 1.08 c p2
120.08 204.93 1.08 c p2
141.92 176.94 1.08 c p2
130.50 230.42 1.08 c p2
136.21 320.28 1.08 c p2
143.25 205.41 1.08 c p2
119.20 217.74 1.08 c p2
138.06 357.30 1.08 c p2
156.14 277.72 1.08 c p2
153.22 168.39 1.08 c p2
138.36 213.26 1.08 c p2
141.48 193.68 1.08 c p2
144.77 201.02 1.08 c p2
120.73 291.38 1.08 c p2
158.39 192.72 1.08 c p2
144.38 319.74 1.08 c p2
147.95 180.78 1.08 c p2
151.59 183.30 1.08 c p2
121.23 276.62 1.08 c p2
124.04 244.55 1.08 c p2
142.90 323.18 1.08 c p2
131.12 229.29 1.08 c p2
135.01 202.54 1.08 c p2
132.16 316.27 1.08 c p2
116.64 270.39 1.08 c p2
147.62 174.25 1.08 c p2
141.39 370.60 1.08 c p2
134.66 357.08 1.08 c p2
144.80 222.82 1.08 c p2
140.46 318.07 1.08 c p2
138.32 345.30 1.08 c p2
159.16 254.92 1.08 c p2
143.89 215.81 1.08 c p2
141.20 208.66 1.08 c p2
129.00 258.57 1.08 c p2
124.28 247.10 1.08 c p2
132.27 346.67 1.08 c p2
151.75 351.15 1.08 c p2
128.23 307.72 1.08 c p2
153.71 290.40 1.08 c p2
153.90 225.34 1.08 c p2
148.40 301.74 1.08 c p2
139.88 195.65 1.08 c p2
153.71 344.96 1.08 c p2
136.23 218.72 1.08 c p2
124.63 337.57 1.08 c p2
131.14 192.15 1.08 c p2
164.82 237.50 1.08 c p2
121.19 334.20 1.08 c p2
149.96 170.90 1.08 c p2
144.66 207.95 1.08 c p2
126.38 248.05 1.08 c p2
153.37 291.20 1.08 c p2
135.34 330.54 1.08 c p2
116.28 171.51 1.08 c p2
122.97 305.69 1.08 c p2
153.42 219.73 1.08 c p2
154.74 222.66 1.08 c p2
155.08 282.46 1.08 c p2
161.34 275.32 1.08 c p2
151.79 210.89 1.08 c p2
126.98 241.76 1.08 c p2
124.70 220.19 1.08 c p2
160.13 274.31 1.08 c p2
144.95 195.00 1.08 c p2
135.38 336.03 1.08 c p2
147.23 312.51 1.08 c p2
137.12 335.27 1.08 c p2
143.95 152.84 1.08 c p2
135.48 316.85 1.08 c p2
152.63 255.87 1.08 c p2
151.63 236.35 1.08 c p2
162.64 274.67 1.08 c p2
144.80 343.15 1.08 c p2
161.44 225.23 1.08 c p2
135.74 163.25 1.08 c p2
129.95 252.41 1.08 c p2
159.06 228.97 1.08 c p2
126.25 298.08 1.08 c p2
117.80 257.28 1.08 c p2
164.92 283.74 1.08 c p2
135.03 214.99 1.08 c p2
153.27 288.61 1.08 c p2
152.45 310.06 1.08 c p2
114.87 229.29 1.08 c p2
161.18 262.18 1.08 c p2
120.50 281.68 1.08 c p2
126.93 283.22 1.08 c p2
133.04 312.91 1.08 c p2
158.05 195.81 1.08 c p2
135.95 309.21 1.08 c p2
137.48 175.13 1.08 c p2
139.96 202.83 1.08 c p2
134.64 197.07 1.08 c p2
146.84 347.74 1.08 c p2
149.26 178.88 1.08 c p2
148.55 303.71 1.08 c p2
137.99 201.74 1.08 c p2
145.68 152.51 1.08 c p2
147.89 229.05 1.08 c p2
158.65 206.94 1.08 c p2
153.19 252.68 1.08 c p2
125.57 294.80 1.08 c p2
141.41 319.30 1.08 c p2
131.85 174.33 1.08 c p2
141.68 208.44 1.08 c p2
121.07 240.29 1.08 c p2
130.01 299.45 1.08 c p2
139.49 325.31 1.08 c p2
123.21 212.42 1.08 c p2
130.42 229.28 1.08 c p2
127.54 180.26 1.08 c p2
138.89 315.05 1.08 c p2
130.58 308.58 1.08 c p2
154.84 264.45 1.08 c p2
136.45 170.74 1.08 c p2
129.90 321.13 1.08 c p2
154.64 255.52 1.08 c p2
138.89 196.26 1.08 c p2
130.03 283.59 1.08 c p2
136.02 327.70 1.08 c p2
125.60 327.80 1.08 c p2
144.01 217.37 1.08 c p2
152.28 198.39 1.08 c p2
158.56 261.84 1.08 c p2
128.18 187.36 1.08 c p2
156.97 306.60 1.08 c p2
141.35 214.61 1.08 c p2
130.21 325.76 1.08 c p2
134.27 317.29 1.08 c p2
146.46 350.61 1.08 c p2
129.08 155.90 1.08 c p2
129.21 171.98 1.08 c p2
167.22 233.22 1.08 c p2
124.13 350.26 1.08 c p2
138.87 313.38 1.08 c p2
143.38 316.25 1.08 c p2
117.06 288.46 1.08 c p2
158.87 325.88 1.08 c p2
142.42 327.58 1.08 c p2
143.56 326.30 1.08 c p2
137.66 168.90 1.08 c p2
122.22 346.75 1.08 c p2
129.48 224.40 1.08 c p2
162.31 314.97 1.08 c p2
139.31 355.72 1.08 c p2
129.86 307.36 1.08 c p2
123.01 260.72 1.08 c p2
146.48 211.24 1.08 c p2
133.53 309.02 1.08 c p2
155.80 271.40 1.08 c p2
127.84 201.81 1.08 c p2
143.51 219.10 1.08 c p2
161.35 227.12 1.08 c p2
161.64 225.71 1.08 c p2
146.58 331.28 1.08 c p2
130.47 197.47 1.08 c p2
116.12 260.36 1.08 c p2
128.49 307.33 1.08 c p2
145.26 208.37 1.08 c p2
134.55 211.99 1.08 c p2
128.23 188.88 1.08 c p2
144.34 327.45 1.08 c p2
152.47 205.54 1.08 c p2
165.03 223.35 1.08 c p2
132.86 231.01 1.08 c p2
159.93 221.06 1.08 c p2
120.21 229.76 1.08 c p2
133.92 303.04 1.08 c p2
136.54 322.94 1.08 c p2
152.44 187.80 1.08 c p2
154.16 281.10 1.08 c p2
131.02 225.52 1.08 c p2
156.04 269.17 1.08 c p2
132.61 309.30 1.08 c p2
155.93 236.04 1.08 c p2
159.52 305.40 1.08 c p2
141.29 333.39 1.08 c p2
152.02 285.53 1.08 c p2
129.77 292.99 1.08 c p2
146.54 205.08 1.08 c p2
120.40 251.53 1.08 c p2
154.21 263.57 1.08 c p2
134.24 343.48 1.08 c p2
129.82 253.67 1.08 c p2
111.38 258.74 1.08 c p2
127.95 230.85 1.08 c p2
152.73 256.92 1.08 c p2
124.85 297.27 1.08 c p2
128.54 229.42 1.08 c p2
156.25 284.17 1.08 c p2
143.39 331.47 1.08 c p2
145.85 178.09 1.08 c p2
145.67 213.22 1.08 c p2
126.63 280.01 1.08 c p2
125.81 243.83 1.08 c p2
144.04 349.07 1.08 c p2
154.29 232.55 1.08 c p2
144.63 210.93 1.08 c p2
155.88 230.49 1.08 c p2
129.43 331.21 1.08 c p2
114.88 313.82 1.08 c p2
139.64 334.58 1.08 c p2
145.04 191.05 1.08 c p2
138.31 183.75 1.08 c p2
120.30 255.69 1.08 c p2
137.95 187.33 1.08 c p2
129.35 240.72 1.08 c p2
120.01 250.71 1.08 c p2
140.07 187.02 1.08 c p2
148.94 319.35 1.08 c p2
123.15 302.82 1.08 c p2
121.64 245.91 1.08 c p2
133.44 215.68 1.08 c p2
129.64 280.58 1.08 c p2
145.52 213.59 1.08 c p2
123.42 250.35 1.08 c p2
126.52 253.29 1.08 c p2
122.14 319.33 1.08 c p2
139.09 186.39 1.08 c p2
149.73 233.33 1.08 c p2
156.79 253.70 1.08 c p2
156.08 292.51 1.08 c p2
160.53 275.81 1.08 c p2
132.35 200.42 1.08 c p2
144.35 212.60 1.08 c p2
161.08 257.13 1.08 c p2
130.10 251.04 1.08 c p2
150.32 222.48 1.08 c p2
143.04 214.77 1.08 c p2
153.42 280.69 1.08 c p2
115.83 288.70 1.08 c p2
151.61 176.02 1.08 c p2
126.96 270.12 1.08 c p2
121.70 189.89 1.08 c p2
159.60 333.84 1.08 c p2
146.43 200.84 1.08 c p2
144.87 311.50 1.08 c p2
151.46 224.80 1.08 c p2
157.18 237.09 1.08 c p2
158.57 235.84 1.08 c p2
148.38 348.09 1.08 c p2
142.41 310.93 1.08 c p2
132.77 219.06 1.08 c p2
135.67 174.41 1.08 c p2
122.19 314.92 1.08 c p2
158.85 332.17 1.08 c p2
149.91 222.58 1.08 c p2
127.28 261.18 1.08 c p2
150.76 213.15 1.08 c p2
131.39 229.76 1.08 c p2
140.16 174.90 1.08 c p2
153.19 224.57 1.08 c p2
147.22 219.81 1.08 c p2
153.79 204.12 1.08 c p2
147.29 308.12 1.08 c p2
118.97 187.82 1.08 c p2
124.67 308.93 1.08 c p2
131.55 155.68 1.08 c p2
123.87 316.00 1.08 c p2
134.13 314.40 1.08 c p2
129.99 227.45 1.08 c p2
143.35 197.48 1.08 c p2
144.43 313.31 1.08 c p2
150.54 342.19 1.08 c p2
128.83 190.72 1.08 c p2
124.23 298.18 1.08 c p2
143.38 329.32 1.08 c p2
149.35 194.90 1.08 c p2
130.13 298.23 1.08 c p2
129.61 261.00 1.08 c p2
146.05 219.28 1.08 c p2
131.17 312.32 1.08 c p2
128.31 220.86 1.08 c p2
123.21 286.11 1.08 c p2
127.87 276.80 1.08 c p2
152.60 307.90 1.08 c p2
122.70 259.60 1.08 c p2
141.44 317.33 1.08 c p2
141.43 189.67 1.08 c p2
160.73 350.05 1.08 c p2
158.67 252.67 1.08 c p2
159.70 277.95 1.08 c p2
127.73 215.54 1.08 c p2
128.66 234.36 1.08 c p2
149.23 214.71 1.08 c p2
134.66 211.33 1.08 c p2
131.53 334.20 1.08 c p2
139.66 170.51 1.08 c p2
138.57 201.82 1.08 c p2
128.06 281.11 1.08 c p2
140.02 183.21 1.08 c p2
143.45 218.95 1.08 c p2
153.70 322.29 1.08 c p2
145.47 218.84 1.08 c p2
134.72 327.42 1.08 c p2
141.10 325.64 1.08 c p2
124.46 287.92 1.08 c p2
143.34 314.30 1.08 c p2
115.68 267.37 1.08 c p2
122.26 218.67 1.08 c p2
126.95 263.49 1.08 c p2
147.56 184.98 1.08 c p2
151.36 237.83 1.08 c p2
145.84 167.88 1.08 c p2
141.54 199.47 1.08 c p2
122.06 187.75 1.08 c p2
133.14 323.54 1.08 c p2
124.05 258.71 1.08 c p2
116.29 250.49 1.08 c p2
156.37 290.27 1.08 c p2
157.63 253.18 1.08 c p2
137.26 324.53 1.08 c p2
145.34 201.59 1.08 c p2
133.09 315.69 1.08 c p2
150.92 211.19 1.08 c p2
145.56 212.36 1.08 c p2
136.76 348.97 1.08 c p2
142.30 318.45 1.08 c p2
153.23 357.14 1.08 c p2
145.62 313.08 1.08 c p2
153.08 283.49 1.08 c p2
131.37 191.68 1.08 c p2
139.74 340.75 1.08 c p2
132.64 199.79 1.08 c p2
132.84 311.49 1.08 c p2
123.36 240.22 1.08 c p2
142.59 320.39 1.08 c p2
150.88 297.65 1.08 c p2
156.81 298.91 1.08 c p2
138.20 180.08 1.08 c p2
136.90 314.92 1.08 c p2
151.42 199.38 1.08 c p2
156.95 355.23 1.08 c p2
128.83 224.45 1.08 c p2
131.51 221.29 1.08 c p2
135.97 210.53 1.08 c p2
142.33 317.55 1.08 c p2
150.94 235.47 1.08 c p2
155.44 271.72 1.08 c p2
139.73 317.88 1.08 c p2
149.69 231.02 1.08 c p2
128.08 235.93 1.08 c p2
164.64 184.36 1.08 c p2
148.15 229.97 1.08 c p2
143.50 208.85 1.08 c p2
153.23 284.28 1.08 c p2
136.49 193.04 1.08 c p2
118.66 269.44 1.08 c p2
120.14 244.18 1.08 c p2
128.69 295.21 1.08 c p2
113.73 285.11 1.08 c p2
136.41 219.68 1.08 c p2
125.38 289.42 1.08 c p2
125.28 235.21 1.08 c p2
154.82 273.68 1.08 c p2
155.02 347.60 1.08 c p2
126.99 255.89 1.08 c p2
153.75 222.50 1.08 c p2
131.23 226.80 1.08 c p2
126.32 265.01 1.08 c p2
154.07 288.04 1.08 c p2
130.24 261.93 1.08 c p2
153.09 283.93 1.08 c p2
129.05 235.90 1.08 c p2
127.50 200.27 1.08 c p2
139.79 182.26 1.08 c p2
135.62 174.53 1.08 c p2
125.50 289.74 1.08 c p2
152.62 231.83 1.08 c p2
131.03 228.43 1.08 c p2
129.60 215.97 1.08 c p2
133.02 344.54 1.08 c p2
150.10 212.96 1.08 c p2
139.66 330.87 1.08 c p2
141.65 312.90 1.08 c p2
118.93 299.59 1.08 c p2
153.48 242.95 1.08 c p2
145.93 308.47 1.08 c p2
130.27 256.01 1.08 c p2
149.52 310.66 1.08 c p2
164.92 276.57 1.08 c p2
123.59 300.32 1.08 c p2
130.46 304.46 1.08 c p2
156.83 263.75 1.08 c p2
133.54 315.32 1.08 c p2
150.62 381.68 1.08 c p2
159.32 216.33 1.08 c p2
150.82 189.91 1.08 c p2
159.03 264.96 1.08 c p2
156.32 244.97 1.08 c p2
155.91 267.62 1.08 c p2
145.64 306.73 1.08 c p2
146.23 217.86 1.08 c p2
145.41 215.53 1.08 c p2
114.32 306.74 1.08 c p2
142.48 214.09 1.08 c p2
136.54 313.60 1.08 c p2
152.89 223.63 1.08 c p2
153.52 152.12 1.08 c p2
133.58 223.03 1.08 c p2
139.74 138.03 1.08 c p2
131.11 343.09 1.08 c p2
152.24 276.58 1.08 c p2
146.47 312.29 1.08 c p2
137.27 313.40 1.08 c p2
162.60 338.75 1.08 c p2
133.21 298.55 1.08 c p2
142.39 212.00 1.08 c p2
129.80 258.78 1.08 c p2
121.11 280.19 1.08 c p2
134.95 171.10 1.08 c p2
125.34 190.60 1.08 c p2
123.85 276.90 1.08 c p2
138.48 351.58 1.08 c p2
139.90 161.11 1.08 c p2
149.51 185.44 1.08 c p2
157.93 229.42 1.08 c p2
134.99 315.70 1.08 c p2
159.93 290.37 1.08 c p2
150.90 227.61 1.08 c p2
153.84 293.80 1.08 c p2
133.06 154.56 1.08 c p2
149.91 194.60 1.08 c p2
120.90 238.16 1.08 c p2
139.87 208.33 1.08 c p2
136.43 324.68 1.08 c p2
150.92 212.94 1.08 c p2
121.34 283.36 1.08 c p2
161.34 273.15 1.08 c p2
135.26 206.93 1.08 c p2
153.29 374.85 1.08 c p2
139.38 316.57 1.08 c p2
145.18 219.23 1.08 c p2
148.92 194.28 1.08 c p2
125.42 260.21 1.08 c p2
129.55 268.81 1.08 c p2
126.94 275.18 1.08 c p2
147.21 199.51 1.08 c p2
132.42 182.85 1.08 c p2
120.21 323.51 1.08 c p2
135.02 351.08 1.08 c p2
146.31 224.53 1.08 c p2
140.50 202.77 1.08 c p2
127.14 317.49 1.08 c p2
153.38 240.20 1.08 c p2
157.13 283.36 1.08 c p2
154.41 353.23 1.08 c p2
152.16 299.99 1.08 c p2
119.77 287.37 1.08 c p2
157.00 210.74 1.08 c p2
126.24 231.05 1.08 c p2
151.55 211.79 1.08 c p2
114.12 217.96 1.08 c p2
149.01 305.52 1.08 c p2
153.10 190.88 1.08 c p2
122.49 188.35 1.08 c p2
155.39 259.57 1.08 c p2
123.41 280.01 1.08 c p2
140.31 215.02 1.08 c p2
158.26 265.91 1.08 c p2
152.57 251.45 1.08 c p2
127.11 256.64 1.08 c p2
132.62 197.04 1.08 c p2
133.72 189.61 1.08 c p2
132.60 229.75 1.08 c p2
147.53 170.36 1.08 c p2
150.51 210.79 1.08 c p2
145.32 176.03 1.08 c p2
124.58 265.24 1.08 c p2
143.58 141.91 1.08 c p2
126.70 260.45 1.08 c p2
125.06 248.46 1.08 c p2
159.46 266.27 1.08 c p2
142.71 207.69 1.08 c p2
131.95 212.79 1.08 c p2
156.51 250.68 1.08 c p2
155.71 264.20 1.08 c p2
124.47 227.76 1.08 c p2
157.99 214.93 1.08 c p2
134.82 330.29 1.08 c p2
153.39 343.49 1.08 c p2
163.18 255.43 1.08 c p2
126.56 238.66 1.08 c p2
144.28 337.62 1.08 c p2
122.17 188.50 1.08 c p2
133.77 174.87 1.08 c p2
110.26 288.30 1.08 c p2
137.26 186.47 1.08 c p2
130.51 201.85 1.08 c p2
145.51 216.74 1.08 c p2
153.62 256.59 1.08 c p2
127.23 254.92 1.08 c p2
162.87 288.27 1.08 c p2
123.56 288.73 1.08 c p2
144.89 222.31 1.08 c p2
150.16 223.19 1.08 c p2
136.80 210.49 1.08 c p2
131.30 163.02 1.08 c p2
149.13 311.46 1.08 c p2
135.82 318.79 1.08 c p2
143.33 376.83 1.08 c p2
159.64 297.76 1.08 c p2
121.88 250.55 1.08 c p2
137.37 198.21 1.08 c p2
164.25 285.58 1.08 c p2
160.46 323.48 1.08 c p2
143.58 206.83 1.08 c p2
152.40 251.76 1.08 c p2
147.94 305.13 1.08 c p2
125.23 261.38 1.08 c p2
127.24 226.67 1.08 c p2
np
152.37 252.04 m
-0.05 -1.49 l
-2.67 -15.95 l
-0.39 -1.98 l
-0.53 -1.24 l
-2.47 -4.85 l
-5.07 -9.96 l
-0.08 0 l
-0.85 0.52 l
-0.52 0.32 l
-1.91 1.79 l
-3.01 7.08 l
-1.29 3.58 l
-0.90 2.91 l
-1.56 11.00 l
-0.16 1.35 l
-0.20 2.09 l
-0.07 2.02 l
-0.12 3.18 l
-0.46 25.00 l
0 0.08 l
0.45 8.00 l
0.69 5.80 l
1.06 4.02 l
5.02 16.30 l
0.60 1.41 l
0.36 -0.22 l
5.69 -3.50 l
0.26 -0.24 l
0.06 -0.09 l
2.70 -5.30 l
0.26 -0.63 l
2.04 -6.62 l
0.78 -5.47 l
2.02 -21.00 l
0.41 -4.26 l
0.25 -4.50 l
-0.34 -9.15 l
o
/bg { 0.4667 0.6000 1 srgb } def
np
 152.37 252.04 m
-0.05 -1.49 l
-2.67 -15.95 l
-0.39 -1.98 l
-0.53 -1.24 l
-2.47 -4.85 l
-5.07 -9.96 l
-0.08 0 l
-0.85 0.52 l
-0.52 0.32 l
-1.91 1.79 l
-3.01 7.08 l
-1.29 3.58 l
-0.90 2.91 l
-1.56 11.00 l
-0.16 1.35 l
-0.20 2.09 l
-0.07 2.02 l
-0.12 3.18 l
-0.46 25.00 l
0 0.08 l
0.45 8.00 l
0.69 5.80 l
1.06 4.02 l
5.02 16.30 l
0.60 1.41 l
0.36 -0.22 l
5.69 -3.50 l
0.26 -0.24 l
0.06 -0.09 l
2.70 -5.30 l
0.26 -0.63 l
2.04 -6.62 l
0.78 -5.47 l
2.02 -21.00 l
0.41 -4.26 l
0.25 -4.50 l
cp p3
/bg { 0 0 0.5333 srgb } def
149.69 274.96 1.08 c p2
142.28 238.68 1.08 c p2
151.02 268.36 1.08 c p2
140.00 224.49 1.08 c p2
139.03 269.82 1.08 c p2
139.22 264.87 1.08 c p2
140.43 272.91 1.08 c p2
144.43 272.15 1.08 c p2
143.77 279.63 1.08 c p2
146.75 271.08 1.08 c p2
135.09 289.13 1.08 c p2
134.06 242.40 1.08 c p2
135.17 294.49 1.08 c p2
139.37 264.56 1.08 c p2
144.21 299.50 1.08 c p2
143.69 273.65 1.08 c p2
148.14 236.09 1.08 c p2
142.39 289.87 1.08 c p2
148.39 269.50 1.08 c p2
134.87 285.07 1.08 c p2
144.14 273.22 1.08 c p2
147.13 256.53 1.08 c p2
135.68 258.33 1.08 c p2
134.24 280.16 1.08 c p2
138.77 281.67 1.08 c p2
133.06 237.90 1.08 c p2
146.63 252.25 1.08 c p2
141.51 249.17 1.08 c p2
148.11 253.63 1.08 c p2
147.44 264.18 1.08 c p2
142.00 242.97 1.08 c p2
146.37 229.79 1.08 c p2
136.30 244.79 1.08 c p2
149.06 269.44 1.08 c p2
139.68 246.95 1.08 c p2
131.04 264.75 1.08 c p2
145.69 241.12 1.08 c p2
142.01 270.62 1.08 c p2
142.38 229.75 1.08 c p2
131.97 262.09 1.08 c p2
146.73 270.68 1.08 c p2
150.97 261.39 1.08 c p2
143.56 275.57 1.08 c p2
131.84 290.52 1.08 c p2
140.20 273.67 1.08 c p2
137.27 267.41 1.08 c p2
139.14 268.85 1.08 c p2
145.49 236.71 1.08 c p2
143.52 274.59 1.08 c p2
147.04 248.47 1.08 c p2
133.40 250.77 1.08 c p2
148.49 268.75 1.08 c p2
141.22 241.29 1.08 c p2
150.59 267.15 1.08 c p2
141.86 263.09 1.08 c p2
138.53 309.07 1.08 c p2
142.79 242.86 1.08 c p2
141.98 296.11 1.08 c p2
131.69 250.10 1.08 c p2
144.26 252.10 1.08 c p2
134.21 248.93 1.08 c p2
141.21 268.77 1.08 c p2
150.80 270.86 1.08 c p2
145.72 247.10 1.08 c p2
133.93 264.95 1.08 c p2
144.38 303.35 1.08 c p2
142.24 269.29 1.08 c p2
137.73 221.47 1.08 c p2
146.20 268.65 1.08 c p2
137.52 257.19 1.08 c p2
133.22 258.64 1.08 c p2
142.53 233.58 1.08 c p2
146.70 303.68 1.08 c p2
139.31 243.64 1.08 c p2
135.26 297.28 1.08 c p2
139.68 294.52 1.08 c p2
138.51 231.93 1.08 c p2
147.72 240.23 1.08 c p2
139.93 253.72 1.08 c p2
147.64 292.27 1.08 c p2
144.32 286.54 1.08 c p2
131.67 269.47 1.08 c p2
141.91 253.83 1.08 c p2
138.68 264.54 1.08 c p2
136.41 278.65 1.08 c p2
136.58 227.40 1.08 c p2
143.93 289.30 1.08 c p2
143.27 224.97 1.08 c p2
135.09 264.59 1.08 c p2
140.43 277.69 1.08 c p2
141.60 221.75 1.08 c p2
132.69 285.32 1.08 c p2
140.57 272.91 1.08 c p2
142.22 256.72 1.08 c p2
147.93 255.46 1.08 c p2
149.65 279.70 1.08 c p2
145.71 289.09 1.08 c p2
132.44 265.63 1.08 c p2
134.30 254.48 1.08 c p2
144.92 281.44 1.08 c p2
147.10 278.49 1.08 c p2
145.09 234.97 1.08 c p2
141.15 279.19 1.08 c p2
138.74 246.99 1.08 c p2
139.40 221.99 1.08 c p2
148.37 264.34 1.08 c p2
130.47 255.64 1.08 c p2
135.41 283.75 1.08 c p2
141.30 243.62 1.08 c p2
151.68 272.70 1.08 c p2
147.19 282.34 1.08 c p2
134.52 266.29 1.08 c p2
138.91 220.86 1.08 c p2
138.26 237.12 1.08 c p2
138.70 299.21 1.08 c p2
141.61 271.29 1.08 c p2
138.51 246.78 1.08 c p2
135.59 244.06 1.08 c p2
145.86 290.19 1.08 c p2
136.91 304.71 1.08 c p2
148.35 278.44 1.08 c p2
144.13 300.08 1.08 c p2
142.12 278.04 1.08 c p2
151.49 263.86 1.08 c p2
143.42 237.80 1.08 c p2
135.73 235.20 1.08 c p2
140.69 288.64 1.08 c p2
146.72 280.37 1.08 c p2
144.39 304.55 1.08 c p2
142.02 288.33 1.08 c p2
135.98 277.82 1.08 c p2
143.06 294.92 1.08 c p2
143.11 259.06 1.08 c p2
134.77 295.51 1.08 c p2
131.90 271.45 1.08 c p2
143.41 261.78 1.08 c p2
146.57 237.80 1.08 c p2
136.13 301.41 1.08 c p2
140.66 285.39 1.08 c p2
148.85 292.97 1.08 c p2
135.72 268.77 1.08 c p2
133.33 235.57 1.08 c p2
134.62 242.01 1.08 c p2
148.38 257.52 1.08 c p2
145.44 270.50 1.08 c p2
138.78 244.61 1.08 c p2
145.22 233.36 1.08 c p2
142.02 300.95 1.08 c p2
140.95 266.97 1.08 c p2
131.20 283.67 1.08 c p2
148.94 296.39 1.08 c p2
150.31 279.15 1.08 c p2
133.45 235.49 1.08 c p2
145.31 280.16 1.08 c p2
145.07 278.95 1.08 c p2
145.60 285.05 1.08 c p2
138.06 301.02 1.08 c p2
150.45 279.84 1.08 c p2
146.37 283.15 1.08 c p2
136.14 249.10 1.08 c p2
145.50 246.51 1.08 c p2
149.10 263.98 1.08 c p2
140.02 243.27 1.08 c p2
145.64 267.81 1.08 c p2
137.22 311.23 1.08 c p2
142.98 254.51 1.08 c p2
145.19 228.71 1.08 c p2
149.87 254.41 1.08 c p2
146.24 235.48 1.08 c p2
138.31 236.91 1.08 c p2
150.64 268.08 1.08 c p2
147.04 298.02 1.08 c p2
145.70 234.97 1.08 c p2
138.53 276.72 1.08 c p2
142.23 233.17 1.08 c p2
138.11 300.37 1.08 c p2
139.35 252.63 1.08 c p2
146.68 227.53 1.08 c p2
138.36 239.26 1.08 c p2
135.69 237.08 1.08 c p2
142.10 230.68 1.08 c p2
140.28 230.46 1.08 c p2
140.34 222.47 1.08 c p2
151.80 270.62 1.08 c p2
136.76 222.12 1.08 c p2
138.85 252.00 1.08 c p2
141.76 293.41 1.08 c p2
138.73 301.72 1.08 c p2
135.22 285.80 1.08 c p2
148.96 256.84 1.08 c p2
134.84 231.79 1.08 c p2
145.73 256.14 1.08 c p2
136.12 276.05 1.08 c p2
150.42 255.22 1.08 c p2
141.00 259.87 1.08 c p2
146.41 292.47 1.08 c p2
138.33 258.63 1.08 c p2
130.87 270.84 1.08 c p2
136.56 270.50 1.08 c p2
144.19 299.76 1.08 c p2
133.58 258.25 1.08 c p2
134.88 254.85 1.08 c p2
140.40 262.74 1.08 c p2
137.68 305.16 1.08 c p2
135.63 275.67 1.08 c p2
135.42 230.50 1.08 c p2
143.24 304.77 1.08 c p2
141.79 238.96 1.08 c p2
134.94 290.14 1.08 c p2
135.14 275.50 1.08 c p2
136.25 295.16 1.08 c p2
132.13 251.22 1.08 c p2
145.31 300.73 1.08 c p2
139.68 298.50 1.08 c p2
140.17 306.41 1.08 c p2
137.55 294.53 1.08 c p2
137.44 273.72 1.08 c p2
136.14 284.72 1.08 c p2
140.53 243.53 1.08 c p2
147.48 255.16 1.08 c p2
133.95 290.96 1.08 c p2
140.00 260.02 1.08 c p2
145.87 290.22 1.08 c p2
138.90 259.99 1.08 c p2
146.02 290.96 1.08 c p2
144.84 257.00 1.08 c p2
143.93 309.30 1.08 c p2
141.71 227.55 1.08 c p2
143.10 294.40 1.08 c p2
146.93 260.35 1.08 c p2
146.61 301.57 1.08 c p2
130.17 275.89 1.08 c p2
141.35 245.22 1.08 c p2
135.60 245.03 1.08 c p2
151.33 266.87 1.08 c p2
139.26 271.79 1.08 c p2
137.46 267.23 1.08 c p2
142.95 258.39 1.08 c p2
149.98 284.38 1.08 c p2
143.68 275.58 1.08 c p2
145.97 283.73 1.08 c p2
149.84 273.61 1.08 c p2
143.66 239.53 1.08 c p2
132.28 258.96 1.08 c p2
142.77 307.38 1.08 c p2
138.27 297.45 1.08 c p2
142.38 266.27 1.08 c p2
146.54 231.33 1.08 c p2
142.72 237.06 1.08 c p2
142.52 269.65 1.08 c p2
131.16 243.51 1.08 c p2
141.27 232.68 1.08 c p2
137.42 224.71 1.08 c p2
146.17 272.98 1.08 c p2
137.20 222.22 1.08 c p2
143.44 266.51 1.08 c p2
149.37 284.19 1.08 c p2
134.29 259.81 1.08 c p2
150.38 279.41 1.08 c p2
149.03 244.49 1.08 c p2
137.31 274.12 1.08 c p2
144.41 232.90 1.08 c p2
146.00 245.54 1.08 c p2
142.43 294.02 1.08 c p2
145.00 269.25 1.08 c p2
137.69 241.42 1.08 c p2
140.60 268.79 1.08 c p2
149.67 239.35 1.08 c p2
142.31 262.49 1.08 c p2
134.51 259.48 1.08 c p2
137.09 239.27 1.08 c p2
145.64 248.71 1.08 c p2
138.27 300.41 1.08 c p2
143.50 252.84 1.08 c p2
131.30 245.61 1.08 c p2
145.48 275.55 1.08 c p2
137.45 232.24 1.08 c p2
138.61 311.39 1.08 c p2
144.63 288.38 1.08 c p2
146.80 298.98 1.08 c p2
138.34 233.16 1.08 c p2
136.37 227.39 1.08 c p2
142.69 297.78 1.08 c p2
142.03 243.72 1.08 c p2
143.84 223.03 1.08 c p2
140.17 247.07 1.08 c p2
134.43 239.53 1.08 c p2
140.93 304.86 1.08 c p2
136.91 305.58 1.08 c p2
141.27 242.76 1.08 c p2
147.65 237.34 1.08 c p2
148.61 268.73 1.08 c p2
136.83 294.37 1.08 c p2
133.84 266.81 1.08 c p2
142.84 282.40 1.08 c p2
135.09 248.91 1.08 c p2
150.61 278.16 1.08 c p2
149.33 233.21 1.08 c p2
137.58 247.48 1.08 c p2
138.33 241.09 1.08 c p2
149.56 259.48 1.08 c p2
146.25 302.15 1.08 c p2
146.07 249.57 1.08 c p2
145.80 257.78 1.08 c p2
135.52 292.11 1.08 c p2
142.99 255.49 1.08 c p2
147.28 295.90 1.08 c p2
141.15 255.62 1.08 c p2
135.89 255.21 1.08 c p2
141.26 296.71 1.08 c p2
132.84 272.18 1.08 c p2
141.73 249.02 1.08 c p2
143.08 243.51 1.08 c p2
130.42 278.42 1.08 c p2
141.22 280.12 1.08 c p2
136.66 245.16 1.08 c p2
135.90 252.70 1.08 c p2
131.66 277.99 1.08 c p2
133.55 245.12 1.08 c p2
145.00 279.08 1.08 c p2
148.31 238.06 1.08 c p2
131.85 241.90 1.08 c p2
142.96 285.16 1.08 c p2
140.81 262.52 1.08 c p2
135.16 268.69 1.08 c p2
140.04 278.38 1.08 c p2
137.90 244.35 1.08 c p2
147.83 270.21 1.08 c p2
135.56 265.64 1.08 c p2
136.69 222.15 1.08 c p2
131.88 287.28 1.08 c p2
133.21 242.12 1.08 c p2
131.35 290.76 1.08 c p2
145.37 239.25 1.08 c p2
146.40 254.47 1.08 c p2
148.98 251.52 1.08 c p2
143.16 244.41 1.08 c p2
140.32 303.79 1.08 c p2
146.35 251.20 1.08 c p2
137.11 266.26 1.08 c p2
139.78 281.73 1.08 c p2
138.75 295.13 1.08 c p2
137.45 245.94 1.08 c p2
145.78 227.68 1.08 c p2
148.24 237.63 1.08 c p2
133.54 263.77 1.08 c p2
132.58 239.27 1.08 c p2
142.26 289.49 1.08 c p2
136.01 280.56 1.08 c p2
144.54 293.31 1.08 c p2
142.67 284.85 1.08 c p2
137.12 290.57 1.08 c p2
135.15 226.24 1.08 c p2
145.17 257.47 1.08 c p2
134.43 254.16 1.08 c p2
141.36 260.83 1.08 c p2
147.06 269.89 1.08 c p2
133.71 272.03 1.08 c p2
146.99 246.09 1.08 c p2
139.36 262.20 1.08 c p2
142.39 220.17 1.08 c p2
132.79 268.57 1.08 c p2
134.47 261.63 1.08 c p2
141.61 268.36 1.08 c p2
151.45 276.18 1.08 c p2
136.15 260.91 1.08 c p2
141.81 306.17 1.08 c p2
136.06 253.86 1.08 c p2
139.47 275.53 1.08 c p2
132.52 251.17 1.08 c p2
137.85 304.76 1.08 c p2
141.35 287.74 1.08 c p2
149.42 260.85 1.08 c p2
148.19 249.73 1.08 c p2
136.37 293.90 1.08 c p2
132.68 232.60 1.08 c p2
137.03 241.90 1.08 c p2
140.52 262.79 1.08 c p2
138.27 270.10 1.08 c p2
138.73 234.69 1.08 c p2
150.07 273.87 1.08 c p2
138.40 303.20 1.08 c p2
137.12 269.24 1.08 c p2
141.50 254.93 1.08 c p2
150.88 263.34 1.08 c p2
136.94 291.38 1.08 c p2
148.15 286.96 1.08 c p2
136.98 303.46 1.08 c p2
132.35 240.42 1.08 c p2
139.84 304.73 1.08 c p2
140.42 228.14 1.08 c p2
148.92 277.07 1.08 c p2
136.67 243.17 1.08 c p2
141.96 219.91 1.08 c p2
143.77 251.68 1.08 c p2
145.34 233.56 1.08 c p2
131.36 252.05 1.08 c p2
136.18 243.52 1.08 c p2
146.21 263.33 1.08 c p2
147.05 281.97 1.08 c p2
141.57 264.86 1.08 c p2
147.46 259.56 1.08 c p2
144.08 291.02 1.08 c p2
143.03 229.81 1.08 c p2
148.01 253.91 1.08 c p2
143.23 252.42 1.08 c p2
135.63 256.02 1.08 c p2
144.60 284.12 1.08 c p2
137.78 223.32 1.08 c p2
143.84 268.32 1.08 c p2
135.52 242.08 1.08 c p2
149.44 243.87 1.08 c p2
134.72 302.55 1.08 c p2
138.36 274.76 1.08 c p2
141.68 297.52 1.08 c p2
137.29 243.23 1.08 c p2
133.97 257.71 1.08 c p2
132.43 238.61 1.08 c p2
140.61 282.95 1.08 c p2
146.71 249.16 1.08 c p2
141.99 303.84 1.08 c p2
150.43 276.94 1.08 c p2
138.96 236.75 1.08 c p2
130.42 282.01 1.08 c p2
149.92 257.99 1.08 c p2
141.56 257.34 1.08 c p2
139.27 253.41 1.08 c p2
138.28 300.20 1.08 c p2
148.18 233.02 1.08 c p2
147.68 266.06 1.08 c p2
135.60 247.73 1.08 c p2
135.50 233.03 1.08 c p2
138.08 285.63 1.08 c p2
1 0 0 srgb
np
150.29 210.77 m
-3.13 17.52 l
o
np
152.96 270.30 m
-0.91 -0.43 l
o
np
154.88 270.11 m
-2.75 -1.07 l
o
np
127.70 341.12 m
6.63 -39.08 l
o
np
148.53 193.27 m
-3.41 31.02 l
o
np
147.38 302.65 m
-0.01 -0.11 l
o
np
160.41 254.29 m
-7.81 4.07 l
o
np
126.31 258.86 m
4.06 1.61 l
o
np
133.81 308.24 m
0.82 -5.23 l
o
np
165.28 304.04 m
-14.30 -22.96 l
o
np
132.50 201.94 m
2.98 22.78 l
o
np
146.42 222.47 m
-0.47 3.45 l
o
np
143.68 162.20 m
-1.64 56.05 l
o
np
155.80 223.84 m
-5.48 14.77 l
o
np
139.22 216.57 m
0.04 1.29 l
o
np
123.88 255.50 m
6.52 3.52 l
o
np
155.20 190.62 m
-7.57 38.59 l
o
np
141.55 211.38 m
-0.10 5.71 l
o
np
147.44 199.75 m
-2.52 24.15 l
o
np
130.04 265.40 m
0.24 -0.02 l
o
np
148.04 226.51 m
-0.49 2.54 l
o
np
144.20 173.85 m
-1.75 45.20 l
o
np
138.88 327.27 m
0.43 -15.13 l
o
np
136.69 221.43 m
0.03 0.36 l
o
np
154.56 262.20 m
-1.93 0.33 l
o
np
122.51 285.25 m
7.56 -8.61 l
o
np
129.57 281.86 m
0.68 -1.06 l
o
np
152.20 290.11 m
-1.72 -3.83 l
o
np
157.73 303.06 m
-7.29 -16.45 l
o
np
133.04 184.19 m
3.59 37.81 l
o
np
126.71 237.94 m
4.13 7.88 l
o
np
144.99 181.87 m
-1.99 38.26 l
o
np
135.50 213.82 m
0.89 8.75 l
o
np
155.45 303.40 m
-5.28 -13.91 l
o
np
128.23 282.16 m
1.94 -2.74 l
o
np
133.42 302.98 m
0.46 -2.41 l
o
np
134.17 302.92 m
0.15 -0.91 l
o
np
125.39 257.32 m
5.00 2.37 l
o
np
148.83 324.56 m
-2.64 -19.41 l
o
np
155.17 247.91 m
-2.83 3.26 l
o
np
153.07 357.61 m
-6.96 -52.30 l
o
np
130.67 317.75 m
3.23 -17.12 l
o
np
135.97 209.60 m
0.99 11.62 l
o
np
144.70 208.56 m
-0.93 13.07 l
o
np
155.30 286.62 m
-4.24 -6.41 l
o
np
162.77 312.66 m
-12.26 -26.71 l
o
np
133.80 183.34 m
3.20 37.79 l
o
np
160.61 290.42 m
-9.36 -12.15 l
o
np
129.73 196.99 m
4.85 29.93 l
o
np
141.43 321.35 m
-0.14 -10.43 l
o
np
120.08 204.93 m
11.70 33.85 l
o
np
141.92 176.94 m
-0.56 39.96 l
o
np
130.50 230.42 m
1.67 5.61 l
o
np
136.21 320.28 m
0.77 -9.62 l
o
np
143.25 205.41 m
-0.61 14.01 l
o
np
119.20 217.74 m
11.89 25.91 l
o
np
138.06 357.30 m
1.28 -45.18 l
o
np
156.14 277.72 m
-4.47 -3.80 l
o
np
153.22 168.39 m
-7.45 57.18 l
o
np
138.36 213.26 m
0.23 5.22 l
o
np
141.48 193.68 m
-0.26 22.95 l
o
np
144.77 201.02 m
-1.29 20.05 l
o
np
120.73 291.38 m
9.40 -12.64 l
o
np
158.39 192.72 m
-9.57 38.86 l
o
np
144.38 319.74 m
-0.69 -10.29 l
o
np
147.95 180.78 m
-3.64 41.92 l
o
np
151.59 183.30 m
-5.70 42.50 l
o
np
121.23 276.62 m
8.95 -5.54 l
o
np
124.04 244.55 m
6.48 7.79 l
o
np
142.90 323.18 m
-0.49 -12.94 l
o
np
131.12 229.29 m
1.32 4.85 l
o
np
135.01 202.54 m
1.76 19.15 l
o
np
132.16 316.27 m
2.28 -13.87 l
o
np
116.64 270.39 m
13.61 -3.29 l
o
np
147.62 174.25 m
-3.66 47.75 l
o
np
141.39 370.60 m
-0.40 -59.49 l
o
np
134.66 357.08 m
2.92 -44.77 l
o
np
144.80 222.82 m
-0.07 0.70 l
o
np
140.46 318.07 m
0.02 -6.65 l
o
np
138.32 345.30 m
0.97 -33.15 l
o
np
159.16 254.92 m
-6.56 3.43 l
o
np
143.89 215.81 m
-0.36 5.36 l
o
np
141.20 208.66 m
-0.07 7.91 l
o
np
129.00 258.57 m
1.39 0.71 l
o
np
124.28 247.10 m
6.22 6.62 l
o
np
132.27 346.67 m
3.95 -38.50 l
o
np
151.75 351.15 m
-5.81 -45.50 l
o
np
128.23 307.72 m
3.82 -13.23 l
o
np
153.71 290.40 m
-3.05 -6.04 l
o
np
153.90 225.34 m
-3.88 11.50 l
o
np
148.40 301.74 m
-0.32 -1.53 l
o
np
139.88 195.65 m
0.25 21.52 l
o
np
153.71 344.96 m
-6.71 -41.41 l
o
np
136.23 218.72 m
0.34 3.44 l
o
np
124.63 337.57 m
8.60 -39.11 l
o
np
131.14 192.15 m
4.30 32.65 l
o
np
164.82 237.50 m
-12.47 13.98 l
o
np
121.19 334.20 m
10.98 -39.23 l
o
np
149.96 170.90 m
-5.21 52.65 l
o
np
144.66 207.95 m
-0.95 13.56 l
o
np
126.38 248.05 m
4.13 4.78 l
o
np
153.37 291.20 m
-2.80 -5.88 l
o
np
135.34 330.54 m
1.62 -19.96 l
o
np
116.28 171.51 m
16.25 61.96 l
o
np
122.97 305.69 m
7.79 -18.09 l
o
np
153.42 219.73 m
-3.96 13.93 l
o
np
154.74 222.66 m
-4.73 14.10 l
o
np
155.08 282.46 m
-3.78 -4.70 l
o
np
161.34 275.32 m
-9.34 -4.86 l
o
np
151.79 210.89 m
-3.89 18.84 l
o
np
126.98 241.76 m
3.71 6.17 l
o
np
124.70 220.19 m
6.97 19.35 l
o
np
160.13 274.31 m
-8.11 -4.06 l
o
np
144.95 195.00 m
-1.58 25.85 l
o
np
135.38 336.03 m
1.83 -24.63 l
o
np
147.23 312.51 m
-1.01 -7.41 l
o
np
137.12 335.27 m
1.14 -22.48 l
o
np
143.95 152.84 m
-1.91 65.40 l
o
np
135.48 316.85 m
0.83 -8.38 l
o
np
152.63 255.87 m
-0.11 0.08 l
o
np
151.63 236.35 m
-1.18 3.05 l
o
np
162.64 274.67 m
-10.58 -4.87 l
o
np
144.80 343.15 m
-1.74 -33.31 l
o
np
161.44 225.23 m
-10.14 19.23 l
o
np
135.74 163.25 m
2.70 55.37 l
o
np
129.95 252.41 m
0.56 0.63 l
o
np
159.06 228.97 m
-7.82 15.15 l
o
np
126.25 298.08 m
4.51 -10.47 l
o
np
117.80 257.28 m
12.56 4.00 l
o
np
164.92 283.74 m
-13.20 -10.44 l
o
np
135.03 214.99 m
0.97 8.50 l
o
np
153.27 288.61 m
-2.55 -4.87 l
o
np
152.45 310.06 m
-3.38 -13.06 l
o
np
114.87 229.29 m
15.71 21.47 l
o
np
161.18 262.18 m
-8.58 1.00 l
o
np
120.50 281.68 m
9.63 -8.16 l
o
np
126.93 283.22 m
3.21 -4.35 l
o
np
133.04 312.91 m
1.58 -9.95 l
o
np
158.05 195.81 m
-9.11 36.06 l
o
np
135.95 309.21 m
0.15 -1.42 l
o
np
137.48 175.13 m
1.54 42.95 l
o
np
139.96 202.83 m
0.17 14.35 l
o
np
134.64 197.07 m
2.19 24.46 l
o
np
146.84 347.74 m
-2.85 -38.50 l
o
np
149.26 178.88 m
-4.47 44.75 l
o
np
148.55 303.71 m
-0.61 -3.04 l
o
np
137.99 201.74 m
0.72 16.64 l
o
np
145.68 152.51 m
-2.99 67.02 l
o
np
147.89 229.05 m
-0.10 0.48 l
o
np
158.65 206.94 m
-8.87 28.45 l
o
np
153.19 252.68 m
-0.77 0.73 l
o
np
125.57 294.80 m
4.91 -9.83 l
o
np
141.41 319.30 m
-0.11 -8.38 l
o
np
131.85 174.33 m
4.69 47.89 l
o
np
141.68 208.44 m
-0.16 8.78 l
o
np
121.07 240.29 m
9.46 11.72 l
o
np
130.01 299.45 m
1.80 -5.86 l
o
np
139.49 325.31 m
0.26 -13.44 l
o
np
123.21 212.42 m
8.65 25.80 l
o
np
130.42 229.28 m
1.82 6.25 l
o
np
127.54 180.26 m
7.21 46.21 l
o
np
138.89 315.05 m
0.10 -2.71 l
o
np
130.58 308.58 m
2.46 -10.73 l
o
np
154.84 264.45 m
-2.31 0.02 l
o
np
136.45 170.74 m
2.16 47.73 l
o
np
129.90 321.13 m
3.94 -20.68 l
o
np
154.64 255.52 m
-2.09 1.35 l
o
np
138.89 196.26 m
0.57 21.42 l
o
np
130.03 283.59 m
0.34 -0.60 l
o
np
136.02 327.70 m
1.20 -16.26 l
o
np
125.60 327.80 m
7.28 -30.49 l
o
np
144.01 217.37 m
-0.30 4.16 l
o
np
152.28 198.39 m
-5.21 29.73 l
o
np
158.56 261.84 m
-5.94 0.91 l
o
np
128.18 187.36 m
6.41 39.55 l
o
np
156.97 306.60 m
-6.77 -17.48 l
o
np
141.35 214.61 m
-0.03 2.22 l
o
np
130.21 325.76 m
4.08 -23.85 l
o
np
134.27 317.29 m
1.34 -11.08 l
o
np
146.46 350.61 m
-2.76 -41.16 l
o
np
129.08 155.90 m
7.16 67.03 l
o
np
129.21 171.98 m
6.48 52.25 l
o
np
167.22 233.22 m
-14.89 17.60 l
o
np
124.13 350.26 m
9.66 -49.99 l
o
np
138.87 313.38 m
0.04 -0.99 l
o
np
143.38 316.25 m
-0.33 -6.41 l
o
np
117.06 288.46 m
13.04 -13.18 l
o
np
158.87 325.88 m
-9.33 -31.48 l
o
np
142.42 327.58 m
-0.47 -17.06 l
o
np
143.56 326.30 m
-0.76 -16.30 l
o
np
137.66 168.90 m
1.55 49.01 l
o
np
122.22 346.75 m
10.92 -48.59 l
o
np
129.48 224.40 m
2.88 10.31 l
o
np
162.31 314.97 m
-11.92 -27.79 l
o
np
139.31 355.72 m
0.67 -43.99 l
o
np
129.86 307.36 m
2.76 -10.90 l
o
np
123.01 260.72 m
7.33 1.60 l
o
np
146.48 211.24 m
-1.41 12.96 l
o
np
133.53 309.02 m
1.01 -6.29 l
o
np
155.80 271.40 m
-3.73 -1.69 l
o
np
127.84 201.81 m
5.72 27.96 l
o
np
143.51 219.10 m
-0.11 1.81 l
o
np
161.35 227.12 m
-9.94 18.02 l
o
np
161.64 225.71 m
-10.29 19.08 l
o
np
146.58 331.28 m
-2.02 -22.92 l
o
np
130.47 197.47 m
4.38 28.73 l
o
np
116.12 260.36 m
14.21 2.44 l
o
np
128.49 307.33 m
3.61 -12.64 l
o
np
145.26 208.37 m
-1.14 13.96 l
o
np
134.55 211.99 m
1.36 11.70 l
o
np
128.23 188.88 m
6.29 38.22 l
o
np
144.34 327.45 m
-1.03 -17.77 l
o
np
152.47 205.54 m
-4.76 23.84 l
o
np
165.03 223.35 m
-13.45 22.78 l
o
np
132.86 231.01 m
0.14 0.57 l
o
np
159.93 221.06 m
-9.10 20.58 l
o
np
120.21 229.76 m
10.49 17.83 l
o
np
133.92 303.04 m
0.26 -1.49 l
o
np
136.54 322.94 m
0.80 -11.19 l
o
np
152.44 187.80 m
-5.99 39.11 l
o
np
154.16 281.10 m
-2.85 -3.49 l
o
np
131.02 225.52 m
1.71 6.92 l
o
np
156.04 269.17 m
-3.81 -1.14 l
o
np
132.61 309.30 m
1.46 -8.11 l
o
np
155.93 236.04 m
-4.60 8.61 l
o
np
159.52 305.40 m
-9.01 -19.52 l
o
np
141.29 333.39 m
-0.20 -22.34 l
o
np
152.02 285.53 m
-1.25 -2.31 l
o
np
129.77 292.99 m
1.25 -3.24 l
o
np
146.54 205.08 m
-1.81 18.43 l
o
np
120.40 251.53 m
10.02 6.44 l
o
np
154.21 263.57 m
-1.64 0.12 l
o
np
134.24 343.48 m
2.69 -32.98 l
o
np
129.82 253.67 m
0.66 0.66 l
o
np
111.38 258.74 m
18.95 3.77 l
o
np
127.95 230.85 m
3.60 9.53 l
o
np
152.73 256.92 m
-0.17 0.11 l
o
np
124.85 297.27 m
5.67 -11.71 l
o
np
128.54 229.42 m
3.24 9.37 l
o
np
156.25 284.17 m
-4.97 -6.26 l
o
np
143.39 331.47 m
-0.86 -21.31 l
o
np
145.85 178.09 m
-2.54 42.64 l
o
np
145.67 213.22 m
-0.99 10.20 l
o
np
126.63 280.01 m
3.45 -3.79 l
o
np
125.81 243.83 m
4.78 6.66 l
o
np
144.04 349.07 m
-1.54 -38.89 l
o
np
154.29 232.55 m
-3.58 8.42 l
o
np
144.63 210.93 m
-0.79 10.84 l
o
np
155.88 230.49 m
-5.03 11.29 l
o
np
129.43 331.21 m
4.92 -29.11 l
o
np
114.88 313.82 m
15.56 -29.69 l
o
np
139.64 334.58 m
0.34 -22.85 l
o
np
145.04 191.05 m
-1.75 29.64 l
o
np
138.31 183.75 m
1.00 34.06 l
o
np
120.30 255.69 m
10.08 4.39 l
o
np
137.95 187.33 m
1.09 30.74 l
o
np
129.35 240.72 m
1.67 3.52 l
o
np
120.01 250.71 m
10.41 6.98 l
o
np
140.07 187.02 m
0.24 30.04 l
o
np
148.94 319.35 m
-2.28 -15.12 l
o
np
123.15 302.82 m
7.48 -16.32 l
o
np
121.64 245.91 m
8.84 8.66 l
o
np
133.44 215.68 m
1.52 10.26 l
o
np
129.64 280.58 m
0.55 -0.80 l
o
np
145.52 213.59 m
-0.92 9.68 l
o
np
123.42 250.35 m
7.03 5.79 l
o
np
126.52 253.29 m
3.93 3.13 l
o
np
122.14 319.33 m
9.25 -27.31 l
o
np
139.09 186.39 m
0.64 31.04 l
o
np
149.73 233.33 m
-0.20 0.68 l
o
np
156.79 253.70 m
-4.25 2.87 l
o
np
156.08 292.51 m
-5.28 -9.59 l
o
np
160.53 275.81 m
-8.58 -4.86 l
o
np
132.35 200.42 m
3.15 24.25 l
o
np
144.35 212.60 m
-0.63 8.93 l
o
np
161.08 257.13 m
-8.41 3.07 l
o
np
130.10 251.04 m
0.45 0.57 l
o
np
150.32 222.48 m
-1.90 8.29 l
o
np
143.04 214.77 m
-0.24 4.97 l
o
np
153.42 280.69 m
-2.15 -2.72 l
o
np
115.83 288.70 m
14.28 -13.86 l
o
np
151.61 176.02 m
-6.06 49.11 l
o
np
126.96 270.12 m
3.26 -1.32 l
o
np
121.70 189.89 m
10.92 42.95 l
o
np
159.60 333.84 m
-10.31 -37.74 l
o
np
146.43 200.84 m
-1.99 22.11 l
o
np
144.87 311.50 m
-0.28 -3.20 l
o
np
151.46 224.80 m
-2.17 8.00 l
o
np
157.18 237.09 m
-5.56 9.27 l
o
np
158.57 235.84 m
-6.87 11.04 l
o
np
148.38 348.09 m
-3.68 -40.01 l
o
np
142.41 310.93 m
-0.02 -0.68 l
o
np
132.77 219.06 m
1.51 8.70 l
o
np
135.67 174.41 m
2.48 44.49 l
o
np
122.19 314.92 m
8.93 -24.30 l
o
np
158.85 332.17 m
-9.60 -35.74 l
o
np
149.91 222.58 m
-1.70 7.76 l
o
np
127.28 261.18 m
3.06 0.77 l
o
np
150.76 213.15 m
-3.14 16.04 l
o
np
131.39 229.76 m
1.09 4.07 l
o
np
140.16 174.90 m
0.25 42.10 l
o
np
153.19 224.57 m
-3.40 10.88 l
o
np
147.22 219.81 m
-0.97 6.69 l
o
np
153.79 204.12 m
-5.65 26.09 l
o
np
147.29 308.12 m
-0.60 -3.95 l
o
np
118.97 187.82 m
13.35 47.17 l
o
np
124.67 308.93 m
6.49 -17.97 l
o
np
131.55 155.68 m
5.49 65.37 l
o
np
123.87 316.00 m
7.66 -23.44 l
o
np
134.13 314.40 m
1.20 -9.11 l
o
np
129.99 227.45 m
2.28 7.89 l
o
np
143.35 197.48 m
-0.86 21.64 l
o
np
144.43 313.31 m
-0.32 -4.18 l
o
np
150.54 342.19 m
-4.63 -36.49 l
o
np
128.83 190.72 m
5.80 36.09 l
o
np
124.23 298.18 m
6.28 -12.82 l
o
np
143.38 329.32 m
-0.80 -19.19 l
o
np
149.35 194.90 m
-3.77 30.30 l
o
np
130.13 298.23 m
1.58 -5.02 l
o
np
129.61 261.00 m
0.75 0.24 l
o
np
146.05 219.28 m
-0.65 5.55 l
o
np
131.17 312.32 m
2.49 -12.47 l
o
np
128.31 220.86 m
4.00 14.14 l
o
np
123.21 286.11 m
6.86 -8.46 l
o
np
127.87 276.80 m
2.24 -2.14 l
o
np
152.60 307.90 m
-3.28 -11.94 l
o
np
122.70 259.60 m
7.65 2.11 l
o
np
141.44 317.33 m
-0.09 -6.44 l
o
np
141.43 189.67 m
-0.27 26.90 l
o
np
160.73 350.05 m
-12.10 -51.61 l
o
np
158.67 252.67 m
-6.13 4.06 l
o
np
159.70 277.95 m
-7.89 -5.55 l
o
np
127.73 215.54 m
4.78 18.09 l
o
np
128.66 234.36 m
2.76 6.94 l
o
np
149.23 214.71 m
-2.27 13.20 l
o
np
134.66 211.33 m
1.37 12.09 l
o
np
131.53 334.20 m
3.80 -28.91 l
o
np
139.66 170.51 m
0.51 46.64 l
o
np
138.57 201.82 m
0.54 16.18 l
o
np
128.06 281.11 m
2.06 -2.70 l
o
np
140.02 183.21 m
0.28 33.86 l
o
np
143.45 218.95 m
-0.11 1.83 l
o
np
153.70 322.29 m
-5.25 -23.28 l
o
np
145.47 218.84 m
-0.53 5.08 l
o
np
134.72 327.42 m
1.75 -18.44 l
o
np
141.10 325.64 m
-0.10 -14.54 l
o
np
124.46 287.92 m
5.73 -8.24 l
o
np
143.34 314.30 m
-0.24 -4.49 l
o
np
115.68 267.37 m
14.59 -1.64 l
o
np
122.26 218.67 m
9.14 22.78 l
o
np
126.95 263.49 m
3.36 0.26 l
o
np
147.56 184.98 m
-3.26 37.71 l
o
np
151.36 237.83 m
-0.83 2.07 l
o
np
145.84 167.88 m
-2.79 52.35 l
o
np
141.54 199.47 m
-0.23 17.35 l
o
np
122.06 187.75 m
10.76 44.40 l
o
np
133.14 323.54 m
2.30 -17.91 l
o
np
124.05 258.71 m
6.31 2.22 l
o
np
116.29 250.49 m
14.11 8.15 l
o
np
156.37 290.27 m
-5.42 -8.88 l
o
np
157.63 253.18 m
-5.09 3.42 l
o
np
137.26 324.53 m
0.66 -11.53 l
o
np
145.34 201.59 m
-1.49 20.20 l
o
np
133.09 315.69 m
1.77 -11.93 l
o
np
150.92 211.19 m
-3.41 17.78 l
o
np
145.56 212.36 m
-1.01 10.80 l
o
np
136.76 348.97 m
1.69 -36.30 l
o
np
142.30 318.45 m
-0.24 -8.00 l
o
np
153.23 357.14 m
-7.04 -51.98 l
o
np
145.62 313.08 m
-0.58 -5.67 l
o
np
153.08 283.49 m
-2.04 -3.11 l
o
np
131.37 191.68 m
4.20 32.83 l
o
np
139.74 340.75 m
0.36 -29.10 l
o
np
132.64 199.79 m
3.04 24.46 l
o
np
132.84 311.49 m
1.55 -9.26 l
o
np
123.36 240.22 m
7.23 10.17 l
o
np
142.59 320.39 m
-0.34 -10.05 l
o
np
150.88 297.65 m
-1.24 -4.00 l
o
np
156.81 298.91 m
-6.27 -13.35 l
o
np
138.20 180.08 m
1.11 37.73 l
o
np
136.90 314.92 m
0.27 -3.64 l
o
np
151.42 199.38 m
-4.64 28.17 l
o
np
156.95 355.23 m
-9.50 -52.96 l
o
np
128.83 224.45 m
3.37 11.38 l
o
np
131.51 221.29 m
1.90 8.95 l
o
np
135.97 210.53 m
0.95 10.80 l
o
np
142.33 317.55 m
-0.22 -7.13 l
o
np
150.94 235.47 m
-0.78 2.21 l
o
np
155.44 271.72 m
-3.40 -1.65 l
o
np
139.73 317.88 m
0.11 -6.07 l
o
np
149.69 231.02 m
-0.43 1.60 l
o
np
128.08 235.93 m
3.10 7.05 l
o
np
164.64 184.36 m
-15.00 50.22 l
o
np
148.15 229.97 m
-0.04 0.18 l
o
np
143.50 208.85 m
-0.57 11.15 l
o
np
153.23 284.28 m
-2.23 -3.50 l
o
np
136.49 193.04 m
1.53 25.98 l
o
np
118.66 269.44 m
11.59 -2.56 l
o
np
120.14 244.18 m
10.34 10.26 l
o
np
128.69 295.21 m
2.28 -5.82 l
o
np
113.73 285.11 m
16.42 -12.51 l
o
np
136.41 219.68 m
0.22 2.33 l
o
np
125.38 289.42 m
4.91 -7.96 l
o
np
125.28 235.21 m
5.57 10.61 l
o
np
154.82 273.68 m
-2.95 -1.90 l
o
np
155.02 347.60 m
-7.73 -44.80 l
o
np
126.99 255.89 m
3.43 2.17 l
o
np
153.75 222.50 m
-3.98 12.82 l
o
np
131.23 226.80 m
1.45 5.80 l
o
np
126.32 265.01 m
3.97 -0.12 l
o
np
154.07 288.04 m
-3.22 -5.65 l
o
np
130.24 261.93 m
0.10 0.03 l
o
np
153.09 283.93 m
-2.08 -3.24 l
o
np
129.05 235.90 m
2.32 5.74 l
o
np
127.50 200.27 m
6.05 29.51 l
o
np
139.79 182.26 m
0.38 34.89 l
o
np
135.62 174.53 m
2.50 44.39 l
o
np
125.50 289.74 m
4.80 -7.97 l
o
np
152.62 231.83 m
-2.35 6.47 l
o
np
131.03 228.43 m
1.45 5.41 l
o
np
129.60 215.97 m
3.49 15.30 l
o
np
133.02 344.54 m
3.42 -35.66 l
o
np
150.10 212.96 m
-2.83 15.54 l
o
np
139.66 330.87 m
0.29 -19.13 l
o
np
141.65 312.90 m
-0.05 -2.17 l
o
np
118.93 299.59 m
11.35 -18.27 l
o
np
153.48 242.95 m
-1.90 3.21 l
o
np
145.93 308.47 m
-0.27 -2.27 l
o
np
130.27 256.01 m
0.18 0.15 l
o
np
149.52 310.66 m
-1.78 -9.32 l
o
np
164.92 276.57 m
-12.90 -6.38 l
o
np
123.59 300.32 m
6.96 -14.55 l
o
np
130.46 304.46 m
2.10 -8.18 l
o
np
156.83 263.75 m
-4.28 0.22 l
o
np
133.54 315.32 m
1.53 -10.88 l
o
np
150.62 381.68 m
-6.20 -73.06 l
o
np
159.32 216.33 m
-8.88 23.00 l
o
np
150.82 189.91 m
-4.88 35.98 l
o
np
159.03 264.96 m
-6.52 -0.14 l
o
np
156.32 244.97 m
-4.08 5.12 l
o
np
155.91 267.62 m
-3.57 -0.72 l
o
np
145.64 306.73 m
-0.04 -0.41 l
o
np
146.23 217.86 m
-0.83 6.98 l
o
np
145.41 215.53 m
-0.75 7.85 l
o
np
114.32 306.74 m
15.95 -25.52 l
o
np
142.48 214.09 m
-0.17 4.68 l
o
np
136.54 313.60 m
0.29 -3.43 l
o
np
152.89 223.63 m
-3.25 10.91 l
o
np
153.52 152.12 m
-8.26 72.43 l
o
np
133.58 223.03 m
0.77 4.53 l
o
np
139.74 138.03 m
0.59 79.02 l
o
np
131.11 343.09 m
4.50 -36.90 l
o
np
152.24 276.58 m
-0.76 -0.79 l
o
np
146.47 312.29 m
-0.75 -6.21 l
o
np
137.27 313.40 m
0.11 -1.55 l
o
np
162.60 338.75 m
-13.08 -44.26 l
o
np
133.21 298.55 m
0.02 -0.09 l
o
np
142.39 212.00 m
-0.21 6.52 l
o
np
129.80 258.78 m
0.60 0.32 l
o
np
121.11 280.19 m
9.03 -7.21 l
o
np
134.95 171.10 m
2.95 48.03 l
o
np
125.34 190.60 m
8.16 39.34 l
o
np
123.85 276.90 m
6.30 -4.62 l
o
np
138.48 351.58 m
1.00 -39.55 l
o
np
139.90 161.11 m
0.43 55.94 l
o
np
149.51 185.44 m
-4.34 38.94 l
o
np
157.93 229.42 m
-6.82 13.91 l
o
np
134.99 315.70 m
0.94 -8.46 l
o
np
159.93 290.37 m
-8.72 -11.69 l
o
np
150.90 227.61 m
-1.53 5.56 l
o
np
153.84 293.80 m
-3.37 -7.49 l
o
np
133.06 154.56 m
4.52 65.21 l
o
np
149.91 194.60 m
-4.09 31.05 l
o
np
120.90 238.16 m
9.67 12.90 l
o
np
139.87 208.33 m
0.13 8.92 l
o
np
136.43 324.68 m
0.92 -12.91 l
o
np
150.92 212.94 m
-3.24 16.37 l
o
np
121.34 283.36 m
8.77 -8.51 l
o
np
161.34 273.15 m
-9.23 -3.83 l
o
np
135.26 206.93 m
1.41 14.98 l
o
np
153.29 374.85 m
-7.81 -68.31 l
o
np
139.38 316.57 m
0.12 -4.55 l
o
np
145.18 219.23 m
-0.43 4.33 l
o
np
148.92 194.28 m
-3.57 30.46 l
o
np
125.42 260.21 m
4.93 1.41 l
o
np
129.55 268.81 m
0.67 -0.26 l
o
np
126.94 275.18 m
3.21 -2.48 l
o
np
147.21 199.51 m
-2.42 24.13 l
o
np
132.42 182.85 m
4.01 39.63 l
o
np
120.21 323.51 m
11.08 -31.89 l
o
np
135.02 351.08 m
2.54 -38.80 l
o
np
146.31 224.53 m
-0.23 1.63 l
o
np
140.50 202.77 m
0.04 14.15 l
o
np
127.14 317.49 m
5.42 -21.20 l
o
np
153.38 240.20 m
-2.12 4.06 l
o
np
157.13 283.36 m
-5.74 -6.56 l
o
np
154.41 353.23 m
-7.62 -49.25 l
o
np
152.16 299.99 m
-2.38 -7.34 l
o
np
119.77 287.37 m
10.31 -11.24 l
o
np
157.00 210.74 m
-7.31 24.12 l
o
np
126.24 231.05 m
4.99 11.59 l
o
np
151.55 211.79 m
-3.68 17.89 l
o
np
114.12 217.96 m
16.60 29.13 l
o
np
149.01 305.52 m
-1.02 -5.02 l
o
np
153.10 190.88 m
-6.21 36.88 l
o
np
122.49 188.35 m
10.40 43.57 l
o
np
155.39 259.57 m
-2.71 0.92 l
o
np
123.41 280.01 m
6.71 -6.00 l
o
np
140.31 215.02 m
0.01 2.03 l
o
np
158.26 265.91 m
-5.79 -0.44 l
o
np
152.57 251.45 m
-0.21 0.24 l
o
np
127.11 256.64 m
3.30 1.93 l
o
np
132.62 197.04 m
3.21 26.86 l
o
np
133.72 189.61 m
2.99 32.21 l
o
np
132.60 229.75 m
0.42 1.77 l
o
np
147.53 170.36 m
-3.73 51.34 l
o
np
150.51 210.79 m
-3.23 17.73 l
o
np
145.32 176.03 m
-2.31 44.12 l
o
np
124.58 265.24 m
5.71 -0.24 l
o
np
143.58 141.91 m
-1.79 75.85 l
o
np
126.70 260.45 m
3.65 1.08 l
o
np
125.06 248.46 m
5.43 5.60 l
o
np
159.46 266.27 m
-7.00 -0.63 l
o
np
142.71 207.69 m
-0.39 11.10 l
o
np
131.95 212.79 m
2.46 14.61 l
o
np
156.51 250.68 m
-4.06 3.56 l
o
np
155.71 264.20 m
-3.17 0.08 l
o
np
124.47 227.76 m
6.71 15.23 l
o
np
157.99 214.93 m
-7.86 22.55 l
o
np
134.82 330.29 m
1.84 -20.67 l
o
np
153.39 343.49 m
-6.42 -39.88 l
o
np
163.18 255.43 m
-10.53 4.28 l
o
np
126.56 238.66 m
4.23 7.75 l
o
np
144.28 337.62 m
-1.36 -27.70 l
o
np
122.17 188.50 m
10.64 43.70 l
o
np
133.77 174.87 m
3.52 45.59 l
o
np
110.26 288.30 m
19.88 -15.51 l
o
np
137.26 186.47 m
1.40 31.95 l
o
np
130.51 201.85 m
4.07 25.08 l
o
np
145.51 216.74 m
-0.70 6.95 l
o
np
153.62 256.59 m
-1.06 0.65 l
o
np
127.23 254.92 m
3.20 2.29 l
o
np
162.87 288.27 m
-11.41 -12.19 l
o
np
123.56 288.73 m
6.61 -9.32 l
o
np
144.89 222.31 m
-0.13 1.28 l
o
np
150.16 223.19 m
-1.74 7.58 l
o
np
136.80 210.49 m
0.68 9.52 l
o
np
131.30 163.02 m
5.43 58.75 l
o
np
149.13 311.46 m
-1.66 -9.24 l
o
np
135.82 318.79 m
0.83 -9.23 l
o
np
143.33 376.83 m
-1.56 -66.20 l
o
np
159.64 297.76 m
-8.79 -15.39 l
o
np
121.88 250.55 m
8.56 6.38 l
o
np
137.37 198.21 m
1.02 20.46 l
o
np
164.25 285.58 m
-12.62 -11.26 l
o
np
160.46 323.48 m
-10.58 -31.51 l
o
np
143.58 206.83 m
-0.66 13.14 l
o
np
152.40 251.76 m
-0.04 0.05 l
o
np
147.94 305.13 m
-0.50 -2.82 l
o
np
125.23 261.38 m
5.11 1.05 l
o
np
127.24 226.67 m
4.47 12.61 l
o
/bg { 1 0 0 srgb } def
104.55 204.08 1.08 c p2
102.95 243.50 1.08 c p2
106.87 255.18 1.08 c p2
164.46 371.83 1.08 c p2
145.83 103.84 1.08 c p2
109.49 221.72 1.08 c p2
0 0 0 srgb
np
141.54 263.11 m
-0.44 -1.67 l
-0.71 -0.44 l
-0.35 0.32 l
-0.31 1.01 l
0.03 0.40 l
0.40 5.28 l
0.97 0.30 l
0.27 -1.18 l
0.17 -2.27 l
0.06 -1.19 l
-0.09 -0.56 l
o
/bg { 1 0.6471 0 srgb } def
np
 141.54 263.11 m
-0.44 -1.67 l
-0.71 -0.44 l
-0.35 0.32 l
-0.31 1.01 l
0.03 0.40 l
0.40 5.28 l
0.97 0.30 l
0.27 -1.18 l
0.17 -2.27 l
0.06 -1.19 l
cp p3
1 0 0 srgb
np
137.99 261.87 m
5.40 5.40 l
o
np
137.99 267.27 m
5.40 -5.40 l
o
np
136.87 264.57 m
7.64 0 l
o
np
140.69 260.75 m
0 7.64 l
o
311.04 73.44 473.76 444.96 cl
311.04 73.44 473.76 444.96 cl
0 0 0 srgb
2.25 setlinewidth
[] 0 setdash
0 setlinecap
1 setlinejoin
10.00 setmiterlimit
np
362.27 260.01 m
60.26 0 l
o
0.75 setlinewidth
[ 2.25 3.75] 0 setdash
1 setlinecap
np
392.40 141.91 m
0 87.86 l
o
np
392.40 376.83 m
0 -86.84 l
o
0.75 setlinewidth
[] 0 setdash
np
377.33 141.91 m
30.14 0 l
o
np
377.33 376.83 m
30.14 0 l
o
np
362.27 229.77 m
60.26 0 l
0 60.22 l
-60.26 0 l
0 -60.22 l
o
392.40 381.68 2.70 c p1
392.40 138.03 2.70 c p1
392.40 103.84 2.70 c p1
0.00 0.00 504.00 504.00 cl
0 0 0 srgb
0.75 setlinewidth
[] 0 setdash
1 setlinecap
1 setlinejoin
10.00 setmiterlimit
np
311.04 87.20 m
0 344.00 l
o
np
311.04 87.20 m
-7.20 0 l
o
np
311.04 173.20 m
-7.20 0 l
o
np
311.04 259.20 m
-7.20 0 l
o
np
311.04 345.20 m
-7.20 0 l
o
np
311.04 431.20 m
-7.20 0 l
o
/Font1 findfont 12 s
293.76 87.20 (-4) .5 90 t
293.76 173.20 (-2) .5 90 t
293.76 259.20 (0) .5 90 t
293.76 345.20 (2) .5 90 t
293.76 431.20 (4) .5 90 t
ep
%%Trailer
%%Pages: 1
%%EOF
