%!PS-Adobe-3.0 EPSF-3.0
%%DocumentNeededResources: font Helvetica
%%+ font Helvetica-Bold
%%+ font Helvetica-Oblique
%%+ font Helvetica-BoldOblique
%%+ font Symbol
%%Title: R Graphics Output
%%Creator: R Software
%%Pages: (atend)
%%BoundingBox: 0 0 504 504
%%EndComments
%%BeginProlog
/bp  { gs sRGB gs } def
% begin .ps.prolog
/gs  { gsave } bind def
/gr  { grestore } bind def
/ep  { showpage gr gr } bind def
/m   { moveto } bind def
/l  { rlineto } bind def
/np  { newpath } bind def
/cp  { closepath } bind def
/f   { fill } bind def
/o   { stroke } bind def
/c   { newpath 0 360 arc } bind def
/r   { 4 2 roll moveto 1 copy 3 -1 roll exch 0 exch rlineto 0 rlineto -1 mul 0 exch rlineto closepath } bind def
/p1  { stroke } bind def
/p2  { gsave bg fill grestore newpath } bind def
/p3  { gsave bg fill grestore stroke } bind def
/p6  { gsave bg eofill grestore newpath } bind def
/p7  { gsave bg eofill grestore stroke } bind def
/t   { 5 -2 roll moveto gsave rotate
       1 index stringwidth pop
       mul neg 0 rmoveto show grestore } bind def
/ta  { 4 -2 roll moveto gsave rotate show } bind def
/tb  { 2 -1 roll 0 rmoveto show } bind def
/cl  { grestore gsave newpath 3 index 3 index moveto 1 index
       4 -1 roll lineto  exch 1 index lineto lineto
       closepath clip newpath } bind def
/rgb { setrgbcolor } bind def
/s   { scalefont setfont } bind def
% end   .ps.prolog
/sRGB { [ /CIEBasedABC
          << /DecodeLMN
               [ { dup 0.03928 le
                        {12.92321 div}
                        {0.055 add 1.055 div 2.4 exp }
                     ifelse
                 } bind dup dup
               ]
             /MatrixLMN [0.412457 0.212673 0.019334
                         0.357576 0.715152 0.119192
                         0.180437 0.072175 0.950301]
             /WhitePoint [0.9505 1.0 1.0890]
           >>
         ] setcolorspace } bind def
/srgb { setcolor } bind def
%%IncludeResource: font Helvetica
/Helvetica findfont
dup length dict begin
  {1 index /FID ne {def} {pop pop} ifelse} forall
  /Encoding ISOLatin1Encoding def
  currentdict
  end
/Font1 exch definefont pop
%%IncludeResource: font Helvetica-Bold
/Helvetica-Bold findfont
dup length dict begin
  {1 index /FID ne {def} {pop pop} ifelse} forall
  /Encoding ISOLatin1Encoding def
  currentdict
  end
/Font2 exch definefont pop
%%IncludeResource: font Helvetica-Oblique
/Helvetica-Oblique findfont
dup length dict begin
  {1 index /FID ne {def} {pop pop} ifelse} forall
  /Encoding ISOLatin1Encoding def
  currentdict
  end
/Font3 exch definefont pop
%%IncludeResource: font Helvetica-BoldOblique
/Helvetica-BoldOblique findfont
dup length dict begin
  {1 index /FID ne {def} {pop pop} ifelse} forall
  /Encoding ISOLatin1Encoding def
  currentdict
  end
/Font4 exch definefont pop
%%IncludeResource: font Symbol
/Symbol findfont
dup length dict begin
  {1 index /FID ne {def} {pop pop} ifelse} forall
  currentdict
  end
/Font5 exch definefont pop
%%EndProlog
%%Page: 1 1
bp
0.00 0.00 504.00 504.00 cl
0 0 0 srgb
0.75 setlinewidth
[] 0 setdash
1 setlinecap
1 setlinejoin
10.00 setmiterlimit
np
74.40 73.44 m
384.00 0 l
o
np
74.40 73.44 m
0 -7.20 l
o
np
170.40 73.44 m
0 -7.20 l
o
np
266.40 73.44 m
0 -7.20 l
o
np
362.40 73.44 m
0 -7.20 l
o
np
458.40 73.44 m
0 -7.20 l
o
/Font1 findfont 12 s
74.40 47.52 (0) .5 0 t
170.40 47.52 (2) .5 0 t
266.40 47.52 (4) .5 0 t
362.40 47.52 (6) .5 0 t
458.40 47.52 (8) .5 0 t
np
59.04 97.24 m
0 285.84 l
o
np
59.04 97.24 m
-7.20 0 l
o
np
59.04 192.52 m
-7.20 0 l
o
np
59.04 287.80 m
-7.20 0 l
o
np
59.04 383.08 m
-7.20 0 l
o
41.76 97.24 (5) .5 90 t
41.76 192.52 (10) .5 90 t
41.76 287.80 (15) .5 90 t
41.76 383.08 (20) .5 90 t
0.00 0.00 504.00 504.00 cl
/Font1 findfont 12 s
0 0 0 srgb
228.39 18.72 (Objem motor) 0 ta
0.180 (u) tb gr
12.96 259.20 (Spotreba na 100 km) .5 90 t
59.04 73.44 473.76 444.96 cl
0 0 0 srgb
0.75 setlinewidth
[] 0 setdash
1 setlinecap
1 setlinejoin
10.00 setmiterlimit
np
372.00 246.02 m
-177.60 -135.17 l
-33.60 -18.45 l
-86.40 -5.20 l
96.00 153.43 l
134.40 120.53 l
57.60 32.71 l
96.00 37.33 l
-76.80 -165.76 l
-9.60 -19.42 l
o
/bg { 0.6667 0.8000 1 srgb } def
np
 372.00 246.02 m
-177.60 -135.17 l
-33.60 -18.45 l
-86.40 -5.20 l
96.00 153.43 l
134.40 120.53 l
57.60 32.71 l
96.00 37.33 l
-76.80 -165.76 l
cp p3
/bg { 0.2000 0.3333 1 srgb } def
357.60 343.29 1.08 c p2
300.00 296.90 1.08 c p2
276.00 283.65 1.08 c p2
276.00 318.38 1.08 c p2
324.00 319.34 1.08 c p2
276.00 283.65 1.08 c p2
276.00 318.38 1.08 c p2
324.00 319.34 1.08 c p2
362.40 319.20 1.08 c p2
458.40 431.20 1.08 c p2
372.00 251.31 1.08 c p2
372.00 272.52 1.08 c p2
290.40 328.54 1.08 c p2
290.40 323.54 1.08 c p2
290.40 328.54 1.08 c p2
290.40 323.54 1.08 c p2
280.80 296.30 1.08 c p2
280.80 293.47 1.08 c p2
146.40 124.37 1.08 c p2
146.40 135.68 1.08 c p2
386.40 354.55 1.08 c p2
324.00 306.83 1.08 c p2
324.00 318.81 1.08 c p2
304.80 361.16 1.08 c p2
170.40 194.67 1.08 c p2
170.40 184.89 1.08 c p2
170.40 190.60 1.08 c p2
338.40 269.73 1.08 c p2
372.00 317.97 1.08 c p2
160.80 172.36 1.08 c p2
160.80 174.13 1.08 c p2
242.40 194.77 1.08 c p2
372.00 282.55 1.08 c p2
372.00 282.55 1.08 c p2
122.40 126.35 1.08 c p2
122.40 126.35 1.08 c p2
151.20 147.04 1.08 c p2
151.20 140.39 1.08 c p2
151.20 151.67 1.08 c p2
151.20 149.81 1.08 c p2
151.20 157.81 1.08 c p2
151.20 151.60 1.08 c p2
151.20 157.81 1.08 c p2
151.20 151.60 1.08 c p2
151.20 162.21 1.08 c p2
151.20 162.21 1.08 c p2
357.60 292.93 1.08 c p2
357.60 338.90 1.08 c p2
357.60 324.69 1.08 c p2
357.60 343.29 1.08 c p2
357.60 307.38 1.08 c p2
141.60 147.64 1.08 c p2
141.60 155.94 1.08 c p2
314.40 243.05 1.08 c p2
314.40 259.43 1.08 c p2
314.40 259.43 1.08 c p2
314.40 250.68 1.08 c p2
151.20 147.04 1.08 c p2
151.20 140.39 1.08 c p2
151.20 151.67 1.08 c p2
151.20 149.81 1.08 c p2
151.20 157.81 1.08 c p2
151.20 151.60 1.08 c p2
151.20 157.81 1.08 c p2
151.20 151.60 1.08 c p2
151.20 162.21 1.08 c p2
151.20 162.21 1.08 c p2
256.80 202.96 1.08 c p2
136.80 124.37 1.08 c p2
357.60 300.85 1.08 c p2
170.40 189.57 1.08 c p2
170.40 189.57 1.08 c p2
170.40 182.80 1.08 c p2
194.40 220.87 1.08 c p2
362.40 328.81 1.08 c p2
362.40 323.10 1.08 c p2
266.40 286.57 1.08 c p2
266.40 287.58 1.08 c p2
266.40 281.21 1.08 c p2
266.40 278.60 1.08 c p2
151.20 138.63 1.08 c p2
151.20 139.45 1.08 c p2
151.20 137.36 1.08 c p2
252.00 195.24 1.08 c p2
314.40 221.51 1.08 c p2
314.40 223.16 1.08 c p2
333.60 258.28 1.08 c p2
252.00 198.71 1.08 c p2
170.40 195.04 1.08 c p2
170.40 188.64 1.08 c p2
314.40 245.73 1.08 c p2
300.00 293.72 1.08 c p2
160.80 183.09 1.08 c p2
372.00 293.57 1.08 c p2
372.00 291.46 1.08 c p2
300.00 233.08 1.08 c p2
300.00 219.99 1.08 c p2
151.20 151.67 1.08 c p2
151.20 149.81 1.08 c p2
151.20 157.81 1.08 c p2
151.20 151.60 1.08 c p2
151.20 162.21 1.08 c p2
314.40 253.61 1.08 c p2
160.80 154.67 1.08 c p2
160.80 154.55 1.08 c p2
170.40 182.74 1.08 c p2
170.40 189.13 1.08 c p2
170.40 182.22 1.08 c p2
194.40 211.51 1.08 c p2
170.40 189.57 1.08 c p2
170.40 182.80 1.08 c p2
362.40 323.10 1.08 c p2
218.40 172.82 1.08 c p2
218.40 172.82 1.08 c p2
372.00 319.59 1.08 c p2
372.00 246.02 1.08 c p2
372.00 284.91 1.08 c p2
141.60 147.03 1.08 c p2
141.60 139.03 1.08 c p2
160.80 159.48 1.08 c p2
160.80 154.30 1.08 c p2
189.60 206.82 1.08 c p2
170.40 144.64 1.08 c p2
170.40 147.83 1.08 c p2
170.40 153.63 1.08 c p2
170.40 144.64 1.08 c p2
170.40 145.23 1.08 c p2
170.40 153.69 1.08 c p2
170.40 139.87 1.08 c p2
170.40 139.87 1.08 c p2
160.80 147.07 1.08 c p2
160.80 141.88 1.08 c p2
160.80 145.73 1.08 c p2
160.80 137.98 1.08 c p2
146.40 103.41 1.08 c p2
136.80 108.07 1.08 c p2
136.80 107.84 1.08 c p2
151.20 146.55 1.08 c p2
151.20 142.03 1.08 c p2
151.20 151.37 1.08 c p2
151.20 146.55 1.08 c p2
170.40 157.81 1.08 c p2
151.20 146.55 1.08 c p2
151.20 142.03 1.08 c p2
160.80 109.73 1.08 c p2
189.60 131.67 1.08 c p2
146.40 148.99 1.08 c p2
146.40 143.71 1.08 c p2
170.40 139.48 1.08 c p2
170.40 146.98 1.08 c p2
160.80 182.89 1.08 c p2
242.40 195.38 1.08 c p2
372.00 293.57 1.08 c p2
338.40 324.19 1.08 c p2
338.40 257.87 1.08 c p2
362.40 313.77 1.08 c p2
300.00 231.27 1.08 c p2
300.00 233.52 1.08 c p2
338.40 238.16 1.08 c p2
151.20 168.10 1.08 c p2
151.20 149.81 1.08 c p2
151.20 162.55 1.08 c p2
151.20 158.31 1.08 c p2
151.20 173.24 1.08 c p2
151.20 163.92 1.08 c p2
170.40 223.31 1.08 c p2
170.40 157.60 1.08 c p2
170.40 240.63 1.08 c p2
170.40 236.60 1.08 c p2
151.20 136.28 1.08 c p2
151.20 149.86 1.08 c p2
160.80 167.75 1.08 c p2
160.80 149.41 1.08 c p2
160.80 162.14 1.08 c p2
396.00 332.97 1.08 c p2
396.00 332.97 1.08 c p2
170.40 210.37 1.08 c p2
170.40 184.36 1.08 c p2
170.40 200.62 1.08 c p2
170.40 184.36 1.08 c p2
170.40 150.52 1.08 c p2
194.40 215.68 1.08 c p2
194.40 239.09 1.08 c p2
160.80 155.53 1.08 c p2
160.80 152.12 1.08 c p2
146.40 92.48 1.08 c p2
146.40 142.28 1.08 c p2
146.40 136.97 1.08 c p2
170.40 186.81 1.08 c p2
170.40 133.19 1.08 c p2
170.40 133.12 1.08 c p2
170.40 204.85 1.08 c p2
170.40 183.21 1.08 c p2
170.40 133.19 1.08 c p2
170.40 133.12 1.08 c p2
276.00 214.35 1.08 c p2
362.40 328.81 1.08 c p2
400.80 343.72 1.08 c p2
218.40 176.69 1.08 c p2
285.60 229.23 1.08 c p2
189.60 158.78 1.08 c p2
170.40 204.62 1.08 c p2
170.40 208.19 1.08 c p2
170.40 205.82 1.08 c p2
170.40 190.21 1.08 c p2
170.40 209.23 1.08 c p2
189.60 158.78 1.08 c p2
372.00 318.10 1.08 c p2
372.00 286.27 1.08 c p2
141.60 151.03 1.08 c p2
141.60 149.89 1.08 c p2
160.80 170.20 1.08 c p2
160.80 156.56 1.08 c p2
141.60 148.07 1.08 c p2
141.60 137.62 1.08 c p2
141.60 147.03 1.08 c p2
141.60 139.03 1.08 c p2
160.80 159.48 1.08 c p2
160.80 154.30 1.08 c p2
348.00 242.29 1.08 c p2
348.00 251.71 1.08 c p2
381.60 265.44 1.08 c p2
381.60 267.49 1.08 c p2
376.80 357.62 1.08 c p2
376.80 352.97 1.08 c p2
194.40 116.91 1.08 c p2
160.80 142.03 1.08 c p2
160.80 142.03 1.08 c p2
189.60 126.47 1.08 c p2
242.40 156.60 1.08 c p2
343.20 243.38 1.08 c p2
343.20 245.84 1.08 c p2
314.40 261.22 1.08 c p2
314.40 242.07 1.08 c p2
170.40 155.40 1.08 c p2
170.40 149.23 1.08 c p2
189.60 163.93 1.08 c p2
189.60 126.47 1.08 c p2
295.20 236.61 1.08 c p2
295.20 236.61 1.08 c p2
314.40 221.28 1.08 c p2
242.40 165.66 1.08 c p2
194.40 116.91 1.08 c p2
170.40 142.20 1.08 c p2
170.40 147.87 1.08 c p2
184.80 218.69 1.08 c p2
242.40 195.41 1.08 c p2
218.40 179.05 1.08 c p2
300.00 231.44 1.08 c p2
338.40 242.46 1.08 c p2
170.40 153.57 1.08 c p2
170.40 210.37 1.08 c p2
170.40 184.36 1.08 c p2
194.40 218.91 1.08 c p2
194.40 159.83 1.08 c p2
242.40 184.47 1.08 c p2
194.40 110.85 1.08 c p2
194.40 115.41 1.08 c p2
160.80 92.40 1.08 c p2
170.40 133.05 1.08 c p2
170.40 129.32 1.08 c p2
276.00 214.35 1.08 c p2
376.80 278.98 1.08 c p2
362.40 299.68 1.08 c p2
285.60 229.23 1.08 c p2
247.20 197.05 1.08 c p2
348.00 242.29 1.08 c p2
348.00 256.41 1.08 c p2
381.60 265.44 1.08 c p2
247.20 197.05 1.08 c p2
348.00 242.29 1.08 c p2
348.00 256.41 1.08 c p2
381.60 265.44 1.08 c p2
242.40 191.56 1.08 c p2
314.40 249.50 1.08 c p2
256.80 204.34 1.08 c p2
295.20 237.87 1.08 c p2
314.40 225.06 1.08 c p2
314.40 250.98 1.08 c p2
314.40 242.33 1.08 c p2
314.40 261.22 1.08 c p2
314.40 261.22 1.08 c p2
314.40 253.27 1.08 c p2
300.00 307.92 1.08 c p2
338.40 374.27 1.08 c p2
338.40 368.98 1.08 c p2
338.40 374.27 1.08 c p2
338.40 368.98 1.08 c p2
338.40 368.98 1.08 c p2
300.00 243.93 1.08 c p2
338.40 317.87 1.08 c p2
338.40 255.07 1.08 c p2
362.40 311.85 1.08 c p2
304.80 238.65 1.08 c p2
304.80 238.65 1.08 c p2
218.40 178.92 1.08 c p2
391.20 293.02 1.08 c p2
391.20 293.02 1.08 c p2
396.00 332.97 1.08 c p2
396.00 332.97 1.08 c p2
170.40 187.49 1.08 c p2
170.40 133.19 1.08 c p2
170.40 188.18 1.08 c p2
170.40 191.74 1.08 c p2
170.40 189.57 1.08 c p2
372.00 318.10 1.08 c p2
372.00 286.27 1.08 c p2
170.40 184.97 1.08 c p2
146.40 146.55 1.08 c p2
146.40 151.23 1.08 c p2
146.40 156.52 1.08 c p2
151.20 167.97 1.08 c p2
151.20 167.97 1.08 c p2
151.20 162.04 1.08 c p2
74.40 87.20 1.08 c p2
160.80 159.69 1.08 c p2
160.80 168.44 1.08 c p2
151.20 155.15 1.08 c p2
151.20 167.29 1.08 c p2
151.20 166.30 1.08 c p2
170.40 210.37 1.08 c p2
170.40 184.36 1.08 c p2
170.40 150.41 1.08 c p2
194.40 215.68 1.08 c p2
194.40 239.09 1.08 c p2
160.80 164.91 1.08 c p2
160.80 157.19 1.08 c p2
170.40 138.50 1.08 c p2
170.40 133.12 1.08 c p2
338.40 248.37 1.08 c p2
160.80 108.75 1.08 c p2
252.00 264.00 1.08 c p2
252.00 264.00 1.08 c p2
194.40 240.83 1.08 c p2
194.40 216.87 1.08 c p2
194.40 240.78 1.08 c p2
194.40 216.97 1.08 c p2
266.40 277.42 1.08 c p2
266.40 275.19 1.08 c p2
204.00 234.71 1.08 c p2
204.00 237.00 1.08 c p2
328.80 266.88 1.08 c p2
372.00 313.82 1.08 c p2
328.80 254.48 1.08 c p2
252.00 278.58 1.08 c p2
348.00 284.19 1.08 c p2
372.00 312.86 1.08 c p2
328.80 266.88 1.08 c p2
372.00 313.82 1.08 c p2
328.80 254.48 1.08 c p2
343.20 304.67 1.08 c p2
343.20 307.01 1.08 c p2
348.00 292.86 1.08 c p2
280.80 292.26 1.08 c p2
304.80 304.63 1.08 c p2
328.80 266.94 1.08 c p2
372.00 319.10 1.08 c p2
348.00 295.25 1.08 c p2
242.40 261.97 1.08 c p2
242.40 262.17 1.08 c p2
372.00 342.83 1.08 c p2
372.00 344.92 1.08 c p2
280.80 292.26 1.08 c p2
304.80 305.15 1.08 c p2
328.80 266.95 1.08 c p2
372.00 319.39 1.08 c p2
372.00 318.87 1.08 c p2
242.40 258.65 1.08 c p2
343.20 324.82 1.08 c p2
343.20 322.66 1.08 c p2
348.00 311.42 1.08 c p2
348.00 302.33 1.08 c p2
328.80 305.30 1.08 c p2
328.80 315.90 1.08 c p2
362.40 378.68 1.08 c p2
362.40 378.68 1.08 c p2
362.40 393.87 1.08 c p2
328.80 315.57 1.08 c p2
328.80 315.57 1.08 c p2
295.20 311.02 1.08 c p2
333.60 328.40 1.08 c p2
295.20 311.02 1.08 c p2
333.60 329.53 1.08 c p2
400.80 386.40 1.08 c p2
333.60 340.40 1.08 c p2
328.80 305.30 1.08 c p2
328.80 315.90 1.08 c p2
362.40 378.68 1.08 c p2
362.40 378.68 1.08 c p2
362.40 393.87 1.08 c p2
328.80 315.57 1.08 c p2
328.80 315.57 1.08 c p2
328.80 315.90 1.08 c p2
304.80 344.33 1.08 c p2
362.40 360.09 1.08 c p2
304.80 344.33 1.08 c p2
362.40 372.68 1.08 c p2
328.80 315.57 1.08 c p2
295.20 321.67 1.08 c p2
333.60 340.40 1.08 c p2
400.80 406.41 1.08 c p2
333.60 355.28 1.08 c p2
328.80 315.90 1.08 c p2
304.80 344.33 1.08 c p2
362.40 360.09 1.08 c p2
304.80 344.33 1.08 c p2
362.40 370.91 1.08 c p2
328.80 315.57 1.08 c p2
170.40 195.44 1.08 c p2
170.40 192.07 1.08 c p2
295.20 309.90 1.08 c p2
295.20 346.75 1.08 c p2
194.40 165.29 1.08 c p2
194.40 164.29 1.08 c p2
184.80 215.04 1.08 c p2
372.00 289.73 1.08 c p2
372.00 289.73 1.08 c p2
328.80 264.18 1.08 c p2
328.80 264.18 1.08 c p2
328.80 264.18 1.08 c p2
362.40 367.09 1.08 c p2
348.00 284.19 1.08 c p2
189.60 206.34 1.08 c p2
170.40 187.41 1.08 c p2
194.40 140.47 1.08 c p2
333.60 283.53 1.08 c p2
170.40 199.01 1.08 c p2
328.80 264.18 1.08 c p2
372.00 289.73 1.08 c p2
328.80 264.18 1.08 c p2
372.00 289.73 1.08 c p2
362.40 367.09 1.08 c p2
189.60 211.01 1.08 c p2
170.40 205.70 1.08 c p2
343.20 284.35 1.08 c p2
170.40 184.97 1.08 c p2
348.00 284.19 1.08 c p2
170.40 184.97 1.08 c p2
170.40 185.44 1.08 c p2
242.40 152.45 1.08 c p2
333.60 282.96 1.08 c p2
184.80 224.75 1.08 c p2
343.20 306.41 1.08 c p2
343.20 308.67 1.08 c p2
189.60 212.92 1.08 c p2
189.60 209.28 1.08 c p2
348.00 303.49 1.08 c p2
170.40 191.61 1.08 c p2
170.40 214.36 1.08 c p2
184.80 237.87 1.08 c p2
170.40 201.51 1.08 c p2
218.40 254.40 1.08 c p2
218.40 244.06 1.08 c p2
285.60 321.77 1.08 c p2
218.40 244.06 1.08 c p2
285.60 321.77 1.08 c p2
372.00 295.22 1.08 c p2
372.00 313.98 1.08 c p2
372.00 313.98 1.08 c p2
218.40 244.84 1.08 c p2
218.40 240.22 1.08 c p2
218.40 237.87 1.08 c p2
328.80 267.54 1.08 c p2
328.80 267.54 1.08 c p2
328.80 267.54 1.08 c p2
362.40 371.92 1.08 c p2
348.00 296.54 1.08 c p2
194.40 157.09 1.08 c p2
333.60 309.91 1.08 c p2
328.80 267.54 1.08 c p2
372.00 295.22 1.08 c p2
328.80 267.54 1.08 c p2
372.00 313.98 1.08 c p2
362.40 371.92 1.08 c p2
218.40 240.22 1.08 c p2
218.40 237.87 1.08 c p2
189.60 209.32 1.08 c p2
189.60 215.40 1.08 c p2
343.20 287.04 1.08 c p2
189.60 212.94 1.08 c p2
348.00 300.75 1.08 c p2
381.60 315.84 1.08 c p2
189.60 212.94 1.08 c p2
189.60 205.70 1.08 c p2
170.40 205.70 1.08 c p2
189.60 215.40 1.08 c p2
228.00 258.87 1.08 c p2
314.40 317.10 1.08 c p2
314.40 328.13 1.08 c p2
314.40 312.02 1.08 c p2
170.40 209.51 1.08 c p2
314.40 329.96 1.08 c p2
314.40 310.05 1.08 c p2
242.40 158.64 1.08 c p2
333.60 309.91 1.08 c p2
184.80 240.85 1.08 c p2
338.40 352.62 1.08 c p2
218.40 242.20 1.08 c p2
300.00 310.62 1.08 c p2
338.40 320.26 1.08 c p2
338.40 293.88 1.08 c p2
170.40 183.16 1.08 c p2
343.20 317.90 1.08 c p2
343.20 317.34 1.08 c p2
266.40 276.48 1.08 c p2
343.20 311.70 1.08 c p2
247.20 261.05 1.08 c p2
304.80 250.18 1.08 c p2
208.80 250.89 1.08 c p2
218.40 237.87 1.08 c p2
194.40 217.86 1.08 c p2
189.60 222.76 1.08 c p2
266.40 279.58 1.08 c p2
242.40 164.38 1.08 c p2
295.20 303.50 1.08 c p2
348.00 315.74 1.08 c p2
348.00 309.66 1.08 c p2
170.40 193.58 1.08 c p2
228.00 246.69 1.08 c p2
np
285.30 228.99 m
-38.73 -30.70 l
-28.63 -19.50 l
-13.33 -7.77 l
-11.03 -5.44 l
-7.65 -2.57 l
-15.53 -4.09 l
0 22.64 l
0.44 0.56 l
18.67 23.39 l
0.20 0.22 l
22.21 23.79 l
18.81 17.32 l
45.70 36.23 l
8.64 4.26 l
19.53 8.04 l
12.20 4.09 l
4.56 1.20 l
2.76 0.73 l
2.82 -0.55 l
4.60 -10.03 l
-0.48 -5.53 l
-4.15 -6.13 l
-4.41 -6.53 l
-20.73 -25.99 l
-16.47 -17.64 l
o
/bg { 0.4667 0.6000 1 srgb } def
np
 285.30 228.99 m
-38.73 -30.70 l
-28.63 -19.50 l
-13.33 -7.77 l
-11.03 -5.44 l
-7.65 -2.57 l
-15.53 -4.09 l
0 22.64 l
0.44 0.56 l
18.67 23.39 l
0.20 0.22 l
22.21 23.79 l
18.81 17.32 l
45.70 36.23 l
8.64 4.26 l
19.53 8.04 l
12.20 4.09 l
4.56 1.20 l
2.76 0.73 l
2.82 -0.55 l
4.60 -10.03 l
-0.48 -5.53 l
-4.15 -6.13 l
-4.41 -6.53 l
-20.73 -25.99 l
cp p3
/bg { 0 0 0.5333 srgb } def
300.00 282.42 1.08 c p2
300.00 281.37 1.08 c p2
300.00 281.37 1.08 c p2
324.00 297.05 1.08 c p2
324.00 297.05 1.08 c p2
170.40 175.81 1.08 c p2
170.40 176.47 1.08 c p2
170.40 169.93 1.08 c p2
218.40 233.26 1.08 c p2
218.40 211.88 1.08 c p2
218.40 233.26 1.08 c p2
324.00 287.13 1.08 c p2
324.00 288.00 1.08 c p2
256.80 256.70 1.08 c p2
252.00 209.51 1.08 c p2
252.00 216.96 1.08 c p2
252.00 220.30 1.08 c p2
252.00 221.69 1.08 c p2
256.80 210.88 1.08 c p2
213.60 192.50 1.08 c p2
213.60 209.96 1.08 c p2
237.60 197.32 1.08 c p2
237.60 210.09 1.08 c p2
237.60 194.48 1.08 c p2
237.60 206.74 1.08 c p2
213.60 192.50 1.08 c p2
213.60 209.96 1.08 c p2
237.60 194.48 1.08 c p2
237.60 206.74 1.08 c p2
237.60 197.32 1.08 c p2
237.60 210.09 1.08 c p2
242.40 199.95 1.08 c p2
242.40 206.62 1.08 c p2
242.40 215.27 1.08 c p2
242.40 222.98 1.08 c p2
189.60 199.33 1.08 c p2
256.80 239.09 1.08 c p2
256.80 214.75 1.08 c p2
256.80 219.59 1.08 c p2
256.80 211.42 1.08 c p2
256.80 224.84 1.08 c p2
247.20 208.27 1.08 c p2
247.20 216.04 1.08 c p2
247.20 213.11 1.08 c p2
247.20 219.51 1.08 c p2
247.20 215.03 1.08 c p2
247.20 216.80 1.08 c p2
247.20 215.03 1.08 c p2
247.20 216.80 1.08 c p2
256.80 214.75 1.08 c p2
256.80 219.59 1.08 c p2
256.80 211.42 1.08 c p2
256.80 224.84 1.08 c p2
256.80 211.42 1.08 c p2
256.80 224.84 1.08 c p2
247.20 208.27 1.08 c p2
247.20 214.62 1.08 c p2
256.80 209.89 1.08 c p2
256.80 219.94 1.08 c p2
256.80 210.88 1.08 c p2
256.80 215.86 1.08 c p2
256.80 209.89 1.08 c p2
256.80 219.94 1.08 c p2
256.80 210.88 1.08 c p2
256.80 215.86 1.08 c p2
256.80 240.37 1.08 c p2
256.80 240.34 1.08 c p2
256.80 233.23 1.08 c p2
256.80 236.54 1.08 c p2
256.80 240.37 1.08 c p2
256.80 233.23 1.08 c p2
237.60 195.16 1.08 c p2
237.60 206.67 1.08 c p2
237.60 195.16 1.08 c p2
237.60 206.01 1.08 c p2
256.80 207.71 1.08 c p2
256.80 206.63 1.08 c p2
256.80 210.15 1.08 c p2
170.40 181.56 1.08 c p2
276.00 235.26 1.08 c p2
276.00 266.43 1.08 c p2
218.40 226.94 1.08 c p2
170.40 175.81 1.08 c p2
218.40 215.41 1.08 c p2
218.40 208.92 1.08 c p2
218.40 210.57 1.08 c p2
218.40 208.92 1.08 c p2
218.40 220.28 1.08 c p2
218.40 196.67 1.08 c p2
218.40 221.04 1.08 c p2
218.40 206.05 1.08 c p2
218.40 215.41 1.08 c p2
218.40 223.95 1.08 c p2
218.40 210.57 1.08 c p2
218.40 208.92 1.08 c p2
218.40 222.67 1.08 c p2
218.40 230.56 1.08 c p2
218.40 208.46 1.08 c p2
218.40 206.05 1.08 c p2
218.40 208.46 1.08 c p2
218.40 206.05 1.08 c p2
218.40 211.57 1.08 c p2
218.40 208.38 1.08 c p2
218.40 233.26 1.08 c p2
218.40 217.97 1.08 c p2
218.40 233.26 1.08 c p2
218.40 217.97 1.08 c p2
252.00 204.17 1.08 c p2
256.80 220.98 1.08 c p2
256.80 221.50 1.08 c p2
252.00 224.35 1.08 c p2
252.00 239.40 1.08 c p2
252.00 208.61 1.08 c p2
252.00 232.42 1.08 c p2
252.00 220.92 1.08 c p2
194.40 203.20 1.08 c p2
194.40 184.89 1.08 c p2
194.40 206.15 1.08 c p2
242.40 214.74 1.08 c p2
242.40 203.35 1.08 c p2
300.00 291.77 1.08 c p2
242.40 203.22 1.08 c p2
242.40 203.43 1.08 c p2
242.40 203.22 1.08 c p2
242.40 203.22 1.08 c p2
242.40 202.01 1.08 c p2
242.40 199.31 1.08 c p2
242.40 205.95 1.08 c p2
242.40 206.55 1.08 c p2
189.60 195.43 1.08 c p2
189.60 198.89 1.08 c p2
256.80 227.18 1.08 c p2
194.40 172.41 1.08 c p2
194.40 175.13 1.08 c p2
242.40 197.39 1.08 c p2
242.40 211.17 1.08 c p2
256.80 241.90 1.08 c p2
314.40 275.03 1.08 c p2
194.40 183.18 1.08 c p2
194.40 181.21 1.08 c p2
189.60 177.65 1.08 c p2
189.60 189.00 1.08 c p2
242.40 200.32 1.08 c p2
170.40 181.56 1.08 c p2
218.40 213.44 1.08 c p2
218.40 216.44 1.08 c p2
170.40 171.38 1.08 c p2
170.40 169.93 1.08 c p2
218.40 194.93 1.08 c p2
218.40 192.03 1.08 c p2
285.60 252.83 1.08 c p2
285.60 259.39 1.08 c p2
285.60 271.77 1.08 c p2
285.60 252.83 1.08 c p2
285.60 259.39 1.08 c p2
285.60 267.47 1.08 c p2
285.60 283.07 1.08 c p2
189.60 184.46 1.08 c p2
247.20 201.96 1.08 c p2
247.20 206.53 1.08 c p2
247.20 221.00 1.08 c p2
247.20 202.63 1.08 c p2
189.60 173.82 1.08 c p2
189.60 173.27 1.08 c p2
242.40 197.48 1.08 c p2
242.40 219.87 1.08 c p2
189.60 181.58 1.08 c p2
170.40 164.24 1.08 c p2
189.60 175.07 1.08 c p2
189.60 175.51 1.08 c p2
170.40 167.29 1.08 c p2
170.40 160.50 1.08 c p2
194.40 182.77 1.08 c p2
194.40 195.34 1.08 c p2
218.40 226.80 1.08 c p2
218.40 222.06 1.08 c p2
242.40 200.51 1.08 c p2
300.00 254.00 1.08 c p2
170.40 161.48 1.08 c p2
189.60 176.11 1.08 c p2
189.60 176.68 1.08 c p2
189.60 183.00 1.08 c p2
194.40 176.88 1.08 c p2
194.40 176.78 1.08 c p2
170.40 162.57 1.08 c p2
189.60 176.23 1.08 c p2
189.60 190.96 1.08 c p2
189.60 182.95 1.08 c p2
189.60 171.82 1.08 c p2
189.60 184.89 1.08 c p2
189.60 179.46 1.08 c p2
170.40 162.37 1.08 c p2
170.40 171.27 1.08 c p2
170.40 176.98 1.08 c p2
170.40 174.43 1.08 c p2
170.40 179.66 1.08 c p2
247.20 227.46 1.08 c p2
194.40 171.25 1.08 c p2
194.40 172.00 1.08 c p2
170.40 165.77 1.08 c p2
170.40 169.45 1.08 c p2
170.40 177.86 1.08 c p2
170.40 162.99 1.08 c p2
170.40 176.41 1.08 c p2
194.40 171.25 1.08 c p2
194.40 172.00 1.08 c p2
194.40 186.48 1.08 c p2
194.40 187.08 1.08 c p2
218.40 214.69 1.08 c p2
194.40 192.91 1.08 c p2
252.00 228.97 1.08 c p2
242.40 195.45 1.08 c p2
252.00 213.72 1.08 c p2
252.00 224.61 1.08 c p2
170.40 164.52 1.08 c p2
218.40 206.52 1.08 c p2
218.40 207.21 1.08 c p2
170.40 167.44 1.08 c p2
170.40 175.08 1.08 c p2
218.40 192.03 1.08 c p2
218.40 194.93 1.08 c p2
218.40 186.24 1.08 c p2
285.60 252.83 1.08 c p2
285.60 259.39 1.08 c p2
285.60 267.47 1.08 c p2
247.20 218.95 1.08 c p2
247.20 218.32 1.08 c p2
247.20 230.18 1.08 c p2
189.60 193.85 1.08 c p2
189.60 193.85 1.08 c p2
218.40 209.67 1.08 c p2
247.20 215.40 1.08 c p2
247.20 234.49 1.08 c p2
218.40 219.88 1.08 c p2
247.20 217.08 1.08 c p2
189.60 175.49 1.08 c p2
189.60 175.30 1.08 c p2
247.20 228.35 1.08 c p2
189.60 188.04 1.08 c p2
189.60 192.56 1.08 c p2
247.20 202.63 1.08 c p2
189.60 188.04 1.08 c p2
189.60 192.56 1.08 c p2
247.20 202.63 1.08 c p2
247.20 216.29 1.08 c p2
242.40 232.95 1.08 c p2
218.40 221.49 1.08 c p2
194.40 171.79 1.08 c p2
194.40 183.67 1.08 c p2
194.40 185.02 1.08 c p2
242.40 214.93 1.08 c p2
218.40 199.01 1.08 c p2
194.40 179.77 1.08 c p2
194.40 193.86 1.08 c p2
194.40 203.03 1.08 c p2
252.00 208.61 1.08 c p2
252.00 232.42 1.08 c p2
252.00 220.92 1.08 c p2
252.00 213.33 1.08 c p2
252.00 226.98 1.08 c p2
170.40 158.92 1.08 c p2
189.60 173.36 1.08 c p2
189.60 175.51 1.08 c p2
170.40 172.42 1.08 c p2
189.60 164.79 1.08 c p2
242.40 203.85 1.08 c p2
295.20 246.49 1.08 c p2
295.20 246.49 1.08 c p2
242.40 232.95 1.08 c p2
194.40 181.87 1.08 c p2
194.40 185.02 1.08 c p2
252.00 213.95 1.08 c p2
242.40 201.08 1.08 c p2
189.60 186.38 1.08 c p2
194.40 170.25 1.08 c p2
242.40 201.07 1.08 c p2
242.40 207.33 1.08 c p2
170.40 170.13 1.08 c p2
194.40 173.06 1.08 c p2
194.40 190.36 1.08 c p2
208.80 224.53 1.08 c p2
194.40 177.39 1.08 c p2
194.40 205.05 1.08 c p2
247.20 224.37 1.08 c p2
194.40 179.33 1.08 c p2
194.40 177.31 1.08 c p2
247.20 199.53 1.08 c p2
218.40 214.69 1.08 c p2
228.00 195.65 1.08 c p2
218.40 206.09 1.08 c p2
218.40 214.22 1.08 c p2
285.60 255.11 1.08 c p2
285.60 271.77 1.08 c p2
218.40 226.23 1.08 c p2
218.40 226.23 1.08 c p2
247.20 208.56 1.08 c p2
247.20 208.56 1.08 c p2
247.20 216.29 1.08 c p2
247.20 210.59 1.08 c p2
247.20 216.29 1.08 c p2
247.20 210.59 1.08 c p2
242.40 224.84 1.08 c p2
242.40 230.12 1.08 c p2
242.40 209.36 1.08 c p2
242.40 214.93 1.08 c p2
189.60 171.06 1.08 c p2
189.60 168.52 1.08 c p2
232.80 193.39 1.08 c p2
170.40 172.42 1.08 c p2
189.60 164.44 1.08 c p2
189.60 164.68 1.08 c p2
242.40 230.12 1.08 c p2
252.00 241.11 1.08 c p2
242.40 227.95 1.08 c p2
218.40 184.05 1.08 c p2
300.00 255.01 1.08 c p2
242.40 214.49 1.08 c p2
247.20 214.36 1.08 c p2
247.20 218.28 1.08 c p2
304.80 254.63 1.08 c p2
304.80 254.63 1.08 c p2
242.40 201.15 1.08 c p2
189.60 183.65 1.08 c p2
218.40 215.41 1.08 c p2
218.40 223.95 1.08 c p2
218.40 222.67 1.08 c p2
218.40 230.56 1.08 c p2
218.40 209.67 1.08 c p2
247.20 217.93 1.08 c p2
218.40 219.88 1.08 c p2
247.20 217.08 1.08 c p2
170.40 168.23 1.08 c p2
189.60 189.33 1.08 c p2
170.40 173.86 1.08 c p2
170.40 174.48 1.08 c p2
242.40 227.39 1.08 c p2
242.40 232.81 1.08 c p2
170.40 181.25 1.08 c p2
170.40 174.35 1.08 c p2
170.40 174.35 1.08 c p2
170.40 165.30 1.08 c p2
189.60 183.00 1.08 c p2
189.60 189.17 1.08 c p2
189.60 188.30 1.08 c p2
170.40 163.16 1.08 c p2
170.40 176.31 1.08 c p2
170.40 180.49 1.08 c p2
170.40 179.18 1.08 c p2
170.40 181.45 1.08 c p2
189.60 202.11 1.08 c p2
189.60 186.79 1.08 c p2
189.60 188.78 1.08 c p2
194.40 171.25 1.08 c p2
194.40 172.00 1.08 c p2
189.60 203.80 1.08 c p2
204.00 216.07 1.08 c p2
242.40 209.58 1.08 c p2
252.00 234.87 1.08 c p2
252.00 238.64 1.08 c p2
252.00 232.82 1.08 c p2
252.00 238.64 1.08 c p2
266.40 269.32 1.08 c p2
266.40 261.08 1.08 c p2
266.40 268.85 1.08 c p2
204.00 214.52 1.08 c p2
204.00 203.55 1.08 c p2
266.40 240.43 1.08 c p2
266.40 250.82 1.08 c p2
252.00 239.62 1.08 c p2
252.00 252.52 1.08 c p2
252.00 252.52 1.08 c p2
252.00 237.95 1.08 c p2
252.00 252.52 1.08 c p2
252.00 252.52 1.08 c p2
266.40 264.51 1.08 c p2
266.40 253.65 1.08 c p2
266.40 268.07 1.08 c p2
280.80 266.95 1.08 c p2
304.80 286.87 1.08 c p2
300.00 280.62 1.08 c p2
242.40 244.25 1.08 c p2
242.40 244.51 1.08 c p2
252.00 239.75 1.08 c p2
252.00 239.75 1.08 c p2
314.40 263.84 1.08 c p2
314.40 264.29 1.08 c p2
280.80 266.04 1.08 c p2
304.80 286.14 1.08 c p2
266.40 255.54 1.08 c p2
295.20 268.71 1.08 c p2
300.00 286.23 1.08 c p2
252.00 256.12 1.08 c p2
252.00 256.11 1.08 c p2
314.40 281.86 1.08 c p2
314.40 282.06 1.08 c p2
295.20 282.52 1.08 c p2
280.80 268.85 1.08 c p2
280.80 268.85 1.08 c p2
247.20 226.37 1.08 c p2
247.20 226.37 1.08 c p2
247.20 226.37 1.08 c p2
242.40 214.19 1.08 c p2
242.40 204.03 1.08 c p2
242.40 219.93 1.08 c p2
242.40 216.93 1.08 c p2
204.00 216.10 1.08 c p2
242.40 219.23 1.08 c p2
247.20 226.37 1.08 c p2
242.40 237.30 1.08 c p2
247.20 236.35 1.08 c p2
247.20 235.44 1.08 c p2
189.60 196.84 1.08 c p2
218.40 232.95 1.08 c p2
189.60 175.41 1.08 c p2
189.60 175.41 1.08 c p2
218.40 231.05 1.08 c p2
218.40 231.05 1.08 c p2
247.20 236.35 1.08 c p2
247.20 240.48 1.08 c p2
247.20 229.19 1.08 c p2
242.40 206.45 1.08 c p2
252.00 210.42 1.08 c p2
194.40 194.23 1.08 c p2
194.40 183.11 1.08 c p2
218.40 212.08 1.08 c p2
242.40 226.07 1.08 c p2
242.40 232.57 1.08 c p2
247.20 236.35 1.08 c p2
189.60 175.41 1.08 c p2
189.60 175.41 1.08 c p2
218.40 231.05 1.08 c p2
218.40 231.05 1.08 c p2
189.60 187.93 1.08 c p2
242.40 211.89 1.08 c p2
189.60 175.29 1.08 c p2
242.40 220.50 1.08 c p2
189.60 198.62 1.08 c p2
242.40 201.07 1.08 c p2
170.40 181.25 1.08 c p2
189.60 178.59 1.08 c p2
189.60 196.84 1.08 c p2
256.80 243.63 1.08 c p2
242.40 243.56 1.08 c p2
170.40 180.55 1.08 c p2
189.60 192.19 1.08 c p2
189.60 180.85 1.08 c p2
247.20 236.00 1.08 c p2
252.00 249.10 1.08 c p2
170.40 180.55 1.08 c p2
189.60 192.19 1.08 c p2
189.60 180.85 1.08 c p2
189.60 188.35 1.08 c p2
189.60 188.72 1.08 c p2
189.60 203.41 1.08 c p2
242.40 203.67 1.08 c p2
189.60 178.36 1.08 c p2
189.60 196.84 1.08 c p2
242.40 218.63 1.08 c p2
242.40 230.69 1.08 c p2
252.00 210.42 1.08 c p2
194.40 202.13 1.08 c p2
252.00 232.63 1.08 c p2
242.40 245.88 1.08 c p2
189.60 183.01 1.08 c p2
218.40 206.57 1.08 c p2
170.40 166.91 1.08 c p2
170.40 172.00 1.08 c p2
242.40 221.71 1.08 c p2
266.40 260.07 1.08 c p2
194.40 181.02 1.08 c p2
266.40 248.75 1.08 c p2
218.40 223.41 1.08 c p2
266.40 234.00 1.08 c p2
266.40 243.74 1.08 c p2
204.00 208.74 1.08 c p2
242.40 223.53 1.08 c p2
194.40 187.79 1.08 c p2
242.40 204.77 1.08 c p2
295.20 275.96 1.08 c p2
204.00 195.49 1.08 c p2
242.40 210.39 1.08 c p2
228.00 214.40 1.08 c p2
228.00 214.40 1.08 c p2
228.00 241.27 1.08 c p2
252.00 254.39 1.08 c p2
252.00 240.00 1.08 c p2
228.00 228.47 1.08 c p2
218.40 223.99 1.08 c p2
218.40 211.81 1.08 c p2
218.40 211.56 1.08 c p2
218.40 210.06 1.08 c p2
285.60 278.22 1.08 c p2
285.60 278.22 1.08 c p2
247.20 250.98 1.08 c p2
247.20 246.08 1.08 c p2
189.60 192.94 1.08 c p2
189.60 192.94 1.08 c p2
247.20 244.23 1.08 c p2
247.20 243.78 1.08 c p2
247.20 240.11 1.08 c p2
242.40 220.37 1.08 c p2
252.00 233.33 1.08 c p2
194.40 198.77 1.08 c p2
218.40 226.18 1.08 c p2
242.40 238.52 1.08 c p2
242.40 244.63 1.08 c p2
242.40 251.03 1.08 c p2
247.20 244.23 1.08 c p2
189.60 192.94 1.08 c p2
189.60 192.94 1.08 c p2
242.40 219.87 1.08 c p2
189.60 181.10 1.08 c p2
242.40 227.37 1.08 c p2
242.40 206.46 1.08 c p2
189.60 193.31 1.08 c p2
256.80 251.14 1.08 c p2
242.40 252.79 1.08 c p2
314.40 276.45 1.08 c p2
189.60 199.08 1.08 c p2
189.60 185.07 1.08 c p2
247.20 243.78 1.08 c p2
252.00 263.70 1.08 c p2
189.60 199.08 1.08 c p2
189.60 185.07 1.08 c p2
247.20 245.70 1.08 c p2
247.20 245.19 1.08 c p2
247.20 257.45 1.08 c p2
247.20 256.65 1.08 c p2
189.60 195.63 1.08 c p2
242.40 220.77 1.08 c p2
189.60 196.84 1.08 c p2
295.20 265.21 1.08 c p2
242.40 226.32 1.08 c p2
242.40 251.03 1.08 c p2
252.00 233.33 1.08 c p2
252.00 244.23 1.08 c p2
242.40 254.43 1.08 c p2
242.40 237.72 1.08 c p2
242.40 229.44 1.08 c p2
218.40 205.41 1.08 c p2
300.00 270.36 1.08 c p2
242.40 252.09 1.08 c p2
218.40 227.88 1.08 c p2
189.60 190.01 1.08 c p2
218.40 216.83 1.08 c p2
242.40 225.41 1.08 c p2
242.40 240.11 1.08 c p2
194.40 192.08 1.08 c p2
266.40 270.86 1.08 c p2
266.40 263.49 1.08 c p2
247.20 237.87 1.08 c p2
218.40 210.77 1.08 c p2
304.80 262.68 1.08 c p2
194.40 196.34 1.08 c p2
194.40 195.24 1.08 c p2
194.40 187.08 1.08 c p2
194.40 205.05 1.08 c p2
247.20 224.37 1.08 c p2
247.20 250.35 1.08 c p2
266.40 243.90 1.08 c p2
266.40 243.90 1.08 c p2
266.40 251.36 1.08 c p2
242.40 240.45 1.08 c p2
194.40 192.04 1.08 c p2
242.40 208.67 1.08 c p2
204.00 203.40 1.08 c p2
242.40 216.68 1.08 c p2
218.40 203.46 1.08 c p2
247.20 240.52 1.08 c p2
218.40 215.07 1.08 c p2
218.40 230.70 1.08 c p2
228.00 221.90 1.08 c p2
218.40 230.70 1.08 c p2
228.00 221.90 1.08 c p2
/bg { 1 0 0 srgb } def
372.00 232.71 1.08 c p2
410.40 252.88 1.08 c p2
338.40 204.16 1.08 c p2
372.00 220.62 1.08 c p2
362.40 214.61 1.08 c p2
362.40 214.61 1.08 c p2
362.40 215.97 1.08 c p2
362.40 215.97 1.08 c p2
362.40 214.61 1.08 c p2
362.40 214.61 1.08 c p2
362.40 214.61 1.08 c p2
362.40 212.09 1.08 c p2
362.40 215.97 1.08 c p2
362.40 215.97 1.08 c p2
362.40 212.09 1.08 c p2
np
225.27 211.88 m
-2.77 1.37 l
6.41 3.73 l
2.99 1.01 l
-6.63 -6.11 l
o
/bg { 1 0.6471 0 srgb } def
np
 225.27 211.88 m
-2.77 1.37 l
6.41 3.73 l
2.99 1.01 l
cp p3
1 0 0 srgb
np
224.04 211.93 m
5.40 5.40 l
o
np
224.04 217.33 m
5.40 -5.40 l
o
np
222.92 214.63 m
7.64 0 l
o
np
226.74 210.82 m
0 7.63 l
o
ep
%%Trailer
%%Pages: 1
%%EOF
