%!PS-Adobe-3.0 EPSF-3.0
%%DocumentNeededResources: font Helvetica
%%+ font Helvetica-Bold
%%+ font Helvetica-Oblique
%%+ font Helvetica-BoldOblique
%%+ font Symbol
%%Title: R Graphics Output
%%Creator: R Software
%%Pages: (atend)
%%BoundingBox: 0 0 504 504
%%EndComments
%%BeginProlog
/bp  { gs sRGB gs } def
% begin .ps.prolog
/gs  { gsave } bind def
/gr  { grestore } bind def
/ep  { showpage gr gr } bind def
/m   { moveto } bind def
/l  { rlineto } bind def
/np  { newpath } bind def
/cp  { closepath } bind def
/f   { fill } bind def
/o   { stroke } bind def
/c   { newpath 0 360 arc } bind def
/r   { 4 2 roll moveto 1 copy 3 -1 roll exch 0 exch rlineto 0 rlineto -1 mul 0 exch rlineto closepath } bind def
/p1  { stroke } bind def
/p2  { gsave bg fill grestore newpath } bind def
/p3  { gsave bg fill grestore stroke } bind def
/p6  { gsave bg eofill grestore newpath } bind def
/p7  { gsave bg eofill grestore stroke } bind def
/t   { 5 -2 roll moveto gsave rotate
       1 index stringwidth pop
       mul neg 0 rmoveto show grestore } bind def
/ta  { 4 -2 roll moveto gsave rotate show } bind def
/tb  { 2 -1 roll 0 rmoveto show } bind def
/cl  { grestore gsave newpath 3 index 3 index moveto 1 index
       4 -1 roll lineto  exch 1 index lineto lineto
       closepath clip newpath } bind def
/rgb { setrgbcolor } bind def
/s   { scalefont setfont } bind def
% end   .ps.prolog
/sRGB { [ /CIEBasedABC
          << /DecodeLMN
               [ { dup 0.03928 le
                        {12.92321 div}
                        {0.055 add 1.055 div 2.4 exp }
                     ifelse
                 } bind dup dup
               ]
             /MatrixLMN [0.412457 0.212673 0.019334
                         0.357576 0.715152 0.119192
                         0.180437 0.072175 0.950301]
             /WhitePoint [0.9505 1.0 1.0890]
           >>
         ] setcolorspace } bind def
/srgb { setcolor } bind def
%%IncludeResource: font Helvetica
/Helvetica findfont
dup length dict begin
  {1 index /FID ne {def} {pop pop} ifelse} forall
  /Encoding ISOLatin1Encoding def
  currentdict
  end
/Font1 exch definefont pop
%%IncludeResource: font Helvetica-Bold
/Helvetica-Bold findfont
dup length dict begin
  {1 index /FID ne {def} {pop pop} ifelse} forall
  /Encoding ISOLatin1Encoding def
  currentdict
  end
/Font2 exch definefont pop
%%IncludeResource: font Helvetica-Oblique
/Helvetica-Oblique findfont
dup length dict begin
  {1 index /FID ne {def} {pop pop} ifelse} forall
  /Encoding ISOLatin1Encoding def
  currentdict
  end
/Font3 exch definefont pop
%%IncludeResource: font Helvetica-BoldOblique
/Helvetica-BoldOblique findfont
dup length dict begin
  {1 index /FID ne {def} {pop pop} ifelse} forall
  /Encoding ISOLatin1Encoding def
  currentdict
  end
/Font4 exch definefont pop
%%IncludeResource: font Symbol
/Symbol findfont
dup length dict begin
  {1 index /FID ne {def} {pop pop} ifelse} forall
  currentdict
  end
/Font5 exch definefont pop
%%EndProlog
%%Page: 1 1
bp
0.00 0.00 504.00 504.00 cl
0 0 0 srgb
0.75 setlinewidth
[] 0 setdash
1 setlinecap
1 setlinejoin
10.00 setmiterlimit
np
74.40 73.44 m
384.00 0 l
o
np
74.40 73.44 m
0 -7.20 l
o
np
129.26 73.44 m
0 -7.20 l
o
np
184.11 73.44 m
0 -7.20 l
o
np
238.97 73.44 m
0 -7.20 l
o
np
293.83 73.44 m
0 -7.20 l
o
np
348.69 73.44 m
0 -7.20 l
o
np
403.54 73.44 m
0 -7.20 l
o
np
458.40 73.44 m
0 -7.20 l
o
/Font1 findfont 12 s
74.40 47.52 (1) .5 0 t
129.26 47.52 (2) .5 0 t
184.11 47.52 (3) .5 0 t
238.97 47.52 (4) .5 0 t
293.83 47.52 (5) .5 0 t
348.69 47.52 (6) .5 0 t
403.54 47.52 (7) .5 0 t
458.40 47.52 (8) .5 0 t
np
59.04 113.66 m
0 317.54 l
o
np
59.04 113.66 m
-7.20 0 l
o
np
59.04 166.58 m
-7.20 0 l
o
np
59.04 219.51 m
-7.20 0 l
o
np
59.04 272.43 m
-7.20 0 l
o
np
59.04 325.35 m
-7.20 0 l
o
np
59.04 378.28 m
-7.20 0 l
o
np
59.04 431.20 m
-7.20 0 l
o
41.76 113.66 (4) .5 90 t
41.76 166.58 (6) .5 90 t
41.76 219.51 (8) .5 90 t
41.76 272.43 (10) .5 90 t
41.76 325.35 (12) .5 90 t
41.76 378.28 (14) .5 90 t
41.76 431.20 (16) .5 90 t
0.00 0.00 504.00 504.00 cl
/Font1 findfont 12 s
0 0 0 srgb
228.39 18.72 (Objem motor) 0 ta
0.180 (u) tb gr
12.96 228.19 (P) 90 ta
-0.600 (ocet v) tb
-0.300 (alcu) tb gr
59.04 73.44 473.76 444.96 cl
0 0 0 srgb
0.75 setlinewidth
[] 0 setdash
1 setlinecap
1 setlinejoin
10.00 setmiterlimit
np
178.63 113.66 m
-104.23 -26.46 l
16.46 26.46 l
230.40 211.69 l
65.83 0 l
16.45 -105.84 l
-224.91 -105.85 l
o
/bg { 0.6667 0.8000 1 srgb } def
np
 178.63 113.66 m
-104.23 -26.46 l
16.46 26.46 l
230.40 211.69 l
65.83 0 l
16.45 -105.84 l
cp p3
/bg { 0.2000 0.3333 1 srgb } def
343.20 325.35 1.08 c p2
304.80 272.43 1.08 c p2
304.80 272.43 1.08 c p2
304.80 272.43 1.08 c p2
304.80 272.43 1.08 c p2
348.69 325.35 1.08 c p2
359.66 219.51 1.08 c p2
359.66 219.51 1.08 c p2
359.66 219.51 1.08 c p2
403.54 219.51 1.08 c p2
101.83 113.66 1.08 c p2
101.83 113.66 1.08 c p2
376.11 325.35 1.08 c p2
304.80 272.43 1.08 c p2
304.80 272.43 1.08 c p2
304.80 272.43 1.08 c p2
304.80 272.43 1.08 c p2
282.86 272.43 1.08 c p2
228.00 219.51 1.08 c p2
359.66 219.51 1.08 c p2
359.66 219.51 1.08 c p2
359.66 219.51 1.08 c p2
74.40 87.20 1.08 c p2
74.40 87.20 1.08 c p2
343.20 325.35 1.08 c p2
343.20 325.35 1.08 c p2
343.20 325.35 1.08 c p2
343.20 325.35 1.08 c p2
343.20 325.35 1.08 c p2
96.34 113.66 1.08 c p2
96.34 113.66 1.08 c p2
96.34 113.66 1.08 c p2
96.34 113.66 1.08 c p2
90.86 113.66 1.08 c p2
343.20 325.35 1.08 c p2
348.69 325.35 1.08 c p2
348.69 325.35 1.08 c p2
156.69 166.58 1.08 c p2
156.69 166.58 1.08 c p2
156.69 166.58 1.08 c p2
359.66 219.51 1.08 c p2
359.66 219.51 1.08 c p2
348.69 325.35 1.08 c p2
359.66 219.51 1.08 c p2
359.66 219.51 1.08 c p2
359.66 219.51 1.08 c p2
359.66 219.51 1.08 c p2
96.34 113.66 1.08 c p2
96.34 113.66 1.08 c p2
101.83 113.66 1.08 c p2
90.86 113.66 1.08 c p2
90.86 113.66 1.08 c p2
101.83 113.66 1.08 c p2
101.83 113.66 1.08 c p2
359.66 219.51 1.08 c p2
321.26 325.35 1.08 c p2
348.69 325.35 1.08 c p2
387.09 325.35 1.08 c p2
387.09 325.35 1.08 c p2
101.83 113.66 1.08 c p2
101.83 113.66 1.08 c p2
101.83 113.66 1.08 c p2
348.69 325.35 1.08 c p2
392.57 219.51 1.08 c p2
359.66 219.51 1.08 c p2
359.66 219.51 1.08 c p2
96.34 113.66 1.08 c p2
96.34 113.66 1.08 c p2
96.34 113.66 1.08 c p2
96.34 113.66 1.08 c p2
96.34 113.66 1.08 c p2
96.34 113.66 1.08 c p2
370.63 219.51 1.08 c p2
370.63 219.51 1.08 c p2
365.14 325.35 1.08 c p2
365.14 325.35 1.08 c p2
156.69 166.58 1.08 c p2
156.69 166.58 1.08 c p2
365.14 325.35 1.08 c p2
348.69 325.35 1.08 c p2
370.63 219.51 1.08 c p2
370.63 219.51 1.08 c p2
321.26 325.35 1.08 c p2
321.26 325.35 1.08 c p2
321.26 325.35 1.08 c p2
321.26 325.35 1.08 c p2
321.26 325.35 1.08 c p2
321.26 325.35 1.08 c p2
348.69 325.35 1.08 c p2
381.60 325.35 1.08 c p2
381.60 325.35 1.08 c p2
387.09 325.35 1.08 c p2
387.09 325.35 1.08 c p2
359.66 219.51 1.08 c p2
359.66 219.51 1.08 c p2
101.83 113.66 1.08 c p2
101.83 113.66 1.08 c p2
101.83 113.66 1.08 c p2
178.63 113.66 1.08 c p2
178.63 113.66 1.08 c p2
222.51 140.12 1.08 c p2
222.51 140.12 1.08 c p2
178.63 113.66 1.08 c p2
178.63 113.66 1.08 c p2
222.51 140.12 1.08 c p2
178.63 113.66 1.08 c p2
178.63 113.66 1.08 c p2
222.51 140.12 1.08 c p2
222.51 140.12 1.08 c p2
178.63 113.66 1.08 c p2
178.63 113.66 1.08 c p2
222.51 140.12 1.08 c p2
167.66 113.66 1.08 c p2
167.66 113.66 1.08 c p2
178.63 113.66 1.08 c p2
178.63 113.66 1.08 c p2
222.51 140.12 1.08 c p2
222.51 140.12 1.08 c p2
222.51 140.12 1.08 c p2
178.63 113.66 1.08 c p2
178.63 113.66 1.08 c p2
222.51 140.12 1.08 c p2
222.51 140.12 1.08 c p2
222.51 140.12 1.08 c p2
167.66 113.66 1.08 c p2
167.66 113.66 1.08 c p2
359.66 219.51 1.08 c p2
359.66 219.51 1.08 c p2
359.66 219.51 1.08 c p2
359.66 219.51 1.08 c p2
359.66 219.51 1.08 c p2
359.66 219.51 1.08 c p2
359.66 219.51 1.08 c p2
359.66 219.51 1.08 c p2
392.57 272.43 1.08 c p2
392.57 272.43 1.08 c p2
167.66 113.66 1.08 c p2
359.66 219.51 1.08 c p2
359.66 219.51 1.08 c p2
359.66 219.51 1.08 c p2
359.66 219.51 1.08 c p2
167.66 113.66 1.08 c p2
167.66 113.66 1.08 c p2
359.66 219.51 1.08 c p2
359.66 219.51 1.08 c p2
359.66 219.51 1.08 c p2
359.66 219.51 1.08 c p2
359.66 219.51 1.08 c p2
370.63 219.51 1.08 c p2
167.66 113.66 1.08 c p2
np
270.06 169.57 m
-37.74 -20.61 l
-75.63 -35.30 l
-49.38 0 l
0 0 l
32.33 32.46 l
29.29 25.14 l
7.70 6.54 l
29.04 21.43 l
27.17 19.85 l
6.13 0.43 l
109.72 0 l
0 0 l
0 0 l
-78.63 -49.94 l
o
/bg { 0.4667 0.6000 1 srgb } def
np
 270.06 169.57 m
-37.74 -20.61 l
-75.63 -35.30 l
-49.38 0 l
0 0 l
32.33 32.46 l
29.29 25.14 l
7.70 6.54 l
29.04 21.43 l
27.17 19.85 l
6.13 0.43 l
109.72 0 l
0 0 l
0 0 l
cp p3
/bg { 0 0 0.5333 srgb } def
277.37 219.51 1.08 c p2
277.37 219.51 1.08 c p2
277.37 219.51 1.08 c p2
277.37 219.51 1.08 c p2
249.94 219.51 1.08 c p2
249.94 219.51 1.08 c p2
249.94 219.51 1.08 c p2
249.94 219.51 1.08 c p2
129.26 113.66 1.08 c p2
129.26 113.66 1.08 c p2
129.26 113.66 1.08 c p2
184.11 166.58 1.08 c p2
184.11 166.58 1.08 c p2
184.11 166.58 1.08 c p2
266.40 219.51 1.08 c p2
266.40 219.51 1.08 c p2
266.40 219.51 1.08 c p2
266.40 219.51 1.08 c p2
255.43 219.51 1.08 c p2
255.43 219.51 1.08 c p2
129.26 113.66 1.08 c p2
129.26 113.66 1.08 c p2
129.26 113.66 1.08 c p2
321.26 219.51 1.08 c p2
118.29 113.66 1.08 c p2
118.29 113.66 1.08 c p2
211.54 166.58 1.08 c p2
321.26 219.51 1.08 c p2
107.31 113.66 1.08 c p2
107.31 113.66 1.08 c p2
107.31 113.66 1.08 c p2
107.31 113.66 1.08 c p2
107.31 113.66 1.08 c p2
107.31 113.66 1.08 c p2
107.31 113.66 1.08 c p2
107.31 113.66 1.08 c p2
107.31 113.66 1.08 c p2
107.31 113.66 1.08 c p2
222.51 166.58 1.08 c p2
222.51 166.58 1.08 c p2
222.51 166.58 1.08 c p2
222.51 166.58 1.08 c p2
228.00 166.58 1.08 c p2
178.63 166.58 1.08 c p2
178.63 166.58 1.08 c p2
206.06 166.58 1.08 c p2
206.06 166.58 1.08 c p2
206.06 166.58 1.08 c p2
206.06 166.58 1.08 c p2
178.63 166.58 1.08 c p2
178.63 166.58 1.08 c p2
206.06 166.58 1.08 c p2
206.06 166.58 1.08 c p2
206.06 166.58 1.08 c p2
206.06 166.58 1.08 c p2
293.83 219.51 1.08 c p2
293.83 219.51 1.08 c p2
293.83 219.51 1.08 c p2
293.83 219.51 1.08 c p2
211.54 166.58 1.08 c p2
211.54 166.58 1.08 c p2
211.54 166.58 1.08 c p2
211.54 166.58 1.08 c p2
107.31 113.66 1.08 c p2
107.31 113.66 1.08 c p2
107.31 113.66 1.08 c p2
107.31 113.66 1.08 c p2
107.31 113.66 1.08 c p2
107.31 113.66 1.08 c p2
107.31 113.66 1.08 c p2
107.31 113.66 1.08 c p2
107.31 113.66 1.08 c p2
107.31 113.66 1.08 c p2
151.20 113.66 1.08 c p2
228.00 166.58 1.08 c p2
228.00 166.58 1.08 c p2
228.00 166.58 1.08 c p2
228.00 166.58 1.08 c p2
228.00 166.58 1.08 c p2
217.03 166.58 1.08 c p2
217.03 166.58 1.08 c p2
217.03 166.58 1.08 c p2
217.03 166.58 1.08 c p2
217.03 166.58 1.08 c p2
217.03 166.58 1.08 c p2
217.03 166.58 1.08 c p2
217.03 166.58 1.08 c p2
228.00 166.58 1.08 c p2
228.00 166.58 1.08 c p2
228.00 166.58 1.08 c p2
228.00 166.58 1.08 c p2
228.00 166.58 1.08 c p2
228.00 166.58 1.08 c p2
217.03 166.58 1.08 c p2
217.03 166.58 1.08 c p2
228.00 166.58 1.08 c p2
228.00 166.58 1.08 c p2
228.00 166.58 1.08 c p2
228.00 166.58 1.08 c p2
228.00 166.58 1.08 c p2
228.00 166.58 1.08 c p2
228.00 166.58 1.08 c p2
228.00 166.58 1.08 c p2
228.00 166.58 1.08 c p2
228.00 166.58 1.08 c p2
228.00 166.58 1.08 c p2
228.00 166.58 1.08 c p2
228.00 166.58 1.08 c p2
228.00 166.58 1.08 c p2
206.06 166.58 1.08 c p2
206.06 166.58 1.08 c p2
206.06 166.58 1.08 c p2
206.06 166.58 1.08 c p2
228.00 166.58 1.08 c p2
228.00 166.58 1.08 c p2
228.00 166.58 1.08 c p2
228.00 166.58 1.08 c p2
129.26 113.66 1.08 c p2
129.26 113.66 1.08 c p2
129.26 113.66 1.08 c p2
129.26 113.66 1.08 c p2
249.94 219.51 1.08 c p2
249.94 219.51 1.08 c p2
184.11 166.58 1.08 c p2
129.26 113.66 1.08 c p2
156.69 140.12 1.08 c p2
184.11 166.58 1.08 c p2
184.11 166.58 1.08 c p2
184.11 166.58 1.08 c p2
184.11 166.58 1.08 c p2
184.11 166.58 1.08 c p2
184.11 166.58 1.08 c p2
184.11 166.58 1.08 c p2
184.11 166.58 1.08 c p2
184.11 166.58 1.08 c p2
184.11 166.58 1.08 c p2
184.11 166.58 1.08 c p2
184.11 166.58 1.08 c p2
184.11 166.58 1.08 c p2
184.11 166.58 1.08 c p2
184.11 166.58 1.08 c p2
184.11 166.58 1.08 c p2
184.11 166.58 1.08 c p2
184.11 166.58 1.08 c p2
184.11 166.58 1.08 c p2
184.11 166.58 1.08 c p2
184.11 166.58 1.08 c p2
184.11 166.58 1.08 c p2
184.11 166.58 1.08 c p2
184.11 166.58 1.08 c p2
238.97 219.51 1.08 c p2
238.97 219.51 1.08 c p2
238.97 219.51 1.08 c p2
238.97 219.51 1.08 c p2
107.31 113.66 1.08 c p2
107.31 113.66 1.08 c p2
107.31 113.66 1.08 c p2
222.51 166.58 1.08 c p2
222.51 166.58 1.08 c p2
293.83 219.51 1.08 c p2
293.83 219.51 1.08 c p2
315.77 219.51 1.08 c p2
222.51 166.58 1.08 c p2
129.26 113.66 1.08 c p2
129.26 113.66 1.08 c p2
228.00 166.58 1.08 c p2
228.00 166.58 1.08 c p2
222.51 166.58 1.08 c p2
222.51 166.58 1.08 c p2
222.51 166.58 1.08 c p2
222.51 166.58 1.08 c p2
222.51 166.58 1.08 c p2
211.54 166.58 1.08 c p2
211.54 166.58 1.08 c p2
293.83 219.51 1.08 c p2
277.37 219.51 1.08 c p2
277.37 219.51 1.08 c p2
118.29 113.66 1.08 c p2
211.54 166.58 1.08 c p2
211.54 166.58 1.08 c p2
211.54 166.58 1.08 c p2
211.54 166.58 1.08 c p2
211.54 166.58 1.08 c p2
211.54 166.58 1.08 c p2
211.54 166.58 1.08 c p2
211.54 166.58 1.08 c p2
277.37 219.51 1.08 c p2
277.37 219.51 1.08 c p2
107.31 113.66 1.08 c p2
107.31 113.66 1.08 c p2
107.31 113.66 1.08 c p2
107.31 113.66 1.08 c p2
107.31 113.66 1.08 c p2
151.20 113.66 1.08 c p2
151.20 113.66 1.08 c p2
228.00 166.58 1.08 c p2
156.69 113.66 1.08 c p2
156.69 113.66 1.08 c p2
211.54 166.58 1.08 c p2
211.54 166.58 1.08 c p2
228.00 166.58 1.08 c p2
293.83 219.51 1.08 c p2
293.83 219.51 1.08 c p2
118.29 113.66 1.08 c p2
118.29 113.66 1.08 c p2
129.26 113.66 1.08 c p2
129.26 113.66 1.08 c p2
156.69 140.12 1.08 c p2
156.69 140.12 1.08 c p2
129.26 113.66 1.08 c p2
156.69 140.12 1.08 c p2
151.20 113.66 1.08 c p2
151.20 113.66 1.08 c p2
211.54 166.58 1.08 c p2
129.26 113.66 1.08 c p2
129.26 113.66 1.08 c p2
129.26 113.66 1.08 c p2
184.11 166.58 1.08 c p2
184.11 166.58 1.08 c p2
129.26 113.66 1.08 c p2
129.26 113.66 1.08 c p2
184.11 166.58 1.08 c p2
184.11 166.58 1.08 c p2
184.11 166.58 1.08 c p2
184.11 166.58 1.08 c p2
260.91 219.51 1.08 c p2
260.91 219.51 1.08 c p2
260.91 219.51 1.08 c p2
260.91 219.51 1.08 c p2
260.91 219.51 1.08 c p2
260.91 219.51 1.08 c p2
260.91 219.51 1.08 c p2
151.20 113.66 1.08 c p2
217.03 166.58 1.08 c p2
217.03 166.58 1.08 c p2
217.03 166.58 1.08 c p2
118.29 113.66 1.08 c p2
118.29 113.66 1.08 c p2
151.20 113.66 1.08 c p2
217.03 166.58 1.08 c p2
129.26 113.66 1.08 c p2
129.26 113.66 1.08 c p2
129.26 113.66 1.08 c p2
129.26 113.66 1.08 c p2
129.26 113.66 1.08 c p2
129.26 113.66 1.08 c p2
129.26 113.66 1.08 c p2
129.26 113.66 1.08 c p2
151.20 113.66 1.08 c p2
151.20 113.66 1.08 c p2
211.54 166.58 1.08 c p2
211.54 166.58 1.08 c p2
118.29 113.66 1.08 c p2
118.29 113.66 1.08 c p2
118.29 113.66 1.08 c p2
151.20 113.66 1.08 c p2
118.29 113.66 1.08 c p2
107.31 113.66 1.08 c p2
107.31 113.66 1.08 c p2
107.31 113.66 1.08 c p2
107.31 113.66 1.08 c p2
129.26 113.66 1.08 c p2
129.26 113.66 1.08 c p2
151.20 113.66 1.08 c p2
151.20 113.66 1.08 c p2
107.31 113.66 1.08 c p2
107.31 113.66 1.08 c p2
118.29 113.66 1.08 c p2
151.20 113.66 1.08 c p2
129.26 113.66 1.08 c p2
129.26 113.66 1.08 c p2
156.69 113.66 1.08 c p2
156.69 113.66 1.08 c p2
129.26 113.66 1.08 c p2
129.26 113.66 1.08 c p2
118.29 113.66 1.08 c p2
184.11 166.58 1.08 c p2
184.11 166.58 1.08 c p2
211.54 166.58 1.08 c p2
211.54 166.58 1.08 c p2
277.37 219.51 1.08 c p2
321.26 219.51 1.08 c p2
277.37 219.51 1.08 c p2
277.37 219.51 1.08 c p2
321.26 219.51 1.08 c p2
107.31 113.66 1.08 c p2
107.31 113.66 1.08 c p2
107.31 113.66 1.08 c p2
107.31 113.66 1.08 c p2
107.31 113.66 1.08 c p2
107.31 113.66 1.08 c p2
129.26 113.66 1.08 c p2
129.26 113.66 1.08 c p2
129.26 113.66 1.08 c p2
151.20 113.66 1.08 c p2
151.20 113.66 1.08 c p2
151.20 113.66 1.08 c p2
129.26 113.66 1.08 c p2
129.26 113.66 1.08 c p2
107.31 113.66 1.08 c p2
107.31 113.66 1.08 c p2
118.29 113.66 1.08 c p2
118.29 113.66 1.08 c p2
118.29 113.66 1.08 c p2
129.26 113.66 1.08 c p2
129.26 113.66 1.08 c p2
129.26 113.66 1.08 c p2
129.26 113.66 1.08 c p2
129.26 113.66 1.08 c p2
129.26 113.66 1.08 c p2
156.69 113.66 1.08 c p2
156.69 113.66 1.08 c p2
129.26 113.66 1.08 c p2
129.26 113.66 1.08 c p2
156.69 113.66 1.08 c p2
156.69 113.66 1.08 c p2
151.20 113.66 1.08 c p2
151.20 113.66 1.08 c p2
151.20 113.66 1.08 c p2
151.20 113.66 1.08 c p2
151.20 113.66 1.08 c p2
151.20 113.66 1.08 c p2
129.26 113.66 1.08 c p2
129.26 113.66 1.08 c p2
129.26 113.66 1.08 c p2
129.26 113.66 1.08 c p2
118.29 113.66 1.08 c p2
118.29 113.66 1.08 c p2
129.26 113.66 1.08 c p2
129.26 113.66 1.08 c p2
217.03 166.58 1.08 c p2
129.26 113.66 1.08 c p2
129.26 113.66 1.08 c p2
156.69 140.12 1.08 c p2
156.69 140.12 1.08 c p2
129.26 113.66 1.08 c p2
129.26 113.66 1.08 c p2
129.26 113.66 1.08 c p2
129.26 113.66 1.08 c p2
129.26 113.66 1.08 c p2
129.26 113.66 1.08 c p2
129.26 113.66 1.08 c p2
129.26 113.66 1.08 c p2
129.26 113.66 1.08 c p2
156.69 140.12 1.08 c p2
156.69 140.12 1.08 c p2
156.69 140.12 1.08 c p2
156.69 140.12 1.08 c p2
184.11 166.58 1.08 c p2
156.69 140.12 1.08 c p2
222.51 166.58 1.08 c p2
211.54 166.58 1.08 c p2
222.51 166.58 1.08 c p2
222.51 166.58 1.08 c p2
129.26 113.66 1.08 c p2
184.11 166.58 1.08 c p2
184.11 166.58 1.08 c p2
249.94 219.51 1.08 c p2
129.26 113.66 1.08 c p2
129.26 113.66 1.08 c p2
184.11 166.58 1.08 c p2
184.11 166.58 1.08 c p2
184.11 166.58 1.08 c p2
260.91 219.51 1.08 c p2
260.91 219.51 1.08 c p2
260.91 219.51 1.08 c p2
184.11 166.58 1.08 c p2
260.91 219.51 1.08 c p2
151.20 113.66 1.08 c p2
217.03 166.58 1.08 c p2
217.03 166.58 1.08 c p2
217.03 166.58 1.08 c p2
129.26 113.66 1.08 c p2
129.26 113.66 1.08 c p2
129.26 113.66 1.08 c p2
129.26 113.66 1.08 c p2
129.26 113.66 1.08 c p2
151.20 113.66 1.08 c p2
151.20 113.66 1.08 c p2
151.20 113.66 1.08 c p2
184.11 166.58 1.08 c p2
217.03 166.58 1.08 c p2
217.03 166.58 1.08 c p2
184.11 166.58 1.08 c p2
217.03 166.58 1.08 c p2
118.29 113.66 1.08 c p2
118.29 113.66 1.08 c p2
151.20 113.66 1.08 c p2
151.20 113.66 1.08 c p2
217.03 166.58 1.08 c p2
118.29 113.66 1.08 c p2
118.29 113.66 1.08 c p2
151.20 113.66 1.08 c p2
151.20 113.66 1.08 c p2
217.03 166.58 1.08 c p2
151.20 113.66 1.08 c p2
151.20 113.66 1.08 c p2
217.03 166.58 1.08 c p2
217.03 166.58 1.08 c p2
332.23 219.51 1.08 c p2
332.23 219.51 1.08 c p2
211.54 166.58 1.08 c p2
184.11 166.58 1.08 c p2
156.69 113.66 1.08 c p2
156.69 113.66 1.08 c p2
156.69 113.66 1.08 c p2
211.54 166.58 1.08 c p2
184.11 166.58 1.08 c p2
156.69 113.66 1.08 c p2
156.69 113.66 1.08 c p2
118.29 113.66 1.08 c p2
118.29 113.66 1.08 c p2
151.20 113.66 1.08 c p2
222.51 166.58 1.08 c p2
222.51 166.58 1.08 c p2
222.51 166.58 1.08 c p2
211.54 166.58 1.08 c p2
222.51 166.58 1.08 c p2
222.51 166.58 1.08 c p2
326.74 219.51 1.08 c p2
326.74 219.51 1.08 c p2
293.83 219.51 1.08 c p2
293.83 219.51 1.08 c p2
129.26 113.66 1.08 c p2
129.26 113.66 1.08 c p2
151.20 113.66 1.08 c p2
151.20 113.66 1.08 c p2
129.26 113.66 1.08 c p2
129.26 113.66 1.08 c p2
151.20 113.66 1.08 c p2
151.20 113.66 1.08 c p2
151.20 113.66 1.08 c p2
211.54 166.58 1.08 c p2
271.89 219.51 1.08 c p2
271.89 219.51 1.08 c p2
271.89 219.51 1.08 c p2
271.89 219.51 1.08 c p2
293.83 219.51 1.08 c p2
211.54 166.58 1.08 c p2
211.54 166.58 1.08 c p2
156.69 113.66 1.08 c p2
129.26 113.66 1.08 c p2
129.26 113.66 1.08 c p2
156.69 113.66 1.08 c p2
156.69 113.66 1.08 c p2
222.51 166.58 1.08 c p2
145.71 113.66 1.08 c p2
211.54 166.58 1.08 c p2
211.54 166.58 1.08 c p2
184.11 166.58 1.08 c p2
277.37 219.51 1.08 c p2
321.26 219.51 1.08 c p2
151.20 113.66 1.08 c p2
156.69 113.66 1.08 c p2
211.54 166.58 1.08 c p2
211.54 166.58 1.08 c p2
129.26 113.66 1.08 c p2
129.26 113.66 1.08 c p2
156.69 113.66 1.08 c p2
156.69 113.66 1.08 c p2
129.26 113.66 1.08 c p2
129.26 113.66 1.08 c p2
173.14 166.58 1.08 c p2
156.69 113.66 1.08 c p2
156.69 113.66 1.08 c p2
156.69 113.66 1.08 c p2
217.03 166.58 1.08 c p2
156.69 113.66 1.08 c p2
211.54 166.58 1.08 c p2
156.69 113.66 1.08 c p2
156.69 113.66 1.08 c p2
118.29 113.66 1.08 c p2
129.26 113.66 1.08 c p2
129.26 113.66 1.08 c p2
156.69 140.12 1.08 c p2
156.69 140.12 1.08 c p2
217.03 166.58 1.08 c p2
184.11 166.58 1.08 c p2
195.09 166.58 1.08 c p2
249.94 219.51 1.08 c p2
184.11 166.58 1.08 c p2
184.11 166.58 1.08 c p2
260.91 219.51 1.08 c p2
260.91 219.51 1.08 c p2
184.11 166.58 1.08 c p2
184.11 166.58 1.08 c p2
260.91 219.51 1.08 c p2
260.91 219.51 1.08 c p2
260.91 219.51 1.08 c p2
260.91 219.51 1.08 c p2
260.91 219.51 1.08 c p2
260.91 219.51 1.08 c p2
260.91 219.51 1.08 c p2
260.91 219.51 1.08 c p2
260.91 219.51 1.08 c p2
217.03 166.58 1.08 c p2
217.03 166.58 1.08 c p2
217.03 166.58 1.08 c p2
217.03 166.58 1.08 c p2
332.23 219.51 1.08 c p2
217.03 166.58 1.08 c p2
332.23 219.51 1.08 c p2
217.03 166.58 1.08 c p2
217.03 166.58 1.08 c p2
332.23 219.51 1.08 c p2
217.03 166.58 1.08 c p2
332.23 219.51 1.08 c p2
211.54 166.58 1.08 c p2
211.54 166.58 1.08 c p2
211.54 166.58 1.08 c p2
211.54 166.58 1.08 c p2
151.20 113.66 1.08 c p2
151.20 113.66 1.08 c p2
211.54 166.58 1.08 c p2
200.57 166.58 1.08 c p2
293.83 219.51 1.08 c p2
228.00 166.58 1.08 c p2
271.89 219.51 1.08 c p2
293.83 219.51 1.08 c p2
293.83 219.51 1.08 c p2
129.26 113.66 1.08 c p2
151.20 113.66 1.08 c p2
151.20 113.66 1.08 c p2
293.83 219.51 1.08 c p2
293.83 219.51 1.08 c p2
293.83 219.51 1.08 c p2
293.83 219.51 1.08 c p2
211.54 166.58 1.08 c p2
222.51 166.58 1.08 c p2
211.54 166.58 1.08 c p2
277.37 219.51 1.08 c p2
184.11 166.58 1.08 c p2
277.37 219.51 1.08 c p2
277.37 219.51 1.08 c p2
321.26 219.51 1.08 c p2
211.54 166.58 1.08 c p2
217.03 166.58 1.08 c p2
217.03 166.58 1.08 c p2
282.86 219.51 1.08 c p2
282.86 219.51 1.08 c p2
184.11 166.58 1.08 c p2
282.86 219.51 1.08 c p2
282.86 219.51 1.08 c p2
211.54 166.58 1.08 c p2
151.20 113.66 1.08 c p2
129.26 113.66 1.08 c p2
129.26 113.66 1.08 c p2
129.26 113.66 1.08 c p2
129.26 113.66 1.08 c p2
129.26 113.66 1.08 c p2
184.11 166.58 1.08 c p2
184.11 166.58 1.08 c p2
184.11 166.58 1.08 c p2
184.11 166.58 1.08 c p2
184.11 166.58 1.08 c p2
217.03 166.58 1.08 c p2
184.11 166.58 1.08 c p2
217.03 166.58 1.08 c p2
129.26 113.66 1.08 c p2
129.26 113.66 1.08 c p2
151.20 113.66 1.08 c p2
129.26 113.66 1.08 c p2
129.26 113.66 1.08 c p2
211.54 166.58 1.08 c p2
211.54 166.58 1.08 c p2
107.31 113.66 1.08 c p2
107.31 113.66 1.08 c p2
129.26 113.66 1.08 c p2
129.26 113.66 1.08 c p2
107.31 113.66 1.08 c p2
129.26 113.66 1.08 c p2
129.26 113.66 1.08 c p2
151.20 113.66 1.08 c p2
118.29 113.66 1.08 c p2
118.29 113.66 1.08 c p2
107.31 113.66 1.08 c p2
107.31 113.66 1.08 c p2
107.31 113.66 1.08 c p2
129.26 113.66 1.08 c p2
129.26 113.66 1.08 c p2
129.26 113.66 1.08 c p2
129.26 113.66 1.08 c p2
151.20 113.66 1.08 c p2
151.20 113.66 1.08 c p2
129.26 113.66 1.08 c p2
129.26 113.66 1.08 c p2
156.69 113.66 1.08 c p2
156.69 113.66 1.08 c p2
129.26 113.66 1.08 c p2
129.26 113.66 1.08 c p2
129.26 113.66 1.08 c p2
129.26 113.66 1.08 c p2
118.29 113.66 1.08 c p2
118.29 113.66 1.08 c p2
151.20 113.66 1.08 c p2
151.20 113.66 1.08 c p2
151.20 113.66 1.08 c p2
129.26 113.66 1.08 c p2
129.26 113.66 1.08 c p2
156.69 140.12 1.08 c p2
156.69 140.12 1.08 c p2
151.20 113.66 1.08 c p2
167.66 166.58 1.08 c p2
211.54 166.58 1.08 c p2
321.26 219.51 1.08 c p2
118.29 113.66 1.08 c p2
310.29 219.51 1.08 c p2
310.29 219.51 1.08 c p2
310.29 219.51 1.08 c p2
310.29 219.51 1.08 c p2
156.69 113.66 1.08 c p2
156.69 113.66 1.08 c p2
238.97 166.58 1.08 c p2
238.97 166.58 1.08 c p2
156.69 113.66 1.08 c p2
156.69 113.66 1.08 c p2
238.97 166.58 1.08 c p2
238.97 166.58 1.08 c p2
238.97 166.58 1.08 c p2
310.29 219.51 1.08 c p2
310.29 219.51 1.08 c p2
310.29 219.51 1.08 c p2
310.29 219.51 1.08 c p2
238.97 166.58 1.08 c p2
238.97 166.58 1.08 c p2
238.97 166.58 1.08 c p2
238.97 166.58 1.08 c p2
238.97 166.58 1.08 c p2
255.43 166.58 1.08 c p2
282.86 219.51 1.08 c p2
310.29 219.51 1.08 c p2
348.69 219.51 1.08 c p2
310.29 219.51 1.08 c p2
222.51 166.58 1.08 c p2
277.37 219.51 1.08 c p2
332.23 219.51 1.08 c p2
211.54 166.58 1.08 c p2
211.54 166.58 1.08 c p2
222.51 166.58 1.08 c p2
222.51 166.58 1.08 c p2
293.83 219.51 1.08 c p2
293.83 219.51 1.08 c p2
255.43 166.58 1.08 c p2
282.86 219.51 1.08 c p2
310.29 219.51 1.08 c p2
348.69 219.51 1.08 c p2
310.29 219.51 1.08 c p2
326.74 219.51 1.08 c p2
326.74 219.51 1.08 c p2
238.97 166.58 1.08 c p2
271.89 219.51 1.08 c p2
332.23 219.51 1.08 c p2
255.43 166.58 1.08 c p2
282.86 219.51 1.08 c p2
310.29 219.51 1.08 c p2
348.69 219.51 1.08 c p2
277.37 219.51 1.08 c p2
332.23 219.51 1.08 c p2
211.54 166.58 1.08 c p2
211.54 166.58 1.08 c p2
222.51 166.58 1.08 c p2
222.51 166.58 1.08 c p2
293.83 219.51 1.08 c p2
293.83 219.51 1.08 c p2
255.43 166.58 1.08 c p2
282.86 219.51 1.08 c p2
310.29 219.51 1.08 c p2
348.69 219.51 1.08 c p2
211.54 166.58 1.08 c p2
326.74 219.51 1.08 c p2
326.74 219.51 1.08 c p2
271.89 219.51 1.08 c p2
332.23 219.51 1.08 c p2
332.23 219.51 1.08 c p2
255.43 166.58 1.08 c p2
310.29 219.51 1.08 c p2
310.29 219.51 1.08 c p2
348.69 219.51 1.08 c p2
348.69 219.51 1.08 c p2
348.69 219.51 1.08 c p2
310.29 219.51 1.08 c p2
310.29 219.51 1.08 c p2
271.89 219.51 1.08 c p2
315.77 219.51 1.08 c p2
271.89 219.51 1.08 c p2
315.77 219.51 1.08 c p2
315.77 219.51 1.08 c p2
255.43 166.58 1.08 c p2
310.29 219.51 1.08 c p2
310.29 219.51 1.08 c p2
348.69 219.51 1.08 c p2
348.69 219.51 1.08 c p2
348.69 219.51 1.08 c p2
310.29 219.51 1.08 c p2
310.29 219.51 1.08 c p2
310.29 219.51 1.08 c p2
282.86 219.51 1.08 c p2
348.69 219.51 1.08 c p2
282.86 219.51 1.08 c p2
348.69 219.51 1.08 c p2
310.29 219.51 1.08 c p2
271.89 219.51 1.08 c p2
315.77 219.51 1.08 c p2
315.77 219.51 1.08 c p2
310.29 219.51 1.08 c p2
282.86 219.51 1.08 c p2
348.69 219.51 1.08 c p2
282.86 219.51 1.08 c p2
348.69 219.51 1.08 c p2
310.29 219.51 1.08 c p2
129.26 113.66 1.08 c p2
129.26 113.66 1.08 c p2
271.89 219.51 1.08 c p2
271.89 219.51 1.08 c p2
217.03 166.58 1.08 c p2
217.03 166.58 1.08 c p2
217.03 166.58 1.08 c p2
211.54 166.58 1.08 c p2
211.54 166.58 1.08 c p2
211.54 166.58 1.08 c p2
156.69 113.66 1.08 c p2
156.69 113.66 1.08 c p2
211.54 166.58 1.08 c p2
211.54 166.58 1.08 c p2
217.03 166.58 1.08 c p2
211.54 166.58 1.08 c p2
145.71 113.66 1.08 c p2
217.03 166.58 1.08 c p2
348.69 219.51 1.08 c p2
217.03 166.58 1.08 c p2
310.29 219.51 1.08 c p2
310.29 219.51 1.08 c p2
310.29 219.51 1.08 c p2
348.69 219.51 1.08 c p2
348.69 219.51 1.08 c p2
151.20 113.66 1.08 c p2
184.11 166.58 1.08 c p2
151.20 113.66 1.08 c p2
151.20 113.66 1.08 c p2
184.11 166.58 1.08 c p2
184.11 166.58 1.08 c p2
217.03 166.58 1.08 c p2
217.03 166.58 1.08 c p2
332.23 219.51 1.08 c p2
151.20 113.66 1.08 c p2
217.03 166.58 1.08 c p2
129.26 113.66 1.08 c p2
211.54 166.58 1.08 c p2
222.51 166.58 1.08 c p2
156.69 113.66 1.08 c p2
156.69 113.66 1.08 c p2
184.11 166.58 1.08 c p2
156.69 113.66 1.08 c p2
315.77 219.51 1.08 c p2
129.26 113.66 1.08 c p2
211.54 166.58 1.08 c p2
211.54 166.58 1.08 c p2
217.03 166.58 1.08 c p2
310.29 219.51 1.08 c p2
348.69 219.51 1.08 c p2
310.29 219.51 1.08 c p2
348.69 219.51 1.08 c p2
151.20 113.66 1.08 c p2
151.20 113.66 1.08 c p2
184.11 166.58 1.08 c p2
184.11 166.58 1.08 c p2
151.20 113.66 1.08 c p2
211.54 166.58 1.08 c p2
151.20 113.66 1.08 c p2
211.54 166.58 1.08 c p2
151.20 113.66 1.08 c p2
151.20 113.66 1.08 c p2
211.54 166.58 1.08 c p2
129.26 113.66 1.08 c p2
129.26 113.66 1.08 c p2
151.20 113.66 1.08 c p2
151.20 113.66 1.08 c p2
228.00 166.58 1.08 c p2
211.54 166.58 1.08 c p2
326.74 219.51 1.08 c p2
129.26 113.66 1.08 c p2
129.26 113.66 1.08 c p2
151.20 113.66 1.08 c p2
151.20 113.66 1.08 c p2
217.03 166.58 1.08 c p2
332.23 219.51 1.08 c p2
222.51 166.58 1.08 c p2
129.26 113.66 1.08 c p2
129.26 113.66 1.08 c p2
151.20 113.66 1.08 c p2
151.20 113.66 1.08 c p2
151.20 113.66 1.08 c p2
151.20 113.66 1.08 c p2
151.20 113.66 1.08 c p2
211.54 166.58 1.08 c p2
129.26 113.66 1.08 c p2
151.20 113.66 1.08 c p2
151.20 113.66 1.08 c p2
211.54 166.58 1.08 c p2
211.54 166.58 1.08 c p2
211.54 166.58 1.08 c p2
222.51 166.58 1.08 c p2
315.77 219.51 1.08 c p2
145.71 113.66 1.08 c p2
156.69 113.66 1.08 c p2
222.51 166.58 1.08 c p2
211.54 166.58 1.08 c p2
151.20 113.66 1.08 c p2
184.11 166.58 1.08 c p2
129.26 113.66 1.08 c p2
129.26 113.66 1.08 c p2
326.74 219.51 1.08 c p2
326.74 219.51 1.08 c p2
211.54 166.58 1.08 c p2
238.97 166.58 1.08 c p2
156.69 113.66 1.08 c p2
238.97 166.58 1.08 c p2
184.11 166.58 1.08 c p2
151.20 113.66 1.08 c p2
151.20 113.66 1.08 c p2
238.97 166.58 1.08 c p2
238.97 166.58 1.08 c p2
211.54 166.58 1.08 c p2
156.69 113.66 1.08 c p2
211.54 166.58 1.08 c p2
271.89 219.51 1.08 c p2
332.23 219.51 1.08 c p2
211.54 166.58 1.08 c p2
129.26 113.66 1.08 c p2
129.26 113.66 1.08 c p2
195.09 166.58 1.08 c p2
195.09 166.58 1.08 c p2
195.09 166.58 1.08 c p2
222.51 166.58 1.08 c p2
145.71 113.66 1.08 c p2
222.51 166.58 1.08 c p2
129.26 113.66 1.08 c p2
195.09 166.58 1.08 c p2
184.11 166.58 1.08 c p2
184.11 166.58 1.08 c p2
184.11 166.58 1.08 c p2
184.11 166.58 1.08 c p2
184.11 166.58 1.08 c p2
184.11 166.58 1.08 c p2
260.91 219.51 1.08 c p2
260.91 219.51 1.08 c p2
184.11 166.58 1.08 c p2
260.91 219.51 1.08 c p2
260.91 219.51 1.08 c p2
217.03 166.58 1.08 c p2
348.69 219.51 1.08 c p2
217.03 166.58 1.08 c p2
184.11 166.58 1.08 c p2
151.20 113.66 1.08 c p2
151.20 113.66 1.08 c p2
184.11 166.58 1.08 c p2
184.11 166.58 1.08 c p2
310.29 219.51 1.08 c p2
310.29 219.51 1.08 c p2
310.29 219.51 1.08 c p2
348.69 219.51 1.08 c p2
348.69 219.51 1.08 c p2
217.03 166.58 1.08 c p2
217.03 166.58 1.08 c p2
332.23 219.51 1.08 c p2
217.03 166.58 1.08 c p2
211.54 166.58 1.08 c p2
222.51 166.58 1.08 c p2
156.69 113.66 1.08 c p2
184.11 166.58 1.08 c p2
156.69 113.66 1.08 c p2
315.77 219.51 1.08 c p2
211.54 166.58 1.08 c p2
211.54 166.58 1.08 c p2
211.54 166.58 1.08 c p2
217.03 166.58 1.08 c p2
310.29 219.51 1.08 c p2
348.69 219.51 1.08 c p2
348.69 219.51 1.08 c p2
310.29 219.51 1.08 c p2
348.69 219.51 1.08 c p2
151.20 113.66 1.08 c p2
151.20 113.66 1.08 c p2
184.11 166.58 1.08 c p2
184.11 166.58 1.08 c p2
211.54 166.58 1.08 c p2
151.20 113.66 1.08 c p2
211.54 166.58 1.08 c p2
151.20 113.66 1.08 c p2
211.54 166.58 1.08 c p2
151.20 113.66 1.08 c p2
151.20 113.66 1.08 c p2
228.00 166.58 1.08 c p2
211.54 166.58 1.08 c p2
293.83 219.51 1.08 c p2
326.74 219.51 1.08 c p2
151.20 113.66 1.08 c p2
151.20 113.66 1.08 c p2
151.20 113.66 1.08 c p2
217.03 166.58 1.08 c p2
332.23 219.51 1.08 c p2
222.51 166.58 1.08 c p2
151.20 113.66 1.08 c p2
151.20 113.66 1.08 c p2
151.20 113.66 1.08 c p2
217.03 166.58 1.08 c p2
217.03 166.58 1.08 c p2
217.03 166.58 1.08 c p2
217.03 166.58 1.08 c p2
151.20 113.66 1.08 c p2
151.20 113.66 1.08 c p2
211.54 166.58 1.08 c p2
129.26 113.66 1.08 c p2
151.20 113.66 1.08 c p2
151.20 113.66 1.08 c p2
195.09 166.58 1.08 c p2
293.83 219.51 1.08 c p2
293.83 219.51 1.08 c p2
293.83 219.51 1.08 c p2
129.26 113.66 1.08 c p2
293.83 219.51 1.08 c p2
293.83 219.51 1.08 c p2
271.89 219.51 1.08 c p2
211.54 166.58 1.08 c p2
211.54 166.58 1.08 c p2
211.54 166.58 1.08 c p2
222.51 166.58 1.08 c p2
315.77 219.51 1.08 c p2
145.71 113.66 1.08 c p2
222.51 166.58 1.08 c p2
321.26 219.51 1.08 c p2
184.11 166.58 1.08 c p2
277.37 219.51 1.08 c p2
321.26 219.51 1.08 c p2
211.54 166.58 1.08 c p2
211.54 166.58 1.08 c p2
211.54 166.58 1.08 c p2
184.11 166.58 1.08 c p2
277.37 219.51 1.08 c p2
321.26 219.51 1.08 c p2
211.54 166.58 1.08 c p2
184.11 166.58 1.08 c p2
151.20 113.66 1.08 c p2
184.11 166.58 1.08 c p2
129.26 113.66 1.08 c p2
326.74 219.51 1.08 c p2
326.74 219.51 1.08 c p2
211.54 166.58 1.08 c p2
211.54 166.58 1.08 c p2
238.97 166.58 1.08 c p2
326.74 219.51 1.08 c p2
156.69 113.66 1.08 c p2
238.97 166.58 1.08 c p2
238.97 166.58 1.08 c p2
217.03 166.58 1.08 c p2
217.03 166.58 1.08 c p2
282.86 219.51 1.08 c p2
184.11 166.58 1.08 c p2
282.86 219.51 1.08 c p2
173.14 166.58 1.08 c p2
184.11 166.58 1.08 c p2
156.69 113.66 1.08 c p2
156.69 113.66 1.08 c p2
156.69 113.66 1.08 c p2
156.69 113.66 1.08 c p2
156.69 113.66 1.08 c p2
217.03 166.58 1.08 c p2
217.03 166.58 1.08 c p2
151.20 113.66 1.08 c p2
238.97 166.58 1.08 c p2
238.97 166.58 1.08 c p2
238.97 166.58 1.08 c p2
238.97 166.58 1.08 c p2
211.54 166.58 1.08 c p2
211.54 166.58 1.08 c p2
156.69 113.66 1.08 c p2
211.54 166.58 1.08 c p2
271.89 219.51 1.08 c p2
332.23 219.51 1.08 c p2
332.23 219.51 1.08 c p2
211.54 166.58 1.08 c p2
129.26 113.66 1.08 c p2
184.11 166.58 1.08 c p2
217.03 166.58 1.08 c p2
184.11 166.58 1.08 c p2
184.11 166.58 1.08 c p2
195.09 166.58 1.08 c p2
184.11 166.58 1.08 c p2
195.09 166.58 1.08 c p2
195.09 166.58 1.08 c p2
1 0 0 srgb
np
343.20 325.35 m
-90.48 -105.84 l
o
np
304.80 272.43 m
-48.38 -52.92 l
o
np
304.80 272.43 m
-48.38 -52.92 l
o
np
304.80 272.43 m
-48.38 -52.92 l
o
np
304.80 272.43 m
-48.38 -52.92 l
o
np
348.69 325.35 m
-93.94 -105.84 l
o
np
359.66 219.51 m
-28.36 -11.05 l
o
np
359.66 219.51 m
-28.36 -11.05 l
o
np
359.66 219.51 m
-28.36 -11.05 l
o
np
403.54 219.51 m
-105.77 -32.35 l
o
np
101.83 113.66 m
9.85 4.39 l
o
np
101.83 113.66 m
9.85 4.39 l
o
np
376.11 325.35 m
-111.18 -105.84 l
o
np
304.80 272.43 m
-48.38 -52.92 l
o
np
304.80 272.43 m
-48.38 -52.92 l
o
np
304.80 272.43 m
-48.38 -52.92 l
o
np
304.80 272.43 m
-48.38 -52.92 l
o
np
282.86 272.43 m
-38.32 -52.92 l
o
np
228.00 219.51 m
-2.74 -5.96 l
o
np
359.66 219.51 m
-28.36 -11.05 l
o
np
359.66 219.51 m
-28.36 -11.05 l
o
np
359.66 219.51 m
-28.36 -11.05 l
o
np
74.40 87.20 m
47.32 26.46 l
o
np
74.40 87.20 m
47.32 26.46 l
o
np
343.20 325.35 m
-90.48 -105.84 l
o
np
343.20 325.35 m
-90.48 -105.84 l
o
np
343.20 325.35 m
-90.48 -105.84 l
o
np
343.20 325.35 m
-90.48 -105.84 l
o
np
343.20 325.35 m
-90.48 -105.84 l
o
np
96.34 113.66 m
18.91 7.97 l
o
np
96.34 113.66 m
18.91 7.97 l
o
np
96.34 113.66 m
18.91 7.97 l
o
np
96.34 113.66 m
18.91 7.97 l
o
np
90.86 113.66 m
27.36 10.95 l
o
np
343.20 325.35 m
-90.48 -105.84 l
o
np
348.69 325.35 m
-93.94 -105.84 l
o
np
348.69 325.35 m
-93.94 -105.84 l
o
np
156.69 166.58 m
5.39 -1.20 l
o
np
156.69 166.58 m
5.39 -1.20 l
o
np
156.69 166.58 m
5.39 -1.20 l
o
np
359.66 219.51 m
-28.36 -11.05 l
o
np
359.66 219.51 m
-28.36 -11.05 l
o
np
348.69 325.35 m
-93.94 -105.84 l
o
np
359.66 219.51 m
-28.36 -11.05 l
o
np
359.66 219.51 m
-28.36 -11.05 l
o
np
359.66 219.51 m
-28.36 -11.05 l
o
np
359.66 219.51 m
-28.36 -11.05 l
o
np
96.34 113.66 m
18.91 7.97 l
o
np
96.34 113.66 m
18.91 7.97 l
o
np
101.83 113.66 m
9.85 4.39 l
o
np
90.86 113.66 m
27.36 10.95 l
o
np
90.86 113.66 m
27.36 10.95 l
o
np
101.83 113.66 m
9.85 4.39 l
o
np
101.83 113.66 m
9.85 4.39 l
o
np
359.66 219.51 m
-28.36 -11.05 l
o
np
321.26 325.35 m
-76.69 -105.84 l
o
np
348.69 325.35 m
-93.94 -105.84 l
o
np
387.09 325.35 m
-118.09 -105.84 l
o
np
387.09 325.35 m
-118.09 -105.84 l
o
np
101.83 113.66 m
9.85 4.39 l
o
np
101.83 113.66 m
9.85 4.39 l
o
np
101.83 113.66 m
9.85 4.39 l
o
np
348.69 325.35 m
-93.94 -105.84 l
o
np
392.57 219.51 m
-89.33 -28.87 l
o
np
359.66 219.51 m
-28.36 -11.05 l
o
np
359.66 219.51 m
-28.36 -11.05 l
o
np
96.34 113.66 m
18.91 7.97 l
o
np
96.34 113.66 m
18.91 7.97 l
o
np
96.34 113.66 m
18.91 7.97 l
o
np
96.34 113.66 m
18.91 7.97 l
o
np
96.34 113.66 m
18.91 7.97 l
o
np
96.34 113.66 m
18.91 7.97 l
o
np
370.63 219.51 m
-51.50 -18.77 l
o
np
370.63 219.51 m
-51.50 -18.77 l
o
np
365.14 325.35 m
-104.28 -105.84 l
o
np
365.14 325.35 m
-104.28 -105.84 l
o
np
156.69 166.58 m
5.39 -1.20 l
o
np
156.69 166.58 m
5.39 -1.20 l
o
np
365.14 325.35 m
-104.28 -105.84 l
o
np
348.69 325.35 m
-93.94 -105.84 l
o
np
370.63 219.51 m
-51.50 -18.77 l
o
np
370.63 219.51 m
-51.50 -18.77 l
o
np
321.26 325.35 m
-76.69 -105.84 l
o
np
321.26 325.35 m
-76.69 -105.84 l
o
np
321.26 325.35 m
-76.69 -105.84 l
o
np
321.26 325.35 m
-76.69 -105.84 l
o
np
321.26 325.35 m
-76.69 -105.84 l
o
np
321.26 325.35 m
-76.69 -105.84 l
o
np
348.69 325.35 m
-93.94 -105.84 l
o
np
381.60 325.35 m
-114.64 -105.84 l
o
np
381.60 325.35 m
-114.64 -105.84 l
o
np
387.09 325.35 m
-118.09 -105.84 l
o
np
387.09 325.35 m
-118.09 -105.84 l
o
np
359.66 219.51 m
-28.36 -11.05 l
o
np
359.66 219.51 m
-28.36 -11.05 l
o
np
101.83 113.66 m
9.85 4.39 l
o
np
101.83 113.66 m
9.85 4.39 l
o
np
101.83 113.66 m
9.85 4.39 l
o
np
178.63 113.66 m
6.28 13.18 l
o
np
178.63 113.66 m
6.28 13.18 l
o
np
222.51 140.12 m
-3.55 2.60 l
o
np
222.51 140.12 m
-3.55 2.60 l
o
np
178.63 113.66 m
6.28 13.18 l
o
np
178.63 113.66 m
6.28 13.18 l
o
np
222.51 140.12 m
-3.55 2.60 l
o
np
178.63 113.66 m
6.28 13.18 l
o
np
178.63 113.66 m
6.28 13.18 l
o
np
222.51 140.12 m
-3.55 2.60 l
o
np
222.51 140.12 m
-3.55 2.60 l
o
np
178.63 113.66 m
6.28 13.18 l
o
np
178.63 113.66 m
6.28 13.18 l
o
np
222.51 140.12 m
-3.55 2.60 l
o
np
167.66 113.66 m
5.67 7.77 l
o
np
167.66 113.66 m
5.67 7.77 l
o
np
178.63 113.66 m
6.28 13.18 l
o
np
178.63 113.66 m
6.28 13.18 l
o
np
222.51 140.12 m
-3.55 2.60 l
o
np
222.51 140.12 m
-3.55 2.60 l
o
np
222.51 140.12 m
-3.55 2.60 l
o
np
178.63 113.66 m
6.28 13.18 l
o
np
178.63 113.66 m
6.28 13.18 l
o
np
222.51 140.12 m
-3.55 2.60 l
o
np
222.51 140.12 m
-3.55 2.60 l
o
np
222.51 140.12 m
-3.55 2.60 l
o
np
167.66 113.66 m
5.67 7.77 l
o
np
167.66 113.66 m
5.67 7.77 l
o
np
359.66 219.51 m
-28.36 -11.05 l
o
np
359.66 219.51 m
-28.36 -11.05 l
o
np
359.66 219.51 m
-28.36 -11.05 l
o
np
359.66 219.51 m
-28.36 -11.05 l
o
np
359.66 219.51 m
-28.36 -11.05 l
o
np
359.66 219.51 m
-28.36 -11.05 l
o
np
359.66 219.51 m
-28.36 -11.05 l
o
np
359.66 219.51 m
-28.36 -11.05 l
o
np
392.57 272.43 m
-88.64 -52.92 l
o
np
392.57 272.43 m
-88.64 -52.92 l
o
np
167.66 113.66 m
5.67 7.77 l
o
np
359.66 219.51 m
-28.36 -11.05 l
o
np
359.66 219.51 m
-28.36 -11.05 l
o
np
359.66 219.51 m
-28.36 -11.05 l
o
np
359.66 219.51 m
-28.36 -11.05 l
o
np
167.66 113.66 m
5.67 7.77 l
o
np
167.66 113.66 m
5.67 7.77 l
o
np
359.66 219.51 m
-28.36 -11.05 l
o
np
359.66 219.51 m
-28.36 -11.05 l
o
np
359.66 219.51 m
-28.36 -11.05 l
o
np
359.66 219.51 m
-28.36 -11.05 l
o
np
359.66 219.51 m
-28.36 -11.05 l
o
np
370.63 219.51 m
-51.50 -18.77 l
o
np
167.66 113.66 m
5.67 7.77 l
o
/bg { 1 0 0 srgb } def
458.40 431.20 1.08 c p2
0 0 0 srgb
np
198.13 153.12 m
-4.63 -1.53 l
-3.25 1.28 l
0.51 0.51 l
20.78 13.20 l
0 0 l
-13.41 -13.46 l
o
/bg { 1 0.6471 0 srgb } def
np
 198.13 153.12 m
-4.63 -1.53 l
-3.25 1.28 l
0.51 0.51 l
20.78 13.20 l
0 0 l
cp p3
1 0 0 srgb
np
196.64 154.37 m
5.40 5.40 l
o
np
196.64 159.77 m
5.40 -5.40 l
o
np
195.52 157.07 m
7.64 0 l
o
np
199.34 153.25 m
0 7.63 l
o
0 0 0 srgb
2.25 setlinewidth
[] 0 setdash
0 setlinecap
np
211.54 346.52 m
0 10.59 l
o
0.75 setlinewidth
[ 2.25 3.75] 0 setdash
1 setlinecap
np
19.54 351.82 m
131.66 0 l
o
np
403.54 351.82 m
-142.63 0 l
o
0.75 setlinewidth
[] 0 setdash
np
19.54 349.17 m
0 5.29 l
o
np
403.54 349.17 m
0 5.29 l
o
np
151.20 346.52 m
0 10.59 l
109.71 0 l
0 -10.59 l
-109.71 0 l
o
458.40 351.82 2.70 c p1
0.00 0.00 504.00 504.00 cl
0 0 0 srgb
0.75 setlinewidth
[] 0 setdash
1 setlinecap
1 setlinejoin
10.00 setmiterlimit
np
74.40 73.44 m
384.00 0 l
o
np
74.40 73.44 m
0 -7.20 l
o
np
129.26 73.44 m
0 -7.20 l
o
np
184.11 73.44 m
0 -7.20 l
o
np
238.97 73.44 m
0 -7.20 l
o
np
293.83 73.44 m
0 -7.20 l
o
np
348.69 73.44 m
0 -7.20 l
o
np
403.54 73.44 m
0 -7.20 l
o
np
458.40 73.44 m
0 -7.20 l
o
/Font1 findfont 12 s
74.40 47.52 (1) .5 0 t
129.26 47.52 (2) .5 0 t
184.11 47.52 (3) .5 0 t
238.97 47.52 (4) .5 0 t
293.83 47.52 (5) .5 0 t
348.69 47.52 (6) .5 0 t
403.54 47.52 (7) .5 0 t
458.40 47.52 (8) .5 0 t
np
59.04 73.44 m
414.72 0 l
0 371.52 l
-414.72 0 l
0 -371.52 l
o
59.04 73.44 473.76 444.96 cl
0 0 0 srgb
2.25 setlinewidth
[] 0 setdash
0 setlinecap
1 setlinejoin
10.00 setmiterlimit
np
433.71 166.58 m
21.95 0 l
o
0.75 setlinewidth
[ 2.25 3.75] 0 setdash
1 setlinecap
np
444.69 87.20 m
0 26.46 l
o
np
444.69 325.35 m
0 -105.84 l
o
0.75 setlinewidth
[] 0 setdash
np
439.20 87.20 m
10.97 0 l
o
np
439.20 325.35 m
10.97 0 l
o
np
433.71 113.66 m
21.95 0 l
0 105.85 l
-21.95 0 l
0 -105.85 l
o
444.69 431.20 2.70 c p1
0.00 0.00 504.00 504.00 cl
0 0 0 srgb
0.75 setlinewidth
[] 0 setdash
1 setlinecap
1 setlinejoin
10.00 setmiterlimit
np
59.04 113.66 m
0 317.54 l
o
np
59.04 113.66 m
-7.20 0 l
o
np
59.04 166.58 m
-7.20 0 l
o
np
59.04 219.51 m
-7.20 0 l
o
np
59.04 272.43 m
-7.20 0 l
o
np
59.04 325.35 m
-7.20 0 l
o
np
59.04 378.28 m
-7.20 0 l
o
np
59.04 431.20 m
-7.20 0 l
o
/Font1 findfont 12 s
41.76 113.66 (4) .5 90 t
41.76 166.58 (6) .5 90 t
41.76 219.51 (8) .5 90 t
41.76 272.43 (10) .5 90 t
41.76 325.35 (12) .5 90 t
41.76 378.28 (14) .5 90 t
41.76 431.20 (16) .5 90 t
np
59.04 73.44 m
414.72 0 l
0 371.52 l
-414.72 0 l
0 -371.52 l
o
ep
%%Trailer
%%Pages: 1
%%EOF
