%!PS-Adobe-3.0 EPSF-3.0
%%DocumentNeededResources: font Helvetica
%%+ font Helvetica-Bold
%%+ font Helvetica-Oblique
%%+ font Helvetica-BoldOblique
%%+ font Symbol
%%Title: R Graphics Output
%%Creator: R Software
%%Pages: (atend)
%%BoundingBox: 0 0 504 504
%%EndComments
%%BeginProlog
/bp  { gs sRGB gs } def
% begin .ps.prolog
/gs  { gsave } bind def
/gr  { grestore } bind def
/ep  { showpage gr gr } bind def
/m   { moveto } bind def
/l  { rlineto } bind def
/np  { newpath } bind def
/cp  { closepath } bind def
/f   { fill } bind def
/o   { stroke } bind def
/c   { newpath 0 360 arc } bind def
/r   { 4 2 roll moveto 1 copy 3 -1 roll exch 0 exch rlineto 0 rlineto -1 mul 0 exch rlineto closepath } bind def
/p1  { stroke } bind def
/p2  { gsave bg fill grestore newpath } bind def
/p3  { gsave bg fill grestore stroke } bind def
/p6  { gsave bg eofill grestore newpath } bind def
/p7  { gsave bg eofill grestore stroke } bind def
/t   { 5 -2 roll moveto gsave rotate
       1 index stringwidth pop
       mul neg 0 rmoveto show grestore } bind def
/ta  { 4 -2 roll moveto gsave rotate show } bind def
/tb  { 2 -1 roll 0 rmoveto show } bind def
/cl  { grestore gsave newpath 3 index 3 index moveto 1 index
       4 -1 roll lineto  exch 1 index lineto lineto
       closepath clip newpath } bind def
/rgb { setrgbcolor } bind def
/s   { scalefont setfont } bind def
% end   .ps.prolog
/sRGB { [ /CIEBasedABC
          << /DecodeLMN
               [ { dup 0.03928 le
                        {12.92321 div}
                        {0.055 add 1.055 div 2.4 exp }
                     ifelse
                 } bind dup dup
               ]
             /MatrixLMN [0.412457 0.212673 0.019334
                         0.357576 0.715152 0.119192
                         0.180437 0.072175 0.950301]
             /WhitePoint [0.9505 1.0 1.0890]
           >>
         ] setcolorspace } bind def
/srgb { setcolor } bind def
%%IncludeResource: font Helvetica
/Helvetica findfont
dup length dict begin
  {1 index /FID ne {def} {pop pop} ifelse} forall
  /Encoding ISOLatin1Encoding def
  currentdict
  end
/Font1 exch definefont pop
%%IncludeResource: font Helvetica-Bold
/Helvetica-Bold findfont
dup length dict begin
  {1 index /FID ne {def} {pop pop} ifelse} forall
  /Encoding ISOLatin1Encoding def
  currentdict
  end
/Font2 exch definefont pop
%%IncludeResource: font Helvetica-Oblique
/Helvetica-Oblique findfont
dup length dict begin
  {1 index /FID ne {def} {pop pop} ifelse} forall
  /Encoding ISOLatin1Encoding def
  currentdict
  end
/Font3 exch definefont pop
%%IncludeResource: font Helvetica-BoldOblique
/Helvetica-BoldOblique findfont
dup length dict begin
  {1 index /FID ne {def} {pop pop} ifelse} forall
  /Encoding ISOLatin1Encoding def
  currentdict
  end
/Font4 exch definefont pop
%%IncludeResource: font Symbol
/Symbol findfont
dup length dict begin
  {1 index /FID ne {def} {pop pop} ifelse} forall
  currentdict
  end
/Font5 exch definefont pop
%%EndProlog
%%Page: 1 1
bp
59.04 73.44 473.76 444.96 cl
0 0 0 srgb
2.25 setlinewidth
[] 0 setdash
0 setlinecap
1 setlinejoin
10.00 setmiterlimit
np
84.00 119.63 m
76.80 0 l
o
0.75 setlinewidth
[ 2.25 3.75] 0 setdash
1 setlinecap
np
122.40 98.20 m
0 16.63 l
o
np
122.40 132.68 m
0 -2.45 l
o
0.75 setlinewidth
[] 0 setdash
np
103.20 98.20 m
38.40 0 l
o
np
103.20 132.68 m
38.40 0 l
o
np
84.00 114.83 m
76.80 0 l
0 15.40 l
-76.80 0 l
0 -15.40 l
o
122.40 154.12 2.70 c p1
122.40 158.33 2.70 c p1
2.25 setlinewidth
[] 0 setdash
0 setlinecap
np
180.00 233.85 m
76.80 0 l
o
0.75 setlinewidth
[ 2.25 3.75] 0 setdash
1 setlinecap
np
218.40 203.72 m
0 22.52 l
o
np
218.40 286.14 m
0 -23.91 l
o
0.75 setlinewidth
[] 0 setdash
np
199.20 203.72 m
38.40 0 l
o
np
199.20 286.14 m
38.40 0 l
o
np
180.00 226.24 m
76.80 0 l
0 35.99 l
-76.80 0 l
0 -35.99 l
o
2.25 setlinewidth
[] 0 setdash
0 setlinecap
np
276.00 385.01 m
76.80 0 l
o
0.75 setlinewidth
[ 2.25 3.75] 0 setdash
1 setlinecap
np
314.40 328.32 m
0 25.74 l
o
np
314.40 431.20 m
0 -27.41 l
o
0.75 setlinewidth
[] 0 setdash
np
295.20 328.32 m
38.40 0 l
o
np
295.20 431.20 m
38.40 0 l
o
np
276.00 354.06 m
76.80 0 l
0 49.73 l
-76.80 0 l
0 -49.73 l
o
314.40 249.41 2.70 c p1
2.25 setlinewidth
[] 0 setdash
0 setlinecap
np
372.00 153.43 m
76.80 0 l
o
0.75 setlinewidth
[ 2.25 3.75] 0 setdash
1 setlinecap
np
410.40 87.20 m
0 35.45 l
o
np
410.40 193.37 m
0 -26.44 l
o
0.75 setlinewidth
[] 0 setdash
np
391.20 87.20 m
38.40 0 l
o
np
391.20 193.37 m
38.40 0 l
o
np
372.00 122.65 m
76.80 0 l
0 44.28 l
-76.80 0 l
0 -44.28 l
o
0.00 0.00 504.00 504.00 cl
0 0 0 srgb
0.75 setlinewidth
[] 0 setdash
1 setlinecap
1 setlinejoin
10.00 setmiterlimit
np
122.40 73.44 m
288.00 0 l
o
np
122.40 73.44 m
0 -7.20 l
o
np
218.40 73.44 m
0 -7.20 l
o
np
314.40 73.44 m
0 -7.20 l
o
np
410.40 73.44 m
0 -7.20 l
o
/Font1 findfont 12 s
122.40 47.52 (1) .5 0 t
218.40 47.52 (2) .5 0 t
314.40 47.52 (3) .5 0 t
410.40 47.52 (4) .5 0 t
np
59.04 96.20 m
0 310.31 l
o
np
59.04 96.20 m
-7.20 0 l
o
np
59.04 158.26 m
-7.20 0 l
o
np
59.04 220.32 m
-7.20 0 l
o
np
59.04 282.39 m
-7.20 0 l
o
np
59.04 344.45 m
-7.20 0 l
o
np
59.04 406.51 m
-7.20 0 l
o
41.76 96.20 (-1000000) .5 90 t
41.76 158.26 (-500000) .5 90 t
41.76 220.32 (0) .5 90 t
41.76 282.39 (500000) .5 90 t
41.76 344.45 (1000000) .5 90 t
41.76 406.51 (1500000) .5 90 t
np
59.04 73.44 m
414.72 0 l
0 371.52 l
-414.72 0 l
0 -371.52 l
o
ep
%%Trailer
%%Pages: 1
%%EOF
