%!PS-Adobe-3.0 EPSF-3.0
%%DocumentNeededResources: font Helvetica
%%+ font Helvetica-Bold
%%+ font Helvetica-Oblique
%%+ font Helvetica-BoldOblique
%%+ font Symbol
%%Title: R Graphics Output
%%Creator: R Software
%%Pages: (atend)
%%BoundingBox: 0 0 720 1008
%%EndComments
%%BeginProlog
/bp  { gs sRGB gs } def
% begin .ps.prolog
/gs  { gsave } bind def
/gr  { grestore } bind def
/ep  { showpage gr gr } bind def
/m   { moveto } bind def
/l  { rlineto } bind def
/np  { newpath } bind def
/cp  { closepath } bind def
/f   { fill } bind def
/o   { stroke } bind def
/c   { newpath 0 360 arc } bind def
/r   { 4 2 roll moveto 1 copy 3 -1 roll exch 0 exch rlineto 0 rlineto -1 mul 0 exch rlineto closepath } bind def
/p1  { stroke } bind def
/p2  { gsave bg fill grestore newpath } bind def
/p3  { gsave bg fill grestore stroke } bind def
/p6  { gsave bg eofill grestore newpath } bind def
/p7  { gsave bg eofill grestore stroke } bind def
/t   { 5 -2 roll moveto gsave rotate
       1 index stringwidth pop
       mul neg 0 rmoveto show grestore } bind def
/ta  { 4 -2 roll moveto gsave rotate show } bind def
/tb  { 2 -1 roll 0 rmoveto show } bind def
/cl  { grestore gsave newpath 3 index 3 index moveto 1 index
       4 -1 roll lineto  exch 1 index lineto lineto
       closepath clip newpath } bind def
/rgb { setrgbcolor } bind def
/s   { scalefont setfont } bind def
% end   .ps.prolog
/sRGB { [ /CIEBasedABC
          << /DecodeLMN
               [ { dup 0.03928 le
                        {12.92321 div}
                        {0.055 add 1.055 div 2.4 exp }
                     ifelse
                 } bind dup dup
               ]
             /MatrixLMN [0.412457 0.212673 0.019334
                         0.357576 0.715152 0.119192
                         0.180437 0.072175 0.950301]
             /WhitePoint [0.9505 1.0 1.0890]
           >>
         ] setcolorspace } bind def
/srgb { setcolor } bind def
%%IncludeResource: font Helvetica
/Helvetica findfont
dup length dict begin
  {1 index /FID ne {def} {pop pop} ifelse} forall
  /Encoding ISOLatin1Encoding def
  currentdict
  end
/Font1 exch definefont pop
%%IncludeResource: font Helvetica-Bold
/Helvetica-Bold findfont
dup length dict begin
  {1 index /FID ne {def} {pop pop} ifelse} forall
  /Encoding ISOLatin1Encoding def
  currentdict
  end
/Font2 exch definefont pop
%%IncludeResource: font Helvetica-Oblique
/Helvetica-Oblique findfont
dup length dict begin
  {1 index /FID ne {def} {pop pop} ifelse} forall
  /Encoding ISOLatin1Encoding def
  currentdict
  end
/Font3 exch definefont pop
%%IncludeResource: font Helvetica-BoldOblique
/Helvetica-BoldOblique findfont
dup length dict begin
  {1 index /FID ne {def} {pop pop} ifelse} forall
  /Encoding ISOLatin1Encoding def
  currentdict
  end
/Font4 exch definefont pop
%%IncludeResource: font Symbol
/Symbol findfont
dup length dict begin
  {1 index /FID ne {def} {pop pop} ifelse} forall
  currentdict
  end
/Font5 exch definefont pop
%%EndProlog
%%Page: 1 1
bp
0.00 604.80 720.00 1008.00 cl
/Font1 findfont 8 s
0 0 0 srgb
360.00 578.19 (x) .5 0 t
9.50 614.30 710.50 998.50 cl
0 0 0 srgb
0.75 setlinewidth
[] 0 setdash
1 setlinecap
1 setlinejoin
10.00 setmiterlimit
13.57 628.53 62.55 19.23 r p1
76.11 628.53 62.55 153.83 r p1
138.66 628.53 62.55 355.73 r p1
201.21 628.53 62.55 331.70 r p1
263.75 628.53 62.55 96.14 r p1
326.30 628.53 62.55 28.84 r p1
388.84 628.53 62.55 149.02 r p1
451.39 628.53 62.55 312.47 r p1
513.93 628.53 62.55 317.28 r p1
576.48 628.53 62.55 134.60 r p1
639.03 628.53 62.55 24.04 r p1
9.50 513.50 710.50 595.30 cl
9.50 513.50 710.50 595.30 cl
0 0 0 srgb
2.25 setlinewidth
[] 0 setdash
0 setlinecap
1 setlinejoin
10.00 setmiterlimit
np
360.35 539.25 m
0 30.30 l
o
0.75 setlinewidth
[ 2.25 3.75] 0 setdash
1 setlinecap
np
35.47 554.40 m
157.83 0 l
o
np
684.53 554.40 m
-171.27 0 l
o
0.75 setlinewidth
[] 0 setdash
np
35.47 546.83 m
0 15.14 l
o
np
684.53 546.83 m
0 15.14 l
o
np
193.30 539.25 m
0 30.30 l
319.96 0 l
0 -30.30 l
-319.96 0 l
o
9.50 110.30 710.50 494.50 cl
0.00 100.80 720.00 504.00 cl
/Font1 findfont 8 s
0 0 0 srgb
360.00 74.19 (x) .5 0 t
9.50 110.30 710.50 494.50 cl
0 0 0 srgb
0.75 setlinewidth
[] 0 setdash
1 setlinecap
1 setlinejoin
10.00 setmiterlimit
34.65 124.53 65.02 313.53 r p1
99.67 124.53 65.02 277.35 r p1
164.69 124.53 65.02 313.53 r p1
229.71 124.53 65.02 295.44 r p1
294.72 124.53 65.02 298.45 r p1
359.74 124.53 65.02 328.60 r p1
424.76 124.53 65.02 301.47 r p1
489.78 124.53 65.02 274.34 r p1
554.79 124.53 65.02 355.73 r p1
619.81 124.53 65.02 256.25 r p1
9.50 9.50 710.50 91.30 cl
9.50 9.50 710.50 91.30 cl
0 0 0 srgb
2.25 setlinewidth
[] 0 setdash
0 setlinecap
1 setlinejoin
10.00 setmiterlimit
np
362.46 35.25 m
0 30.30 l
o
0.75 setlinewidth
[ 2.25 3.75] 0 setdash
1 setlinecap
np
35.47 50.40 m
166.22 0 l
o
np
684.53 50.40 m
-161.98 0 l
o
0.75 setlinewidth
[] 0 setdash
np
35.47 42.83 m
0 15.14 l
o
np
684.53 42.83 m
0 15.14 l
o
np
201.69 35.25 m
0 30.30 l
320.86 0 l
0 -30.30 l
-320.86 0 l
o
ep
%%Trailer
%%Pages: 1
%%EOF
