%!PS-Adobe-3.0 EPSF-3.0
%%DocumentNeededResources: font Helvetica
%%+ font Helvetica-Bold
%%+ font Helvetica-Oblique
%%+ font Helvetica-BoldOblique
%%+ font Symbol
%%Title: R Graphics Output
%%Creator: R Software
%%Pages: (atend)
%%BoundingBox: 0 0 504 504
%%EndComments
%%BeginProlog
/bp  { gs sRGB gs } def
% begin .ps.prolog
/gs  { gsave } bind def
/gr  { grestore } bind def
/ep  { showpage gr gr } bind def
/m   { moveto } bind def
/l  { rlineto } bind def
/np  { newpath } bind def
/cp  { closepath } bind def
/f   { fill } bind def
/o   { stroke } bind def
/c   { newpath 0 360 arc } bind def
/r   { 4 2 roll moveto 1 copy 3 -1 roll exch 0 exch rlineto 0 rlineto -1 mul 0 exch rlineto closepath } bind def
/p1  { stroke } bind def
/p2  { gsave bg fill grestore newpath } bind def
/p3  { gsave bg fill grestore stroke } bind def
/p6  { gsave bg eofill grestore newpath } bind def
/p7  { gsave bg eofill grestore stroke } bind def
/t   { 5 -2 roll moveto gsave rotate
       1 index stringwidth pop
       mul neg 0 rmoveto show grestore } bind def
/ta  { 4 -2 roll moveto gsave rotate show } bind def
/tb  { 2 -1 roll 0 rmoveto show } bind def
/cl  { grestore gsave newpath 3 index 3 index moveto 1 index
       4 -1 roll lineto  exch 1 index lineto lineto
       closepath clip newpath } bind def
/rgb { setrgbcolor } bind def
/s   { scalefont setfont } bind def
% end   .ps.prolog
/sRGB { [ /CIEBasedABC
          << /DecodeLMN
               [ { dup 0.03928 le
                        {12.92321 div}
                        {0.055 add 1.055 div 2.4 exp }
                     ifelse
                 } bind dup dup
               ]
             /MatrixLMN [0.412457 0.212673 0.019334
                         0.357576 0.715152 0.119192
                         0.180437 0.072175 0.950301]
             /WhitePoint [0.9505 1.0 1.0890]
           >>
         ] setcolorspace } bind def
/srgb { setcolor } bind def
%%IncludeResource: font Helvetica
/Helvetica findfont
dup length dict begin
  {1 index /FID ne {def} {pop pop} ifelse} forall
  /Encoding ISOLatin1Encoding def
  currentdict
  end
/Font1 exch definefont pop
%%IncludeResource: font Helvetica-Bold
/Helvetica-Bold findfont
dup length dict begin
  {1 index /FID ne {def} {pop pop} ifelse} forall
  /Encoding ISOLatin1Encoding def
  currentdict
  end
/Font2 exch definefont pop
%%IncludeResource: font Helvetica-Oblique
/Helvetica-Oblique findfont
dup length dict begin
  {1 index /FID ne {def} {pop pop} ifelse} forall
  /Encoding ISOLatin1Encoding def
  currentdict
  end
/Font3 exch definefont pop
%%IncludeResource: font Helvetica-BoldOblique
/Helvetica-BoldOblique findfont
dup length dict begin
  {1 index /FID ne {def} {pop pop} ifelse} forall
  /Encoding ISOLatin1Encoding def
  currentdict
  end
/Font4 exch definefont pop
%%IncludeResource: font Symbol
/Symbol findfont
dup length dict begin
  {1 index /FID ne {def} {pop pop} ifelse} forall
  currentdict
  end
/Font5 exch definefont pop
%%EndProlog
%%Page: 1 1
bp
43.20 14.40 489.60 489.60 cl
0 0 0 srgb
2.25 setlinewidth
[] 0 setdash
0 setlinecap
1 setlinejoin
10.00 setmiterlimit
np
183.73 195.98 m
165.34 0 l
o
0.75 setlinewidth
[ 2.25 3.75] 0 setdash
1 setlinecap
np
266.40 32.00 m
0 124.68 l
o
np
266.40 374.90 m
0 -129.77 l
o
0.75 setlinewidth
[] 0 setdash
np
225.07 32.00 m
82.66 0 l
o
np
225.07 374.90 m
82.66 0 l
o
np
183.73 156.68 m
165.34 0 l
0 88.45 l
-165.34 0 l
0 -88.45 l
o
266.40 472.00 2.70 c p1
266.40 382.41 2.70 c p1
266.40 377.88 2.70 c p1
266.40 399.19 2.70 c p1
266.40 392.41 2.70 c p1
266.40 399.19 2.70 c p1
266.40 392.41 2.70 c p1
266.40 392.41 2.70 c p1
266.40 404.83 2.70 c p1
266.40 404.83 2.70 c p1
266.40 424.25 2.70 c p1
266.40 414.70 2.70 c p1
266.40 404.83 2.70 c p1
266.40 404.83 2.70 c p1
266.40 424.25 2.70 c p1
266.40 381.05 2.70 c p1
266.40 397.15 2.70 c p1
266.40 440.29 2.70 c p1
266.40 381.05 2.70 c p1
266.40 394.88 2.70 c p1
266.40 390.00 2.70 c p1
266.40 390.00 2.70 c p1
266.40 396.17 2.70 c p1
266.40 396.17 2.70 c p1
0.00 0.00 504.00 504.00 cl
0 0 0 srgb
0.75 setlinewidth
[] 0 setdash
1 setlinecap
1 setlinejoin
10.00 setmiterlimit
np
43.20 44.84 m
0 365.62 l
o
np
43.20 44.84 m
-7.20 0 l
o
np
43.20 166.71 m
-7.20 0 l
o
np
43.20 288.58 m
-7.20 0 l
o
np
43.20 410.46 m
-7.20 0 l
o
/Font1 findfont 12 s
25.92 44.84 (5) .5 90 t
25.92 166.71 (10) .5 90 t
25.92 288.58 (15) .5 90 t
25.92 410.46 (20) .5 90 t
np
43.20 14.40 m
446.40 0 l
0 475.20 l
-446.40 0 l
0 -475.20 l
o
43.20 14.40 489.60 489.60 cl
0 0 0 srgb
0.75 setlinewidth
[] 0 setdash
1 setlinecap
1 setlinejoin
10.00 setmiterlimit
np
262.58 206.61 m
7.64 0 l
o
np
266.40 202.79 m
0 7.64 l
o
ep
%%Trailer
%%Pages: 1
%%EOF
