%!PS-Adobe-3.0 EPSF-3.0
%%DocumentNeededResources: font Helvetica
%%+ font Helvetica-Bold
%%+ font Helvetica-Oblique
%%+ font Helvetica-BoldOblique
%%+ font Symbol
%%Title: R Graphics Output
%%Creator: R Software
%%Pages: (atend)
%%BoundingBox: 0 0 504 504
%%EndComments
%%BeginProlog
/bp  { gs sRGB gs } def
% begin .ps.prolog
/gs  { gsave } bind def
/gr  { grestore } bind def
/ep  { showpage gr gr } bind def
/m   { moveto } bind def
/l  { rlineto } bind def
/np  { newpath } bind def
/cp  { closepath } bind def
/f   { fill } bind def
/o   { stroke } bind def
/c   { newpath 0 360 arc } bind def
/r   { 4 2 roll moveto 1 copy 3 -1 roll exch 0 exch rlineto 0 rlineto -1 mul 0 exch rlineto closepath } bind def
/p1  { stroke } bind def
/p2  { gsave bg fill grestore newpath } bind def
/p3  { gsave bg fill grestore stroke } bind def
/p6  { gsave bg eofill grestore newpath } bind def
/p7  { gsave bg eofill grestore stroke } bind def
/t   { 5 -2 roll moveto gsave rotate
       1 index stringwidth pop
       mul neg 0 rmoveto show grestore } bind def
/ta  { 4 -2 roll moveto gsave rotate show } bind def
/tb  { 2 -1 roll 0 rmoveto show } bind def
/cl  { grestore gsave newpath 3 index 3 index moveto 1 index
       4 -1 roll lineto  exch 1 index lineto lineto
       closepath clip newpath } bind def
/rgb { setrgbcolor } bind def
/s   { scalefont setfont } bind def
% end   .ps.prolog
/sRGB { [ /CIEBasedABC
          << /DecodeLMN
               [ { dup 0.03928 le
                        {12.92321 div}
                        {0.055 add 1.055 div 2.4 exp }
                     ifelse
                 } bind dup dup
               ]
             /MatrixLMN [0.412457 0.212673 0.019334
                         0.357576 0.715152 0.119192
                         0.180437 0.072175 0.950301]
             /WhitePoint [0.9505 1.0 1.0890]
           >>
         ] setcolorspace } bind def
/srgb { setcolor } bind def
%%IncludeResource: font Helvetica
/Helvetica findfont
dup length dict begin
  {1 index /FID ne {def} {pop pop} ifelse} forall
  /Encoding ISOLatin1Encoding def
  currentdict
  end
/Font1 exch definefont pop
%%IncludeResource: font Helvetica-Bold
/Helvetica-Bold findfont
dup length dict begin
  {1 index /FID ne {def} {pop pop} ifelse} forall
  /Encoding ISOLatin1Encoding def
  currentdict
  end
/Font2 exch definefont pop
%%IncludeResource: font Helvetica-Oblique
/Helvetica-Oblique findfont
dup length dict begin
  {1 index /FID ne {def} {pop pop} ifelse} forall
  /Encoding ISOLatin1Encoding def
  currentdict
  end
/Font3 exch definefont pop
%%IncludeResource: font Helvetica-BoldOblique
/Helvetica-BoldOblique findfont
dup length dict begin
  {1 index /FID ne {def} {pop pop} ifelse} forall
  /Encoding ISOLatin1Encoding def
  currentdict
  end
/Font4 exch definefont pop
%%IncludeResource: font Symbol
/Symbol findfont
dup length dict begin
  {1 index /FID ne {def} {pop pop} ifelse} forall
  currentdict
  end
/Font5 exch definefont pop
%%EndProlog
%%Page: 1 1
bp
0.00 0.00 504.00 504.00 cl
0 0 0 srgb
0.75 setlinewidth
[] 0 setdash
1 setlinecap
1 setlinejoin
10.00 setmiterlimit
np
74.40 73.44 m
384.00 0 l
o
np
74.40 73.44 m
0 -7.20 l
o
np
170.40 73.44 m
0 -7.20 l
o
np
266.40 73.44 m
0 -7.20 l
o
np
362.40 73.44 m
0 -7.20 l
o
np
458.40 73.44 m
0 -7.20 l
o
/Font1 findfont 12 s
74.40 47.52 (-2) .5 0 t
170.40 47.52 (-1) .5 0 t
266.40 47.52 (0) .5 0 t
362.40 47.52 (1) .5 0 t
458.40 47.52 (2) .5 0 t
np
59.04 87.20 m
0 344.00 l
o
np
59.04 87.20 m
-7.20 0 l
o
np
59.04 173.20 m
-7.20 0 l
o
np
59.04 259.20 m
-7.20 0 l
o
np
59.04 345.20 m
-7.20 0 l
o
np
59.04 431.20 m
-7.20 0 l
o
41.76 87.20 (-2) .5 90 t
41.76 173.20 (-1) .5 90 t
41.76 259.20 (0) .5 90 t
41.76 345.20 (1) .5 90 t
41.76 431.20 (2) .5 90 t
np
59.04 73.44 m
414.72 0 l
0 371.52 l
-414.72 0 l
0 -371.52 l
o
0.00 0.00 504.00 504.00 cl
/Font1 findfont 12 s
0 0 0 srgb
266.40 18.72 (x) .5 0 t
12.96 259.20 (y) .5 90 t
59.04 73.44 473.76 444.96 cl
0 0 0 srgb
0.75 setlinewidth
[] 0 setdash
1 setlinecap
1 setlinejoin
10.00 setmiterlimit
np
127.74 0.00 m
0.42 2.41 l
3.84 20.81 l
3.84 19.65 l
3.84 18.53 l
3.84 17.44 l
3.84 16.39 l
3.84 15.36 l
3.84 14.37 l
3.84 13.42 l
3.84 12.48 l
3.84 11.60 l
3.84 10.74 l
3.84 9.91 l
3.84 9.12 l
3.84 8.36 l
3.84 7.64 l
3.84 6.94 l
3.84 6.28 l
3.84 5.65 l
3.84 5.06 l
3.84 4.50 l
3.84 3.96 l
3.84 3.48 l
3.84 3.01 l
3.84 2.58 l
3.84 2.18 l
3.84 1.83 l
3.84 1.49 l
3.84 1.19 l
3.84 0.93 l
3.84 0.70 l
3.84 0.50 l
3.84 0.34 l
3.84 0.20 l
3.84 0.11 l
3.84 0.03 l
3.84 0.01 l
3.84 0.01 l
3.84 0.03 l
3.84 0.11 l
3.84 0.20 l
3.84 0.34 l
3.84 0.50 l
3.84 0.70 l
3.84 0.93 l
3.84 1.19 l
3.84 1.49 l
3.84 1.83 l
3.84 2.18 l
3.84 2.58 l
3.84 3.01 l
3.84 3.48 l
3.84 3.96 l
3.84 4.50 l
3.84 5.06 l
3.84 5.65 l
3.84 6.28 l
3.84 6.94 l
3.84 7.64 l
3.84 8.36 l
3.84 9.12 l
3.84 9.91 l
3.84 10.74 l
3.84 11.60 l
3.84 12.48 l
3.84 13.42 l
3.84 14.37 l
3.84 15.36 l
3.84 16.39 l
3.84 17.44 l
3.84 18.53 l
3.84 19.65 l
1.63 8.82 l
o
0 1 0 srgb
np
74.40 341.77 m
3.84 -3.47 l
3.84 -4.60 l
3.84 -5.68 l
3.84 -6.67 l
3.84 -7.57 l
3.84 -8.34 l
3.84 -9.02 l
3.84 -9.55 l
3.84 -9.94 l
3.84 -10.21 l
3.84 -10.30 l
3.84 -10.27 l
3.84 -10.09 l
3.84 -9.75 l
3.84 -9.27 l
3.84 -8.67 l
3.84 -7.94 l
3.84 -7.09 l
3.84 -6.15 l
3.84 -5.11 l
3.84 -4.00 l
3.84 -2.84 l
3.84 -1.62 l
3.84 -0.40 l
3.84 0.84 l
3.84 2.07 l
3.84 3.26 l
3.84 4.40 l
3.84 5.50 l
3.84 6.49 l
3.84 7.41 l
3.84 8.22 l
3.84 8.90 l
3.84 9.47 l
3.84 9.88 l
3.84 10.17 l
3.84 10.30 l
3.84 10.29 l
3.84 10.12 l
3.84 9.82 l
3.84 9.37 l
3.84 8.79 l
3.84 8.08 l
3.84 7.26 l
3.84 6.32 l
3.84 5.30 l
3.84 4.21 l
3.84 3.05 l
3.84 1.84 l
3.84 0.62 l
3.84 -0.62 l
3.84 -1.84 l
3.84 -3.05 l
3.84 -4.21 l
3.84 -5.30 l
3.84 -6.32 l
3.84 -7.26 l
3.84 -8.08 l
3.84 -8.79 l
3.84 -9.37 l
3.84 -9.82 l
3.84 -10.12 l
3.84 -10.29 l
3.84 -10.30 l
3.84 -10.17 l
3.84 -9.88 l
3.84 -9.47 l
3.84 -8.90 l
3.84 -8.22 l
3.84 -7.41 l
3.84 -6.49 l
3.84 -5.50 l
3.84 -4.40 l
3.84 -3.26 l
3.84 -2.07 l
3.84 -0.84 l
3.84 0.40 l
3.84 1.62 l
3.84 2.84 l
3.84 4.00 l
3.84 5.11 l
3.84 6.15 l
3.84 7.09 l
3.84 7.94 l
3.84 8.67 l
3.84 9.27 l
3.84 9.75 l
3.84 10.09 l
3.84 10.27 l
3.84 10.30 l
3.84 10.21 l
3.84 9.94 l
3.84 9.55 l
3.84 9.02 l
3.84 8.34 l
3.84 7.57 l
3.84 6.67 l
3.84 5.68 l
3.84 4.60 l
458.40 341.77 lineto
o
1 0 0 srgb
np
74.40 263.84 m
3.84 0.39 l
3.84 0.40 l
3.84 0.43 l
3.84 0.45 l
3.84 0.48 l
3.84 0.50 l
3.84 0.53 l
3.84 0.55 l
3.84 0.57 l
3.84 0.60 l
3.84 0.62 l
3.84 0.65 l
3.84 0.67 l
3.84 0.69 l
3.84 0.71 l
3.84 0.73 l
3.84 0.75 l
3.84 0.76 l
3.84 0.78 l
3.84 0.80 l
3.84 0.81 l
3.84 0.81 l
3.84 0.83 l
3.84 0.83 l
3.84 0.83 l
3.84 0.83 l
3.84 0.83 l
3.84 0.82 l
3.84 0.82 l
3.84 0.80 l
3.84 0.79 l
3.84 0.78 l
3.84 0.75 l
3.84 0.73 l
3.84 0.70 l
3.84 0.67 l
3.84 0.64 l
3.84 0.61 l
3.84 0.56 l
3.84 0.53 l
3.84 0.49 l
3.84 0.44 l
3.84 0.39 l
3.84 0.35 l
3.84 0.29 l
3.84 0.24 l
3.84 0.19 l
3.84 0.14 l
3.84 0.08 l
3.84 0.03 l
3.84 -0.03 l
3.84 -0.08 l
3.84 -0.14 l
3.84 -0.19 l
3.84 -0.24 l
3.84 -0.29 l
3.84 -0.35 l
3.84 -0.39 l
3.84 -0.44 l
3.84 -0.49 l
3.84 -0.53 l
3.84 -0.56 l
3.84 -0.61 l
3.84 -0.64 l
3.84 -0.67 l
3.84 -0.70 l
3.84 -0.73 l
3.84 -0.75 l
3.84 -0.78 l
3.84 -0.79 l
3.84 -0.80 l
3.84 -0.82 l
3.84 -0.82 l
3.84 -0.83 l
3.84 -0.83 l
3.84 -0.83 l
3.84 -0.83 l
3.84 -0.83 l
3.84 -0.81 l
3.84 -0.81 l
3.84 -0.80 l
3.84 -0.78 l
3.84 -0.76 l
3.84 -0.75 l
3.84 -0.73 l
3.84 -0.71 l
3.84 -0.69 l
3.84 -0.67 l
3.84 -0.65 l
3.84 -0.62 l
3.84 -0.60 l
3.84 -0.57 l
3.84 -0.55 l
3.84 -0.53 l
3.84 -0.50 l
3.84 -0.48 l
3.84 -0.45 l
3.84 -0.43 l
3.84 -0.40 l
458.40 263.84 lineto
o
ep
%%Trailer
%%Pages: 1
%%EOF
