%!PS-Adobe-3.0 EPSF-3.0
%%DocumentNeededResources: font Helvetica
%%+ font Helvetica-Bold
%%+ font Helvetica-Oblique
%%+ font Helvetica-BoldOblique
%%+ font Symbol
%%Title: R Graphics Output
%%Creator: R Software
%%Pages: (atend)
%%BoundingBox: 0 0 504 504
%%EndComments
%%BeginProlog
/bp  { gs sRGB gs } def
% begin .ps.prolog
/gs  { gsave } bind def
/gr  { grestore } bind def
/ep  { showpage gr gr } bind def
/m   { moveto } bind def
/l  { rlineto } bind def
/np  { newpath } bind def
/cp  { closepath } bind def
/f   { fill } bind def
/o   { stroke } bind def
/c   { newpath 0 360 arc } bind def
/r   { 4 2 roll moveto 1 copy 3 -1 roll exch 0 exch rlineto 0 rlineto -1 mul 0 exch rlineto closepath } bind def
/p1  { stroke } bind def
/p2  { gsave bg fill grestore newpath } bind def
/p3  { gsave bg fill grestore stroke } bind def
/p6  { gsave bg eofill grestore newpath } bind def
/p7  { gsave bg eofill grestore stroke } bind def
/t   { 5 -2 roll moveto gsave rotate
       1 index stringwidth pop
       mul neg 0 rmoveto show grestore } bind def
/ta  { 4 -2 roll moveto gsave rotate show } bind def
/tb  { 2 -1 roll 0 rmoveto show } bind def
/cl  { grestore gsave newpath 3 index 3 index moveto 1 index
       4 -1 roll lineto  exch 1 index lineto lineto
       closepath clip newpath } bind def
/rgb { setrgbcolor } bind def
/s   { scalefont setfont } bind def
% end   .ps.prolog
/sRGB { [ /CIEBasedABC
          << /DecodeLMN
               [ { dup 0.03928 le
                        {12.92321 div}
                        {0.055 add 1.055 div 2.4 exp }
                     ifelse
                 } bind dup dup
               ]
             /MatrixLMN [0.412457 0.212673 0.019334
                         0.357576 0.715152 0.119192
                         0.180437 0.072175 0.950301]
             /WhitePoint [0.9505 1.0 1.0890]
           >>
         ] setcolorspace } bind def
/srgb { setcolor } bind def
%%IncludeResource: font Helvetica
/Helvetica findfont
dup length dict begin
  {1 index /FID ne {def} {pop pop} ifelse} forall
  /Encoding ISOLatin1Encoding def
  currentdict
  end
/Font1 exch definefont pop
%%IncludeResource: font Helvetica-Bold
/Helvetica-Bold findfont
dup length dict begin
  {1 index /FID ne {def} {pop pop} ifelse} forall
  /Encoding ISOLatin1Encoding def
  currentdict
  end
/Font2 exch definefont pop
%%IncludeResource: font Helvetica-Oblique
/Helvetica-Oblique findfont
dup length dict begin
  {1 index /FID ne {def} {pop pop} ifelse} forall
  /Encoding ISOLatin1Encoding def
  currentdict
  end
/Font3 exch definefont pop
%%IncludeResource: font Helvetica-BoldOblique
/Helvetica-BoldOblique findfont
dup length dict begin
  {1 index /FID ne {def} {pop pop} ifelse} forall
  /Encoding ISOLatin1Encoding def
  currentdict
  end
/Font4 exch definefont pop
%%IncludeResource: font Symbol
/Symbol findfont
dup length dict begin
  {1 index /FID ne {def} {pop pop} ifelse} forall
  currentdict
  end
/Font5 exch definefont pop
%%EndProlog
%%Page: 1 1
bp
59.04 73.44 473.76 444.96 cl
0 0 0 srgb
0.75 setlinewidth
[] 0 setdash
1 setlinecap
1 setlinejoin
10.00 setmiterlimit
np
74.40 87.20 m
0.75 0.01 l
0.75 0.02 l
0.75 0.01 l
0.76 0.02 l
0.75 0.02 l
0.75 0.02 l
0.75 0.03 l
0.75 0.02 l
0.75 0.03 l
0.75 0.03 l
0.76 0.04 l
0.75 0.04 l
0.75 0.05 l
0.75 0.04 l
0.75 0.06 l
0.75 0.06 l
0.75 0.06 l
0.76 0.07 l
0.75 0.08 l
0.75 0.08 l
0.75 0.09 l
0.75 0.10 l
0.75 0.11 l
0.76 0.11 l
0.75 0.13 l
0.75 0.13 l
0.75 0.14 l
0.75 0.16 l
0.75 0.17 l
0.75 0.17 l
0.76 0.19 l
0.75 0.21 l
0.75 0.21 l
0.75 0.23 l
0.75 0.24 l
0.75 0.26 l
0.75 0.28 l
0.76 0.29 l
0.75 0.30 l
0.75 0.32 l
0.75 0.34 l
0.75 0.36 l
0.75 0.37 l
0.75 0.39 l
0.76 0.41 l
0.75 0.43 l
0.75 0.45 l
0.75 0.46 l
0.75 0.49 l
0.75 0.50 l
0.75 0.52 l
0.76 0.55 l
0.75 0.56 l
0.75 0.58 l
0.75 0.60 l
0.75 0.62 l
0.75 0.64 l
0.76 0.66 l
0.75 0.68 l
0.75 0.70 l
0.75 0.71 l
0.75 0.74 l
0.75 0.76 l
0.75 0.77 l
0.76 0.79 l
0.75 0.81 l
0.75 0.83 l
0.75 0.84 l
0.75 0.86 l
0.75 0.88 l
0.75 0.90 l
0.76 0.91 l
0.75 0.94 l
0.75 0.95 l
0.75 0.96 l
0.75 0.98 l
0.75 1.00 l
0.75 1.01 l
0.76 1.03 l
0.75 1.04 l
0.75 1.06 l
0.75 1.07 l
0.75 1.09 l
0.75 1.10 l
0.75 1.12 l
0.76 1.13 l
0.75 1.14 l
0.75 1.15 l
0.75 1.17 l
0.75 1.18 l
0.75 1.20 l
0.76 1.20 l
0.75 1.22 l
0.75 1.22 l
0.75 1.23 l
0.75 1.25 l
0.75 1.25 l
0.75 1.25 l
0.76 1.27 l
149.55 143.41 lineto
0.75 1.28 l
0.75 1.27 l
0.75 1.28 l
0.75 1.28 l
0.75 1.28 l
0.76 1.27 l
0.75 1.28 l
0.75 1.27 l
0.75 1.26 l
0.75 1.26 l
0.75 1.25 l
0.75 1.24 l
0.76 1.23 l
0.75 1.22 l
0.75 1.21 l
0.75 1.19 l
0.75 1.18 l
0.75 1.17 l
0.75 1.15 l
0.76 1.13 l
0.75 1.12 l
0.75 1.10 l
0.75 1.08 l
0.75 1.06 l
0.75 1.06 l
0.75 1.03 l
0.76 1.01 l
0.75 1.01 l
0.75 0.99 l
0.75 0.98 l
0.75 0.97 l
0.75 0.97 l
0.76 0.95 l
0.75 0.96 l
0.75 0.96 l
0.75 0.96 l
0.75 0.97 l
0.75 0.98 l
0.75 0.99 l
0.76 1.01 l
0.75 1.05 l
0.75 1.06 l
0.75 1.10 l
0.75 1.14 l
0.75 1.19 l
0.75 1.23 l
0.76 1.28 l
0.75 1.35 l
0.75 1.42 l
0.75 1.48 l
0.75 1.54 l
0.75 1.66 l
0.75 1.73 l
0.76 1.81 l
0.75 1.91 l
0.75 2.04 l
0.75 2.12 l
0.75 2.22 l
0.75 2.35 l
0.75 2.47 l
0.76 2.58 l
0.75 2.68 l
0.75 2.84 l
0.75 2.95 l
0.75 3.06 l
0.75 3.17 l
0.76 3.34 l
0.75 3.43 l
0.75 3.54 l
0.75 3.66 l
0.75 3.79 l
0.75 3.88 l
0.75 3.97 l
0.76 4.08 l
0.75 4.18 l
0.75 4.25 l
0.75 4.31 l
0.75 4.41 l
0.75 4.46 l
0.75 4.50 l
0.76 4.54 l
0.75 4.59 l
0.75 4.60 l
0.75 4.62 l
0.75 4.63 l
0.75 4.61 l
0.75 4.60 l
0.76 4.59 l
0.75 4.54 l
0.75 4.49 l
0.75 4.45 l
0.75 4.40 l
0.75 4.30 l
0.75 4.24 l
0.76 4.16 l
0.75 4.08 l
0.75 3.95 l
0.75 3.86 l
0.75 3.77 l
224.69 380.16 lineto
0.76 3.50 l
0.75 3.41 l
0.75 3.30 l
0.75 3.13 l
0.75 3.01 l
0.75 2.90 l
0.75 2.78 l
0.76 2.61 l
0.75 2.49 l
0.75 2.37 l
0.75 2.25 l
0.75 2.08 l
0.75 1.97 l
0.75 1.86 l
0.76 1.71 l
0.75 1.58 l
0.75 1.47 l
0.75 1.36 l
0.75 1.21 l
0.75 1.10 l
0.75 1.00 l
0.76 0.89 l
0.75 0.74 l
0.75 0.65 l
0.75 0.55 l
0.75 0.43 l
0.75 0.32 l
0.75 0.22 l
0.76 0.13 l
0.75 0.02 l
0.75 -0.09 l
0.75 -0.17 l
0.75 -0.25 l
0.75 -0.37 l
0.75 -0.46 l
0.76 -0.53 l
0.75 -0.61 l
0.75 -0.72 l
0.75 -0.78 l
0.75 -0.85 l
0.75 -0.92 l
0.76 -1.01 l
0.75 -1.05 l
0.75 -1.11 l
0.75 -1.18 l
0.75 -1.23 l
0.75 -1.27 l
0.75 -1.31 l
0.76 -1.36 l
0.75 -1.38 l
0.75 -1.41 l
0.75 -1.43 l
0.75 -1.45 l
0.75 -1.46 l
0.75 -1.47 l
0.76 -1.48 l
0.75 -1.47 l
0.75 -1.47 l
0.75 -1.46 l
0.75 -1.45 l
0.75 -1.43 l
0.75 -1.42 l
0.76 -1.40 l
0.75 -1.38 l
0.75 -1.35 l
0.75 -1.34 l
0.75 -1.32 l
0.75 -1.29 l
0.75 -1.27 l
0.76 -1.26 l
0.75 -1.23 l
0.75 -1.22 l
0.75 -1.22 l
0.75 -1.20 l
0.75 -1.20 l
0.76 -1.20 l
0.75 -1.20 l
0.75 -1.21 l
0.75 -1.22 l
0.75 -1.24 l
0.75 -1.26 l
0.75 -1.29 l
0.76 -1.33 l
0.75 -1.37 l
0.75 -1.39 l
0.75 -1.46 l
0.75 -1.51 l
0.75 -1.55 l
0.75 -1.61 l
0.76 -1.69 l
0.75 -1.76 l
0.75 -1.81 l
0.75 -1.88 l
0.75 -1.97 l
0.75 -2.04 l
0.75 -2.10 l
0.76 -2.18 l
0.75 -2.27 l
0.75 -2.33 l
299.84 339.20 lineto
0.75 -2.48 l
0.75 -2.55 l
0.75 -2.61 l
0.76 -2.66 l
0.75 -2.74 l
0.75 -2.79 l
0.75 -2.83 l
0.75 -2.88 l
0.75 -2.94 l
0.75 -2.96 l
0.76 -2.98 l
0.75 -3.02 l
0.75 -3.04 l
0.75 -3.05 l
0.75 -3.05 l
0.75 -3.06 l
0.76 -3.06 l
0.75 -3.05 l
0.75 -3.03 l
0.75 -3.01 l
0.75 -2.99 l
0.75 -2.97 l
0.75 -2.93 l
0.76 -2.88 l
0.75 -2.85 l
0.75 -2.81 l
0.75 -2.76 l
0.75 -2.70 l
0.75 -2.65 l
0.75 -2.61 l
0.76 -2.54 l
0.75 -2.48 l
0.75 -2.43 l
0.75 -2.38 l
0.75 -2.30 l
0.75 -2.24 l
0.75 -2.20 l
0.76 -2.14 l
0.75 -2.08 l
0.75 -2.02 l
0.75 -1.99 l
0.75 -1.92 l
0.75 -1.87 l
0.75 -1.83 l
0.76 -1.80 l
0.75 -1.74 l
0.75 -1.71 l
0.75 -1.68 l
0.75 -1.64 l
0.75 -1.62 l
0.76 -1.59 l
0.75 -1.56 l
0.75 -1.55 l
0.75 -1.53 l
0.75 -1.52 l
0.75 -1.50 l
0.75 -1.50 l
0.76 -1.48 l
0.75 -1.49 l
0.75 -1.48 l
0.75 -1.48 l
0.75 -1.48 l
0.75 -1.48 l
0.75 -1.49 l
0.76 -1.49 l
0.75 -1.50 l
0.75 -1.50 l
0.75 -1.51 l
0.75 -1.51 l
0.75 -1.52 l
0.75 -1.53 l
0.76 -1.53 l
0.75 -1.54 l
0.75 -1.54 l
0.75 -1.54 l
0.75 -1.54 l
0.75 -1.55 l
0.75 -1.54 l
0.76 -1.54 l
0.75 -1.54 l
0.75 -1.53 l
0.75 -1.53 l
0.75 -1.51 l
0.75 -1.50 l
0.76 -1.49 l
0.75 -1.48 l
0.75 -1.46 l
0.75 -1.44 l
0.75 -1.43 l
0.75 -1.40 l
0.75 -1.38 l
0.76 -1.35 l
0.75 -1.34 l
0.75 -1.31 l
0.75 -1.27 l
0.75 -1.26 l
0.75 -1.23 l
0.75 -1.19 l
0.76 -1.17 l
374.99 139.69 lineto
0.75 -1.12 l
0.75 -1.09 l
0.75 -1.05 l
0.75 -1.04 l
0.75 -1.01 l
0.76 -0.97 l
0.75 -0.96 l
0.75 -0.93 l
0.75 -0.91 l
0.75 -0.89 l
0.75 -0.86 l
0.75 -0.85 l
0.76 -0.83 l
0.75 -0.81 l
0.75 -0.80 l
0.75 -0.79 l
0.75 -0.77 l
0.75 -0.75 l
0.75 -0.75 l
0.76 -0.74 l
0.75 -0.73 l
0.75 -0.73 l
0.75 -0.71 l
0.75 -0.72 l
0.75 -0.70 l
0.76 -0.70 l
0.75 -0.71 l
0.75 -0.69 l
0.75 -0.70 l
0.75 -0.69 l
0.75 -0.69 l
0.75 -0.69 l
0.76 -0.69 l
0.75 -0.68 l
0.75 -0.69 l
0.75 -0.68 l
0.75 -0.68 l
0.75 -0.68 l
0.75 -0.68 l
0.76 -0.67 l
0.75 -0.67 l
0.75 -0.66 l
0.75 -0.66 l
0.75 -0.65 l
0.75 -0.65 l
0.75 -0.64 l
0.76 -0.64 l
0.75 -0.62 l
0.75 -0.62 l
0.75 -0.61 l
0.75 -0.60 l
0.75 -0.59 l
0.75 -0.57 l
0.76 -0.57 l
0.75 -0.55 l
0.75 -0.54 l
0.75 -0.53 l
0.75 -0.51 l
0.75 -0.50 l
0.76 -0.49 l
0.75 -0.47 l
0.75 -0.45 l
0.75 -0.44 l
0.75 -0.43 l
0.75 -0.41 l
0.75 -0.39 l
0.76 -0.38 l
0.75 -0.37 l
0.75 -0.34 l
0.75 -0.34 l
0.75 -0.31 l
0.75 -0.31 l
0.75 -0.29 l
0.76 -0.27 l
0.75 -0.26 l
0.75 -0.25 l
0.75 -0.23 l
0.75 -0.22 l
0.75 -0.21 l
0.75 -0.19 l
0.76 -0.18 l
0.75 -0.17 l
0.75 -0.16 l
0.75 -0.15 l
0.75 -0.14 l
0.75 -0.13 l
0.75 -0.12 l
0.76 -0.12 l
0.75 -0.10 l
0.75 -0.10 l
0.75 -0.08 l
0.75 -0.08 l
0.75 -0.08 l
0.76 -0.07 l
0.75 -0.06 l
0.75 -0.06 l
0.75 -0.05 l
0.75 -0.05 l
0.75 -0.04 l
450.13 87.45 lineto
0.76 -0.04 l
0.75 -0.03 l
0.75 -0.03 l
0.75 -0.03 l
0.75 -0.02 l
0.75 -0.02 l
0.75 -0.02 l
0.76 -0.02 l
0.75 -0.01 l
0.75 -0.02 l
0.75 -0.01 l
o
0.00 0.00 504.00 504.00 cl
0 0 0 srgb
0.75 setlinewidth
[] 0 setdash
1 setlinecap
1 setlinejoin
10.00 setmiterlimit
np
79.64 73.44 m
362.24 0 l
o
np
79.64 73.44 m
0 -7.20 l
o
np
140.01 73.44 m
0 -7.20 l
o
np
200.38 73.44 m
0 -7.20 l
o
np
260.76 73.44 m
0 -7.20 l
o
np
321.13 73.44 m
0 -7.20 l
o
np
381.51 73.44 m
0 -7.20 l
o
np
441.88 73.44 m
0 -7.20 l
o
/Font1 findfont 12 s
79.64 47.52 (-3) .5 0 t
140.01 47.52 (-2) .5 0 t
200.38 47.52 (-1) .5 0 t
260.76 47.52 (0) .5 0 t
321.13 47.52 (1) .5 0 t
381.51 47.52 (2) .5 0 t
441.88 47.52 (3) .5 0 t
np
59.04 87.11 m
0 308.66 l
o
np
59.04 87.11 m
-7.20 0 l
o
np
59.04 164.28 m
-7.20 0 l
o
np
59.04 241.44 m
-7.20 0 l
o
np
59.04 318.61 m
-7.20 0 l
o
np
59.04 395.77 m
-7.20 0 l
o
41.76 87.11 (0.0) .5 90 t
41.76 164.28 (0.1) .5 90 t
41.76 241.44 (0.2) .5 90 t
41.76 318.61 (0.3) .5 90 t
41.76 395.77 (0.4) .5 90 t
np
59.04 73.44 m
414.72 0 l
0 371.52 l
-414.72 0 l
0 -371.52 l
o
0.00 0.00 504.00 504.00 cl
/Font2 findfont 14 s
0 0 0 srgb
266.40 469.45 (density.default\(x = data\)) .5 0 t
/Font1 findfont 12 s
266.40 18.72 (N = 150   Bandwidth = 0.2907) .5 0 t
12.96 259.20 (Density) .5 90 t
59.04 73.44 473.76 444.96 cl
0.7451 0.7451 0.7451 srgb
0.08 setlinewidth
[] 0 setdash
1 setlinecap
1 setlinejoin
10.00 setmiterlimit
np
59.04 87.11 m
414.72 0 l
o
ep
%%Trailer
%%Pages: 1
%%EOF
