%!PS-Adobe-3.0 EPSF-3.0
%%DocumentNeededResources: font Helvetica
%%+ font Helvetica-Bold
%%+ font Helvetica-Oblique
%%+ font Helvetica-BoldOblique
%%+ font Symbol
%%Title: R Graphics Output
%%Creator: R Software
%%Pages: (atend)
%%BoundingBox: 0 0 504 504
%%EndComments
%%BeginProlog
/bp  { gs sRGB gs } def
% begin .ps.prolog
/gs  { gsave } bind def
/gr  { grestore } bind def
/ep  { showpage gr gr } bind def
/m   { moveto } bind def
/l  { rlineto } bind def
/np  { newpath } bind def
/cp  { closepath } bind def
/f   { fill } bind def
/o   { stroke } bind def
/c   { newpath 0 360 arc } bind def
/r   { 4 2 roll moveto 1 copy 3 -1 roll exch 0 exch rlineto 0 rlineto -1 mul 0 exch rlineto closepath } bind def
/p1  { stroke } bind def
/p2  { gsave bg fill grestore newpath } bind def
/p3  { gsave bg fill grestore stroke } bind def
/p6  { gsave bg eofill grestore newpath } bind def
/p7  { gsave bg eofill grestore stroke } bind def
/t   { 5 -2 roll moveto gsave rotate
       1 index stringwidth pop
       mul neg 0 rmoveto show grestore } bind def
/ta  { 4 -2 roll moveto gsave rotate show } bind def
/tb  { 2 -1 roll 0 rmoveto show } bind def
/cl  { grestore gsave newpath 3 index 3 index moveto 1 index
       4 -1 roll lineto  exch 1 index lineto lineto
       closepath clip newpath } bind def
/rgb { setrgbcolor } bind def
/s   { scalefont setfont } bind def
% end   .ps.prolog
/sRGB { [ /CIEBasedABC
          << /DecodeLMN
               [ { dup 0.03928 le
                        {12.92321 div}
                        {0.055 add 1.055 div 2.4 exp }
                     ifelse
                 } bind dup dup
               ]
             /MatrixLMN [0.412457 0.212673 0.019334
                         0.357576 0.715152 0.119192
                         0.180437 0.072175 0.950301]
             /WhitePoint [0.9505 1.0 1.0890]
           >>
         ] setcolorspace } bind def
/srgb { setcolor } bind def
%%IncludeResource: font Helvetica
/Helvetica findfont
dup length dict begin
  {1 index /FID ne {def} {pop pop} ifelse} forall
  /Encoding ISOLatin1Encoding def
  currentdict
  end
/Font1 exch definefont pop
%%IncludeResource: font Helvetica-Bold
/Helvetica-Bold findfont
dup length dict begin
  {1 index /FID ne {def} {pop pop} ifelse} forall
  /Encoding ISOLatin1Encoding def
  currentdict
  end
/Font2 exch definefont pop
%%IncludeResource: font Helvetica-Oblique
/Helvetica-Oblique findfont
dup length dict begin
  {1 index /FID ne {def} {pop pop} ifelse} forall
  /Encoding ISOLatin1Encoding def
  currentdict
  end
/Font3 exch definefont pop
%%IncludeResource: font Helvetica-BoldOblique
/Helvetica-BoldOblique findfont
dup length dict begin
  {1 index /FID ne {def} {pop pop} ifelse} forall
  /Encoding ISOLatin1Encoding def
  currentdict
  end
/Font4 exch definefont pop
%%IncludeResource: font Symbol
/Symbol findfont
dup length dict begin
  {1 index /FID ne {def} {pop pop} ifelse} forall
  currentdict
  end
/Font5 exch definefont pop
%%EndProlog
%%Page: 1 1
bp
40.32 40.32 483.84 483.84 cl
0 0 0 srgb
0.75 setlinewidth
[] 0 setdash
1 setlinecap
1 setlinejoin
10.00 setmiterlimit
56.75 150.08 3.78 c p1
84.12 206.08 3.78 c p1
111.50 299.41 3.78 c p1
138.88 448.75 3.78 c p1
166.26 131.41 3.78 c p1
193.64 448.75 3.78 c p1
221.01 467.41 3.78 c p1
248.39 336.75 3.78 c p1
275.77 318.08 3.78 c p1
303.15 56.75 3.78 c p1
330.52 131.41 3.78 c p1
357.90 112.75 3.78 c p1
385.28 355.41 3.78 c p1
412.66 206.08 3.78 c p1
440.04 392.75 3.78 c p1
467.41 262.08 3.78 c p1
0.00 0.00 504.00 504.00 cl
0 0 0 srgb
0.75 setlinewidth
[] 0 setdash
1 setlinecap
1 setlinejoin
10.00 setmiterlimit
np
166.26 40.32 m
273.78 0 l
o
np
166.26 40.32 m
0 -10.08 l
o
np
303.15 40.32 m
0 -10.08 l
o
np
440.04 40.32 m
0 -10.08 l
o
/Font1 findfont 17 s
166.26 4.03 (5) .5 0 t
303.15 4.03 (10) .5 0 t
440.04 4.03 (15) .5 0 t
np
40.32 112.75 m
0 280.00 l
o
np
40.32 112.75 m
-10.08 0 l
o
np
40.32 206.08 m
-10.08 0 l
o
np
40.32 299.41 m
-10.08 0 l
o
np
40.32 392.75 m
-10.08 0 l
o
16.13 112.75 (5) .5 90 t
16.13 206.08 (10) .5 90 t
16.13 299.41 (15) .5 90 t
16.13 392.75 (20) .5 90 t
np
40.32 40.32 m
443.52 0 l
0 443.52 l
-443.52 0 l
0 -443.52 l
o
0.00 0.00 504.00 504.00 cl
40.32 40.32 483.84 483.84 cl
1 0 0 srgb
0.75 setlinewidth
[ 2.25 3.75] 0 setdash
1 setlinecap
1 setlinejoin
10.00 setmiterlimit
np
40.32 56.75 m
443.52 0 l
o
/Font1 findfont 17 s
303.15 69.44 (Hloubka 1) .5 0 t
0 0.8039 0 srgb
np
40.32 355.41 m
104.25 -355.41 l
o
84.12 218.77 (Hloubka 2) .5 0 t
0 0 1 srgb
np
40.32 32.48 m
443.52 151.20 l
o
330.52 144.14 (Hloubka 3) .5 0 t
ep
%%Trailer
%%Pages: 1
%%EOF
