%!PS-Adobe-3.0 EPSF-3.0
%%DocumentNeededResources: font Helvetica
%%+ font Helvetica-Bold
%%+ font Helvetica-Oblique
%%+ font Helvetica-BoldOblique
%%+ font Symbol
%%Title: R Graphics Output
%%Creator: R Software
%%Pages: (atend)
%%BoundingBox: 0 0 238 216
%%EndComments
%%BeginProlog
/bp  { gs sRGB gs } def
% begin .ps.prolog
/gs  { gsave } bind def
/gr  { grestore } bind def
/ep  { showpage gr gr } bind def
/m   { moveto } bind def
/l  { rlineto } bind def
/np  { newpath } bind def
/cp  { closepath } bind def
/f   { fill } bind def
/o   { stroke } bind def
/c   { newpath 0 360 arc } bind def
/r   { 4 2 roll moveto 1 copy 3 -1 roll exch 0 exch rlineto 0 rlineto -1 mul 0 exch rlineto closepath } bind def
/p1  { stroke } bind def
/p2  { gsave bg fill grestore newpath } bind def
/p3  { gsave bg fill grestore stroke } bind def
/p6  { gsave bg eofill grestore newpath } bind def
/p7  { gsave bg eofill grestore stroke } bind def
/t   { 5 -2 roll moveto gsave rotate
       1 index stringwidth pop
       mul neg 0 rmoveto show grestore } bind def
/ta  { 4 -2 roll moveto gsave rotate show } bind def
/tb  { 2 -1 roll 0 rmoveto show } bind def
/cl  { grestore gsave newpath 3 index 3 index moveto 1 index
       4 -1 roll lineto  exch 1 index lineto lineto
       closepath clip newpath } bind def
/rgb { setrgbcolor } bind def
/s   { scalefont setfont } bind def
% end   .ps.prolog
/sRGB { [ /CIEBasedABC
          << /DecodeLMN
               [ { dup 0.03928 le
                        {12.92321 div}
                        {0.055 add 1.055 div 2.4 exp }
                     ifelse
                 } bind dup dup
               ]
             /MatrixLMN [0.412457 0.212673 0.019334
                         0.357576 0.715152 0.119192
                         0.180437 0.072175 0.950301]
             /WhitePoint [0.9505 1.0 1.0890]
           >>
         ] setcolorspace } bind def
/srgb { setcolor } bind def
%%IncludeResource: font Helvetica
/Helvetica findfont
dup length dict begin
  {1 index /FID ne {def} {pop pop} ifelse} forall
  /Encoding ISOLatin1Encoding def
  currentdict
  end
/Font1 exch definefont pop
%%IncludeResource: font Helvetica-Bold
/Helvetica-Bold findfont
dup length dict begin
  {1 index /FID ne {def} {pop pop} ifelse} forall
  /Encoding ISOLatin1Encoding def
  currentdict
  end
/Font2 exch definefont pop
%%IncludeResource: font Helvetica-Oblique
/Helvetica-Oblique findfont
dup length dict begin
  {1 index /FID ne {def} {pop pop} ifelse} forall
  /Encoding ISOLatin1Encoding def
  currentdict
  end
/Font3 exch definefont pop
%%IncludeResource: font Helvetica-BoldOblique
/Helvetica-BoldOblique findfont
dup length dict begin
  {1 index /FID ne {def} {pop pop} ifelse} forall
  /Encoding ISOLatin1Encoding def
  currentdict
  end
/Font4 exch definefont pop
%%IncludeResource: font Symbol
/Symbol findfont
dup length dict begin
  {1 index /FID ne {def} {pop pop} ifelse} forall
  currentdict
  end
/Font5 exch definefont pop
%%EndProlog
%%Page: 1 1
bp
0.00 0.00 237.60 216.00 cl
0 0 0 srgb
0.75 setlinewidth
[] 0 setdash
1 setlinecap
1 setlinejoin
10.00 setmiterlimit
np
0.00 0.00 m
237.60 0 l
0 216.00 l
-237.60 0 l
0 -216.00 l
o
0.00 0.00 237.60 216.00 cl
0.00 0.00 237.60 216.00 cl
/bg { 0.0039 0.0039 0.6784 srgb } def
8.80 8.00 0.73 200.00 r p2
/bg { 0.0078 0.0078 0.6745 srgb } def
9.53 8.00 0.73 200.00 r p2
/bg { 0.0157 0.0118 0.6706 srgb } def
10.27 8.00 0.73 200.00 r p2
/bg { 0.0196 0.0196 0.6667 srgb } def
11.00 8.00 0.73 200.00 r p2
/bg { 0.0275 0.0235 0.6627 srgb } def
11.73 8.00 0.73 200.00 r p2
/bg { 0.0314 0.0314 0.6627 srgb } def
12.47 8.00 0.73 200.00 r p2
/bg { 0.0392 0.0353 0.6588 srgb } def
13.20 8.00 0.73 200.00 r p2
/bg { 0.0431 0.0431 0.6549 srgb } def
13.93 8.00 0.73 200.00 r p2
/bg { 0.0510 0.0471 0.6510 srgb } def
14.67 8.00 0.73 200.00 r p2
/bg { 0.0549 0.0549 0.6510 srgb } def
15.40 8.00 0.73 200.00 r p2
/bg { 0.0627 0.0588 0.6471 srgb } def
16.13 8.00 0.73 200.00 r p2
/bg { 0.0667 0.0667 0.6431 srgb } def
16.87 8.00 0.73 200.00 r p2
/bg { 0.0745 0.0706 0.6392 srgb } def
17.60 8.00 0.73 200.00 r p2
/bg { 0.0784 0.0784 0.6392 srgb } def
18.33 8.00 0.73 200.00 r p2
/bg { 0.0863 0.0824 0.6353 srgb } def
19.07 8.00 0.73 200.00 r p2
/bg { 0.0902 0.0902 0.6314 srgb } def
19.80 8.00 0.73 200.00 r p2
/bg { 0.0980 0.0941 0.6275 srgb } def
20.53 8.00 0.73 200.00 r p2
/bg { 0.1020 0.1020 0.6275 srgb } def
21.27 8.00 0.73 200.00 r p2
/bg { 0.1098 0.1059 0.6235 srgb } def
22.00 8.00 0.73 200.00 r p2
/bg { 0.1137 0.1137 0.6196 srgb } def
22.73 8.00 0.73 200.00 r p2
/bg { 0.1216 0.1176 0.6157 srgb } def
23.47 8.00 0.73 200.00 r p2
/bg { 0.1294 0.1255 0.6118 srgb } def
24.20 8.00 0.73 200.00 r p2
/bg { 0.1333 0.1294 0.6118 srgb } def
24.93 8.00 0.73 200.00 r p2
/bg { 0.1412 0.1373 0.6078 srgb } def
25.67 8.00 0.73 200.00 r p2
/bg { 0.1451 0.1412 0.6039 srgb } def
26.40 8.00 0.73 200.00 r p2
/bg { 0.1529 0.1490 0.6000 srgb } def
27.13 8.00 0.73 200.00 r p2
/bg { 0.1569 0.1529 0.6000 srgb } def
27.87 8.00 0.73 200.00 r p2
/bg { 0.1647 0.1608 0.5961 srgb } def
28.60 8.00 0.73 200.00 r p2
/bg { 0.1686 0.1647 0.5922 srgb } def
29.33 8.00 0.73 200.00 r p2
/bg { 0.1765 0.1725 0.5882 srgb } def
30.07 8.00 0.73 200.00 r p2
/bg { 0.1804 0.1765 0.5882 srgb } def
30.80 8.00 0.73 200.00 r p2
/bg { 0.1882 0.1843 0.5843 srgb } def
31.53 8.00 0.73 200.00 r p2
/bg { 0.1922 0.1882 0.5804 srgb } def
32.27 8.00 0.73 200.00 r p2
/bg { 0.2000 0.1961 0.5765 srgb } def
33.00 8.00 0.73 200.00 r p2
/bg { 0.2039 0.2000 0.5765 srgb } def
33.73 8.00 0.73 200.00 r p2
/bg { 0.2118 0.2078 0.5725 srgb } def
34.47 8.00 0.73 200.00 r p2
/bg { 0.2157 0.2118 0.5686 srgb } def
35.20 8.00 0.73 200.00 r p2
/bg { 0.2235 0.2196 0.5647 srgb } def
35.93 8.00 0.73 200.00 r p2
/bg { 0.2275 0.2235 0.5647 srgb } def
36.67 8.00 0.73 200.00 r p2
/bg { 0.2353 0.2314 0.5608 srgb } def
37.40 8.00 0.73 200.00 r p2
/bg { 0.2431 0.2353 0.5569 srgb } def
38.13 8.00 0.73 200.00 r p2
/bg { 0.2471 0.2431 0.5529 srgb } def
38.87 8.00 0.73 200.00 r p2
/bg { 0.2549 0.2471 0.5490 srgb } def
39.60 8.00 0.73 200.00 r p2
/bg { 0.2588 0.2549 0.5490 srgb } def
40.33 8.00 0.73 200.00 r p2
/bg { 0.2667 0.2588 0.5451 srgb } def
41.07 8.00 0.73 200.00 r p2
/bg { 0.2706 0.2667 0.5412 srgb } def
41.80 8.00 0.73 200.00 r p2
/bg { 0.2784 0.2706 0.5373 srgb } def
42.53 8.00 0.73 200.00 r p2
/bg { 0.2824 0.2784 0.5373 srgb } def
43.27 8.00 0.73 200.00 r p2
/bg { 0.2902 0.2824 0.5333 srgb } def
44.00 8.00 0.73 200.00 r p2
/bg { 0.2941 0.2902 0.5294 srgb } def
44.73 8.00 0.73 200.00 r p2
/bg { 0.3020 0.2941 0.5255 srgb } def
45.47 8.00 0.73 200.00 r p2
/bg { 0.3059 0.3020 0.5255 srgb } def
46.20 8.00 0.73 200.00 r p2
/bg { 0.3137 0.3059 0.5216 srgb } def
46.93 8.00 0.73 200.00 r p2
/bg { 0.3176 0.3137 0.5176 srgb } def
47.67 8.00 0.73 200.00 r p2
/bg { 0.3255 0.3176 0.5137 srgb } def
48.40 8.00 0.73 200.00 r p2
/bg { 0.3294 0.3255 0.5137 srgb } def
49.13 8.00 0.73 200.00 r p2
/bg { 0.3373 0.3294 0.5098 srgb } def
49.87 8.00 0.73 200.00 r p2
/bg { 0.3412 0.3373 0.5059 srgb } def
50.60 8.00 0.73 200.00 r p2
/bg { 0.3490 0.3412 0.5020 srgb } def
51.33 8.00 0.73 200.00 r p2
/bg { 0.3529 0.3490 0.5020 srgb } def
52.07 8.00 0.73 200.00 r p2
/bg { 0.3608 0.3529 0.4980 srgb } def
52.80 8.00 0.73 200.00 r p2
/bg { 0.3686 0.3569 0.4941 srgb } def
53.53 8.00 0.73 200.00 r p2
/bg { 0.3725 0.3647 0.4902 srgb } def
54.27 8.00 0.73 200.00 r p2
/bg { 0.3804 0.3686 0.4863 srgb } def
55.00 8.00 0.73 200.00 r p2
/bg { 0.3843 0.3765 0.4863 srgb } def
55.73 8.00 0.73 200.00 r p2
/bg { 0.3922 0.3804 0.4824 srgb } def
56.47 8.00 0.73 200.00 r p2
/bg { 0.3961 0.3882 0.4784 srgb } def
57.20 8.00 0.73 200.00 r p2
/bg { 0.4039 0.3922 0.4745 srgb } def
57.93 8.00 0.73 200.00 r p2
/bg { 0.4078 0.4000 0.4745 srgb } def
58.67 8.00 0.73 200.00 r p2
/bg { 0.4157 0.4039 0.4706 srgb } def
59.40 8.00 0.73 200.00 r p2
/bg { 0.4196 0.4118 0.4667 srgb } def
60.13 8.00 0.73 200.00 r p2
/bg { 0.4275 0.4157 0.4627 srgb } def
60.87 8.00 0.73 200.00 r p2
/bg { 0.4314 0.4235 0.4627 srgb } def
61.60 8.00 0.73 200.00 r p2
/bg { 0.4392 0.4275 0.4588 srgb } def
62.33 8.00 0.73 200.00 r p2
/bg { 0.4431 0.4353 0.4549 srgb } def
63.07 8.00 0.73 200.00 r p2
/bg { 0.4510 0.4392 0.4510 srgb } def
63.80 8.00 0.73 200.00 r p2
/bg { 0.4549 0.4471 0.4510 srgb } def
64.53 8.00 0.73 200.00 r p2
/bg { 0.4627 0.4510 0.4471 srgb } def
65.27 8.00 0.73 200.00 r p2
/bg { 0.4667 0.4588 0.4431 srgb } def
66.00 8.00 0.73 200.00 r p2
/bg { 0.4745 0.4627 0.4392 srgb } def
66.73 8.00 0.73 200.00 r p2
/bg { 0.4824 0.4706 0.4353 srgb } def
67.47 8.00 0.73 200.00 r p2
/bg { 0.4863 0.4745 0.4353 srgb } def
68.20 8.00 0.73 200.00 r p2
/bg { 0.4941 0.4824 0.4314 srgb } def
68.93 8.00 0.73 200.00 r p2
/bg { 0.4980 0.4863 0.4275 srgb } def
69.67 8.00 0.73 200.00 r p2
/bg { 0.5059 0.4941 0.4235 srgb } def
70.40 8.00 0.73 200.00 r p2
/bg { 0.5098 0.4980 0.4235 srgb } def
71.13 8.00 0.73 200.00 r p2
/bg { 0.5176 0.5059 0.4196 srgb } def
71.87 8.00 0.73 200.00 r p2
/bg { 0.5216 0.5098 0.4157 srgb } def
72.60 8.00 0.73 200.00 r p2
/bg { 0.5294 0.5176 0.4118 srgb } def
73.33 8.00 0.73 200.00 r p2
/bg { 0.5333 0.5216 0.4118 srgb } def
74.07 8.00 0.73 200.00 r p2
/bg { 0.5412 0.5294 0.4078 srgb } def
74.80 8.00 0.73 200.00 r p2
/bg { 0.5451 0.5333 0.4039 srgb } def
75.53 8.00 0.73 200.00 r p2
/bg { 0.5529 0.5412 0.4000 srgb } def
76.27 8.00 0.73 200.00 r p2
/bg { 0.5569 0.5451 0.4000 srgb } def
77.00 8.00 0.73 200.00 r p2
/bg { 0.5647 0.5529 0.3961 srgb } def
77.73 8.00 0.73 200.00 r p2
/bg { 0.5686 0.5569 0.3922 srgb } def
78.47 8.00 0.73 200.00 r p2
/bg { 0.5765 0.5647 0.3882 srgb } def
79.20 8.00 0.73 200.00 r p2
/bg { 0.5804 0.5686 0.3882 srgb } def
79.93 8.00 0.73 200.00 r p2
/bg { 0.5882 0.5765 0.3843 srgb } def
80.67 8.00 0.73 200.00 r p2
/bg { 0.5922 0.5804 0.3804 srgb } def
81.40 8.00 0.73 200.00 r p2
/bg { 0.6000 0.5882 0.3765 srgb } def
82.13 8.00 0.73 200.00 r p2
/bg { 0.6078 0.5922 0.3725 srgb } def
82.87 8.00 0.73 200.00 r p2
/bg { 0.6118 0.6000 0.3725 srgb } def
83.60 8.00 0.73 200.00 r p2
/bg { 0.6196 0.6039 0.3686 srgb } def
84.33 8.00 0.73 200.00 r p2
/bg { 0.6235 0.6118 0.3647 srgb } def
85.07 8.00 0.73 200.00 r p2
/bg { 0.6314 0.6157 0.3608 srgb } def
85.80 8.00 0.73 200.00 r p2
/bg { 0.6353 0.6235 0.3608 srgb } def
86.53 8.00 0.73 200.00 r p2
/bg { 0.6431 0.6275 0.3569 srgb } def
87.27 8.00 0.73 200.00 r p2
/bg { 0.6471 0.6353 0.3529 srgb } def
88.00 8.00 0.73 200.00 r p2
/bg { 0.6549 0.6392 0.3490 srgb } def
88.73 8.00 0.73 200.00 r p2
/bg { 0.6588 0.6471 0.3490 srgb } def
89.47 8.00 0.73 200.00 r p2
/bg { 0.6667 0.6510 0.3451 srgb } def
90.20 8.00 0.73 200.00 r p2
/bg { 0.6706 0.6588 0.3412 srgb } def
90.93 8.00 0.73 200.00 r p2
/bg { 0.6784 0.6627 0.3373 srgb } def
91.67 8.00 0.73 200.00 r p2
/bg { 0.6824 0.6706 0.3373 srgb } def
92.40 8.00 0.73 200.00 r p2
/bg { 0.6902 0.6745 0.3333 srgb } def
93.13 8.00 0.73 200.00 r p2
/bg { 0.6941 0.6824 0.3294 srgb } def
93.87 8.00 0.73 200.00 r p2
/bg { 0.7020 0.6863 0.3255 srgb } def
94.60 8.00 0.73 200.00 r p2
/bg { 0.7059 0.6941 0.3255 srgb } def
95.33 8.00 0.73 200.00 r p2
/bg { 0.7137 0.6980 0.3216 srgb } def
96.07 8.00 0.73 200.00 r p2
/bg { 0.7216 0.7020 0.3176 srgb } def
96.80 8.00 0.73 200.00 r p2
/bg { 0.7255 0.7098 0.3137 srgb } def
97.53 8.00 0.73 200.00 r p2
/bg { 0.7333 0.7137 0.3098 srgb } def
98.27 8.00 0.73 200.00 r p2
/bg { 0.7373 0.7216 0.3098 srgb } def
99.00 8.00 0.73 200.00 r p2
/bg { 0.7451 0.7255 0.3059 srgb } def
99.73 8.00 0.73 200.00 r p2
/bg { 0.7490 0.7333 0.3020 srgb } def
100.47 8.00 0.73 200.00 r p2
/bg { 0.7569 0.7373 0.2980 srgb } def
101.20 8.00 0.73 200.00 r p2
/bg { 0.7608 0.7451 0.2980 srgb } def
101.93 8.00 0.73 200.00 r p2
/bg { 0.7686 0.7490 0.2941 srgb } def
102.67 8.00 0.73 200.00 r p2
/bg { 0.7725 0.7569 0.2902 srgb } def
103.40 8.00 0.73 200.00 r p2
/bg { 0.7804 0.7608 0.2863 srgb } def
104.13 8.00 0.73 200.00 r p2
/bg { 0.7843 0.7686 0.2863 srgb } def
104.87 8.00 0.73 200.00 r p2
/bg { 0.7922 0.7725 0.2824 srgb } def
105.60 8.00 0.73 200.00 r p2
/bg { 0.7961 0.7804 0.2784 srgb } def
106.33 8.00 0.73 200.00 r p2
/bg { 0.8039 0.7843 0.2745 srgb } def
107.07 8.00 0.73 200.00 r p2
/bg { 0.8078 0.7922 0.2745 srgb } def
107.80 8.00 0.73 200.00 r p2
/bg { 0.8157 0.7961 0.2706 srgb } def
108.53 8.00 0.73 200.00 r p2
/bg { 0.8196 0.8039 0.2667 srgb } def
109.27 8.00 0.73 200.00 r p2
/bg { 0.8275 0.8078 0.2627 srgb } def
110.00 8.00 0.73 200.00 r p2
/bg { 0.8314 0.8157 0.2627 srgb } def
110.73 8.00 0.73 200.00 r p2
/bg { 0.8392 0.8196 0.2588 srgb } def
111.47 8.00 0.73 200.00 r p2
/bg { 0.8471 0.8275 0.2549 srgb } def
112.20 8.00 0.73 200.00 r p2
/bg { 0.8510 0.8314 0.2510 srgb } def
112.93 8.00 0.73 200.00 r p2
/bg { 0.8588 0.8392 0.2471 srgb } def
113.67 8.00 0.73 200.00 r p2
/bg { 0.8627 0.8431 0.2471 srgb } def
114.40 8.00 0.73 200.00 r p2
/bg { 0.8706 0.8510 0.2431 srgb } def
115.13 8.00 0.73 200.00 r p2
/bg { 0.8745 0.8549 0.2392 srgb } def
115.87 8.00 0.73 200.00 r p2
/bg { 0.8824 0.8627 0.2353 srgb } def
116.60 8.00 0.73 200.00 r p2
/bg { 0.8863 0.8667 0.2353 srgb } def
117.33 8.00 0.73 200.00 r p2
/bg { 0.8941 0.8745 0.2314 srgb } def
118.07 8.00 0.73 200.00 r p2
/bg { 0.8980 0.8745 0.2275 srgb } def
118.80 8.00 0.73 200.00 r p2
/bg { 0.8980 0.8667 0.2275 srgb } def
119.53 8.00 0.73 200.00 r p2
/bg { 0.8980 0.8627 0.2275 srgb } def
120.27 8.00 0.73 200.00 r p2
/bg { 0.8980 0.8588 0.2235 srgb } def
121.00 8.00 0.73 200.00 r p2
/bg { 0.8980 0.8510 0.2235 srgb } def
121.73 8.00 0.73 200.00 r p2
/bg { 0.8980 0.8471 0.2196 srgb } def
122.47 8.00 0.73 200.00 r p2
/bg { 0.9020 0.8392 0.2196 srgb } def
123.20 8.00 0.73 200.00 r p2
/bg { 0.9020 0.8353 0.2196 srgb } def
123.93 8.00 0.73 200.00 r p2
/bg { 0.9020 0.8314 0.2157 srgb } def
124.67 8.00 0.73 200.00 r p2
/bg { 0.9020 0.8235 0.2157 srgb } def
125.40 8.00 0.73 200.00 r p2
/bg { 0.9020 0.8196 0.2118 srgb } def
126.13 8.00 0.73 200.00 r p2
/bg { 0.9059 0.8157 0.2118 srgb } def
126.87 8.00 0.73 200.00 r p2
/bg { 0.9059 0.8078 0.2118 srgb } def
127.60 8.00 0.73 200.00 r p2
/bg { 0.9059 0.8039 0.2078 srgb } def
128.33 8.00 0.73 200.00 r p2
/bg { 0.9059 0.7961 0.2078 srgb } def
129.07 8.00 0.73 200.00 r p2
/bg { 0.9059 0.7922 0.2039 srgb } def
129.80 8.00 0.73 200.00 r p2
/bg { 0.9059 0.7882 0.2039 srgb } def
130.53 8.00 0.73 200.00 r p2
/bg { 0.9098 0.7804 0.2039 srgb } def
131.27 8.00 0.73 200.00 r p2
/bg { 0.9098 0.7765 0.2000 srgb } def
132.00 8.00 0.73 200.00 r p2
/bg { 0.9098 0.7686 0.2000 srgb } def
132.73 8.00 0.73 200.00 r p2
/bg { 0.9098 0.7647 0.1961 srgb } def
133.47 8.00 0.73 200.00 r p2
/bg { 0.9098 0.7608 0.1961 srgb } def
134.20 8.00 0.73 200.00 r p2
/bg { 0.9098 0.7529 0.1961 srgb } def
134.93 8.00 0.73 200.00 r p2
/bg { 0.9137 0.7490 0.1922 srgb } def
135.67 8.00 0.73 200.00 r p2
/bg { 0.9137 0.7412 0.1922 srgb } def
136.40 8.00 0.73 200.00 r p2
/bg { 0.9137 0.7373 0.1882 srgb } def
137.13 8.00 0.73 200.00 r p2
/bg { 0.9137 0.7333 0.1882 srgb } def
137.87 8.00 0.73 200.00 r p2
/bg { 0.9137 0.7255 0.1882 srgb } def
138.60 8.00 0.73 200.00 r p2
/bg { 0.9137 0.7216 0.1843 srgb } def
139.33 8.00 0.73 200.00 r p2
/bg { 0.9176 0.7137 0.1843 srgb } def
140.07 8.00 0.73 200.00 r p2
/bg { 0.9176 0.7098 0.1804 srgb } def
140.80 8.00 0.73 200.00 r p2
/bg { 0.9176 0.7059 0.1804 srgb } def
141.53 8.00 0.73 200.00 r p2
/bg { 0.9176 0.6980 0.1804 srgb } def
142.27 8.00 0.73 200.00 r p2
/bg { 0.9176 0.6941 0.1765 srgb } def
143.00 8.00 0.73 200.00 r p2
/bg { 0.9216 0.6902 0.1765 srgb } def
143.73 8.00 0.73 200.00 r p2
/bg { 0.9216 0.6824 0.1725 srgb } def
144.47 8.00 0.73 200.00 r p2
/bg { 0.9216 0.6784 0.1725 srgb } def
145.20 8.00 0.73 200.00 r p2
/bg { 0.9216 0.6706 0.1725 srgb } def
145.93 8.00 0.73 200.00 r p2
/bg { 0.9216 0.6667 0.1686 srgb } def
146.67 8.00 0.73 200.00 r p2
/bg { 0.9216 0.6627 0.1686 srgb } def
147.40 8.00 0.73 200.00 r p2
/bg { 0.9255 0.6549 0.1686 srgb } def
148.13 8.00 0.73 200.00 r p2
/bg { 0.9255 0.6510 0.1647 srgb } def
148.87 8.00 0.73 200.00 r p2
/bg { 0.9255 0.6431 0.1647 srgb } def
149.60 8.00 0.73 200.00 r p2
/bg { 0.9255 0.6392 0.1608 srgb } def
150.33 8.00 0.73 200.00 r p2
/bg { 0.9255 0.6353 0.1608 srgb } def
151.07 8.00 0.73 200.00 r p2
/bg { 0.9255 0.6275 0.1608 srgb } def
151.80 8.00 0.73 200.00 r p2
/bg { 0.9294 0.6235 0.1569 srgb } def
152.53 8.00 0.73 200.00 r p2
/bg { 0.9294 0.6157 0.1569 srgb } def
153.27 8.00 0.73 200.00 r p2
/bg { 0.9294 0.6118 0.1529 srgb } def
154.00 8.00 0.73 200.00 r p2
/bg { 0.9294 0.6078 0.1529 srgb } def
154.73 8.00 0.73 200.00 r p2
/bg { 0.9294 0.6000 0.1529 srgb } def
155.47 8.00 0.73 200.00 r p2
/bg { 0.9294 0.5961 0.1490 srgb } def
156.20 8.00 0.73 200.00 r p2
/bg { 0.9333 0.5882 0.1490 srgb } def
156.93 8.00 0.73 200.00 r p2
/bg { 0.9333 0.5843 0.1451 srgb } def
157.67 8.00 0.73 200.00 r p2
/bg { 0.9333 0.5804 0.1451 srgb } def
158.40 8.00 0.73 200.00 r p2
/bg { 0.9333 0.5725 0.1451 srgb } def
159.13 8.00 0.73 200.00 r p2
/bg { 0.9333 0.5686 0.1412 srgb } def
159.87 8.00 0.73 200.00 r p2
/bg { 0.9373 0.5647 0.1412 srgb } def
160.60 8.00 0.73 200.00 r p2
/bg { 0.9373 0.5569 0.1373 srgb } def
161.33 8.00 0.73 200.00 r p2
/bg { 0.9373 0.5529 0.1373 srgb } def
162.07 8.00 0.73 200.00 r p2
/bg { 0.9373 0.5451 0.1373 srgb } def
162.80 8.00 0.73 200.00 r p2
/bg { 0.9373 0.5412 0.1333 srgb } def
163.53 8.00 0.73 200.00 r p2
/bg { 0.9373 0.5373 0.1333 srgb } def
164.27 8.00 0.73 200.00 r p2
/bg { 0.9412 0.5294 0.1294 srgb } def
165.00 8.00 0.73 200.00 r p2
/bg { 0.9412 0.5255 0.1294 srgb } def
165.73 8.00 0.73 200.00 r p2
/bg { 0.9412 0.5176 0.1294 srgb } def
166.47 8.00 0.73 200.00 r p2
/bg { 0.9412 0.5137 0.1255 srgb } def
167.20 8.00 0.73 200.00 r p2
/bg { 0.9412 0.5098 0.1255 srgb } def
167.93 8.00 0.73 200.00 r p2
/bg { 0.9412 0.5020 0.1216 srgb } def
168.67 8.00 0.73 200.00 r p2
/bg { 0.9451 0.4980 0.1216 srgb } def
169.40 8.00 0.73 200.00 r p2
/bg { 0.9451 0.4902 0.1216 srgb } def
170.13 8.00 0.73 200.00 r p2
/bg { 0.9451 0.4863 0.1176 srgb } def
170.87 8.00 0.73 200.00 r p2
/bg { 0.9451 0.4824 0.1176 srgb } def
171.60 8.00 0.73 200.00 r p2
/bg { 0.9451 0.4745 0.1137 srgb } def
172.33 8.00 0.73 200.00 r p2
/bg { 0.9451 0.4706 0.1137 srgb } def
173.07 8.00 0.73 200.00 r p2
/bg { 0.9490 0.4627 0.1137 srgb } def
173.80 8.00 0.73 200.00 r p2
/bg { 0.9490 0.4588 0.1098 srgb } def
174.53 8.00 0.73 200.00 r p2
/bg { 0.9490 0.4549 0.1098 srgb } def
175.27 8.00 0.73 200.00 r p2
/bg { 0.9490 0.4471 0.1098 srgb } def
176.00 8.00 0.73 200.00 r p2
/bg { 0.9490 0.4431 0.1059 srgb } def
176.73 8.00 0.73 200.00 r p2
/bg { 0.9529 0.4392 0.1059 srgb } def
177.47 8.00 0.73 200.00 r p2
/bg { 0.9529 0.4314 0.1020 srgb } def
178.20 8.00 0.73 200.00 r p2
/bg { 0.9529 0.4275 0.1020 srgb } def
178.93 8.00 0.73 200.00 r p2
/bg { 0.9529 0.4196 0.1020 srgb } def
179.67 8.00 0.73 200.00 r p2
/bg { 0.9529 0.4157 0.0980 srgb } def
180.40 8.00 0.73 200.00 r p2
/bg { 0.9529 0.4118 0.0980 srgb } def
181.13 8.00 0.73 200.00 r p2
/bg { 0.9569 0.4039 0.0941 srgb } def
181.87 8.00 0.73 200.00 r p2
/bg { 0.9569 0.4000 0.0941 srgb } def
182.60 8.00 0.73 200.00 r p2
/bg { 0.9569 0.3922 0.0941 srgb } def
183.33 8.00 0.73 200.00 r p2
/bg { 0.9569 0.3882 0.0902 srgb } def
184.07 8.00 0.73 200.00 r p2
/bg { 0.9569 0.3843 0.0902 srgb } def
184.80 8.00 0.73 200.00 r p2
/bg { 0.9569 0.3765 0.0863 srgb } def
185.53 8.00 0.73 200.00 r p2
/bg { 0.9608 0.3725 0.0863 srgb } def
186.27 8.00 0.73 200.00 r p2
/bg { 0.9608 0.3647 0.0863 srgb } def
187.00 8.00 0.73 200.00 r p2
/bg { 0.9608 0.3608 0.0824 srgb } def
187.73 8.00 0.73 200.00 r p2
/bg { 0.9608 0.3569 0.0824 srgb } def
188.47 8.00 0.73 200.00 r p2
/bg { 0.9608 0.3490 0.0784 srgb } def
189.20 8.00 0.73 200.00 r p2
/bg { 0.9608 0.3451 0.0784 srgb } def
189.93 8.00 0.73 200.00 r p2
/bg { 0.9647 0.3373 0.0784 srgb } def
190.67 8.00 0.73 200.00 r p2
/bg { 0.9647 0.3333 0.0745 srgb } def
191.40 8.00 0.73 200.00 r p2
/bg { 0.9647 0.3294 0.0745 srgb } def
192.13 8.00 0.73 200.00 r p2
/bg { 0.9647 0.3216 0.0706 srgb } def
192.87 8.00 0.73 200.00 r p2
/bg { 0.9647 0.3176 0.0706 srgb } def
193.60 8.00 0.73 200.00 r p2
/bg { 0.9686 0.3137 0.0706 srgb } def
194.33 8.00 0.73 200.00 r p2
/bg { 0.9686 0.3059 0.0667 srgb } def
195.07 8.00 0.73 200.00 r p2
/bg { 0.9686 0.3020 0.0667 srgb } def
195.80 8.00 0.73 200.00 r p2
/bg { 0.9686 0.2941 0.0627 srgb } def
196.53 8.00 0.73 200.00 r p2
/bg { 0.9686 0.2902 0.0627 srgb } def
197.27 8.00 0.73 200.00 r p2
/bg { 0.9686 0.2863 0.0627 srgb } def
198.00 8.00 0.73 200.00 r p2
/bg { 0.9725 0.2784 0.0588 srgb } def
198.73 8.00 0.73 200.00 r p2
/bg { 0.9725 0.2745 0.0588 srgb } def
199.47 8.00 0.73 200.00 r p2
/bg { 0.9725 0.2667 0.0549 srgb } def
200.20 8.00 0.73 200.00 r p2
/bg { 0.9725 0.2627 0.0549 srgb } def
200.93 8.00 0.73 200.00 r p2
/bg { 0.9725 0.2588 0.0549 srgb } def
201.67 8.00 0.73 200.00 r p2
/bg { 0.9725 0.2510 0.0510 srgb } def
202.40 8.00 0.73 200.00 r p2
/bg { 0.9765 0.2471 0.0510 srgb } def
203.13 8.00 0.73 200.00 r p2
/bg { 0.9765 0.2392 0.0510 srgb } def
203.87 8.00 0.73 200.00 r p2
/bg { 0.9765 0.2353 0.0471 srgb } def
204.60 8.00 0.73 200.00 r p2
/bg { 0.9765 0.2314 0.0471 srgb } def
205.33 8.00 0.73 200.00 r p2
/bg { 0.9765 0.2235 0.0431 srgb } def
206.07 8.00 0.73 200.00 r p2
/bg { 0.9765 0.2196 0.0431 srgb } def
206.80 8.00 0.73 200.00 r p2
/bg { 0.9804 0.2118 0.0431 srgb } def
207.53 8.00 0.73 200.00 r p2
/bg { 0.9804 0.2078 0.0392 srgb } def
208.27 8.00 0.73 200.00 r p2
/bg { 0.9804 0.2039 0.0392 srgb } def
209.00 8.00 0.73 200.00 r p2
/bg { 0.9804 0.1961 0.0353 srgb } def
209.73 8.00 0.73 200.00 r p2
/bg { 0.9804 0.1922 0.0353 srgb } def
210.47 8.00 0.73 200.00 r p2
/bg { 0.9843 0.1882 0.0353 srgb } def
211.20 8.00 0.73 200.00 r p2
/bg { 0.9843 0.1804 0.0314 srgb } def
211.93 8.00 0.73 200.00 r p2
/bg { 0.9843 0.1765 0.0314 srgb } def
212.67 8.00 0.73 200.00 r p2
/bg { 0.9843 0.1686 0.0275 srgb } def
213.40 8.00 0.73 200.00 r p2
/bg { 0.9843 0.1647 0.0275 srgb } def
214.13 8.00 0.73 200.00 r p2
/bg { 0.9843 0.1608 0.0275 srgb } def
214.87 8.00 0.73 200.00 r p2
/bg { 0.9882 0.1529 0.0235 srgb } def
215.60 8.00 0.73 200.00 r p2
/bg { 0.9882 0.1490 0.0235 srgb } def
216.33 8.00 0.73 200.00 r p2
/bg { 0.9882 0.1412 0.0196 srgb } def
217.07 8.00 0.73 200.00 r p2
/bg { 0.9882 0.1373 0.0196 srgb } def
217.80 8.00 0.73 200.00 r p2
/bg { 0.9882 0.1333 0.0196 srgb } def
218.53 8.00 0.73 200.00 r p2
/bg { 0.9882 0.1255 0.0157 srgb } def
219.27 8.00 0.73 200.00 r p2
/bg { 0.9922 0.1216 0.0157 srgb } def
220.00 8.00 0.73 200.00 r p2
/bg { 0.9922 0.1137 0.0118 srgb } def
220.73 8.00 0.73 200.00 r p2
/bg { 0.9922 0.1098 0.0118 srgb } def
221.47 8.00 0.73 200.00 r p2
/bg { 0.9922 0.1059 0.0118 srgb } def
222.20 8.00 0.73 200.00 r p2
/bg { 0.9922 0.0980 0.0078 srgb } def
222.93 8.00 0.73 200.00 r p2
/bg { 0.9922 0.0941 0.0078 srgb } def
223.67 8.00 0.73 200.00 r p2
/bg { 0.9961 0.0863 0.0039 srgb } def
224.40 8.00 0.73 200.00 r p2
/bg { 0.9961 0.0824 0.0039 srgb } def
225.13 8.00 0.73 200.00 r p2
/bg { 0.9961 0.0784 0.0039 srgb } def
225.87 8.00 0.73 200.00 r p2
/bg { 0.9961 0.0706 0 srgb } def
226.60 8.00 0.73 200.00 r p2
/bg { 0.9961 0.0667 0 srgb } def
227.33 8.00 0.73 200.00 r p2
/bg { 1 0.0627 0 srgb } def
228.07 8.00 0.73 200.00 r p2
0 0 0 srgb
0.75 setlinewidth
[] 0 setdash
1 setlinecap
1 setlinejoin
10.00 setmiterlimit
8.80 8.00 220.00 200.00 r p1
ep
%%Trailer
%%Pages: 1
%%EOF
