%!PS-Adobe-3.0 EPSF-3.0
%%DocumentNeededResources: font Helvetica
%%+ font Helvetica-Bold
%%+ font Helvetica-Oblique
%%+ font Helvetica-BoldOblique
%%+ font Symbol
%%Title: R Graphics Output
%%Creator: R Software
%%Pages: (atend)
%%BoundingBox: 0 0 504 504
%%EndComments
%%BeginProlog
/bp  { gs sRGB gs } def
% begin .ps.prolog
/gs  { gsave } bind def
/gr  { grestore } bind def
/ep  { showpage gr gr } bind def
/m   { moveto } bind def
/l  { rlineto } bind def
/np  { newpath } bind def
/cp  { closepath } bind def
/f   { fill } bind def
/o   { stroke } bind def
/c   { newpath 0 360 arc } bind def
/r   { 4 2 roll moveto 1 copy 3 -1 roll exch 0 exch rlineto 0 rlineto -1 mul 0 exch rlineto closepath } bind def
/p1  { stroke } bind def
/p2  { gsave bg fill grestore newpath } bind def
/p3  { gsave bg fill grestore stroke } bind def
/p6  { gsave bg eofill grestore newpath } bind def
/p7  { gsave bg eofill grestore stroke } bind def
/t   { 5 -2 roll moveto gsave rotate
       1 index stringwidth pop
       mul neg 0 rmoveto show grestore } bind def
/ta  { 4 -2 roll moveto gsave rotate show } bind def
/tb  { 2 -1 roll 0 rmoveto show } bind def
/cl  { grestore gsave newpath 3 index 3 index moveto 1 index
       4 -1 roll lineto  exch 1 index lineto lineto
       closepath clip newpath } bind def
/rgb { setrgbcolor } bind def
/s   { scalefont setfont } bind def
% end   .ps.prolog
/sRGB { [ /CIEBasedABC
          << /DecodeLMN
               [ { dup 0.03928 le
                        {12.92321 div}
                        {0.055 add 1.055 div 2.4 exp }
                     ifelse
                 } bind dup dup
               ]
             /MatrixLMN [0.412457 0.212673 0.019334
                         0.357576 0.715152 0.119192
                         0.180437 0.072175 0.950301]
             /WhitePoint [0.9505 1.0 1.0890]
           >>
         ] setcolorspace } bind def
/srgb { setcolor } bind def
%%IncludeResource: font Helvetica
/Helvetica findfont
dup length dict begin
  {1 index /FID ne {def} {pop pop} ifelse} forall
  /Encoding ISOLatin1Encoding def
  currentdict
  end
/Font1 exch definefont pop
%%IncludeResource: font Helvetica-Bold
/Helvetica-Bold findfont
dup length dict begin
  {1 index /FID ne {def} {pop pop} ifelse} forall
  /Encoding ISOLatin1Encoding def
  currentdict
  end
/Font2 exch definefont pop
%%IncludeResource: font Helvetica-Oblique
/Helvetica-Oblique findfont
dup length dict begin
  {1 index /FID ne {def} {pop pop} ifelse} forall
  /Encoding ISOLatin1Encoding def
  currentdict
  end
/Font3 exch definefont pop
%%IncludeResource: font Helvetica-BoldOblique
/Helvetica-BoldOblique findfont
dup length dict begin
  {1 index /FID ne {def} {pop pop} ifelse} forall
  /Encoding ISOLatin1Encoding def
  currentdict
  end
/Font4 exch definefont pop
%%IncludeResource: font Symbol
/Symbol findfont
dup length dict begin
  {1 index /FID ne {def} {pop pop} ifelse} forall
  currentdict
  end
/Font5 exch definefont pop
%%EndProlog
%%Page: 1 1
bp
0.00 252.00 252.00 504.00 cl
/Font2 findfont 17 s
0 0 0 srgb
112.58 471.98 (stur) 0 ta
-0.255 (g) tb
0.170 (es) tb gr
/Font1 findfont 14 s
143.28 238.18 (data$LPH) .5 0 t
-3.46 378.00 (Frequency) .5 90 t
0.00 0.00 504.00 504.00 cl
0 0 0 srgb
0.75 setlinewidth
[] 0 setdash
1 setlinecap
1 setlinejoin
10.00 setmiterlimit
np
67.08 303.84 m
127.00 0 l
o
np
67.08 303.84 m
0 -8.64 l
o
np
109.41 303.84 m
0 -8.64 l
o
np
151.75 303.84 m
0 -8.64 l
o
np
194.08 303.84 m
0 -8.64 l
o
/Font1 findfont 14 s
67.08 272.74 (5) .5 0 t
109.41 272.74 (10) .5 0 t
151.75 272.74 (15) .5 0 t
194.08 272.74 (20) .5 0 t
np
51.84 309.33 m
0 138.13 l
o
np
51.84 309.33 m
-8.64 0 l
o
np
51.84 329.07 m
-8.64 0 l
o
np
51.84 348.80 m
-8.64 0 l
o
np
51.84 368.53 m
-8.64 0 l
o
np
51.84 388.26 m
-8.64 0 l
o
np
51.84 407.99 m
-8.64 0 l
o
np
51.84 427.72 m
-8.64 0 l
o
np
51.84 447.46 m
-8.64 0 l
o
31.10 309.33 (0) .5 90 t
31.10 348.80 (100) .5 90 t
31.10 388.26 (200) .5 90 t
31.10 427.72 (300) .5 90 t
51.84 303.84 234.72 452.16 cl
0 0 0 srgb
0.75 setlinewidth
[] 0 setdash
1 setlinecap
1 setlinejoin
10.00 setmiterlimit
58.61 309.33 16.93 3.95 r p1
75.55 309.33 16.93 35.12 r p1
92.48 309.33 16.93 91.95 r p1
109.41 309.33 16.93 137.33 r p1
126.35 309.33 16.93 87.21 r p1
143.28 309.33 16.93 35.52 r p1
160.21 309.33 16.93 34.73 r p1
177.15 309.33 16.93 9.47 r p1
194.08 309.33 16.93 1.58 r p1
211.01 309.33 16.93 0.39 r p1
303.84 303.84 486.72 452.16 cl
252.00 252.00 504.00 504.00 cl
/Font2 findfont 17 s
0 0 0 srgb
395.28 471.98 (scott) .5 0 t
/Font1 findfont 14 s
395.28 238.18 (data$LPH) .5 0 t
248.54 378.00 (Frequency) .5 90 t
0.00 0.00 504.00 504.00 cl
0 0 0 srgb
0.75 setlinewidth
[] 0 setdash
1 setlinecap
1 setlinejoin
10.00 setmiterlimit
np
319.53 303.84 m
133.68 0 l
o
np
319.53 303.84 m
0 -8.64 l
o
np
364.09 303.84 m
0 -8.64 l
o
np
408.65 303.84 m
0 -8.64 l
o
np
453.21 303.84 m
0 -8.64 l
o
/Font1 findfont 14 s
319.53 272.74 (5) .5 0 t
364.09 272.74 (10) .5 0 t
408.65 272.74 (15) .5 0 t
453.21 272.74 (20) .5 0 t
np
303.84 309.33 m
0 115.09 l
o
np
303.84 309.33 m
-8.64 0 l
o
np
303.84 347.69 m
-8.64 0 l
o
np
303.84 386.06 m
-8.64 0 l
o
np
303.84 424.42 m
-8.64 0 l
o
283.10 309.33 (0) .5 90 t
283.10 347.69 (50) .5 90 t
283.10 386.06 (100) .5 90 t
283.10 424.42 (150) .5 90 t
303.84 303.84 486.72 452.16 cl
0 0 0 srgb
0.75 setlinewidth
[] 0 setdash
1 setlinecap
1 setlinejoin
10.00 setmiterlimit
310.61 309.33 8.91 2.30 r p1
319.53 309.33 8.91 5.37 r p1
328.44 309.33 8.91 13.04 r p1
337.35 309.33 8.91 55.24 r p1
346.26 309.33 8.91 72.89 r p1
355.17 309.33 8.91 105.88 r p1
364.09 309.33 8.91 137.33 r p1
373.00 309.33 8.91 129.66 r p1
381.91 309.33 8.91 95.90 r p1
390.82 309.33 8.91 73.65 r p1
399.74 309.33 8.91 39.13 r p1
408.65 309.33 8.91 29.92 r p1
417.56 309.33 8.91 49.10 r p1
426.47 309.33 8.91 18.41 r p1
435.39 309.33 8.91 6.91 r p1
444.30 309.33 8.91 11.51 r p1
453.21 309.33 8.91 2.30 r p1
462.12 309.33 8.91 0.77 r p1
471.03 309.33 8.91 0.77 r p1
51.84 51.84 234.72 200.16 cl
0.00 0.00 252.00 252.00 cl
/Font2 findfont 17 s
0 0 0 srgb
143.28 219.98 (fd) .5 0 t
/Font1 findfont 14 s
-3.46 126.00 (Frequency) .5 90 t
0.00 0.00 504.00 504.00 cl
0 0 0 srgb
0.75 setlinewidth
[] 0 setdash
1 setlinecap
1 setlinejoin
10.00 setmiterlimit
np
67.53 51.84 m
133.68 0 l
o
np
67.53 51.84 m
0 -8.64 l
o
np
112.09 51.84 m
0 -8.64 l
o
np
156.65 51.84 m
0 -8.64 l
o
np
201.21 51.84 m
0 -8.64 l
o
/Font1 findfont 14 s
67.53 20.74 (5) .5 0 t
112.09 20.74 (10) .5 0 t
156.65 20.74 (15) .5 0 t
201.21 20.74 (20) .5 0 t
np
51.84 57.33 m
0 123.73 l
o
np
51.84 57.33 m
-8.64 0 l
o
np
51.84 82.08 m
-8.64 0 l
o
np
51.84 106.82 m
-8.64 0 l
o
np
51.84 131.57 m
-8.64 0 l
o
np
51.84 156.31 m
-8.64 0 l
o
np
51.84 181.06 m
-8.64 0 l
o
31.10 57.33 (0) .5 90 t
31.10 82.08 (20) .5 90 t
31.10 131.57 (60) .5 90 t
31.10 181.06 (100) .5 90 t
51.84 51.84 234.72 200.16 cl
0 0 0 srgb
0.75 setlinewidth
[] 0 setdash
1 setlinecap
1 setlinejoin
10.00 setmiterlimit
58.61 57.33 4.46 1.24 r p1
63.07 57.33 4.46 2.47 r p1
67.53 57.33 4.46 1.24 r p1
71.98 57.33 4.46 7.42 r p1
76.44 57.33 4.46 4.95 r p1
80.89 57.33 4.46 16.08 r p1
85.35 57.33 4.46 33.41 r p1
89.81 57.33 4.46 55.68 r p1
94.26 57.33 4.46 53.20 r p1
98.72 57.33 4.46 64.34 r p1
103.17 57.33 4.46 81.66 r p1
107.63 57.33 4.46 89.08 r p1
112.09 57.33 4.46 84.13 r p1
116.54 57.33 4.46 137.33 r p1
121.00 57.33 4.46 132.38 r p1
125.46 57.33 4.46 76.71 r p1
129.91 57.33 4.46 85.37 r p1
134.37 57.33 4.46 69.29 r p1
138.82 57.33 4.46 60.62 r p1
143.28 57.33 4.46 58.15 r p1
147.74 57.33 4.46 22.27 r p1
152.19 57.33 4.46 40.83 r p1
156.65 57.33 4.46 32.17 r p1
161.10 57.33 4.46 16.08 r p1
165.56 57.33 4.46 43.30 r p1
170.02 57.33 4.46 35.88 r p1
174.47 57.33 4.46 14.85 r p1
178.93 57.33 4.46 14.85 r p1
183.39 57.33 4.46 3.71 r p1
187.84 57.33 4.46 7.42 r p1
192.30 57.33 4.46 11.14 r p1
196.75 57.33 4.46 7.42 r p1
201.21 57.33 4.46 1.24 r p1
205.67 57.33 4.46 2.47 r p1
210.12 57.33 4.46 1.24 r p1
214.58 57.33 4.46 0.00 r p1
219.03 57.33 4.46 0.00 r p1
223.49 57.33 4.46 1.24 r p1
303.84 51.84 486.72 200.16 cl
252.00 0.00 504.00 252.00 cl
0 0 0 srgb
0.75 setlinewidth
[] 0 setdash
1 setlinecap
1 setlinejoin
10.00 setmiterlimit
np
385.22 223.39 m
2.19 0.91 l
2.20 -4.57 l
2.93 12.70 l
12.02 0 l
o
/Font1 findfont 17 s
394.32 219.73 (n) 0 0 t
/Font1 findfont 14 s
248.54 126.00 (Frequency) .5 90 t
0.00 0.00 504.00 504.00 cl
0 0 0 srgb
0.75 setlinewidth
[] 0 setdash
1 setlinecap
1 setlinejoin
10.00 setmiterlimit
np
319.53 51.84 m
133.68 0 l
o
np
319.53 51.84 m
0 -8.64 l
o
np
364.09 51.84 m
0 -8.64 l
o
np
408.65 51.84 m
0 -8.64 l
o
np
453.21 51.84 m
0 -8.64 l
o
/Font1 findfont 14 s
319.53 20.74 (5) .5 0 t
364.09 20.74 (10) .5 0 t
408.65 20.74 (15) .5 0 t
453.21 20.74 (20) .5 0 t
np
303.84 57.33 m
0 123.73 l
o
np
303.84 57.33 m
-8.64 0 l
o
np
303.84 82.08 m
-8.64 0 l
o
np
303.84 106.82 m
-8.64 0 l
o
np
303.84 131.57 m
-8.64 0 l
o
np
303.84 156.31 m
-8.64 0 l
o
np
303.84 181.06 m
-8.64 0 l
o
283.10 57.33 (0) .5 90 t
283.10 82.08 (20) .5 90 t
283.10 131.57 (60) .5 90 t
283.10 181.06 (100) .5 90 t
303.84 51.84 486.72 200.16 cl
0 0 0 srgb
0.75 setlinewidth
[] 0 setdash
1 setlinecap
1 setlinejoin
10.00 setmiterlimit
310.61 57.33 4.46 1.24 r p1
315.07 57.33 4.46 2.47 r p1
319.53 57.33 4.46 1.24 r p1
323.98 57.33 4.46 7.42 r p1
328.44 57.33 4.46 4.95 r p1
332.89 57.33 4.46 16.08 r p1
337.35 57.33 4.46 33.41 r p1
341.81 57.33 4.46 55.68 r p1
346.26 57.33 4.46 53.20 r p1
350.72 57.33 4.46 64.34 r p1
355.17 57.33 4.46 81.66 r p1
359.63 57.33 4.46 89.08 r p1
364.09 57.33 4.46 84.13 r p1
368.54 57.33 4.46 137.33 r p1
373.00 57.33 4.46 132.38 r p1
377.46 57.33 4.46 76.71 r p1
381.91 57.33 4.46 85.37 r p1
386.37 57.33 4.46 69.29 r p1
390.82 57.33 4.46 60.62 r p1
395.28 57.33 4.46 58.15 r p1
399.74 57.33 4.46 22.27 r p1
404.19 57.33 4.46 40.83 r p1
408.65 57.33 4.46 32.17 r p1
413.10 57.33 4.46 16.08 r p1
417.56 57.33 4.46 43.30 r p1
422.02 57.33 4.46 35.88 r p1
426.47 57.33 4.46 14.85 r p1
430.93 57.33 4.46 14.85 r p1
435.39 57.33 4.46 3.71 r p1
439.84 57.33 4.46 7.42 r p1
444.30 57.33 4.46 11.14 r p1
448.75 57.33 4.46 7.42 r p1
453.21 57.33 4.46 1.24 r p1
457.67 57.33 4.46 2.47 r p1
462.12 57.33 4.46 1.24 r p1
466.58 57.33 4.46 0.00 r p1
471.03 57.33 4.46 0.00 r p1
475.49 57.33 4.46 1.24 r p1
ep
%%Trailer
%%Pages: 1
%%EOF
