%!PS-Adobe-3.0 EPSF-3.0
%%DocumentNeededResources: font Helvetica
%%+ font Helvetica-Bold
%%+ font Helvetica-Oblique
%%+ font Helvetica-BoldOblique
%%+ font Symbol
%%Title: R Graphics Output
%%Creator: R Software
%%Pages: (atend)
%%BoundingBox: 0 0 504 504
%%EndComments
%%BeginProlog
/bp  { gs sRGB gs } def
% begin .ps.prolog
/gs  { gsave } bind def
/gr  { grestore } bind def
/ep  { showpage gr gr } bind def
/m   { moveto } bind def
/l  { rlineto } bind def
/np  { newpath } bind def
/cp  { closepath } bind def
/f   { fill } bind def
/o   { stroke } bind def
/c   { newpath 0 360 arc } bind def
/r   { 4 2 roll moveto 1 copy 3 -1 roll exch 0 exch rlineto 0 rlineto -1 mul 0 exch rlineto closepath } bind def
/p1  { stroke } bind def
/p2  { gsave bg fill grestore newpath } bind def
/p3  { gsave bg fill grestore stroke } bind def
/p6  { gsave bg eofill grestore newpath } bind def
/p7  { gsave bg eofill grestore stroke } bind def
/t   { 5 -2 roll moveto gsave rotate
       1 index stringwidth pop
       mul neg 0 rmoveto show grestore } bind def
/ta  { 4 -2 roll moveto gsave rotate show } bind def
/tb  { 2 -1 roll 0 rmoveto show } bind def
/cl  { grestore gsave newpath 3 index 3 index moveto 1 index
       4 -1 roll lineto  exch 1 index lineto lineto
       closepath clip newpath } bind def
/rgb { setrgbcolor } bind def
/s   { scalefont setfont } bind def
% end   .ps.prolog
/sRGB { [ /CIEBasedABC
          << /DecodeLMN
               [ { dup 0.03928 le
                        {12.92321 div}
                        {0.055 add 1.055 div 2.4 exp }
                     ifelse
                 } bind dup dup
               ]
             /MatrixLMN [0.412457 0.212673 0.019334
                         0.357576 0.715152 0.119192
                         0.180437 0.072175 0.950301]
             /WhitePoint [0.9505 1.0 1.0890]
           >>
         ] setcolorspace } bind def
/srgb { setcolor } bind def
%%IncludeResource: font Helvetica
/Helvetica findfont
dup length dict begin
  {1 index /FID ne {def} {pop pop} ifelse} forall
  /Encoding ISOLatin1Encoding def
  currentdict
  end
/Font1 exch definefont pop
%%IncludeResource: font Helvetica-Bold
/Helvetica-Bold findfont
dup length dict begin
  {1 index /FID ne {def} {pop pop} ifelse} forall
  /Encoding ISOLatin1Encoding def
  currentdict
  end
/Font2 exch definefont pop
%%IncludeResource: font Helvetica-Oblique
/Helvetica-Oblique findfont
dup length dict begin
  {1 index /FID ne {def} {pop pop} ifelse} forall
  /Encoding ISOLatin1Encoding def
  currentdict
  end
/Font3 exch definefont pop
%%IncludeResource: font Helvetica-BoldOblique
/Helvetica-BoldOblique findfont
dup length dict begin
  {1 index /FID ne {def} {pop pop} ifelse} forall
  /Encoding ISOLatin1Encoding def
  currentdict
  end
/Font4 exch definefont pop
%%IncludeResource: font Symbol
/Symbol findfont
dup length dict begin
  {1 index /FID ne {def} {pop pop} ifelse} forall
  currentdict
  end
/Font5 exch definefont pop
%%EndProlog
%%Page: 1 1
bp
0.00 0.00 504.00 504.00 cl
/Font2 findfont 14 s
0 0 0 srgb
266.40 469.45 (Histogram of data) .5 0 t
/Font1 findfont 12 s
266.40 18.72 (data) .5 0 t
12.96 259.20 (Density) .5 90 t
0.00 0.00 504.00 504.00 cl
0 0 0 srgb
0.75 setlinewidth
[] 0 setdash
1 setlinecap
1 setlinejoin
10.00 setmiterlimit
np
74.40 73.44 m
341.33 0 l
o
np
74.40 73.44 m
0 -7.20 l
o
np
159.73 73.44 m
0 -7.20 l
o
np
245.07 73.44 m
0 -7.20 l
o
np
330.40 73.44 m
0 -7.20 l
o
np
415.73 73.44 m
0 -7.20 l
o
/Font1 findfont 12 s
74.40 47.52 (-2) .5 0 t
159.73 47.52 (-1) .5 0 t
245.07 47.52 (0) .5 0 t
330.40 47.52 (1) .5 0 t
415.73 47.52 (2) .5 0 t
np
59.04 87.20 m
0 294.86 l
o
np
59.04 87.20 m
-7.20 0 l
o
np
59.04 160.91 m
-7.20 0 l
o
np
59.04 234.63 m
-7.20 0 l
o
np
59.04 308.34 m
-7.20 0 l
o
np
59.04 382.06 m
-7.20 0 l
o
41.76 87.20 (0.0) .5 90 t
41.76 160.91 (0.1) .5 90 t
41.76 234.63 (0.2) .5 90 t
41.76 308.34 (0.3) .5 90 t
41.76 382.06 (0.4) .5 90 t
59.04 73.44 473.76 444.96 cl
0 0 0 srgb
0.75 setlinewidth
[] 0 setdash
1 setlinecap
1 setlinejoin
10.00 setmiterlimit
74.40 87.20 42.67 49.14 r p1
117.07 87.20 42.67 127.77 r p1
159.73 87.20 42.67 275.20 r p1
202.40 87.20 42.67 344.00 r p1
245.07 87.20 42.67 265.37 r p1
287.73 87.20 42.67 176.91 r p1
330.40 87.20 42.67 127.77 r p1
373.07 87.20 42.67 78.63 r p1
415.73 87.20 42.67 29.49 r p1
1 0 0 srgb
np
0.32 87.36 m
1.01 0.02 l
1.01 0.03 l
1.01 0.02 l
1.00 0.03 l
1.01 0.03 l
1.01 0.04 l
1.01 0.04 l
1.00 0.04 l
1.01 0.05 l
1.01 0.05 l
1.01 0.05 l
1.01 0.06 l
1.00 0.07 l
1.01 0.07 l
1.01 0.08 l
1.01 0.09 l
1.00 0.09 l
1.01 0.11 l
1.01 0.11 l
1.01 0.11 l
1.00 0.13 l
1.01 0.14 l
1.01 0.15 l
1.01 0.16 l
1.00 0.17 l
1.01 0.18 l
1.01 0.20 l
1.01 0.20 l
1.01 0.23 l
1.00 0.23 l
1.01 0.25 l
1.01 0.27 l
1.01 0.28 l
1.00 0.29 l
1.01 0.31 l
1.01 0.33 l
1.01 0.35 l
1.00 0.36 l
1.01 0.38 l
1.01 0.40 l
1.01 0.41 l
1.01 0.43 l
1.00 0.46 l
1.01 0.46 l
1.01 0.49 l
1.01 0.51 l
1.00 0.52 l
1.01 0.54 l
1.01 0.56 l
1.01 0.57 l
1.00 0.60 l
1.01 0.60 l
1.01 0.63 l
1.01 0.64 l
1.00 0.66 l
1.01 0.67 l
1.01 0.69 l
1.01 0.70 l
1.01 0.72 l
1.00 0.73 l
1.01 0.74 l
1.01 0.75 l
1.01 0.77 l
1.00 0.78 l
1.01 0.79 l
1.01 0.80 l
1.01 0.81 l
1.00 0.83 l
1.01 0.83 l
1.01 0.84 l
1.01 0.86 l
1.01 0.86 l
1.00 0.88 l
1.01 0.88 l
1.01 0.90 l
1.01 0.91 l
1.00 0.92 l
1.01 0.93 l
1.01 0.94 l
1.01 0.96 l
1.00 0.97 l
1.01 0.99 l
1.01 1.00 l
1.01 1.02 l
1.00 1.04 l
1.01 1.05 l
1.01 1.07 l
1.01 1.10 l
1.01 1.12 l
1.00 1.14 l
1.01 1.16 l
1.01 1.19 l
1.01 1.22 l
1.00 1.23 l
1.01 1.28 l
1.01 1.30 l
1.01 1.32 l
1.00 1.36 l
1.01 1.39 l
101.09 145.50 lineto
1.01 1.45 l
1.00 1.49 l
1.01 1.53 l
1.01 1.55 l
1.01 1.58 l
1.01 1.63 l
1.00 1.65 l
1.01 1.69 l
1.01 1.72 l
1.01 1.76 l
1.00 1.78 l
1.01 1.82 l
1.01 1.85 l
1.01 1.88 l
1.00 1.90 l
1.01 1.95 l
1.01 1.96 l
1.01 1.99 l
1.01 2.02 l
1.00 2.04 l
1.01 2.07 l
1.01 2.08 l
1.01 2.12 l
1.00 2.13 l
1.01 2.15 l
1.01 2.17 l
1.01 2.20 l
1.00 2.20 l
1.01 2.23 l
1.01 2.24 l
1.01 2.26 l
1.00 2.28 l
1.01 2.29 l
1.01 2.31 l
1.01 2.33 l
1.01 2.34 l
1.00 2.36 l
1.01 2.38 l
1.01 2.39 l
1.01 2.41 l
1.00 2.44 l
1.01 2.45 l
1.01 2.47 l
1.01 2.50 l
1.00 2.52 l
1.01 2.55 l
1.01 2.56 l
1.01 2.60 l
1.01 2.62 l
1.00 2.64 l
1.01 2.68 l
1.01 2.70 l
1.01 2.74 l
1.00 2.75 l
1.01 2.80 l
1.01 2.83 l
1.01 2.84 l
1.00 2.89 l
1.01 2.91 l
1.01 2.94 l
1.01 2.97 l
1.00 3.00 l
1.01 3.03 l
1.01 3.04 l
1.01 3.08 l
1.01 3.09 l
1.00 3.12 l
1.01 3.12 l
1.01 3.15 l
1.01 3.16 l
1.00 3.17 l
1.01 3.18 l
1.01 3.18 l
1.01 3.18 l
1.00 3.17 l
1.01 3.17 l
1.01 3.17 l
1.01 3.15 l
1.01 3.13 l
1.00 3.11 l
1.01 3.09 l
1.01 3.06 l
1.01 3.02 l
1.00 2.99 l
1.01 2.96 l
1.01 2.91 l
1.01 2.86 l
1.00 2.82 l
1.01 2.77 l
1.01 2.70 l
1.01 2.64 l
1.00 2.60 l
1.01 2.52 l
1.01 2.44 l
1.01 2.39 l
1.01 2.32 l
1.00 2.23 l
1.01 2.16 l
1.01 2.09 l
201.86 394.05 lineto
1.00 1.91 l
1.01 1.85 l
1.01 1.77 l
1.01 1.65 l
1.00 1.59 l
1.01 1.51 l
1.01 1.41 l
1.01 1.31 l
1.01 1.25 l
1.00 1.16 l
1.01 1.04 l
1.01 0.97 l
1.01 0.90 l
1.00 0.79 l
1.01 0.70 l
1.01 0.63 l
1.01 0.54 l
1.00 0.43 l
1.01 0.36 l
1.01 0.28 l
1.01 0.18 l
1.00 0.08 l
1.01 0.02 l
1.01 -0.06 l
1.01 -0.18 l
1.01 -0.25 l
1.00 -0.33 l
1.01 -0.42 l
1.01 -0.51 l
1.01 -0.58 l
1.00 -0.66 l
1.01 -0.77 l
1.01 -0.84 l
1.01 -0.91 l
1.00 -1.00 l
1.01 -1.10 l
1.01 -1.16 l
1.01 -1.23 l
1.01 -1.34 l
1.00 -1.41 l
1.01 -1.48 l
1.01 -1.56 l
1.01 -1.64 l
1.00 -1.71 l
1.01 -1.77 l
1.01 -1.87 l
1.01 -1.93 l
1.00 -1.98 l
1.01 -2.06 l
1.01 -2.12 l
1.01 -2.18 l
1.00 -2.22 l
1.01 -2.30 l
1.01 -2.34 l
1.01 -2.38 l
1.01 -2.43 l
1.00 -2.47 l
1.01 -2.50 l
1.01 -2.53 l
1.01 -2.57 l
1.00 -2.58 l
1.01 -2.60 l
1.01 -2.62 l
1.01 -2.63 l
1.00 -2.62 l
1.01 -2.63 l
1.01 -2.63 l
1.01 -2.61 l
1.01 -2.60 l
1.00 -2.58 l
1.01 -2.56 l
1.01 -2.53 l
1.01 -2.50 l
1.00 -2.46 l
1.01 -2.42 l
1.01 -2.38 l
1.01 -2.34 l
1.00 -2.27 l
1.01 -2.24 l
1.01 -2.19 l
1.01 -2.11 l
1.00 -2.06 l
1.01 -2.01 l
1.01 -1.94 l
1.01 -1.88 l
1.01 -1.82 l
1.00 -1.77 l
1.01 -1.69 l
1.01 -1.64 l
1.01 -1.59 l
1.00 -1.52 l
1.01 -1.46 l
1.01 -1.41 l
1.01 -1.37 l
1.00 -1.30 l
1.01 -1.27 l
1.01 -1.22 l
1.01 -1.18 l
1.01 -1.14 l
302.62 280.12 lineto
1.01 -1.08 l
1.01 -1.05 l
1.01 -1.02 l
1.00 -1.01 l
1.01 -0.98 l
1.01 -0.97 l
1.01 -0.96 l
1.00 -0.96 l
1.01 -0.95 l
1.01 -0.94 l
1.01 -0.95 l
1.00 -0.96 l
1.01 -0.96 l
1.01 -0.97 l
1.01 -0.98 l
1.01 -0.99 l
1.00 -1.01 l
1.01 -1.02 l
1.01 -1.03 l
1.01 -1.06 l
1.00 -1.08 l
1.01 -1.09 l
1.01 -1.11 l
1.01 -1.13 l
1.00 -1.15 l
1.01 -1.17 l
1.01 -1.19 l
1.01 -1.20 l
1.00 -1.22 l
1.01 -1.24 l
1.01 -1.26 l
1.01 -1.26 l
1.01 -1.29 l
1.00 -1.29 l
1.01 -1.31 l
1.01 -1.31 l
1.01 -1.33 l
1.00 -1.34 l
1.01 -1.34 l
1.01 -1.35 l
1.01 -1.35 l
1.00 -1.36 l
1.01 -1.36 l
1.01 -1.37 l
1.01 -1.37 l
1.01 -1.37 l
1.00 -1.38 l
1.01 -1.37 l
1.01 -1.38 l
1.01 -1.37 l
1.00 -1.38 l
1.01 -1.38 l
1.01 -1.38 l
1.01 -1.37 l
1.00 -1.38 l
1.01 -1.38 l
1.01 -1.39 l
1.01 -1.38 l
1.00 -1.38 l
1.01 -1.39 l
1.01 -1.38 l
1.01 -1.39 l
1.01 -1.40 l
1.00 -1.39 l
1.01 -1.40 l
1.01 -1.40 l
1.01 -1.40 l
1.00 -1.41 l
1.01 -1.41 l
1.01 -1.41 l
1.01 -1.41 l
1.00 -1.42 l
1.01 -1.42 l
1.01 -1.43 l
1.01 -1.42 l
1.01 -1.43 l
1.00 -1.43 l
1.01 -1.43 l
1.01 -1.43 l
1.01 -1.43 l
1.00 -1.43 l
1.01 -1.43 l
1.01 -1.43 l
1.01 -1.42 l
1.00 -1.42 l
1.01 -1.41 l
1.01 -1.41 l
1.01 -1.41 l
1.00 -1.39 l
1.01 -1.39 l
1.01 -1.38 l
1.01 -1.37 l
1.01 -1.36 l
1.00 -1.35 l
1.01 -1.33 l
1.01 -1.33 l
1.01 -1.31 l
1.00 -1.30 l
1.01 -1.28 l
403.39 152.46 lineto
1.01 -1.25 l
1.00 -1.24 l
1.01 -1.23 l
1.01 -1.20 l
1.01 -1.19 l
1.01 -1.18 l
1.00 -1.16 l
1.01 -1.14 l
1.01 -1.13 l
1.01 -1.11 l
1.00 -1.09 l
1.01 -1.08 l
1.01 -1.07 l
1.01 -1.05 l
1.00 -1.04 l
1.01 -1.03 l
1.01 -1.01 l
1.01 -1.00 l
1.00 -0.98 l
1.01 -0.98 l
1.01 -0.97 l
1.01 -0.95 l
1.01 -0.95 l
1.00 -0.93 l
1.01 -0.93 l
1.01 -0.92 l
1.01 -0.91 l
1.00 -0.91 l
1.01 -0.90 l
1.01 -0.89 l
1.01 -0.88 l
1.00 -0.88 l
1.01 -0.87 l
1.01 -0.87 l
1.01 -0.86 l
1.01 -0.85 l
1.00 -0.85 l
1.01 -0.84 l
1.01 -0.84 l
1.01 -0.83 l
1.00 -0.82 l
1.01 -0.81 l
1.01 -0.80 l
1.01 -0.80 l
1.00 -0.79 l
1.01 -0.78 l
1.01 -0.76 l
1.01 -0.76 l
1.00 -0.75 l
1.01 -0.73 l
1.01 -0.72 l
1.01 -0.71 l
1.01 -0.69 l
1.00 -0.68 l
1.01 -0.67 l
1.01 -0.64 l
1.01 -0.64 l
1.00 -0.62 l
1.01 -0.60 l
1.01 -0.58 l
1.01 -0.57 l
1.00 -0.55 l
1.01 -0.53 l
1.01 -0.51 l
1.01 -0.49 l
1.01 -0.48 l
1.00 -0.46 l
1.01 -0.44 l
1.01 -0.42 l
1.01 -0.41 l
1.00 -0.38 l
1.01 -0.37 l
1.01 -0.36 l
1.01 -0.33 l
1.00 -0.31 l
1.01 -0.31 l
1.01 -0.28 l
1.01 -0.27 l
1.00 -0.25 l
1.01 -0.25 l
1.01 -0.22 l
1.01 -0.21 l
1.01 -0.20 l
1.00 -0.19 l
1.01 -0.17 l
1.01 -0.16 l
1.01 -0.15 l
1.00 -0.14 l
1.01 -0.13 l
1.01 -0.13 l
1.01 -0.11 l
1.00 -0.10 l
1.01 -0.10 l
1.01 -0.08 l
1.01 -0.08 l
1.01 -0.08 l
1.00 -0.07 l
1.01 -0.06 l
1.01 -0.06 l
504.00 87.67 lineto
o
ep
%%Trailer
%%Pages: 1
%%EOF
