%!PS-Adobe-3.0 EPSF-3.0
%%DocumentNeededResources: font Helvetica
%%+ font Helvetica-Bold
%%+ font Helvetica-Oblique
%%+ font Helvetica-BoldOblique
%%+ font Symbol
%%Title: R Graphics Output
%%Creator: R Software
%%Pages: (atend)
%%BoundingBox: 0 0 504 504
%%EndComments
%%BeginProlog
/bp  { gs sRGB gs } def
% begin .ps.prolog
/gs  { gsave } bind def
/gr  { grestore } bind def
/ep  { showpage gr gr } bind def
/m   { moveto } bind def
/l  { rlineto } bind def
/np  { newpath } bind def
/cp  { closepath } bind def
/f   { fill } bind def
/o   { stroke } bind def
/c   { newpath 0 360 arc } bind def
/r   { 4 2 roll moveto 1 copy 3 -1 roll exch 0 exch rlineto 0 rlineto -1 mul 0 exch rlineto closepath } bind def
/p1  { stroke } bind def
/p2  { gsave bg fill grestore newpath } bind def
/p3  { gsave bg fill grestore stroke } bind def
/p6  { gsave bg eofill grestore newpath } bind def
/p7  { gsave bg eofill grestore stroke } bind def
/t   { 5 -2 roll moveto gsave rotate
       1 index stringwidth pop
       mul neg 0 rmoveto show grestore } bind def
/ta  { 4 -2 roll moveto gsave rotate show } bind def
/tb  { 2 -1 roll 0 rmoveto show } bind def
/cl  { grestore gsave newpath 3 index 3 index moveto 1 index
       4 -1 roll lineto  exch 1 index lineto lineto
       closepath clip newpath } bind def
/rgb { setrgbcolor } bind def
/s   { scalefont setfont } bind def
% end   .ps.prolog
/sRGB { [ /CIEBasedABC
          << /DecodeLMN
               [ { dup 0.03928 le
                        {12.92321 div}
                        {0.055 add 1.055 div 2.4 exp }
                     ifelse
                 } bind dup dup
               ]
             /MatrixLMN [0.412457 0.212673 0.019334
                         0.357576 0.715152 0.119192
                         0.180437 0.072175 0.950301]
             /WhitePoint [0.9505 1.0 1.0890]
           >>
         ] setcolorspace } bind def
/srgb { setcolor } bind def
%%IncludeResource: font Helvetica
/Helvetica findfont
dup length dict begin
  {1 index /FID ne {def} {pop pop} ifelse} forall
  /Encoding ISOLatin1Encoding def
  currentdict
  end
/Font1 exch definefont pop
%%IncludeResource: font Helvetica-Bold
/Helvetica-Bold findfont
dup length dict begin
  {1 index /FID ne {def} {pop pop} ifelse} forall
  /Encoding ISOLatin1Encoding def
  currentdict
  end
/Font2 exch definefont pop
%%IncludeResource: font Helvetica-Oblique
/Helvetica-Oblique findfont
dup length dict begin
  {1 index /FID ne {def} {pop pop} ifelse} forall
  /Encoding ISOLatin1Encoding def
  currentdict
  end
/Font3 exch definefont pop
%%IncludeResource: font Helvetica-BoldOblique
/Helvetica-BoldOblique findfont
dup length dict begin
  {1 index /FID ne {def} {pop pop} ifelse} forall
  /Encoding ISOLatin1Encoding def
  currentdict
  end
/Font4 exch definefont pop
%%IncludeResource: font Symbol
/Symbol findfont
dup length dict begin
  {1 index /FID ne {def} {pop pop} ifelse} forall
  currentdict
  end
/Font5 exch definefont pop
%%EndProlog
%%Page: 1 1
bp
0.00 0.00 504.00 504.00 cl
/Font2 findfont 14 s
0 0 0 srgb
266.40 469.45 (Histogram of data) .5 0 t
/Font1 findfont 12 s
266.40 18.72 (data) .5 0 t
12.96 259.20 (Frequency) .5 90 t
0.00 0.00 504.00 504.00 cl
0 0 0 srgb
0.75 setlinewidth
[] 0 setdash
1 setlinecap
1 setlinejoin
10.00 setmiterlimit
np
109.31 73.44 m
349.09 0 l
o
np
109.31 73.44 m
0 -7.20 l
o
np
179.13 73.44 m
0 -7.20 l
o
np
248.95 73.44 m
0 -7.20 l
o
np
318.76 73.44 m
0 -7.20 l
o
np
388.58 73.44 m
0 -7.20 l
o
np
458.40 73.44 m
0 -7.20 l
o
/Font1 findfont 12 s
109.31 47.52 (-2) .5 0 t
179.13 47.52 (0) .5 0 t
248.95 47.52 (2) .5 0 t
318.76 47.52 (4) .5 0 t
388.58 47.52 (6) .5 0 t
458.40 47.52 (8) .5 0 t
np
59.04 108.37 m
0 317.54 l
o
np
59.04 108.37 m
-7.20 0 l
o
np
59.04 161.29 m
-7.20 0 l
o
np
59.04 214.22 m
-7.20 0 l
o
np
59.04 267.14 m
-7.20 0 l
o
np
59.04 320.06 m
-7.20 0 l
o
np
59.04 372.98 m
-7.20 0 l
o
np
59.04 425.91 m
-7.20 0 l
o
41.76 108.37 (0) .5 90 t
41.76 161.29 (10) .5 90 t
41.76 214.22 (20) .5 90 t
41.76 267.14 (30) .5 90 t
41.76 320.06 (40) .5 90 t
41.76 372.98 (50) .5 90 t
41.76 425.91 (60) .5 90 t
59.04 73.44 473.76 444.96 cl
0 0 0 srgb
0.75 setlinewidth
[] 0 setdash
1 setlinecap
1 setlinejoin
10.00 setmiterlimit
74.40 108.37 34.91 5.29 r p1
109.31 108.37 34.91 89.97 r p1
144.22 108.37 34.91 322.83 r p1
179.13 108.37 34.91 264.62 r p1
214.04 108.37 34.91 95.26 r p1
248.95 108.37 34.91 15.88 r p1
283.85 108.37 34.91 0.00 r p1
318.76 108.37 34.91 0.00 r p1
353.67 108.37 34.91 0.00 r p1
388.58 108.37 34.91 21.17 r p1
423.49 108.37 34.91 5.29 r p1
2.25 setlinewidth
[] 0 setdash
0 setlinecap
np
177.81 90.38 m
0 4.23 l
o
0.75 setlinewidth
[ 2.25 3.75] 0 setdash
1 setlinecap
np
101.81 92.49 m
57.39 0 l
o
np
262.97 92.49 m
-59.64 0 l
o
0.75 setlinewidth
[] 0 setdash
np
101.81 91.43 m
0 2.12 l
o
np
262.97 91.43 m
0 2.12 l
o
np
159.20 90.38 m
0 4.23 l
44.13 0 l
0 -4.23 l
-44.13 0 l
o
435.62 92.49 2.70 c p1
395.20 92.49 2.70 c p1
422.97 92.49 2.70 c p1
420.81 92.49 2.70 c p1
414.78 92.49 2.70 c p1
0.00 0.00 504.00 504.00 cl
0 0 0 srgb
0.75 setlinewidth
[] 0 setdash
1 setlinecap
1 setlinejoin
10.00 setmiterlimit
np
109.31 73.44 m
349.09 0 l
o
np
109.31 73.44 m
0 -7.20 l
o
np
179.13 73.44 m
0 -7.20 l
o
np
248.95 73.44 m
0 -7.20 l
o
np
318.76 73.44 m
0 -7.20 l
o
np
388.58 73.44 m
0 -7.20 l
o
np
458.40 73.44 m
0 -7.20 l
o
/Font1 findfont 12 s
109.31 47.52 (-2) .5 0 t
179.13 47.52 (0) .5 0 t
248.95 47.52 (2) .5 0 t
318.76 47.52 (4) .5 0 t
388.58 47.52 (6) .5 0 t
458.40 47.52 (8) .5 0 t
np
59.04 73.44 m
414.72 0 l
0 371.52 l
-414.72 0 l
0 -371.52 l
o
ep
%%Trailer
%%Pages: 1
%%EOF
