%!PS-Adobe-3.0 EPSF-3.0
%%DocumentNeededResources: font Helvetica
%%+ font Helvetica-Bold
%%+ font Helvetica-Oblique
%%+ font Helvetica-BoldOblique
%%+ font Symbol
%%Title: R Graphics Output
%%Creator: R Software
%%Pages: (atend)
%%BoundingBox: 0 0 504 504
%%EndComments
%%BeginProlog
/bp  { gs sRGB gs } def
% begin .ps.prolog
/gs  { gsave } bind def
/gr  { grestore } bind def
/ep  { showpage gr gr } bind def
/m   { moveto } bind def
/l  { rlineto } bind def
/np  { newpath } bind def
/cp  { closepath } bind def
/f   { fill } bind def
/o   { stroke } bind def
/c   { newpath 0 360 arc } bind def
/r   { 4 2 roll moveto 1 copy 3 -1 roll exch 0 exch rlineto 0 rlineto -1 mul 0 exch rlineto closepath } bind def
/p1  { stroke } bind def
/p2  { gsave bg fill grestore newpath } bind def
/p3  { gsave bg fill grestore stroke } bind def
/p6  { gsave bg eofill grestore newpath } bind def
/p7  { gsave bg eofill grestore stroke } bind def
/t   { 5 -2 roll moveto gsave rotate
       1 index stringwidth pop
       mul neg 0 rmoveto show grestore } bind def
/ta  { 4 -2 roll moveto gsave rotate show } bind def
/tb  { 2 -1 roll 0 rmoveto show } bind def
/cl  { grestore gsave newpath 3 index 3 index moveto 1 index
       4 -1 roll lineto  exch 1 index lineto lineto
       closepath clip newpath } bind def
/rgb { setrgbcolor } bind def
/s   { scalefont setfont } bind def
% end   .ps.prolog
/sRGB { [ /CIEBasedABC
          << /DecodeLMN
               [ { dup 0.03928 le
                        {12.92321 div}
                        {0.055 add 1.055 div 2.4 exp }
                     ifelse
                 } bind dup dup
               ]
             /MatrixLMN [0.412457 0.212673 0.019334
                         0.357576 0.715152 0.119192
                         0.180437 0.072175 0.950301]
             /WhitePoint [0.9505 1.0 1.0890]
           >>
         ] setcolorspace } bind def
/srgb { setcolor } bind def
%%IncludeResource: font Helvetica
/Helvetica findfont
dup length dict begin
  {1 index /FID ne {def} {pop pop} ifelse} forall
  /Encoding ISOLatin1Encoding def
  currentdict
  end
/Font1 exch definefont pop
%%IncludeResource: font Helvetica-Bold
/Helvetica-Bold findfont
dup length dict begin
  {1 index /FID ne {def} {pop pop} ifelse} forall
  /Encoding ISOLatin1Encoding def
  currentdict
  end
/Font2 exch definefont pop
%%IncludeResource: font Helvetica-Oblique
/Helvetica-Oblique findfont
dup length dict begin
  {1 index /FID ne {def} {pop pop} ifelse} forall
  /Encoding ISOLatin1Encoding def
  currentdict
  end
/Font3 exch definefont pop
%%IncludeResource: font Helvetica-BoldOblique
/Helvetica-BoldOblique findfont
dup length dict begin
  {1 index /FID ne {def} {pop pop} ifelse} forall
  /Encoding ISOLatin1Encoding def
  currentdict
  end
/Font4 exch definefont pop
%%IncludeResource: font Symbol
/Symbol findfont
dup length dict begin
  {1 index /FID ne {def} {pop pop} ifelse} forall
  currentdict
  end
/Font5 exch definefont pop
%%EndProlog
%%Page: 1 1
bp
0.00 0.00 504.00 504.00 cl
/Font2 findfont 14 s
0 0 0 srgb
266.40 469.45 (Histogram of data) .5 0 t
/Font1 findfont 12 s
266.40 18.72 (data) .5 0 t
12.96 259.20 (Frequency) .5 90 t
0.00 0.00 504.00 504.00 cl
0 0 0 srgb
0.75 setlinewidth
[] 0 setdash
1 setlinecap
1 setlinejoin
10.00 setmiterlimit
np
74.40 73.44 m
349.09 0 l
o
np
74.40 73.44 m
0 -7.20 l
o
np
144.22 73.44 m
0 -7.20 l
o
np
214.04 73.44 m
0 -7.20 l
o
np
283.85 73.44 m
0 -7.20 l
o
np
353.67 73.44 m
0 -7.20 l
o
np
423.49 73.44 m
0 -7.20 l
o
/Font1 findfont 12 s
74.40 47.52 (-3) .5 0 t
144.22 47.52 (-2) .5 0 t
214.04 47.52 (-1) .5 0 t
283.85 47.52 (0) .5 0 t
353.67 47.52 (1) .5 0 t
423.49 47.52 (2) .5 0 t
np
59.04 87.20 m
0 355.86 l
o
np
59.04 87.20 m
-7.20 0 l
o
np
59.04 146.51 m
-7.20 0 l
o
np
59.04 205.82 m
-7.20 0 l
o
np
59.04 265.13 m
-7.20 0 l
o
np
59.04 324.44 m
-7.20 0 l
o
np
59.04 383.75 m
-7.20 0 l
o
np
59.04 443.06 m
-7.20 0 l
o
41.76 87.20 (0) .5 90 t
41.76 146.51 (5) .5 90 t
41.76 205.82 (10) .5 90 t
41.76 265.13 (15) .5 90 t
41.76 324.44 (20) .5 90 t
41.76 383.75 (25) .5 90 t
41.76 443.06 (30) .5 90 t
59.04 73.44 473.76 444.96 cl
0 0 0 srgb
0.75 setlinewidth
[] 0 setdash
1 setlinecap
1 setlinejoin
10.00 setmiterlimit
74.40 87.20 34.91 11.86 r p1
109.31 87.20 34.91 23.72 r p1
144.22 87.20 34.91 94.90 r p1
179.13 87.20 34.91 142.34 r p1
214.04 87.20 34.91 260.97 r p1
248.95 87.20 34.91 344.00 r p1
283.85 87.20 34.91 320.28 r p1
318.76 87.20 34.91 260.97 r p1
353.67 87.20 34.91 189.79 r p1
388.58 87.20 34.91 94.90 r p1
423.49 87.20 34.91 35.59 r p1
ep
%%Trailer
%%Pages: 1
%%EOF
