%!PS-Adobe-3.0 EPSF-3.0
%%DocumentNeededResources: font Helvetica
%%+ font Helvetica-Bold
%%+ font Helvetica-Oblique
%%+ font Helvetica-BoldOblique
%%+ font Symbol
%%Title: R Graphics Output
%%Creator: R Software
%%Pages: (atend)
%%BoundingBox: 0 0 504 504
%%EndComments
%%BeginProlog
/bp  { gs sRGB gs } def
% begin .ps.prolog
/gs  { gsave } bind def
/gr  { grestore } bind def
/ep  { showpage gr gr } bind def
/m   { moveto } bind def
/l  { rlineto } bind def
/np  { newpath } bind def
/cp  { closepath } bind def
/f   { fill } bind def
/o   { stroke } bind def
/c   { newpath 0 360 arc } bind def
/r   { 4 2 roll moveto 1 copy 3 -1 roll exch 0 exch rlineto 0 rlineto -1 mul 0 exch rlineto closepath } bind def
/p1  { stroke } bind def
/p2  { gsave bg fill grestore newpath } bind def
/p3  { gsave bg fill grestore stroke } bind def
/p6  { gsave bg eofill grestore newpath } bind def
/p7  { gsave bg eofill grestore stroke } bind def
/t   { 5 -2 roll moveto gsave rotate
       1 index stringwidth pop
       mul neg 0 rmoveto show grestore } bind def
/ta  { 4 -2 roll moveto gsave rotate show } bind def
/tb  { 2 -1 roll 0 rmoveto show } bind def
/cl  { grestore gsave newpath 3 index 3 index moveto 1 index
       4 -1 roll lineto  exch 1 index lineto lineto
       closepath clip newpath } bind def
/rgb { setrgbcolor } bind def
/s   { scalefont setfont } bind def
% end   .ps.prolog
/sRGB { [ /CIEBasedABC
          << /DecodeLMN
               [ { dup 0.03928 le
                        {12.92321 div}
                        {0.055 add 1.055 div 2.4 exp }
                     ifelse
                 } bind dup dup
               ]
             /MatrixLMN [0.412457 0.212673 0.019334
                         0.357576 0.715152 0.119192
                         0.180437 0.072175 0.950301]
             /WhitePoint [0.9505 1.0 1.0890]
           >>
         ] setcolorspace } bind def
/srgb { setcolor } bind def
%%IncludeResource: font Helvetica
/Helvetica findfont
dup length dict begin
  {1 index /FID ne {def} {pop pop} ifelse} forall
  /Encoding ISOLatin1Encoding def
  currentdict
  end
/Font1 exch definefont pop
%%IncludeResource: font Helvetica-Bold
/Helvetica-Bold findfont
dup length dict begin
  {1 index /FID ne {def} {pop pop} ifelse} forall
  /Encoding ISOLatin1Encoding def
  currentdict
  end
/Font2 exch definefont pop
%%IncludeResource: font Helvetica-Oblique
/Helvetica-Oblique findfont
dup length dict begin
  {1 index /FID ne {def} {pop pop} ifelse} forall
  /Encoding ISOLatin1Encoding def
  currentdict
  end
/Font3 exch definefont pop
%%IncludeResource: font Helvetica-BoldOblique
/Helvetica-BoldOblique findfont
dup length dict begin
  {1 index /FID ne {def} {pop pop} ifelse} forall
  /Encoding ISOLatin1Encoding def
  currentdict
  end
/Font4 exch definefont pop
%%IncludeResource: font Symbol
/Symbol findfont
dup length dict begin
  {1 index /FID ne {def} {pop pop} ifelse} forall
  currentdict
  end
/Font5 exch definefont pop
%%EndProlog
%%Page: 1 1
bp
59.04 73.44 473.76 444.96 cl
0 0 0 srgb
0.75 setlinewidth
[] 0 setdash
1 setlinecap
1 setlinejoin
10.00 setmiterlimit
np
74.40 90.28 m
0.75 0.11 l
0.75 0.11 l
0.75 0.12 l
0.76 0.12 l
0.75 0.12 l
0.75 0.13 l
0.75 0.13 l
0.75 0.14 l
0.75 0.14 l
0.75 0.15 l
0.76 0.15 l
0.75 0.15 l
0.75 0.16 l
0.75 0.16 l
0.75 0.17 l
0.75 0.17 l
0.75 0.18 l
0.76 0.18 l
0.75 0.19 l
0.75 0.19 l
0.75 0.20 l
0.75 0.21 l
0.75 0.20 l
0.76 0.22 l
0.75 0.22 l
0.75 0.23 l
0.75 0.24 l
0.75 0.23 l
0.75 0.26 l
0.75 0.25 l
0.76 0.26 l
0.75 0.27 l
0.75 0.27 l
0.75 0.29 l
0.75 0.28 l
0.75 0.31 l
0.75 0.30 l
0.76 0.31 l
0.75 0.32 l
0.75 0.33 l
0.75 0.34 l
0.75 0.34 l
0.75 0.36 l
0.75 0.36 l
0.76 0.38 l
0.75 0.38 l
0.75 0.39 l
0.75 0.40 l
0.75 0.41 l
0.75 0.42 l
0.75 0.43 l
0.76 0.44 l
0.75 0.45 l
0.75 0.46 l
0.75 0.48 l
0.75 0.47 l
0.75 0.50 l
0.76 0.50 l
0.75 0.52 l
0.75 0.53 l
0.75 0.53 l
0.75 0.56 l
0.75 0.55 l
0.75 0.58 l
0.76 0.59 l
0.75 0.60 l
0.75 0.61 l
0.75 0.62 l
0.75 0.64 l
0.75 0.64 l
0.75 0.68 l
0.76 0.67 l
0.75 0.69 l
0.75 0.71 l
0.75 0.71 l
0.75 0.74 l
0.75 0.73 l
0.75 0.77 l
0.76 0.77 l
0.75 0.80 l
0.75 0.80 l
0.75 0.82 l
0.75 0.83 l
0.75 0.84 l
0.75 0.88 l
0.76 0.87 l
0.75 0.90 l
0.75 0.91 l
0.75 0.92 l
0.75 0.95 l
0.75 0.95 l
0.76 0.98 l
0.75 0.98 l
0.75 1.01 l
0.75 1.03 l
0.75 1.03 l
0.75 1.06 l
0.75 1.06 l
0.76 1.10 l
149.55 139.22 lineto
0.75 1.12 l
0.75 1.14 l
0.75 1.15 l
0.75 1.18 l
0.75 1.18 l
0.76 1.21 l
0.75 1.22 l
0.75 1.24 l
0.75 1.26 l
0.75 1.26 l
0.75 1.30 l
0.75 1.29 l
0.76 1.34 l
0.75 1.33 l
0.75 1.36 l
0.75 1.37 l
0.75 1.39 l
0.75 1.41 l
0.75 1.41 l
0.76 1.45 l
0.75 1.45 l
0.75 1.48 l
0.75 1.48 l
0.75 1.50 l
0.75 1.53 l
0.75 1.52 l
0.76 1.56 l
0.75 1.56 l
0.75 1.59 l
0.75 1.59 l
0.75 1.61 l
0.75 1.63 l
0.76 1.63 l
0.75 1.67 l
0.75 1.66 l
0.75 1.69 l
0.75 1.69 l
0.75 1.71 l
0.75 1.73 l
0.76 1.72 l
0.75 1.76 l
0.75 1.76 l
0.75 1.77 l
0.75 1.78 l
0.75 1.80 l
0.75 1.81 l
0.76 1.81 l
0.75 1.83 l
0.75 1.84 l
0.75 1.85 l
0.75 1.85 l
0.75 1.87 l
0.75 1.88 l
0.76 1.87 l
0.75 1.90 l
0.75 1.89 l
0.75 1.91 l
0.75 1.91 l
0.75 1.92 l
0.75 1.92 l
0.76 1.92 l
0.75 1.94 l
0.75 1.94 l
0.75 1.94 l
0.75 1.94 l
0.75 1.95 l
0.76 1.94 l
0.75 1.95 l
0.75 1.96 l
0.75 1.95 l
0.75 1.95 l
0.75 1.95 l
0.75 1.95 l
0.76 1.95 l
0.75 1.95 l
0.75 1.94 l
0.75 1.95 l
0.75 1.93 l
0.75 1.94 l
0.75 1.92 l
0.76 1.93 l
0.75 1.92 l
0.75 1.90 l
0.75 1.91 l
0.75 1.89 l
0.75 1.89 l
0.75 1.88 l
0.76 1.86 l
0.75 1.87 l
0.75 1.83 l
0.75 1.84 l
0.75 1.82 l
0.75 1.81 l
0.75 1.80 l
0.76 1.78 l
0.75 1.78 l
0.75 1.74 l
0.75 1.74 l
0.75 1.72 l
224.69 309.24 lineto
0.76 1.68 l
0.75 1.67 l
0.75 1.66 l
0.75 1.62 l
0.75 1.61 l
0.75 1.59 l
0.75 1.56 l
0.76 1.56 l
0.75 1.51 l
0.75 1.52 l
0.75 1.46 l
0.75 1.46 l
0.75 1.43 l
0.75 1.40 l
0.76 1.39 l
0.75 1.34 l
0.75 1.34 l
0.75 1.28 l
0.75 1.28 l
0.75 1.24 l
0.75 1.22 l
0.76 1.19 l
0.75 1.14 l
0.75 1.15 l
0.75 1.07 l
0.75 1.08 l
0.75 1.03 l
0.75 1.00 l
0.76 0.97 l
0.75 0.93 l
0.75 0.93 l
0.75 0.84 l
0.75 0.85 l
0.75 0.80 l
0.75 0.77 l
0.76 0.74 l
0.75 0.69 l
0.75 0.69 l
0.75 0.60 l
0.75 0.61 l
0.75 0.55 l
0.76 0.52 l
0.75 0.49 l
0.75 0.44 l
0.75 0.43 l
0.75 0.35 l
0.75 0.35 l
0.75 0.30 l
0.76 0.26 l
0.75 0.23 l
0.75 0.18 l
0.75 0.18 l
0.75 0.08 l
0.75 0.09 l
0.75 0.03 l
0.76 0 l
0.75 -0.03 l
0.75 -0.09 l
0.75 -0.08 l
0.75 -0.18 l
0.75 -0.18 l
0.75 -0.23 l
0.76 -0.26 l
0.75 -0.30 l
0.75 -0.35 l
0.75 -0.35 l
0.75 -0.43 l
0.75 -0.44 l
0.75 -0.49 l
0.76 -0.52 l
0.75 -0.55 l
0.75 -0.61 l
0.75 -0.60 l
0.75 -0.69 l
0.75 -0.69 l
0.76 -0.74 l
0.75 -0.77 l
0.75 -0.80 l
0.75 -0.85 l
0.75 -0.84 l
0.75 -0.93 l
0.75 -0.93 l
0.76 -0.97 l
0.75 -1.00 l
0.75 -1.03 l
0.75 -1.08 l
0.75 -1.07 l
0.75 -1.15 l
0.75 -1.14 l
0.76 -1.19 l
0.75 -1.22 l
0.75 -1.24 l
0.75 -1.28 l
0.75 -1.28 l
0.75 -1.34 l
0.75 -1.34 l
0.76 -1.39 l
0.75 -1.40 l
0.75 -1.43 l
299.84 326.68 lineto
0.75 -1.46 l
0.75 -1.52 l
0.75 -1.51 l
0.76 -1.56 l
0.75 -1.56 l
0.75 -1.59 l
0.75 -1.61 l
0.75 -1.62 l
0.75 -1.66 l
0.75 -1.67 l
0.76 -1.68 l
0.75 -1.71 l
0.75 -1.72 l
0.75 -1.74 l
0.75 -1.74 l
0.75 -1.78 l
0.76 -1.78 l
0.75 -1.80 l
0.75 -1.81 l
0.75 -1.82 l
0.75 -1.84 l
0.75 -1.83 l
0.75 -1.87 l
0.76 -1.86 l
0.75 -1.88 l
0.75 -1.89 l
0.75 -1.89 l
0.75 -1.91 l
0.75 -1.90 l
0.75 -1.92 l
0.76 -1.93 l
0.75 -1.92 l
0.75 -1.94 l
0.75 -1.93 l
0.75 -1.95 l
0.75 -1.94 l
0.75 -1.95 l
0.76 -1.95 l
0.75 -1.95 l
0.75 -1.95 l
0.75 -1.95 l
0.75 -1.95 l
0.75 -1.96 l
0.75 -1.95 l
0.76 -1.94 l
0.75 -1.95 l
0.75 -1.94 l
0.75 -1.94 l
0.75 -1.94 l
0.75 -1.94 l
0.76 -1.92 l
0.75 -1.92 l
0.75 -1.92 l
0.75 -1.91 l
0.75 -1.91 l
0.75 -1.89 l
0.75 -1.90 l
0.76 -1.87 l
0.75 -1.88 l
0.75 -1.87 l
0.75 -1.85 l
0.75 -1.85 l
0.75 -1.84 l
0.75 -1.83 l
0.76 -1.81 l
0.75 -1.81 l
0.75 -1.80 l
0.75 -1.78 l
0.75 -1.77 l
0.75 -1.76 l
0.75 -1.76 l
0.76 -1.72 l
0.75 -1.73 l
0.75 -1.71 l
0.75 -1.69 l
0.75 -1.69 l
0.75 -1.66 l
0.75 -1.67 l
0.76 -1.63 l
0.75 -1.63 l
0.75 -1.61 l
0.75 -1.59 l
0.75 -1.59 l
0.75 -1.56 l
0.76 -1.56 l
0.75 -1.52 l
0.75 -1.53 l
0.75 -1.50 l
0.75 -1.48 l
0.75 -1.48 l
0.75 -1.45 l
0.76 -1.45 l
0.75 -1.41 l
0.75 -1.41 l
0.75 -1.39 l
0.75 -1.37 l
0.75 -1.36 l
0.75 -1.33 l
0.76 -1.34 l
374.99 152.48 lineto
0.75 -1.30 l
0.75 -1.26 l
0.75 -1.26 l
0.75 -1.24 l
0.75 -1.22 l
0.76 -1.21 l
0.75 -1.18 l
0.75 -1.18 l
0.75 -1.15 l
0.75 -1.14 l
0.75 -1.12 l
0.75 -1.10 l
0.76 -1.10 l
0.75 -1.06 l
0.75 -1.06 l
0.75 -1.03 l
0.75 -1.03 l
0.75 -1.01 l
0.75 -0.98 l
0.76 -0.98 l
0.75 -0.95 l
0.75 -0.95 l
0.75 -0.92 l
0.75 -0.91 l
0.75 -0.90 l
0.76 -0.87 l
0.75 -0.88 l
0.75 -0.84 l
0.75 -0.83 l
0.75 -0.82 l
0.75 -0.80 l
0.75 -0.80 l
0.76 -0.77 l
0.75 -0.77 l
0.75 -0.73 l
0.75 -0.74 l
0.75 -0.71 l
0.75 -0.71 l
0.75 -0.69 l
0.76 -0.67 l
0.75 -0.68 l
0.75 -0.64 l
0.75 -0.64 l
0.75 -0.62 l
0.75 -0.61 l
0.75 -0.60 l
0.76 -0.59 l
0.75 -0.58 l
0.75 -0.55 l
0.75 -0.56 l
0.75 -0.53 l
0.75 -0.53 l
0.75 -0.52 l
0.76 -0.50 l
0.75 -0.50 l
0.75 -0.47 l
0.75 -0.48 l
0.75 -0.46 l
0.75 -0.45 l
0.76 -0.44 l
0.75 -0.43 l
0.75 -0.42 l
0.75 -0.41 l
0.75 -0.40 l
0.75 -0.39 l
0.75 -0.38 l
0.76 -0.38 l
0.75 -0.36 l
0.75 -0.36 l
0.75 -0.34 l
0.75 -0.34 l
0.75 -0.33 l
0.75 -0.32 l
0.76 -0.31 l
0.75 -0.30 l
0.75 -0.31 l
0.75 -0.28 l
0.75 -0.29 l
0.75 -0.27 l
0.75 -0.27 l
0.76 -0.26 l
0.75 -0.25 l
0.75 -0.26 l
0.75 -0.23 l
0.75 -0.24 l
0.75 -0.23 l
0.75 -0.22 l
0.76 -0.22 l
0.75 -0.20 l
0.75 -0.21 l
0.75 -0.20 l
0.75 -0.19 l
0.75 -0.19 l
0.76 -0.18 l
0.75 -0.18 l
0.75 -0.17 l
0.75 -0.17 l
0.75 -0.16 l
0.75 -0.16 l
450.13 91.70 lineto
0.76 -0.15 l
0.75 -0.15 l
0.75 -0.14 l
0.75 -0.14 l
0.75 -0.13 l
0.75 -0.13 l
0.75 -0.12 l
0.76 -0.12 l
0.75 -0.12 l
0.75 -0.11 l
0.75 -0.11 l
o
0.00 0.00 504.00 504.00 cl
0 0 0 srgb
0.75 setlinewidth
[] 0 setdash
1 setlinecap
1 setlinejoin
10.00 setmiterlimit
np
74.40 73.44 m
384.00 0 l
o
np
74.40 73.44 m
0 -7.20 l
o
np
138.40 73.44 m
0 -7.20 l
o
np
202.40 73.44 m
0 -7.20 l
o
np
266.40 73.44 m
0 -7.20 l
o
np
330.40 73.44 m
0 -7.20 l
o
np
394.40 73.44 m
0 -7.20 l
o
np
458.40 73.44 m
0 -7.20 l
o
/Font1 findfont 12 s
74.40 47.52 (-3) .5 0 t
138.40 47.52 (-2) .5 0 t
202.40 47.52 (-1) .5 0 t
266.40 47.52 (0) .5 0 t
330.40 47.52 (1) .5 0 t
394.40 47.52 (2) .5 0 t
458.40 47.52 (3) .5 0 t
np
59.04 87.20 m
0 344.00 l
o
np
59.04 87.20 m
-7.20 0 l
o
np
59.04 156.00 m
-7.20 0 l
o
np
59.04 224.80 m
-7.20 0 l
o
np
59.04 293.60 m
-7.20 0 l
o
np
59.04 362.40 m
-7.20 0 l
o
np
59.04 431.20 m
-7.20 0 l
o
41.76 87.20 (0.0) .5 90 t
41.76 156.00 (0.1) .5 90 t
41.76 224.80 (0.2) .5 90 t
41.76 293.60 (0.3) .5 90 t
41.76 362.40 (0.4) .5 90 t
41.76 431.20 (0.5) .5 90 t
np
59.04 73.44 m
414.72 0 l
0 371.52 l
-414.72 0 l
0 -371.52 l
o
0.00 0.00 504.00 504.00 cl
/Font2 findfont 14 s
0 0 0 srgb
123.03 469.45 (Jadra v R pr) 0 ta
-0.280 (o sirku vyhlazo) tb
-0.280 (v) tb
-0.280 (aciho okna = 1) tb gr
/Font1 findfont 12 s
12.96 259.20 (Density) .5 90 t
59.04 73.44 473.76 444.96 cl
0.7451 0.7451 0.7451 srgb
0.08 setlinewidth
[] 0 setdash
1 setlinecap
1 setlinejoin
10.00 setmiterlimit
np
59.04 87.20 m
414.72 0 l
o
1 0 0 srgb
0.75 setlinewidth
[] 0 setdash
np
74.40 87.20 m
0.75 0 l
0.75 0 l
0.75 0 l
0.76 0 l
0.75 0 l
0.75 0 l
0.75 0 l
0.75 0 l
0.75 0 l
0.75 0 l
0.76 0 l
0.75 0 l
0.75 0 l
0.75 0 l
0.75 0 l
0.75 0 l
0.75 0 l
0.76 0 l
0.75 0 l
0.75 0 l
0.75 0 l
0.75 0 l
0.75 0 l
0.76 0 l
0.75 0 l
0.75 0 l
0.75 0 l
0.75 0 l
0.75 0 l
0.75 0 l
0.76 0 l
0.75 0 l
0.75 0 l
0.75 0 l
0.75 0 l
0.75 0 l
0.75 0 l
0.76 0 l
0.75 0 l
0.75 0 l
0.75 0 l
0.75 0 l
0.75 0 l
0.75 0 l
0.76 0 l
0.75 0 l
0.75 0 l
0.75 0 l
0.75 0 l
0.75 0 l
0.75 0 l
0.76 0 l
0.75 0 l
0.75 0 l
0.75 0 l
0.75 0 l
0.75 0 l
0.76 0 l
0.75 0 l
0.75 0 l
0.75 0 l
0.75 0 l
0.75 0 l
0.75 0.84 l
0.76 0.84 l
0.75 1.63 l
0.75 2.04 l
0.75 2.14 l
0.75 2.37 l
0.75 2.37 l
0.75 2.34 l
0.76 2.34 l
0.75 2.33 l
0.75 2.31 l
0.75 2.30 l
0.75 2.28 l
0.75 2.28 l
0.75 2.26 l
0.76 2.25 l
0.75 2.23 l
0.75 2.22 l
0.75 2.22 l
0.75 2.19 l
0.75 2.19 l
0.75 2.17 l
0.76 2.16 l
0.75 2.14 l
0.75 2.14 l
0.75 2.12 l
0.75 2.10 l
0.75 2.11 l
0.76 2.07 l
0.75 2.08 l
0.75 2.05 l
0.75 2.05 l
0.75 2.03 l
0.75 2.02 l
0.75 2.01 l
0.76 1.99 l
149.55 164.39 lineto
0.75 1.97 l
0.75 1.96 l
0.75 1.94 l
0.75 1.93 l
0.75 1.92 l
0.76 1.90 l
0.75 1.90 l
0.75 1.87 l
0.75 1.87 l
0.75 1.86 l
0.75 1.84 l
0.75 1.83 l
0.76 1.81 l
0.75 1.81 l
0.75 1.79 l
0.75 1.77 l
0.75 1.77 l
0.75 1.75 l
0.75 1.75 l
0.76 1.72 l
0.75 1.72 l
0.75 1.70 l
0.75 1.69 l
0.75 1.68 l
0.75 1.65 l
0.75 1.66 l
0.76 1.63 l
0.75 1.63 l
0.75 1.61 l
0.75 1.61 l
0.75 1.59 l
0.75 1.57 l
0.76 1.57 l
0.75 1.54 l
0.75 1.54 l
0.75 1.52 l
0.75 1.51 l
0.75 1.50 l
0.75 1.48 l
0.76 1.49 l
0.75 1.45 l
0.75 1.45 l
0.75 1.43 l
0.75 1.43 l
0.75 1.41 l
0.75 1.39 l
0.76 1.39 l
0.75 1.37 l
0.75 1.36 l
0.75 1.34 l
0.75 1.34 l
0.75 1.32 l
0.75 1.31 l
0.76 1.30 l
0.75 1.27 l
0.75 1.28 l
0.75 1.25 l
0.75 1.25 l
0.75 1.23 l
0.75 1.22 l
0.76 1.21 l
0.75 1.19 l
0.75 1.18 l
0.75 1.17 l
0.75 1.15 l
0.75 1.15 l
0.76 1.13 l
0.75 1.12 l
0.75 1.10 l
0.75 1.10 l
0.75 1.07 l
0.75 1.07 l
0.75 1.06 l
0.76 1.03 l
0.75 1.04 l
0.75 1.01 l
0.75 1.01 l
0.75 0.98 l
0.75 0.98 l
0.75 0.97 l
0.76 0.95 l
0.75 0.95 l
0.75 0.92 l
0.75 0.91 l
0.75 0.90 l
0.75 0.89 l
0.75 0.88 l
0.76 0.86 l
0.75 0.86 l
0.75 0.83 l
0.75 0.83 l
0.75 0.81 l
0.75 0.80 l
0.75 0.79 l
0.76 0.77 l
0.75 0.77 l
0.75 0.74 l
0.75 0.74 l
0.75 0.72 l
224.69 298.39 lineto
0.76 0.70 l
0.75 0.68 l
0.75 0.68 l
0.75 0.65 l
0.75 0.65 l
0.75 0.64 l
0.75 0.62 l
0.76 0.61 l
0.75 0.59 l
0.75 0.60 l
0.75 0.56 l
0.75 0.56 l
0.75 0.55 l
0.75 0.53 l
0.76 0.52 l
0.75 0.51 l
0.75 0.50 l
0.75 0.47 l
0.75 0.48 l
0.75 0.45 l
0.75 0.45 l
0.76 0.43 l
0.75 0.42 l
0.75 0.41 l
0.75 0.39 l
0.75 0.38 l
0.75 0.37 l
0.75 0.35 l
0.76 0.35 l
0.75 0.33 l
0.75 0.32 l
0.75 0.30 l
0.75 0.29 l
0.75 0.28 l
0.75 0.27 l
0.76 0.25 l
0.75 0.24 l
0.75 0.24 l
0.75 0.21 l
0.75 0.20 l
0.75 0.19 l
0.76 0.18 l
0.75 0.17 l
0.75 0.15 l
0.75 0.14 l
0.75 0.12 l
0.75 0.12 l
0.75 0.10 l
0.76 0.09 l
0.75 0.08 l
0.75 0.06 l
0.75 0.06 l
0.75 0.03 l
0.75 0.03 l
0.75 0 l
0.76 0 l
0.75 0 l
0.75 -0.03 l
0.75 -0.03 l
0.75 -0.06 l
0.75 -0.06 l
0.75 -0.08 l
0.76 -0.09 l
0.75 -0.10 l
0.75 -0.12 l
0.75 -0.12 l
0.75 -0.14 l
0.75 -0.15 l
0.75 -0.17 l
0.76 -0.18 l
0.75 -0.19 l
0.75 -0.20 l
0.75 -0.21 l
0.75 -0.24 l
0.75 -0.24 l
0.76 -0.25 l
0.75 -0.27 l
0.75 -0.28 l
0.75 -0.29 l
0.75 -0.30 l
0.75 -0.32 l
0.75 -0.33 l
0.76 -0.35 l
0.75 -0.35 l
0.75 -0.37 l
0.75 -0.38 l
0.75 -0.39 l
0.75 -0.41 l
0.75 -0.42 l
0.76 -0.43 l
0.75 -0.45 l
0.75 -0.45 l
0.75 -0.48 l
0.75 -0.47 l
0.75 -0.50 l
0.75 -0.51 l
0.76 -0.52 l
0.75 -0.53 l
0.75 -0.55 l
299.84 305.37 lineto
0.75 -0.56 l
0.75 -0.60 l
0.75 -0.59 l
0.76 -0.61 l
0.75 -0.62 l
0.75 -0.64 l
0.75 -0.65 l
0.75 -0.65 l
0.75 -0.68 l
0.75 -0.68 l
0.76 -0.70 l
0.75 -0.72 l
0.75 -0.72 l
0.75 -0.74 l
0.75 -0.74 l
0.75 -0.77 l
0.76 -0.77 l
0.75 -0.79 l
0.75 -0.80 l
0.75 -0.81 l
0.75 -0.83 l
0.75 -0.83 l
0.75 -0.86 l
0.76 -0.86 l
0.75 -0.88 l
0.75 -0.89 l
0.75 -0.90 l
0.75 -0.91 l
0.75 -0.92 l
0.75 -0.95 l
0.76 -0.95 l
0.75 -0.97 l
0.75 -0.98 l
0.75 -0.98 l
0.75 -1.01 l
0.75 -1.01 l
0.75 -1.04 l
0.76 -1.03 l
0.75 -1.06 l
0.75 -1.07 l
0.75 -1.07 l
0.75 -1.10 l
0.75 -1.10 l
0.75 -1.12 l
0.76 -1.13 l
0.75 -1.15 l
0.75 -1.15 l
0.75 -1.17 l
0.75 -1.18 l
0.75 -1.19 l
0.76 -1.21 l
0.75 -1.22 l
0.75 -1.23 l
0.75 -1.25 l
0.75 -1.25 l
0.75 -1.28 l
0.75 -1.27 l
0.76 -1.30 l
0.75 -1.31 l
0.75 -1.32 l
0.75 -1.34 l
0.75 -1.34 l
0.75 -1.36 l
0.75 -1.37 l
0.76 -1.39 l
0.75 -1.39 l
0.75 -1.41 l
0.75 -1.43 l
0.75 -1.43 l
0.75 -1.45 l
0.75 -1.45 l
0.76 -1.49 l
0.75 -1.48 l
0.75 -1.50 l
0.75 -1.51 l
0.75 -1.52 l
0.75 -1.54 l
0.75 -1.54 l
0.76 -1.57 l
0.75 -1.57 l
0.75 -1.59 l
0.75 -1.61 l
0.75 -1.61 l
0.75 -1.63 l
0.76 -1.63 l
0.75 -1.66 l
0.75 -1.65 l
0.75 -1.68 l
0.75 -1.69 l
0.75 -1.70 l
0.75 -1.72 l
0.76 -1.72 l
0.75 -1.75 l
0.75 -1.75 l
0.75 -1.77 l
0.75 -1.77 l
0.75 -1.79 l
0.75 -1.81 l
0.76 -1.81 l
374.99 185.35 lineto
0.75 -1.84 l
0.75 -1.86 l
0.75 -1.87 l
0.75 -1.87 l
0.75 -1.90 l
0.76 -1.90 l
0.75 -1.92 l
0.75 -1.93 l
0.75 -1.94 l
0.75 -1.96 l
0.75 -1.97 l
0.75 -1.98 l
0.76 -1.99 l
0.75 -2.01 l
0.75 -2.02 l
0.75 -2.03 l
0.75 -2.05 l
0.75 -2.05 l
0.75 -2.08 l
0.76 -2.07 l
0.75 -2.11 l
0.75 -2.10 l
0.75 -2.12 l
0.75 -2.14 l
0.75 -2.14 l
0.76 -2.16 l
0.75 -2.17 l
0.75 -2.19 l
0.75 -2.19 l
0.75 -2.22 l
0.75 -2.22 l
0.75 -2.23 l
0.76 -2.25 l
0.75 -2.26 l
0.75 -2.28 l
0.75 -2.28 l
0.75 -2.30 l
0.75 -2.31 l
0.75 -2.33 l
0.76 -2.34 l
0.75 -2.34 l
0.75 -2.37 l
0.75 -2.37 l
0.75 -2.14 l
0.75 -2.04 l
0.75 -1.63 l
0.76 -0.84 l
0.75 -0.84 l
0.75 0 l
0.75 0 l
0.75 0 l
0.75 0 l
0.75 0 l
0.76 0 l
0.75 0 l
0.75 0 l
0.75 0 l
0.75 0 l
0.75 0 l
0.76 0 l
0.75 0 l
0.75 0 l
0.75 0 l
0.75 0 l
0.75 0 l
0.75 0 l
0.76 0 l
0.75 0 l
0.75 0 l
0.75 0 l
0.75 0 l
0.75 0 l
0.75 0 l
0.76 0 l
0.75 0 l
0.75 0 l
0.75 0 l
0.75 0 l
0.75 0 l
0.75 0 l
0.76 0 l
0.75 0 l
0.75 0 l
0.75 0 l
0.75 0 l
0.75 0 l
0.75 0 l
0.76 0 l
0.75 0 l
0.75 0 l
0.75 0 l
0.75 0 l
0.75 0 l
0.76 0 l
0.75 0 l
0.75 0 l
0.75 0 l
0.75 0 l
0.75 0 l
450.13 87.20 lineto
0.76 0 l
0.75 0 l
0.75 0 l
0.75 0 l
0.75 0 l
0.75 0 l
0.75 0 l
0.76 0 l
0.75 0 l
0.75 0 l
0.75 0 l
o
0 0.8039 0 srgb
np
74.40 87.20 m
0.75 0 l
0.75 0 l
0.75 0 l
0.76 0 l
0.75 0 l
0.75 0 l
0.75 0 l
0.75 0 l
0.75 0 l
0.75 0 l
0.76 0 l
0.75 0 l
0.75 0 l
0.75 0 l
0.75 0 l
0.75 0 l
0.75 0 l
0.76 0 l
0.75 0 l
0.75 0 l
0.75 0 l
0.75 0 l
0.75 0 l
0.76 0 l
0.75 0 l
0.75 0 l
0.75 0 l
0.75 0 l
0.75 0 l
0.75 0 l
0.76 0 l
0.75 0 l
0.75 0 l
0.75 0 l
0.75 0 l
0.75 0 l
0.75 0 l
0.76 0 l
0.75 0 l
0.75 0 l
0.75 0 l
0.75 0 l
0.75 0 l
0.75 0 l
0.76 0 l
0.75 0 l
0.75 0 l
0.75 0 l
0.75 0 l
0.75 0 l
0.75 0 l
0.76 0 l
0.75 0 l
0.75 0 l
0.75 0 l
0.75 0 l
0.75 0 l
0.76 0 l
0.75 0 l
0.75 0 l
0.75 0 l
0.75 0 l
0.75 0 l
0.75 0 l
0.76 0 l
0.75 0 l
0.75 0 l
0.75 0 l
0.75 0 l
0.75 0 l
0.75 0 l
0.76 0 l
0.75 0 l
0.75 0 l
0.75 0 l
0.75 0 l
0.75 0 l
0.75 0 l
0.76 0 l
0.75 0 l
0.75 0 l
0.75 0 l
0.75 0 l
0.75 0 l
0.75 0 l
0.76 0 l
0.75 0 l
0.75 0 l
0.75 0 l
0.75 0 l
0.75 0 l
0.76 0 l
0.75 0 l
0.75 0 l
0.75 0 l
0.75 0 l
0.75 0 l
0.75 0 l
0.76 0 l
149.55 87.20 lineto
0.75 0 l
0.75 0 l
0.75 0 l
0.75 0 l
0.75 0 l
0.76 42.56 l
0.75 42.56 l
0.75 42.56 l
0.75 42.56 l
0.75 28.37 l
0.75 0 l
0.75 0 l
0.76 0 l
0.75 0 l
0.75 0 l
0.75 0 l
0.75 0 l
0.75 0 l
0.75 0 l
0.76 0 l
0.75 0 l
0.75 0 l
0.75 0 l
0.75 0 l
0.75 0 l
0.75 0 l
0.76 0 l
0.75 0 l
0.75 0 l
0.75 0 l
0.75 0 l
0.75 0 l
0.76 0 l
0.75 0 l
0.75 0 l
0.75 0 l
0.75 0 l
0.75 0 l
0.75 0 l
0.76 0 l
0.75 0 l
0.75 0 l
0.75 0 l
0.75 0 l
0.75 0 l
0.75 0 l
0.76 0 l
0.75 0 l
0.75 0 l
0.75 0 l
0.75 0 l
0.75 0 l
0.75 0 l
0.76 0 l
0.75 0 l
0.75 0 l
0.75 0 l
0.75 0 l
0.75 0 l
0.75 0 l
0.76 0 l
0.75 0 l
0.75 0 l
0.75 0 l
0.75 0 l
0.75 0 l
0.76 0 l
0.75 0 l
0.75 0 l
0.75 0 l
0.75 0 l
0.75 0 l
0.75 0 l
0.76 0 l
0.75 0 l
0.75 0 l
0.75 0 l
0.75 0 l
0.75 0 l
0.75 0 l
0.76 0 l
0.75 0 l
0.75 0 l
0.75 0 l
0.75 0 l
0.75 0 l
0.75 0 l
0.76 0 l
0.75 0 l
0.75 0 l
0.75 0 l
0.75 0 l
0.75 0 l
0.75 0 l
0.76 0 l
0.75 0 l
0.75 0 l
0.75 0 l
0.75 0 l
224.69 285.81 lineto
0.76 0 l
0.75 0 l
0.75 0 l
0.75 0 l
0.75 0 l
0.75 0 l
0.75 0 l
0.76 0 l
0.75 0 l
0.75 0 l
0.75 0 l
0.75 0 l
0.75 0 l
0.75 0 l
0.76 0 l
0.75 0 l
0.75 0 l
0.75 0 l
0.75 0 l
0.75 0 l
0.75 0 l
0.76 0 l
0.75 0 l
0.75 0 l
0.75 0 l
0.75 0 l
0.75 0 l
0.75 0 l
0.76 0 l
0.75 0 l
0.75 0 l
0.75 0 l
0.75 0 l
0.75 0 l
0.75 0 l
0.76 0 l
0.75 0 l
0.75 0 l
0.75 0 l
0.75 0 l
0.75 0 l
0.76 0 l
0.75 0 l
0.75 0 l
0.75 0 l
0.75 0 l
0.75 0 l
0.75 0 l
0.76 0 l
0.75 0 l
0.75 0 l
0.75 0 l
0.75 0 l
0.75 0 l
0.75 0 l
0.76 0 l
0.75 0 l
0.75 0 l
0.75 0 l
0.75 0 l
0.75 0 l
0.75 0 l
0.76 0 l
0.75 0 l
0.75 0 l
0.75 0 l
0.75 0 l
0.75 0 l
0.75 0 l
0.76 0 l
0.75 0 l
0.75 0 l
0.75 0 l
0.75 0 l
0.75 0 l
0.76 0 l
0.75 0 l
0.75 0 l
0.75 0 l
0.75 0 l
0.75 0 l
0.75 0 l
0.76 0 l
0.75 0 l
0.75 0 l
0.75 0 l
0.75 0 l
0.75 0 l
0.75 0 l
0.76 0 l
0.75 0 l
0.75 0 l
0.75 0 l
0.75 0 l
0.75 0 l
0.75 0 l
0.76 0 l
0.75 0 l
0.75 0 l
299.84 285.81 lineto
0.75 0 l
0.75 0 l
0.75 0 l
0.76 0 l
0.75 0 l
0.75 0 l
0.75 0 l
0.75 0 l
0.75 0 l
0.75 0 l
0.76 0 l
0.75 0 l
0.75 0 l
0.75 0 l
0.75 0 l
0.75 0 l
0.76 0 l
0.75 0 l
0.75 0 l
0.75 0 l
0.75 0 l
0.75 0 l
0.75 0 l
0.76 0 l
0.75 0 l
0.75 0 l
0.75 0 l
0.75 0 l
0.75 0 l
0.75 0 l
0.76 0 l
0.75 0 l
0.75 0 l
0.75 0 l
0.75 0 l
0.75 0 l
0.75 0 l
0.76 0 l
0.75 0 l
0.75 0 l
0.75 0 l
0.75 0 l
0.75 0 l
0.75 0 l
0.76 0 l
0.75 0 l
0.75 0 l
0.75 0 l
0.75 0 l
0.75 0 l
0.76 0 l
0.75 0 l
0.75 0 l
0.75 0 l
0.75 0 l
0.75 0 l
0.75 0 l
0.76 0 l
0.75 0 l
0.75 0 l
0.75 0 l
0.75 0 l
0.75 0 l
0.75 0 l
0.76 0 l
0.75 0 l
0.75 0 l
0.75 0 l
0.75 0 l
0.75 0 l
0.75 0 l
0.76 0 l
0.75 0 l
0.75 0 l
0.75 0 l
0.75 0 l
0.75 0 l
0.75 0 l
0.76 0 l
0.75 0 l
0.75 0 l
0.75 0 l
0.75 0 l
0.75 0 l
0.76 0 l
0.75 0 l
0.75 0 l
0.75 0 l
0.75 0 l
0.75 0 l
0.75 0 l
0.76 0 l
0.75 0 l
0.75 0 l
0.75 0 l
0.75 0 l
0.75 0 l
0.75 0 l
0.76 0 l
374.99 285.81 lineto
0.75 0 l
0.75 -28.37 l
0.75 -42.56 l
0.75 -42.56 l
0.75 -42.56 l
0.76 -42.56 l
0.75 0 l
0.75 0 l
0.75 0 l
0.75 0 l
0.75 0 l
0.75 0 l
0.76 0 l
0.75 0 l
0.75 0 l
0.75 0 l
0.75 0 l
0.75 0 l
0.75 0 l
0.76 0 l
0.75 0 l
0.75 0 l
0.75 0 l
0.75 0 l
0.75 0 l
0.76 0 l
0.75 0 l
0.75 0 l
0.75 0 l
0.75 0 l
0.75 0 l
0.75 0 l
0.76 0 l
0.75 0 l
0.75 0 l
0.75 0 l
0.75 0 l
0.75 0 l
0.75 0 l
0.76 0 l
0.75 0 l
0.75 0 l
0.75 0 l
0.75 0 l
0.75 0 l
0.75 0 l
0.76 0 l
0.75 0 l
0.75 0 l
0.75 0 l
0.75 0 l
0.75 0 l
0.75 0 l
0.76 0 l
0.75 0 l
0.75 0 l
0.75 0 l
0.75 0 l
0.75 0 l
0.76 0 l
0.75 0 l
0.75 0 l
0.75 0 l
0.75 0 l
0.75 0 l
0.75 0 l
0.76 0 l
0.75 0 l
0.75 0 l
0.75 0 l
0.75 0 l
0.75 0 l
0.75 0 l
0.76 0 l
0.75 0 l
0.75 0 l
0.75 0 l
0.75 0 l
0.75 0 l
0.75 0 l
0.76 0 l
0.75 0 l
0.75 0 l
0.75 0 l
0.75 0 l
0.75 0 l
0.75 0 l
0.76 0 l
0.75 0 l
0.75 0 l
0.75 0 l
0.75 0 l
0.75 0 l
0.76 0 l
0.75 0 l
0.75 0 l
0.75 0 l
0.75 0 l
0.75 0 l
450.13 87.20 lineto
0.76 0 l
0.75 0 l
0.75 0 l
0.75 0 l
0.75 0 l
0.75 0 l
0.75 0 l
0.76 0 l
0.75 0 l
0.75 0 l
0.75 0 l
o
0 0 1 srgb
np
74.40 87.20 m
0.75 0 l
0.75 0 l
0.75 0 l
0.76 0 l
0.75 0 l
0.75 0 l
0.75 0 l
0.75 0 l
0.75 0 l
0.75 0 l
0.76 0 l
0.75 0 l
0.75 0 l
0.75 0 l
0.75 0 l
0.75 0 l
0.75 0 l
0.76 0 l
0.75 0 l
0.75 0 l
0.75 0 l
0.75 0 l
0.75 0 l
0.76 0 l
0.75 0 l
0.75 0 l
0.75 0 l
0.75 0 l
0.75 0 l
0.75 0 l
0.76 0 l
0.75 0 l
0.75 0 l
0.75 0 l
0.75 0 l
0.75 0 l
0.75 0 l
0.76 0 l
0.75 0 l
0.75 0 l
0.75 0 l
0.75 0 l
0.75 0 l
0.75 0 l
0.76 0.22 l
0.75 0.33 l
0.75 0.56 l
0.75 1.00 l
0.75 1.01 l
0.75 1.34 l
0.75 1.35 l
0.76 1.34 l
0.75 1.35 l
0.75 1.34 l
0.75 1.35 l
0.75 1.34 l
0.75 1.35 l
0.76 1.34 l
0.75 1.35 l
0.75 1.34 l
0.75 1.35 l
0.75 1.35 l
0.75 1.34 l
0.75 1.35 l
0.76 1.34 l
0.75 1.35 l
0.75 1.34 l
0.75 1.35 l
0.75 1.34 l
0.75 1.35 l
0.75 1.34 l
0.76 1.35 l
0.75 1.34 l
0.75 1.35 l
0.75 1.34 l
0.75 1.35 l
0.75 1.34 l
0.75 1.35 l
0.76 1.34 l
0.75 1.35 l
0.75 1.34 l
0.75 1.35 l
0.75 1.34 l
0.75 1.35 l
0.75 1.34 l
0.76 1.35 l
0.75 1.34 l
0.75 1.35 l
0.75 1.34 l
0.75 1.35 l
0.75 1.34 l
0.76 1.35 l
0.75 1.34 l
0.75 1.35 l
0.75 1.34 l
0.75 1.35 l
0.75 1.34 l
0.75 1.35 l
0.76 1.34 l
149.55 158.92 lineto
0.75 1.34 l
0.75 1.35 l
0.75 1.34 l
0.75 1.35 l
0.75 1.34 l
0.76 1.35 l
0.75 1.34 l
0.75 1.35 l
0.75 1.34 l
0.75 1.35 l
0.75 1.34 l
0.75 1.35 l
0.76 1.34 l
0.75 1.35 l
0.75 1.34 l
0.75 1.35 l
0.75 1.34 l
0.75 1.35 l
0.75 1.34 l
0.76 1.35 l
0.75 1.34 l
0.75 1.35 l
0.75 1.34 l
0.75 1.35 l
0.75 1.34 l
0.75 1.35 l
0.76 1.34 l
0.75 1.35 l
0.75 1.34 l
0.75 1.35 l
0.75 1.34 l
0.75 1.35 l
0.76 1.34 l
0.75 1.35 l
0.75 1.34 l
0.75 1.35 l
0.75 1.34 l
0.75 1.35 l
0.75 1.34 l
0.76 1.35 l
0.75 1.35 l
0.75 1.34 l
0.75 1.35 l
0.75 1.34 l
0.75 1.35 l
0.75 1.34 l
0.76 1.35 l
0.75 1.34 l
0.75 1.35 l
0.75 1.34 l
0.75 1.35 l
0.75 1.34 l
0.75 1.35 l
0.76 1.34 l
0.75 1.35 l
0.75 1.34 l
0.75 1.35 l
0.75 1.34 l
0.75 1.35 l
0.75 1.34 l
0.76 1.35 l
0.75 1.34 l
0.75 1.35 l
0.75 1.34 l
0.75 1.35 l
0.75 1.34 l
0.76 1.35 l
0.75 1.34 l
0.75 1.35 l
0.75 1.34 l
0.75 1.35 l
0.75 1.34 l
0.75 1.35 l
0.76 1.34 l
0.75 1.35 l
0.75 1.34 l
0.75 1.35 l
0.75 1.34 l
0.75 1.35 l
0.75 1.34 l
0.76 1.35 l
0.75 1.34 l
0.75 1.35 l
0.75 1.34 l
0.75 1.35 l
0.75 1.34 l
0.75 1.35 l
0.76 1.34 l
0.75 1.35 l
0.75 1.34 l
0.75 1.35 l
0.75 1.34 l
0.75 1.35 l
0.75 1.34 l
0.76 1.35 l
0.75 1.34 l
0.75 1.35 l
0.75 1.34 l
0.75 1.35 l
224.69 293.42 lineto
0.76 1.35 l
0.75 1.34 l
0.75 1.35 l
0.75 1.34 l
0.75 1.35 l
0.75 1.34 l
0.75 1.35 l
0.76 1.34 l
0.75 1.35 l
0.75 1.34 l
0.75 1.35 l
0.75 1.34 l
0.75 1.35 l
0.75 1.34 l
0.76 1.35 l
0.75 1.34 l
0.75 1.35 l
0.75 1.34 l
0.75 1.35 l
0.75 1.35 l
0.75 1.34 l
0.76 1.35 l
0.75 1.34 l
0.75 1.35 l
0.75 1.34 l
0.75 1.35 l
0.75 1.34 l
0.75 1.35 l
0.76 1.34 l
0.75 1.35 l
0.75 1.34 l
0.75 1.35 l
0.75 1.34 l
0.75 1.35 l
0.75 1.34 l
0.76 1.35 l
0.75 1.34 l
0.75 1.35 l
0.75 1.34 l
0.75 1.35 l
0.75 1.34 l
0.76 1.35 l
0.75 1.34 l
0.75 1.35 l
0.75 1.34 l
0.75 1.35 l
0.75 1.34 l
0.75 1.35 l
0.76 1.34 l
0.75 1.35 l
0.75 1.34 l
0.75 1.35 l
0.75 1.34 l
0.75 1.35 l
0.75 0.45 l
0.76 0 l
0.75 -0.45 l
0.75 -1.35 l
0.75 -1.34 l
0.75 -1.35 l
0.75 -1.34 l
0.75 -1.35 l
0.76 -1.34 l
0.75 -1.35 l
0.75 -1.34 l
0.75 -1.35 l
0.75 -1.34 l
0.75 -1.35 l
0.75 -1.34 l
0.76 -1.35 l
0.75 -1.34 l
0.75 -1.35 l
0.75 -1.34 l
0.75 -1.35 l
0.75 -1.34 l
0.76 -1.35 l
0.75 -1.34 l
0.75 -1.35 l
0.75 -1.34 l
0.75 -1.35 l
0.75 -1.34 l
0.75 -1.35 l
0.76 -1.34 l
0.75 -1.35 l
0.75 -1.34 l
0.75 -1.35 l
0.75 -1.34 l
0.75 -1.35 l
0.75 -1.34 l
0.76 -1.35 l
0.75 -1.34 l
0.75 -1.35 l
0.75 -1.35 l
0.75 -1.34 l
0.75 -1.35 l
0.75 -1.34 l
0.76 -1.35 l
0.75 -1.34 l
0.75 -1.35 l
299.84 308.22 lineto
0.75 -1.35 l
0.75 -1.34 l
0.75 -1.35 l
0.76 -1.34 l
0.75 -1.35 l
0.75 -1.34 l
0.75 -1.35 l
0.75 -1.34 l
0.75 -1.35 l
0.75 -1.34 l
0.76 -1.35 l
0.75 -1.34 l
0.75 -1.35 l
0.75 -1.34 l
0.75 -1.35 l
0.75 -1.34 l
0.76 -1.35 l
0.75 -1.34 l
0.75 -1.35 l
0.75 -1.34 l
0.75 -1.35 l
0.75 -1.34 l
0.75 -1.35 l
0.76 -1.34 l
0.75 -1.35 l
0.75 -1.34 l
0.75 -1.35 l
0.75 -1.34 l
0.75 -1.35 l
0.75 -1.34 l
0.76 -1.35 l
0.75 -1.34 l
0.75 -1.35 l
0.75 -1.34 l
0.75 -1.35 l
0.75 -1.34 l
0.75 -1.35 l
0.76 -1.34 l
0.75 -1.35 l
0.75 -1.34 l
0.75 -1.35 l
0.75 -1.34 l
0.75 -1.35 l
0.75 -1.34 l
0.76 -1.35 l
0.75 -1.34 l
0.75 -1.35 l
0.75 -1.34 l
0.75 -1.35 l
0.75 -1.34 l
0.76 -1.35 l
0.75 -1.34 l
0.75 -1.35 l
0.75 -1.34 l
0.75 -1.35 l
0.75 -1.34 l
0.75 -1.35 l
0.76 -1.34 l
0.75 -1.35 l
0.75 -1.34 l
0.75 -1.35 l
0.75 -1.34 l
0.75 -1.35 l
0.75 -1.34 l
0.76 -1.35 l
0.75 -1.34 l
0.75 -1.35 l
0.75 -1.34 l
0.75 -1.35 l
0.75 -1.34 l
0.75 -1.35 l
0.76 -1.35 l
0.75 -1.34 l
0.75 -1.35 l
0.75 -1.34 l
0.75 -1.35 l
0.75 -1.34 l
0.75 -1.35 l
0.76 -1.34 l
0.75 -1.35 l
0.75 -1.34 l
0.75 -1.35 l
0.75 -1.34 l
0.75 -1.35 l
0.76 -1.34 l
0.75 -1.35 l
0.75 -1.34 l
0.75 -1.35 l
0.75 -1.34 l
0.75 -1.35 l
0.75 -1.34 l
0.76 -1.35 l
0.75 -1.34 l
0.75 -1.35 l
0.75 -1.34 l
0.75 -1.35 l
0.75 -1.34 l
0.75 -1.35 l
0.76 -1.34 l
374.99 173.71 lineto
0.75 -1.34 l
0.75 -1.35 l
0.75 -1.34 l
0.75 -1.35 l
0.75 -1.34 l
0.76 -1.35 l
0.75 -1.34 l
0.75 -1.35 l
0.75 -1.34 l
0.75 -1.35 l
0.75 -1.34 l
0.75 -1.35 l
0.76 -1.34 l
0.75 -1.35 l
0.75 -1.34 l
0.75 -1.35 l
0.75 -1.34 l
0.75 -1.35 l
0.75 -1.34 l
0.76 -1.35 l
0.75 -1.34 l
0.75 -1.35 l
0.75 -1.34 l
0.75 -1.35 l
0.75 -1.34 l
0.76 -1.35 l
0.75 -1.34 l
0.75 -1.35 l
0.75 -1.34 l
0.75 -1.35 l
0.75 -1.34 l
0.75 -1.35 l
0.76 -1.34 l
0.75 -1.35 l
0.75 -1.34 l
0.75 -1.35 l
0.75 -1.34 l
0.75 -1.35 l
0.75 -1.34 l
0.76 -1.35 l
0.75 -1.34 l
0.75 -1.35 l
0.75 -1.34 l
0.75 -1.35 l
0.75 -1.34 l
0.75 -1.35 l
0.76 -1.34 l
0.75 -1.35 l
0.75 -1.34 l
0.75 -1.35 l
0.75 -1.35 l
0.75 -1.34 l
0.75 -1.35 l
0.76 -1.34 l
0.75 -1.35 l
0.75 -1.34 l
0.75 -1.35 l
0.75 -1.34 l
0.75 -1.35 l
0.76 -1.34 l
0.75 -1.35 l
0.75 -1.34 l
0.75 -1.01 l
0.75 -1.00 l
0.75 -0.56 l
0.75 -0.33 l
0.76 -0.22 l
0.75 0 l
0.75 0 l
0.75 0 l
0.75 0 l
0.75 0 l
0.75 0 l
0.76 0 l
0.75 0 l
0.75 0 l
0.75 0 l
0.75 0 l
0.75 0 l
0.75 0 l
0.76 0 l
0.75 0 l
0.75 0 l
0.75 0 l
0.75 0 l
0.75 0 l
0.75 0 l
0.76 0 l
0.75 0 l
0.75 0 l
0.75 0 l
0.75 0 l
0.75 0 l
0.76 0 l
0.75 0 l
0.75 0 l
0.75 0 l
0.75 0 l
0.75 0 l
450.13 87.20 lineto
0.76 0 l
0.75 0 l
0.75 0 l
0.75 0 l
0.75 0 l
0.75 0 l
0.75 0 l
0.76 0 l
0.75 0 l
0.75 0 l
0.75 0 l
o
0 1 1 srgb
np
74.40 87.20 m
0.75 0 l
0.75 0 l
0.75 0 l
0.76 0 l
0.75 0 l
0.75 0 l
0.75 0 l
0.75 0 l
0.75 0 l
0.75 0 l
0.76 0 l
0.75 0 l
0.75 0 l
0.75 0 l
0.75 0 l
0.75 0 l
0.75 0 l
0.76 0 l
0.75 0 l
0.75 0 l
0.75 0 l
0.75 0 l
0.75 0 l
0.76 0 l
0.75 0 l
0.75 0 l
0.75 0 l
0.75 0 l
0.75 0.01 l
0.75 0.01 l
0.76 0.04 l
0.75 0.06 l
0.75 0.09 l
0.75 0.15 l
0.75 0.14 l
0.75 0.23 l
0.75 0.23 l
0.76 0.28 l
0.75 0.31 l
0.75 0.33 l
0.75 0.39 l
0.75 0.39 l
0.75 0.46 l
0.75 0.46 l
0.76 0.52 l
0.75 0.53 l
0.75 0.56 l
0.75 0.61 l
0.75 0.60 l
0.75 0.67 l
0.75 0.68 l
0.76 0.72 l
0.75 0.73 l
0.75 0.76 l
0.75 0.81 l
0.75 0.80 l
0.75 0.86 l
0.76 0.86 l
0.75 0.90 l
0.75 0.92 l
0.75 0.94 l
0.75 0.97 l
0.75 0.98 l
0.75 1.03 l
0.76 1.02 l
0.75 1.07 l
0.75 1.07 l
0.75 1.10 l
0.75 1.13 l
0.75 1.12 l
0.75 1.18 l
0.76 1.17 l
0.75 1.20 l
0.75 1.22 l
0.75 1.23 l
0.75 1.26 l
0.75 1.25 l
0.75 1.30 l
0.76 1.30 l
0.75 1.32 l
0.75 1.34 l
0.75 1.34 l
0.75 1.37 l
0.75 1.37 l
0.75 1.41 l
0.76 1.40 l
0.75 1.42 l
0.75 1.43 l
0.75 1.45 l
0.75 1.46 l
0.75 1.46 l
0.76 1.49 l
0.75 1.49 l
0.75 1.50 l
0.75 1.52 l
0.75 1.52 l
0.75 1.53 l
0.75 1.54 l
0.76 1.56 l
149.55 154.32 lineto
0.75 1.57 l
0.75 1.58 l
0.75 1.58 l
0.75 1.59 l
0.75 1.59 l
0.76 1.61 l
0.75 1.61 l
0.75 1.62 l
0.75 1.62 l
0.75 1.62 l
0.75 1.63 l
0.75 1.63 l
0.76 1.65 l
0.75 1.64 l
0.75 1.64 l
0.75 1.65 l
0.75 1.65 l
0.75 1.66 l
0.75 1.66 l
0.76 1.66 l
0.75 1.66 l
0.75 1.66 l
0.75 1.66 l
0.75 1.66 l
0.75 1.67 l
0.75 1.66 l
0.76 1.66 l
0.75 1.67 l
0.75 1.66 l
0.75 1.66 l
0.75 1.66 l
0.75 1.66 l
0.76 1.66 l
0.75 1.65 l
0.75 1.65 l
0.75 1.65 l
0.75 1.64 l
0.75 1.65 l
0.75 1.64 l
0.76 1.63 l
0.75 1.63 l
0.75 1.63 l
0.75 1.62 l
0.75 1.62 l
0.75 1.61 l
0.75 1.61 l
0.76 1.60 l
0.75 1.59 l
0.75 1.59 l
0.75 1.58 l
0.75 1.58 l
0.75 1.57 l
0.75 1.56 l
0.76 1.56 l
0.75 1.54 l
0.75 1.55 l
0.75 1.53 l
0.75 1.52 l
0.75 1.52 l
0.75 1.50 l
0.76 1.50 l
0.75 1.49 l
0.75 1.48 l
0.75 1.47 l
0.75 1.46 l
0.75 1.45 l
0.76 1.44 l
0.75 1.43 l
0.75 1.42 l
0.75 1.41 l
0.75 1.39 l
0.75 1.39 l
0.75 1.38 l
0.76 1.36 l
0.75 1.36 l
0.75 1.33 l
0.75 1.33 l
0.75 1.32 l
0.75 1.30 l
0.75 1.29 l
0.76 1.28 l
0.75 1.27 l
0.75 1.25 l
0.75 1.24 l
0.75 1.22 l
0.75 1.21 l
0.75 1.21 l
0.76 1.18 l
0.75 1.18 l
0.75 1.14 l
0.75 1.15 l
0.75 1.12 l
0.75 1.12 l
0.75 1.10 l
0.76 1.08 l
0.75 1.08 l
0.75 1.04 l
0.75 1.04 l
0.75 1.02 l
224.69 302.34 lineto
0.76 0.99 l
0.75 0.98 l
0.75 0.97 l
0.75 0.93 l
0.75 0.93 l
0.75 0.91 l
0.75 0.89 l
0.76 0.89 l
0.75 0.85 l
0.75 0.86 l
0.75 0.81 l
0.75 0.82 l
0.75 0.79 l
0.75 0.78 l
0.76 0.76 l
0.75 0.74 l
0.75 0.74 l
0.75 0.69 l
0.75 0.70 l
0.75 0.67 l
0.75 0.65 l
0.76 0.64 l
0.75 0.61 l
0.75 0.62 l
0.75 0.57 l
0.75 0.57 l
0.75 0.54 l
0.75 0.53 l
0.76 0.51 l
0.75 0.49 l
0.75 0.49 l
0.75 0.44 l
0.75 0.44 l
0.75 0.41 l
0.75 0.40 l
0.76 0.39 l
0.75 0.35 l
0.75 0.36 l
0.75 0.31 l
0.75 0.31 l
0.75 0.28 l
0.76 0.27 l
0.75 0.25 l
0.75 0.23 l
0.75 0.22 l
0.75 0.18 l
0.75 0.18 l
0.75 0.14 l
0.76 0.14 l
0.75 0.12 l
0.75 0.09 l
0.75 0.09 l
0.75 0.04 l
0.75 0.05 l
0.75 0.01 l
0.76 0 l
0.75 -0.01 l
0.75 -0.05 l
0.75 -0.04 l
0.75 -0.09 l
0.75 -0.09 l
0.75 -0.12 l
0.76 -0.14 l
0.75 -0.14 l
0.75 -0.18 l
0.75 -0.18 l
0.75 -0.22 l
0.75 -0.23 l
0.75 -0.25 l
0.76 -0.27 l
0.75 -0.28 l
0.75 -0.31 l
0.75 -0.31 l
0.75 -0.36 l
0.75 -0.35 l
0.76 -0.39 l
0.75 -0.40 l
0.75 -0.41 l
0.75 -0.44 l
0.75 -0.44 l
0.75 -0.49 l
0.75 -0.49 l
0.76 -0.51 l
0.75 -0.53 l
0.75 -0.54 l
0.75 -0.57 l
0.75 -0.57 l
0.75 -0.62 l
0.75 -0.61 l
0.76 -0.64 l
0.75 -0.65 l
0.75 -0.67 l
0.75 -0.70 l
0.75 -0.69 l
0.75 -0.74 l
0.75 -0.74 l
0.76 -0.76 l
0.75 -0.78 l
0.75 -0.79 l
299.84 312.35 lineto
0.75 -0.81 l
0.75 -0.86 l
0.75 -0.85 l
0.76 -0.89 l
0.75 -0.89 l
0.75 -0.91 l
0.75 -0.93 l
0.75 -0.93 l
0.75 -0.97 l
0.75 -0.98 l
0.76 -0.99 l
0.75 -1.01 l
0.75 -1.02 l
0.75 -1.04 l
0.75 -1.04 l
0.75 -1.08 l
0.76 -1.08 l
0.75 -1.10 l
0.75 -1.12 l
0.75 -1.12 l
0.75 -1.15 l
0.75 -1.14 l
0.75 -1.18 l
0.76 -1.18 l
0.75 -1.21 l
0.75 -1.21 l
0.75 -1.22 l
0.75 -1.24 l
0.75 -1.25 l
0.75 -1.27 l
0.76 -1.28 l
0.75 -1.29 l
0.75 -1.30 l
0.75 -1.32 l
0.75 -1.33 l
0.75 -1.33 l
0.75 -1.36 l
0.76 -1.36 l
0.75 -1.38 l
0.75 -1.39 l
0.75 -1.39 l
0.75 -1.41 l
0.75 -1.42 l
0.75 -1.43 l
0.76 -1.44 l
0.75 -1.45 l
0.75 -1.46 l
0.75 -1.47 l
0.75 -1.48 l
0.75 -1.49 l
0.76 -1.50 l
0.75 -1.50 l
0.75 -1.52 l
0.75 -1.52 l
0.75 -1.53 l
0.75 -1.55 l
0.75 -1.54 l
0.76 -1.56 l
0.75 -1.56 l
0.75 -1.57 l
0.75 -1.58 l
0.75 -1.58 l
0.75 -1.59 l
0.75 -1.59 l
0.76 -1.60 l
0.75 -1.61 l
0.75 -1.61 l
0.75 -1.62 l
0.75 -1.62 l
0.75 -1.63 l
0.75 -1.63 l
0.76 -1.63 l
0.75 -1.64 l
0.75 -1.65 l
0.75 -1.64 l
0.75 -1.65 l
0.75 -1.65 l
0.75 -1.65 l
0.76 -1.66 l
0.75 -1.66 l
0.75 -1.66 l
0.75 -1.66 l
0.75 -1.66 l
0.75 -1.67 l
0.76 -1.66 l
0.75 -1.66 l
0.75 -1.67 l
0.75 -1.66 l
0.75 -1.66 l
0.75 -1.66 l
0.75 -1.66 l
0.76 -1.66 l
0.75 -1.66 l
0.75 -1.66 l
0.75 -1.65 l
0.75 -1.65 l
0.75 -1.64 l
0.75 -1.64 l
0.76 -1.65 l
374.99 171.94 lineto
0.75 -1.63 l
0.75 -1.62 l
0.75 -1.62 l
0.75 -1.62 l
0.75 -1.61 l
0.76 -1.61 l
0.75 -1.59 l
0.75 -1.59 l
0.75 -1.58 l
0.75 -1.58 l
0.75 -1.57 l
0.75 -1.55 l
0.76 -1.56 l
0.75 -1.54 l
0.75 -1.53 l
0.75 -1.52 l
0.75 -1.52 l
0.75 -1.50 l
0.75 -1.49 l
0.76 -1.49 l
0.75 -1.46 l
0.75 -1.46 l
0.75 -1.45 l
0.75 -1.43 l
0.75 -1.42 l
0.76 -1.40 l
0.75 -1.41 l
0.75 -1.37 l
0.75 -1.37 l
0.75 -1.34 l
0.75 -1.34 l
0.75 -1.32 l
0.76 -1.30 l
0.75 -1.30 l
0.75 -1.25 l
0.75 -1.26 l
0.75 -1.23 l
0.75 -1.22 l
0.75 -1.20 l
0.76 -1.17 l
0.75 -1.18 l
0.75 -1.12 l
0.75 -1.13 l
0.75 -1.10 l
0.75 -1.07 l
0.75 -1.07 l
0.76 -1.02 l
0.75 -1.03 l
0.75 -0.98 l
0.75 -0.97 l
0.75 -0.94 l
0.75 -0.92 l
0.75 -0.90 l
0.76 -0.86 l
0.75 -0.86 l
0.75 -0.80 l
0.75 -0.81 l
0.75 -0.76 l
0.75 -0.73 l
0.76 -0.72 l
0.75 -0.68 l
0.75 -0.67 l
0.75 -0.60 l
0.75 -0.61 l
0.75 -0.56 l
0.75 -0.53 l
0.76 -0.52 l
0.75 -0.46 l
0.75 -0.46 l
0.75 -0.39 l
0.75 -0.39 l
0.75 -0.33 l
0.75 -0.31 l
0.76 -0.28 l
0.75 -0.23 l
0.75 -0.23 l
0.75 -0.14 l
0.75 -0.15 l
0.75 -0.09 l
0.75 -0.06 l
0.76 -0.04 l
0.75 -0.01 l
0.75 -0.01 l
0.75 0 l
0.75 0 l
0.75 0 l
0.75 0 l
0.76 0 l
0.75 0 l
0.75 0 l
0.75 0 l
0.75 0 l
0.75 0 l
0.76 0 l
0.75 0 l
0.75 0 l
0.75 0 l
0.75 0 l
0.75 0 l
450.13 87.20 lineto
0.76 0 l
0.75 0 l
0.75 0 l
0.75 0 l
0.75 0 l
0.75 0 l
0.75 0 l
0.76 0 l
0.75 0 l
0.75 0 l
0.75 0 l
o
1 0 1 srgb
np
74.40 87.20 m
0.75 0 l
0.75 0 l
0.75 0 l
0.76 0 l
0.75 0 l
0.75 0 l
0.75 0 l
0.75 0 l
0.75 0 l
0.75 0 l
0.76 0 l
0.75 0 l
0.75 0 l
0.75 0 l
0.75 0 l
0.75 0 l
0.75 0 l
0.76 0 l
0.75 0 l
0.75 0.02 l
0.75 0.01 l
0.75 0.06 l
0.75 0.05 l
0.76 0.09 l
0.75 0.11 l
0.75 0.12 l
0.75 0.16 l
0.75 0.16 l
0.75 0.21 l
0.75 0.20 l
0.76 0.25 l
0.75 0.26 l
0.75 0.27 l
0.75 0.31 l
0.75 0.31 l
0.75 0.37 l
0.75 0.36 l
0.76 0.39 l
0.75 0.41 l
0.75 0.43 l
0.75 0.46 l
0.75 0.46 l
0.75 0.51 l
0.75 0.51 l
0.76 0.54 l
0.75 0.56 l
0.75 0.57 l
0.75 0.61 l
0.75 0.61 l
0.75 0.65 l
0.75 0.66 l
0.76 0.68 l
0.75 0.70 l
0.75 0.72 l
0.75 0.75 l
0.75 0.75 l
0.75 0.79 l
0.76 0.79 l
0.75 0.83 l
0.75 0.83 l
0.75 0.86 l
0.75 0.88 l
0.75 0.88 l
0.75 0.93 l
0.76 0.92 l
0.75 0.95 l
0.75 0.97 l
0.75 0.98 l
0.75 1.01 l
0.75 1.01 l
0.75 1.05 l
0.76 1.05 l
0.75 1.07 l
0.75 1.09 l
0.75 1.10 l
0.75 1.13 l
0.75 1.13 l
0.75 1.16 l
0.76 1.16 l
0.75 1.19 l
0.75 1.20 l
0.75 1.21 l
0.75 1.24 l
0.75 1.23 l
0.75 1.27 l
0.76 1.27 l
0.75 1.29 l
0.75 1.30 l
0.75 1.31 l
0.75 1.34 l
0.75 1.33 l
0.76 1.36 l
0.75 1.36 l
0.75 1.38 l
0.75 1.40 l
0.75 1.40 l
0.75 1.41 l
0.75 1.42 l
0.76 1.45 l
149.55 151.86 lineto
0.75 1.46 l
0.75 1.47 l
0.75 1.48 l
0.75 1.49 l
0.75 1.49 l
0.76 1.51 l
0.75 1.52 l
0.75 1.52 l
0.75 1.54 l
0.75 1.54 l
0.75 1.55 l
0.75 1.55 l
0.76 1.57 l
0.75 1.57 l
0.75 1.58 l
0.75 1.59 l
0.75 1.59 l
0.75 1.60 l
0.75 1.59 l
0.76 1.62 l
0.75 1.61 l
0.75 1.62 l
0.75 1.62 l
0.75 1.63 l
0.75 1.63 l
0.75 1.63 l
0.76 1.64 l
0.75 1.64 l
0.75 1.65 l
0.75 1.65 l
0.75 1.64 l
0.75 1.66 l
0.76 1.65 l
0.75 1.65 l
0.75 1.66 l
0.75 1.65 l
0.75 1.66 l
0.75 1.66 l
0.75 1.65 l
0.76 1.66 l
0.75 1.65 l
0.75 1.66 l
0.75 1.65 l
0.75 1.65 l
0.75 1.65 l
0.75 1.65 l
0.76 1.64 l
0.75 1.64 l
0.75 1.64 l
0.75 1.64 l
0.75 1.63 l
0.75 1.63 l
0.75 1.62 l
0.76 1.62 l
0.75 1.62 l
0.75 1.61 l
0.75 1.60 l
0.75 1.60 l
0.75 1.59 l
0.75 1.59 l
0.76 1.58 l
0.75 1.57 l
0.75 1.57 l
0.75 1.55 l
0.75 1.56 l
0.75 1.54 l
0.76 1.53 l
0.75 1.54 l
0.75 1.51 l
0.75 1.51 l
0.75 1.50 l
0.75 1.49 l
0.75 1.48 l
0.76 1.47 l
0.75 1.46 l
0.75 1.45 l
0.75 1.44 l
0.75 1.42 l
0.75 1.42 l
0.75 1.41 l
0.76 1.39 l
0.75 1.39 l
0.75 1.36 l
0.75 1.36 l
0.75 1.34 l
0.75 1.33 l
0.75 1.32 l
0.76 1.30 l
0.75 1.30 l
0.75 1.26 l
0.75 1.27 l
0.75 1.24 l
0.75 1.24 l
0.75 1.22 l
0.76 1.20 l
0.75 1.19 l
0.75 1.16 l
0.75 1.17 l
0.75 1.13 l
224.69 303.43 lineto
0.76 1.11 l
0.75 1.09 l
0.75 1.08 l
0.75 1.05 l
0.75 1.04 l
0.75 1.02 l
0.75 1.01 l
0.76 0.99 l
0.75 0.97 l
0.75 0.96 l
0.75 0.92 l
0.75 0.93 l
0.75 0.89 l
0.75 0.88 l
0.76 0.86 l
0.75 0.84 l
0.75 0.83 l
0.75 0.80 l
0.75 0.79 l
0.75 0.76 l
0.75 0.74 l
0.76 0.73 l
0.75 0.70 l
0.75 0.70 l
0.75 0.65 l
0.75 0.65 l
0.75 0.62 l
0.75 0.60 l
0.76 0.59 l
0.75 0.55 l
0.75 0.56 l
0.75 0.51 l
0.75 0.50 l
0.75 0.48 l
0.75 0.45 l
0.76 0.45 l
0.75 0.40 l
0.75 0.41 l
0.75 0.36 l
0.75 0.36 l
0.75 0.32 l
0.76 0.31 l
0.75 0.29 l
0.75 0.25 l
0.75 0.26 l
0.75 0.21 l
0.75 0.20 l
0.75 0.17 l
0.76 0.16 l
0.75 0.13 l
0.75 0.11 l
0.75 0.10 l
0.75 0.05 l
0.75 0.05 l
0.75 0.02 l
0.76 0 l
0.75 -0.02 l
0.75 -0.05 l
0.75 -0.05 l
0.75 -0.10 l
0.75 -0.11 l
0.75 -0.13 l
0.76 -0.16 l
0.75 -0.17 l
0.75 -0.20 l
0.75 -0.21 l
0.75 -0.26 l
0.75 -0.25 l
0.75 -0.29 l
0.76 -0.31 l
0.75 -0.32 l
0.75 -0.36 l
0.75 -0.36 l
0.75 -0.41 l
0.75 -0.40 l
0.76 -0.45 l
0.75 -0.45 l
0.75 -0.48 l
0.75 -0.50 l
0.75 -0.51 l
0.75 -0.56 l
0.75 -0.55 l
0.76 -0.59 l
0.75 -0.60 l
0.75 -0.62 l
0.75 -0.65 l
0.75 -0.65 l
0.75 -0.70 l
0.75 -0.70 l
0.76 -0.73 l
0.75 -0.74 l
0.75 -0.76 l
0.75 -0.79 l
0.75 -0.80 l
0.75 -0.83 l
0.75 -0.84 l
0.76 -0.86 l
0.75 -0.88 l
0.75 -0.89 l
299.84 314.67 lineto
0.75 -0.92 l
0.75 -0.96 l
0.75 -0.97 l
0.76 -0.99 l
0.75 -1.01 l
0.75 -1.02 l
0.75 -1.04 l
0.75 -1.05 l
0.75 -1.08 l
0.75 -1.09 l
0.76 -1.11 l
0.75 -1.13 l
0.75 -1.13 l
0.75 -1.17 l
0.75 -1.16 l
0.75 -1.19 l
0.76 -1.20 l
0.75 -1.22 l
0.75 -1.24 l
0.75 -1.24 l
0.75 -1.27 l
0.75 -1.26 l
0.75 -1.30 l
0.76 -1.30 l
0.75 -1.32 l
0.75 -1.33 l
0.75 -1.34 l
0.75 -1.36 l
0.75 -1.36 l
0.75 -1.39 l
0.76 -1.39 l
0.75 -1.41 l
0.75 -1.42 l
0.75 -1.42 l
0.75 -1.44 l
0.75 -1.45 l
0.75 -1.46 l
0.76 -1.47 l
0.75 -1.48 l
0.75 -1.49 l
0.75 -1.50 l
0.75 -1.51 l
0.75 -1.51 l
0.75 -1.54 l
0.76 -1.53 l
0.75 -1.54 l
0.75 -1.56 l
0.75 -1.55 l
0.75 -1.57 l
0.75 -1.57 l
0.76 -1.58 l
0.75 -1.59 l
0.75 -1.59 l
0.75 -1.60 l
0.75 -1.60 l
0.75 -1.61 l
0.75 -1.62 l
0.76 -1.62 l
0.75 -1.62 l
0.75 -1.63 l
0.75 -1.63 l
0.75 -1.64 l
0.75 -1.64 l
0.75 -1.64 l
0.76 -1.64 l
0.75 -1.65 l
0.75 -1.65 l
0.75 -1.65 l
0.75 -1.65 l
0.75 -1.66 l
0.75 -1.65 l
0.76 -1.66 l
0.75 -1.65 l
0.75 -1.66 l
0.75 -1.66 l
0.75 -1.65 l
0.75 -1.66 l
0.75 -1.65 l
0.76 -1.65 l
0.75 -1.66 l
0.75 -1.64 l
0.75 -1.65 l
0.75 -1.65 l
0.75 -1.64 l
0.76 -1.64 l
0.75 -1.63 l
0.75 -1.63 l
0.75 -1.63 l
0.75 -1.62 l
0.75 -1.62 l
0.75 -1.61 l
0.76 -1.62 l
0.75 -1.59 l
0.75 -1.60 l
0.75 -1.59 l
0.75 -1.59 l
0.75 -1.58 l
0.75 -1.57 l
0.76 -1.57 l
374.99 168.43 lineto
0.75 -1.55 l
0.75 -1.54 l
0.75 -1.54 l
0.75 -1.52 l
0.75 -1.52 l
0.76 -1.51 l
0.75 -1.49 l
0.75 -1.49 l
0.75 -1.48 l
0.75 -1.47 l
0.75 -1.46 l
0.75 -1.44 l
0.76 -1.45 l
0.75 -1.42 l
0.75 -1.41 l
0.75 -1.40 l
0.75 -1.40 l
0.75 -1.38 l
0.75 -1.36 l
0.76 -1.36 l
0.75 -1.33 l
0.75 -1.34 l
0.75 -1.31 l
0.75 -1.30 l
0.75 -1.29 l
0.76 -1.27 l
0.75 -1.27 l
0.75 -1.23 l
0.75 -1.24 l
0.75 -1.21 l
0.75 -1.20 l
0.75 -1.19 l
0.76 -1.16 l
0.75 -1.16 l
0.75 -1.13 l
0.75 -1.13 l
0.75 -1.10 l
0.75 -1.09 l
0.75 -1.07 l
0.76 -1.05 l
0.75 -1.05 l
0.75 -1.01 l
0.75 -1.01 l
0.75 -0.98 l
0.75 -0.97 l
0.75 -0.95 l
0.76 -0.92 l
0.75 -0.93 l
0.75 -0.88 l
0.75 -0.88 l
0.75 -0.86 l
0.75 -0.83 l
0.75 -0.83 l
0.76 -0.79 l
0.75 -0.79 l
0.75 -0.75 l
0.75 -0.75 l
0.75 -0.72 l
0.75 -0.70 l
0.76 -0.68 l
0.75 -0.66 l
0.75 -0.65 l
0.75 -0.61 l
0.75 -0.61 l
0.75 -0.57 l
0.75 -0.56 l
0.76 -0.54 l
0.75 -0.51 l
0.75 -0.51 l
0.75 -0.46 l
0.75 -0.46 l
0.75 -0.43 l
0.75 -0.41 l
0.76 -0.39 l
0.75 -0.36 l
0.75 -0.37 l
0.75 -0.31 l
0.75 -0.31 l
0.75 -0.27 l
0.75 -0.26 l
0.76 -0.25 l
0.75 -0.20 l
0.75 -0.21 l
0.75 -0.16 l
0.75 -0.16 l
0.75 -0.12 l
0.75 -0.11 l
0.76 -0.09 l
0.75 -0.05 l
0.75 -0.06 l
0.75 -0.01 l
0.75 -0.02 l
0.75 0 l
0.76 0 l
0.75 0 l
0.75 0 l
0.75 0 l
0.75 0 l
0.75 0 l
450.13 87.20 lineto
0.76 0 l
0.75 0 l
0.75 0 l
0.75 0 l
0.75 0 l
0.75 0 l
0.75 0 l
0.76 0 l
0.75 0 l
0.75 0 l
0.75 0 l
o
1 1 0 srgb
np
74.40 87.20 m
0.75 0 l
0.75 0 l
0.75 0 l
0.76 0 l
0.75 0 l
0.75 0 l
0.75 0 l
0.75 0 l
0.75 0 l
0.75 0 l
0.76 0 l
0.75 0 l
0.75 0 l
0.75 0 l
0.75 0 l
0.75 0 l
0.75 0 l
0.76 0 l
0.75 0 l
0.75 0 l
0.75 0 l
0.75 0 l
0.75 0 l
0.76 0 l
0.75 0 l
0.75 0 l
0.75 0 l
0.75 0 l
0.75 0 l
0.75 0 l
0.76 0 l
0.75 0 l
0.75 0 l
0.75 0 l
0.75 0 l
0.75 0 l
0.75 0 l
0.76 0 l
0.75 0 l
0.75 0 l
0.75 0 l
0.75 0 l
0.75 0 l
0.75 0 l
0.76 0 l
0.75 0 l
0.75 0 l
0.75 0 l
0.75 0 l
0.75 0 l
0.75 0 l
0.76 0 l
0.75 0 l
0.75 0 l
0.75 0 l
0.75 0 l
0.75 0 l
0.76 0 l
0.75 0.59 l
0.75 0.89 l
0.75 1.21 l
0.75 1.83 l
0.75 1.84 l
0.75 1.88 l
0.76 1.89 l
0.75 1.88 l
0.75 1.88 l
0.75 1.88 l
0.75 1.89 l
0.75 1.88 l
0.75 1.87 l
0.76 1.88 l
0.75 1.88 l
0.75 1.87 l
0.75 1.87 l
0.75 1.87 l
0.75 1.87 l
0.75 1.87 l
0.76 1.86 l
0.75 1.87 l
0.75 1.86 l
0.75 1.85 l
0.75 1.86 l
0.75 1.85 l
0.75 1.85 l
0.76 1.84 l
0.75 1.84 l
0.75 1.84 l
0.75 1.84 l
0.75 1.83 l
0.75 1.83 l
0.76 1.82 l
0.75 1.83 l
0.75 1.81 l
0.75 1.81 l
0.75 1.81 l
0.75 1.81 l
0.75 1.80 l
0.76 1.79 l
149.55 162.01 lineto
0.75 1.79 l
0.75 1.78 l
0.75 1.77 l
0.75 1.77 l
0.75 1.77 l
0.76 1.76 l
0.75 1.75 l
0.75 1.75 l
0.75 1.74 l
0.75 1.74 l
0.75 1.73 l
0.75 1.73 l
0.76 1.72 l
0.75 1.71 l
0.75 1.71 l
0.75 1.70 l
0.75 1.69 l
0.75 1.68 l
0.75 1.69 l
0.76 1.67 l
0.75 1.66 l
0.75 1.66 l
0.75 1.65 l
0.75 1.65 l
0.75 1.63 l
0.75 1.64 l
0.76 1.61 l
0.75 1.62 l
0.75 1.60 l
0.75 1.60 l
0.75 1.59 l
0.75 1.58 l
0.76 1.58 l
0.75 1.56 l
0.75 1.56 l
0.75 1.54 l
0.75 1.54 l
0.75 1.53 l
0.75 1.52 l
0.76 1.52 l
0.75 1.49 l
0.75 1.50 l
0.75 1.48 l
0.75 1.48 l
0.75 1.47 l
0.75 1.45 l
0.76 1.45 l
0.75 1.43 l
0.75 1.43 l
0.75 1.42 l
0.75 1.40 l
0.75 1.40 l
0.75 1.39 l
0.76 1.38 l
0.75 1.36 l
0.75 1.36 l
0.75 1.34 l
0.75 1.33 l
0.75 1.33 l
0.75 1.31 l
0.76 1.31 l
0.75 1.28 l
0.75 1.29 l
0.75 1.26 l
0.75 1.26 l
0.75 1.25 l
0.76 1.23 l
0.75 1.23 l
0.75 1.20 l
0.75 1.21 l
0.75 1.18 l
0.75 1.18 l
0.75 1.17 l
0.76 1.15 l
0.75 1.14 l
0.75 1.12 l
0.75 1.13 l
0.75 1.10 l
0.75 1.09 l
0.75 1.08 l
0.76 1.06 l
0.75 1.07 l
0.75 1.03 l
0.75 1.03 l
0.75 1.02 l
0.75 1.00 l
0.75 1.00 l
0.76 0.97 l
0.75 0.97 l
0.75 0.95 l
0.75 0.94 l
0.75 0.92 l
0.75 0.92 l
0.75 0.90 l
0.76 0.88 l
0.75 0.88 l
0.75 0.85 l
0.75 0.85 l
0.75 0.83 l
224.69 299.45 lineto
0.76 0.81 l
0.75 0.79 l
0.75 0.78 l
0.75 0.76 l
0.75 0.75 l
0.75 0.74 l
0.75 0.72 l
0.76 0.71 l
0.75 0.69 l
0.75 0.69 l
0.75 0.65 l
0.75 0.66 l
0.75 0.64 l
0.75 0.62 l
0.76 0.61 l
0.75 0.59 l
0.75 0.59 l
0.75 0.56 l
0.75 0.55 l
0.75 0.54 l
0.75 0.52 l
0.76 0.51 l
0.75 0.49 l
0.75 0.49 l
0.75 0.45 l
0.75 0.46 l
0.75 0.43 l
0.75 0.42 l
0.76 0.41 l
0.75 0.38 l
0.75 0.39 l
0.75 0.35 l
0.75 0.35 l
0.75 0.33 l
0.75 0.31 l
0.76 0.31 l
0.75 0.28 l
0.75 0.28 l
0.75 0.25 l
0.75 0.24 l
0.75 0.22 l
0.76 0.22 l
0.75 0.20 l
0.75 0.17 l
0.75 0.18 l
0.75 0.14 l
0.75 0.14 l
0.75 0.12 l
0.76 0.10 l
0.75 0.10 l
0.75 0.07 l
0.75 0.07 l
0.75 0.03 l
0.75 0.04 l
0.75 0.01 l
0.76 0 l
0.75 -0.01 l
0.75 -0.04 l
0.75 -0.03 l
0.75 -0.07 l
0.75 -0.07 l
0.75 -0.10 l
0.76 -0.10 l
0.75 -0.12 l
0.75 -0.14 l
0.75 -0.14 l
0.75 -0.18 l
0.75 -0.17 l
0.75 -0.20 l
0.76 -0.22 l
0.75 -0.22 l
0.75 -0.24 l
0.75 -0.25 l
0.75 -0.28 l
0.75 -0.28 l
0.76 -0.31 l
0.75 -0.31 l
0.75 -0.33 l
0.75 -0.35 l
0.75 -0.35 l
0.75 -0.39 l
0.75 -0.38 l
0.76 -0.41 l
0.75 -0.42 l
0.75 -0.43 l
0.75 -0.46 l
0.75 -0.45 l
0.75 -0.49 l
0.75 -0.49 l
0.76 -0.51 l
0.75 -0.52 l
0.75 -0.54 l
0.75 -0.55 l
0.75 -0.56 l
0.75 -0.59 l
0.75 -0.59 l
0.76 -0.61 l
0.75 -0.62 l
0.75 -0.64 l
299.84 307.54 lineto
0.75 -0.65 l
0.75 -0.69 l
0.75 -0.69 l
0.76 -0.71 l
0.75 -0.72 l
0.75 -0.74 l
0.75 -0.75 l
0.75 -0.76 l
0.75 -0.78 l
0.75 -0.79 l
0.76 -0.81 l
0.75 -0.82 l
0.75 -0.83 l
0.75 -0.85 l
0.75 -0.85 l
0.75 -0.88 l
0.76 -0.88 l
0.75 -0.90 l
0.75 -0.92 l
0.75 -0.92 l
0.75 -0.94 l
0.75 -0.95 l
0.75 -0.97 l
0.76 -0.97 l
0.75 -1.00 l
0.75 -1.00 l
0.75 -1.02 l
0.75 -1.03 l
0.75 -1.03 l
0.75 -1.07 l
0.76 -1.06 l
0.75 -1.08 l
0.75 -1.09 l
0.75 -1.10 l
0.75 -1.13 l
0.75 -1.12 l
0.75 -1.14 l
0.76 -1.15 l
0.75 -1.17 l
0.75 -1.18 l
0.75 -1.18 l
0.75 -1.21 l
0.75 -1.20 l
0.75 -1.23 l
0.76 -1.23 l
0.75 -1.25 l
0.75 -1.26 l
0.75 -1.26 l
0.75 -1.29 l
0.75 -1.28 l
0.76 -1.31 l
0.75 -1.31 l
0.75 -1.33 l
0.75 -1.33 l
0.75 -1.34 l
0.75 -1.36 l
0.75 -1.36 l
0.76 -1.38 l
0.75 -1.39 l
0.75 -1.40 l
0.75 -1.40 l
0.75 -1.42 l
0.75 -1.43 l
0.75 -1.43 l
0.76 -1.45 l
0.75 -1.45 l
0.75 -1.47 l
0.75 -1.48 l
0.75 -1.48 l
0.75 -1.50 l
0.75 -1.49 l
0.76 -1.52 l
0.75 -1.52 l
0.75 -1.53 l
0.75 -1.54 l
0.75 -1.54 l
0.75 -1.56 l
0.75 -1.56 l
0.76 -1.58 l
0.75 -1.58 l
0.75 -1.59 l
0.75 -1.60 l
0.75 -1.60 l
0.75 -1.62 l
0.76 -1.61 l
0.75 -1.64 l
0.75 -1.63 l
0.75 -1.65 l
0.75 -1.65 l
0.75 -1.66 l
0.75 -1.66 l
0.76 -1.67 l
0.75 -1.69 l
0.75 -1.68 l
0.75 -1.69 l
0.75 -1.70 l
0.75 -1.71 l
0.75 -1.71 l
0.76 -1.72 l
374.99 181.36 lineto
0.75 -1.73 l
0.75 -1.74 l
0.75 -1.74 l
0.75 -1.75 l
0.75 -1.75 l
0.76 -1.76 l
0.75 -1.77 l
0.75 -1.77 l
0.75 -1.77 l
0.75 -1.78 l
0.75 -1.79 l
0.75 -1.79 l
0.76 -1.79 l
0.75 -1.80 l
0.75 -1.81 l
0.75 -1.81 l
0.75 -1.81 l
0.75 -1.81 l
0.75 -1.83 l
0.76 -1.82 l
0.75 -1.83 l
0.75 -1.83 l
0.75 -1.84 l
0.75 -1.84 l
0.75 -1.84 l
0.76 -1.84 l
0.75 -1.85 l
0.75 -1.85 l
0.75 -1.86 l
0.75 -1.85 l
0.75 -1.86 l
0.75 -1.87 l
0.76 -1.86 l
0.75 -1.87 l
0.75 -1.87 l
0.75 -1.87 l
0.75 -1.87 l
0.75 -1.87 l
0.75 -1.88 l
0.76 -1.88 l
0.75 -1.87 l
0.75 -1.88 l
0.75 -1.89 l
0.75 -1.88 l
0.75 -1.88 l
0.75 -1.88 l
0.76 -1.89 l
0.75 -1.88 l
0.75 -1.84 l
0.75 -1.83 l
0.75 -1.21 l
0.75 -0.89 l
0.75 -0.59 l
0.76 0 l
0.75 0 l
0.75 0 l
0.75 0 l
0.75 0 l
0.75 0 l
0.76 0 l
0.75 0 l
0.75 0 l
0.75 0 l
0.75 0 l
0.75 0 l
0.75 0 l
0.76 0 l
0.75 0 l
0.75 0 l
0.75 0 l
0.75 0 l
0.75 0 l
0.75 0 l
0.76 0 l
0.75 0 l
0.75 0 l
0.75 0 l
0.75 0 l
0.75 0 l
0.75 0 l
0.76 0 l
0.75 0 l
0.75 0 l
0.75 0 l
0.75 0 l
0.75 0 l
0.75 0 l
0.76 0 l
0.75 0 l
0.75 0 l
0.75 0 l
0.75 0 l
0.75 0 l
0.76 0 l
0.75 0 l
0.75 0 l
0.75 0 l
0.75 0 l
0.75 0 l
450.13 87.20 lineto
0.76 0 l
0.75 0 l
0.75 0 l
0.75 0 l
0.75 0 l
0.75 0 l
0.75 0 l
0.76 0 l
0.75 0 l
0.75 0 l
0.75 0 l
o
0 0 0 srgb
329.55 444.96 144.21 -138.24 r p1
np
342.51 427.68 m
25.92 0 l
o
1 0 0 srgb
np
342.51 410.40 m
25.92 0 l
o
0 0.8039 0 srgb
np
342.51 393.12 m
25.92 0 l
o
0 0 1 srgb
np
342.51 375.84 m
25.92 0 l
o
0 1 1 srgb
np
342.51 358.56 m
25.92 0 l
o
1 0 1 srgb
np
342.51 341.28 m
25.92 0 l
o
1 1 0 srgb
np
342.51 324.00 m
25.92 0 l
o
/Font1 findfont 14 s
0 0 0 srgb
381.39 422.65 (gaussian) 0 0 t
381.39 405.37 (epanechnik) 0 ta
-0.280 (o) tb
-0.210 (v) tb gr
381.39 388.09 (rectangular) 0 0 t
381.39 370.81 (tr) 0 ta
0.210 (iangular) tb gr
381.39 353.53 (biw) 0 ta
-0.140 (eight) tb gr
381.39 336.25 (cosine) 0 0 t
381.39 318.97 (optcosine) 0 0 t
ep
%%Trailer
%%Pages: 1
%%EOF
