%!PS-Adobe-3.0 EPSF-3.0
%%DocumentNeededResources: font Helvetica
%%+ font Helvetica-Bold
%%+ font Helvetica-Oblique
%%+ font Helvetica-BoldOblique
%%+ font Symbol
%%Title: R Graphics Output
%%Creator: R Software
%%Pages: (atend)
%%BoundingBox: 0 0 504 504
%%EndComments
%%BeginProlog
/bp  { gs sRGB gs } def
% begin .ps.prolog
/gs  { gsave } bind def
/gr  { grestore } bind def
/ep  { showpage gr gr } bind def
/m   { moveto } bind def
/l  { rlineto } bind def
/np  { newpath } bind def
/cp  { closepath } bind def
/f   { fill } bind def
/o   { stroke } bind def
/c   { newpath 0 360 arc } bind def
/r   { 4 2 roll moveto 1 copy 3 -1 roll exch 0 exch rlineto 0 rlineto -1 mul 0 exch rlineto closepath } bind def
/p1  { stroke } bind def
/p2  { gsave bg fill grestore newpath } bind def
/p3  { gsave bg fill grestore stroke } bind def
/p6  { gsave bg eofill grestore newpath } bind def
/p7  { gsave bg eofill grestore stroke } bind def
/t   { 5 -2 roll moveto gsave rotate
       1 index stringwidth pop
       mul neg 0 rmoveto show grestore } bind def
/ta  { 4 -2 roll moveto gsave rotate show } bind def
/tb  { 2 -1 roll 0 rmoveto show } bind def
/cl  { grestore gsave newpath 3 index 3 index moveto 1 index
       4 -1 roll lineto  exch 1 index lineto lineto
       closepath clip newpath } bind def
/rgb { setrgbcolor } bind def
/s   { scalefont setfont } bind def
% end   .ps.prolog
/sRGB { [ /CIEBasedABC
          << /DecodeLMN
               [ { dup 0.03928 le
                        {12.92321 div}
                        {0.055 add 1.055 div 2.4 exp }
                     ifelse
                 } bind dup dup
               ]
             /MatrixLMN [0.412457 0.212673 0.019334
                         0.357576 0.715152 0.119192
                         0.180437 0.072175 0.950301]
             /WhitePoint [0.9505 1.0 1.0890]
           >>
         ] setcolorspace } bind def
/srgb { setcolor } bind def
%%IncludeResource: font Helvetica
/Helvetica findfont
dup length dict begin
  {1 index /FID ne {def} {pop pop} ifelse} forall
  /Encoding ISOLatin1Encoding def
  currentdict
  end
/Font1 exch definefont pop
%%IncludeResource: font Helvetica-Bold
/Helvetica-Bold findfont
dup length dict begin
  {1 index /FID ne {def} {pop pop} ifelse} forall
  /Encoding ISOLatin1Encoding def
  currentdict
  end
/Font2 exch definefont pop
%%IncludeResource: font Helvetica-Oblique
/Helvetica-Oblique findfont
dup length dict begin
  {1 index /FID ne {def} {pop pop} ifelse} forall
  /Encoding ISOLatin1Encoding def
  currentdict
  end
/Font3 exch definefont pop
%%IncludeResource: font Helvetica-BoldOblique
/Helvetica-BoldOblique findfont
dup length dict begin
  {1 index /FID ne {def} {pop pop} ifelse} forall
  /Encoding ISOLatin1Encoding def
  currentdict
  end
/Font4 exch definefont pop
%%IncludeResource: font Symbol
/Symbol findfont
dup length dict begin
  {1 index /FID ne {def} {pop pop} ifelse} forall
  currentdict
  end
/Font5 exch definefont pop
%%EndProlog
%%Page: 1 1
bp
0.00 252.00 252.00 504.00 cl
/Font2 findfont 12 s
0 0 0 srgb
137.95 475.19 (Histogram of runif\(50\)) .5 0 t
/Font1 findfont 10 s
119.34 267.54 (r) 0 ta
0.150 (unif\(50\)) tb gr
10.76 383.98 (Frequency) .5 90 t
0.00 0.00 504.00 504.00 cl
0 0 0 srgb
0.75 setlinewidth
[] 0 setdash
1 setlinecap
1 setlinejoin
10.00 setmiterlimit
np
55.59 312.96 m
164.72 0 l
o
np
55.59 312.96 m
0 -5.98 l
o
np
88.54 312.96 m
0 -5.98 l
o
np
121.48 312.96 m
0 -5.98 l
o
np
154.42 312.96 m
0 -5.98 l
o
np
187.37 312.96 m
0 -5.98 l
o
np
220.31 312.96 m
0 -5.98 l
o
/Font1 findfont 10 s
55.59 291.44 (0.0) .5 0 t
88.54 291.44 (0.2) .5 0 t
121.48 291.44 (0.4) .5 0 t
154.42 291.44 (0.6) .5 0 t
187.37 291.44 (0.8) .5 0 t
220.31 291.44 (1.0) .5 0 t
np
49.00 318.22 m
0 116.90 l
o
np
49.00 318.22 m
-5.97 0 l
o
np
49.00 347.44 m
-5.97 0 l
o
np
49.00 376.67 m
-5.97 0 l
o
np
49.00 405.90 m
-5.97 0 l
o
np
49.00 435.12 m
-5.97 0 l
o
34.66 318.22 (0) .5 90 t
34.66 347.44 (2) .5 90 t
34.66 376.67 (4) .5 90 t
34.66 405.90 (6) .5 90 t
34.66 435.12 (8) .5 90 t
49.00 312.96 226.90 455.00 cl
0 0 0 srgb
0.75 setlinewidth
[] 0 setdash
1 setlinecap
1 setlinejoin
10.00 setmiterlimit
55.59 318.22 16.47 43.84 r p1
72.06 318.22 16.47 87.68 r p1
88.54 318.22 16.47 87.68 r p1
105.01 318.22 16.47 43.84 r p1
121.48 318.22 16.47 116.91 r p1
137.95 318.22 16.47 131.52 r p1
154.42 318.22 16.47 102.29 r p1
170.90 318.22 16.47 43.84 r p1
187.37 318.22 16.47 43.84 r p1
203.84 318.22 16.47 29.23 r p1
301.00 312.96 478.90 455.00 cl
252.00 252.00 504.00 504.00 cl
/Font2 findfont 12 s
0 0 0 srgb
389.95 475.19 (Histogram of rnorm\(50\)) .5 0 t
/Font1 findfont 10 s
368.01 267.54 (r) 0 ta
0.250 (nor) tb
0.250 (m\(50\)) tb gr
262.76 383.98 (Frequency) .5 90 t
0.00 0.00 504.00 504.00 cl
0 0 0 srgb
0.75 setlinewidth
[] 0 setdash
1 setlinecap
1 setlinejoin
10.00 setmiterlimit
np
307.59 312.96 m
164.72 0 l
o
np
307.59 312.96 m
0 -5.98 l
o
np
348.77 312.96 m
0 -5.98 l
o
np
389.95 312.96 m
0 -5.98 l
o
np
431.13 312.96 m
0 -5.98 l
o
np
472.31 312.96 m
0 -5.98 l
o
/Font1 findfont 10 s
307.59 291.44 (-2) .5 0 t
348.77 291.44 (-1) .5 0 t
389.95 291.44 (0) .5 0 t
431.13 291.44 (1) .5 0 t
472.31 291.44 (2) .5 0 t
np
301.00 318.22 m
0 131.52 l
o
np
301.00 318.22 m
-5.97 0 l
o
np
301.00 340.14 m
-5.97 0 l
o
np
301.00 362.06 m
-5.97 0 l
o
np
301.00 383.98 m
-5.97 0 l
o
np
301.00 405.90 m
-5.97 0 l
o
np
301.00 427.82 m
-5.97 0 l
o
np
301.00 449.74 m
-5.97 0 l
o
286.66 318.22 (0) .5 90 t
286.66 340.14 (2) .5 90 t
286.66 362.06 (4) .5 90 t
286.66 383.98 (6) .5 90 t
286.66 405.90 (8) .5 90 t
286.66 427.82 (10) .5 90 t
286.66 449.74 (12) .5 90 t
301.00 312.96 478.90 455.00 cl
0 0 0 srgb
0.75 setlinewidth
[] 0 setdash
1 setlinecap
1 setlinejoin
10.00 setmiterlimit
307.59 318.22 20.59 21.92 r p1
328.18 318.22 20.59 98.64 r p1
348.77 318.22 20.59 10.96 r p1
369.36 318.22 20.59 87.68 r p1
389.95 318.22 20.59 87.68 r p1
410.54 318.22 20.59 131.52 r p1
431.13 318.22 20.59 87.68 r p1
451.72 318.22 20.59 21.92 r p1
49.00 60.96 478.90 203.00 cl
49.00 60.96 478.90 203.00 cl
0 0 0 srgb
0.75 setlinewidth
[] 0 setdash
1 setlinecap
1 setlinejoin
10.00 setmiterlimit
np
64.93 131.98 m
3.98 8.25 l
3.98 8.13 l
3.98 7.87 l
3.98 7.49 l
3.98 6.99 l
3.98 6.37 l
3.98 5.67 l
3.98 4.86 l
3.98 3.99 l
3.98 3.04 l
3.98 2.06 l
3.98 1.04 l
3.98 0 l
3.98 -1.04 l
3.98 -2.06 l
3.98 -3.04 l
3.98 -3.99 l
3.98 -4.86 l
3.99 -5.67 l
3.98 -6.37 l
3.98 -6.99 l
3.98 -7.49 l
3.98 -7.87 l
3.98 -8.13 l
3.98 -8.25 l
3.98 -8.26 l
3.98 -8.13 l
3.98 -7.87 l
3.98 -7.49 l
3.98 -6.98 l
3.98 -6.38 l
3.98 -5.66 l
3.98 -4.87 l
3.98 -3.98 l
3.98 -3.05 l
3.98 -2.06 l
3.99 -1.03 l
3.98 0 l
3.98 1.03 l
3.98 2.06 l
3.98 3.05 l
3.98 3.98 l
3.98 4.87 l
3.98 5.66 l
3.98 6.38 l
3.98 6.98 l
3.98 7.49 l
3.98 7.87 l
3.98 8.13 l
3.98 8.26 l
3.98 8.25 l
3.98 8.13 l
3.98 7.87 l
3.98 7.49 l
3.98 6.99 l
3.99 6.37 l
3.98 5.67 l
3.98 4.86 l
3.98 3.99 l
3.98 3.04 l
3.98 2.06 l
3.98 1.04 l
3.98 0 l
3.98 -1.04 l
3.98 -2.06 l
3.98 -3.04 l
3.98 -3.99 l
3.98 -4.86 l
3.98 -5.67 l
3.98 -6.37 l
3.98 -6.99 l
3.98 -7.49 l
3.98 -7.87 l
3.98 -8.13 l
3.99 -8.25 l
3.98 -8.26 l
3.98 -8.13 l
3.98 -7.87 l
3.98 -7.49 l
3.98 -6.98 l
3.98 -6.38 l
3.98 -5.66 l
3.98 -4.87 l
3.98 -3.98 l
3.98 -3.05 l
3.98 -2.06 l
3.98 -1.03 l
3.98 0 l
3.98 1.03 l
3.98 2.06 l
3.98 3.05 l
3.98 3.98 l
3.98 4.87 l
3.99 5.66 l
3.98 6.38 l
3.98 6.98 l
3.98 7.49 l
3.98 7.87 l
3.98 8.13 l
462.98 131.98 lineto
o
0.00 0.00 504.00 504.00 cl
0 0 0 srgb
0.75 setlinewidth
[] 0 setdash
1 setlinecap
1 setlinejoin
10.00 setmiterlimit
np
64.93 60.96 m
380.11 0 l
o
np
64.93 60.96 m
0 -5.98 l
o
np
128.28 60.96 m
0 -5.98 l
o
np
191.63 60.96 m
0 -5.98 l
o
np
254.98 60.96 m
0 -5.98 l
o
np
318.33 60.96 m
0 -5.98 l
o
np
381.69 60.96 m
0 -5.98 l
o
np
445.04 60.96 m
0 -5.98 l
o
/Font1 findfont 10 s
64.93 39.44 (0) .5 0 t
128.28 39.44 (2) .5 0 t
191.63 39.44 (4) .5 0 t
254.98 39.44 (6) .5 0 t
318.33 39.44 (8) .5 0 t
381.69 39.44 (10) .5 0 t
445.04 39.44 (12) .5 0 t
np
49.00 66.09 m
0 131.78 l
o
np
49.00 66.09 m
-5.97 0 l
o
np
49.00 99.03 m
-5.97 0 l
o
np
49.00 131.98 m
-5.97 0 l
o
np
49.00 164.92 m
-5.97 0 l
o
np
49.00 197.87 m
-5.97 0 l
o
34.66 66.09 (-1.0) .5 90 t
34.66 99.03 (-0.5) .5 90 t
34.66 131.98 (0.0) .5 90 t
34.66 164.92 (0.5) .5 90 t
34.66 197.87 (1.0) .5 90 t
np
49.00 60.96 m
429.90 0 l
0 142.04 l
-429.90 0 l
0 -142.04 l
o
0.00 0.00 504.00 252.00 cl
/Font1 findfont 10 s
0 0 0 srgb
263.95 15.54 (x) .5 0 t
10.76 131.98 (sin\(x\)) .5 90 t
ep
%%Trailer
%%Pages: 1
%%EOF
