%!PS-Adobe-3.0 EPSF-3.0
%%DocumentNeededResources: font Helvetica
%%+ font Helvetica-Bold
%%+ font Helvetica-Oblique
%%+ font Helvetica-BoldOblique
%%+ font Symbol
%%Title: R Graphics Output
%%Creator: R Software
%%Pages: (atend)
%%BoundingBox: 0 0 504 504
%%EndComments
%%BeginProlog
/bp  { gs sRGB gs } def
% begin .ps.prolog
/gs  { gsave } bind def
/gr  { grestore } bind def
/ep  { showpage gr gr } bind def
/m   { moveto } bind def
/l  { rlineto } bind def
/np  { newpath } bind def
/cp  { closepath } bind def
/f   { fill } bind def
/o   { stroke } bind def
/c   { newpath 0 360 arc } bind def
/r   { 4 2 roll moveto 1 copy 3 -1 roll exch 0 exch rlineto 0 rlineto -1 mul 0 exch rlineto closepath } bind def
/p1  { stroke } bind def
/p2  { gsave bg fill grestore newpath } bind def
/p3  { gsave bg fill grestore stroke } bind def
/p6  { gsave bg eofill grestore newpath } bind def
/p7  { gsave bg eofill grestore stroke } bind def
/t   { 5 -2 roll moveto gsave rotate
       1 index stringwidth pop
       mul neg 0 rmoveto show grestore } bind def
/ta  { 4 -2 roll moveto gsave rotate show } bind def
/tb  { 2 -1 roll 0 rmoveto show } bind def
/cl  { grestore gsave newpath 3 index 3 index moveto 1 index
       4 -1 roll lineto  exch 1 index lineto lineto
       closepath clip newpath } bind def
/rgb { setrgbcolor } bind def
/s   { scalefont setfont } bind def
% end   .ps.prolog
/sRGB { [ /CIEBasedABC
          << /DecodeLMN
               [ { dup 0.03928 le
                        {12.92321 div}
                        {0.055 add 1.055 div 2.4 exp }
                     ifelse
                 } bind dup dup
               ]
             /MatrixLMN [0.412457 0.212673 0.019334
                         0.357576 0.715152 0.119192
                         0.180437 0.072175 0.950301]
             /WhitePoint [0.9505 1.0 1.0890]
           >>
         ] setcolorspace } bind def
/srgb { setcolor } bind def
%%IncludeResource: font Helvetica
/Helvetica findfont
dup length dict begin
  {1 index /FID ne {def} {pop pop} ifelse} forall
  /Encoding ISOLatin1Encoding def
  currentdict
  end
/Font1 exch definefont pop
%%IncludeResource: font Helvetica-Bold
/Helvetica-Bold findfont
dup length dict begin
  {1 index /FID ne {def} {pop pop} ifelse} forall
  /Encoding ISOLatin1Encoding def
  currentdict
  end
/Font2 exch definefont pop
%%IncludeResource: font Helvetica-Oblique
/Helvetica-Oblique findfont
dup length dict begin
  {1 index /FID ne {def} {pop pop} ifelse} forall
  /Encoding ISOLatin1Encoding def
  currentdict
  end
/Font3 exch definefont pop
%%IncludeResource: font Helvetica-BoldOblique
/Helvetica-BoldOblique findfont
dup length dict begin
  {1 index /FID ne {def} {pop pop} ifelse} forall
  /Encoding ISOLatin1Encoding def
  currentdict
  end
/Font4 exch definefont pop
%%IncludeResource: font Symbol
/Symbol findfont
dup length dict begin
  {1 index /FID ne {def} {pop pop} ifelse} forall
  currentdict
  end
/Font5 exch definefont pop
%%EndProlog
%%Page: 1 1
bp
0.00 0.00 504.00 504.00 cl
0 0 0 srgb
0.75 setlinewidth
[] 0 setdash
1 setlinecap
1 setlinejoin
10.00 setmiterlimit
np
63.76 73.44 m
405.28 0 l
o
np
63.76 73.44 m
0 -7.20 l
o
np
165.08 73.44 m
0 -7.20 l
o
np
266.40 73.44 m
0 -7.20 l
o
np
367.72 73.44 m
0 -7.20 l
o
np
469.04 73.44 m
0 -7.20 l
o
/Font1 findfont 12 s
63.76 47.52 (-0.010) .5 0 t
165.08 47.52 (-0.005) .5 0 t
266.40 47.52 (0.000) .5 0 t
367.72 47.52 (0.005) .5 0 t
469.04 47.52 (0.010) .5 0 t
np
59.04 87.20 m
0 344.00 l
o
np
59.04 87.20 m
-7.20 0 l
o
np
59.04 156.00 m
-7.20 0 l
o
np
59.04 224.80 m
-7.20 0 l
o
np
59.04 293.60 m
-7.20 0 l
o
np
59.04 362.40 m
-7.20 0 l
o
np
59.04 431.20 m
-7.20 0 l
o
41.76 87.20 (0) .5 90 t
41.76 156.00 (20) .5 90 t
41.76 224.80 (40) .5 90 t
41.76 293.60 (60) .5 90 t
41.76 362.40 (80) .5 90 t
41.76 431.20 (100) .5 90 t
np
59.04 73.44 m
414.72 0 l
0 371.52 l
-414.72 0 l
0 -371.52 l
o
0.00 0.00 504.00 504.00 cl
/Font1 findfont 12 s
0 0 0 srgb
220.71 18.72 (P) 0 ta
-0.600 (odil na populaci) tb gr
12.96 248.86 (V) 90 ta
-0.960 (ek) tb gr
59.04 73.44 473.76 444.96 cl
/bg { 0.2745 0.5098 0.6706 srgb } def
148.23 90.64 118.17 5.16 r p2
147.02 94.08 119.38 5.16 r p2
144.89 97.52 121.51 5.16 r p2
149.81 100.96 116.59 5.16 r p2
158.26 104.40 108.14 5.16 r p2
164.51 107.84 101.89 5.16 r p2
168.78 111.28 97.62 5.16 r p2
172.86 114.72 93.54 5.16 r p2
173.71 118.16 92.69 5.16 r p2
175.57 121.60 90.83 5.16 r p2
175.65 125.04 90.75 5.16 r p2
177.95 128.48 88.45 5.16 r p2
176.85 131.92 89.55 5.16 r p2
176.54 135.36 89.86 5.16 r p2
176.21 138.80 90.19 5.16 r p2
170.54 142.24 95.86 5.16 r p2
159.98 145.68 106.42 5.16 r p2
146.00 149.12 120.40 5.16 r p2
144.31 152.56 122.09 5.16 r p2
137.05 156.00 129.35 5.16 r p2
136.18 159.44 130.22 5.16 r p2
136.72 162.88 129.68 5.16 r p2
130.95 166.32 135.45 5.16 r p2
130.74 169.76 135.66 5.16 r p2
127.59 173.20 138.81 5.16 r p2
124.55 176.64 141.85 5.16 r p2
123.12 180.08 143.28 5.16 r p2
122.51 183.52 143.89 5.16 r p2
119.56 186.96 146.84 5.16 r p2
118.04 190.40 148.36 5.16 r p2
108.19 193.84 158.21 5.16 r p2
92.62 197.28 173.78 5.16 r p2
87.30 200.72 179.10 5.16 r p2
84.60 204.16 181.80 5.16 r p2
79.82 207.60 186.58 5.16 r p2
77.22 211.04 189.18 5.16 r p2
74.40 214.48 192.00 5.16 r p2
85.80 217.92 180.60 5.16 r p2
103.08 221.36 163.32 5.16 r p2
112.92 224.80 153.48 5.16 r p2
118.83 228.24 147.57 5.16 r p2
123.90 231.68 142.50 5.16 r p2
131.11 235.12 135.29 5.16 r p2
130.94 238.56 135.46 5.16 r p2
129.88 242.00 136.52 5.16 r p2
124.50 245.44 141.90 5.16 r p2
117.90 248.88 148.50 5.16 r p2
124.15 252.32 142.25 5.16 r p2
138.29 255.76 128.11 5.16 r p2
141.82 259.20 124.58 5.16 r p2
143.97 262.64 122.43 5.16 r p2
145.69 266.08 120.71 5.16 r p2
137.83 269.52 128.57 5.16 r p2
127.93 272.96 138.47 5.16 r p2
124.97 276.40 141.43 5.16 r p2
123.72 279.84 142.68 5.16 r p2
124.23 283.28 142.17 5.16 r p2
123.52 286.72 142.88 5.16 r p2
122.30 290.16 144.10 5.16 r p2
123.55 293.60 142.85 5.16 r p2
126.36 297.04 140.04 5.16 r p2
131.89 300.48 134.51 5.16 r p2
128.31 303.92 138.09 5.16 r p2
126.18 307.36 140.22 5.16 r p2
133.10 310.80 133.30 5.16 r p2
161.78 314.24 104.62 5.16 r p2
158.62 317.68 107.78 5.16 r p2
163.72 321.12 102.68 5.16 r p2
177.87 324.56 88.53 5.16 r p2
183.81 328.00 82.59 5.16 r p2
187.34 331.44 79.06 5.16 r p2
199.79 334.88 66.61 5.16 r p2
204.32 338.32 62.08 5.16 r p2
209.86 341.76 56.54 5.16 r p2
213.56 345.20 52.84 5.16 r p2
215.20 348.64 51.20 5.16 r p2
217.21 352.08 49.19 5.16 r p2
219.28 355.52 47.12 5.16 r p2
219.93 358.96 46.47 5.16 r p2
223.78 362.40 42.62 5.16 r p2
226.68 365.84 39.72 5.16 r p2
231.65 369.28 34.75 5.16 r p2
235.75 372.72 30.65 5.16 r p2
240.24 376.16 26.16 5.16 r p2
243.61 379.60 22.79 5.16 r p2
246.94 383.04 19.46 5.16 r p2
250.40 386.48 16.00 5.16 r p2
252.87 389.92 13.53 5.16 r p2
256.04 393.36 10.36 5.16 r p2
258.54 396.80 7.86 5.16 r p2
260.97 400.24 5.43 5.16 r p2
262.89 403.68 3.51 5.16 r p2
264.95 407.12 1.45 5.16 r p2
265.35 410.56 1.05 5.16 r p2
265.61 414.00 0.79 5.16 r p2
265.68 417.44 0.72 5.16 r p2
265.72 420.88 0.68 5.16 r p2
265.93 424.32 0.47 5.16 r p2
266.14 427.76 0.26 5.16 r p2
266.25 431.20 0.15 5.16 r p2
266.19 434.64 0.21 5.16 r p2
/bg { 0.6706 0.2745 0.3137 srgb } def
378.40 90.64 -112.00 5.16 r p2
381.09 94.08 -114.69 5.16 r p2
382.14 97.52 -115.74 5.16 r p2
378.31 100.96 -111.91 5.16 r p2
368.26 104.40 -101.86 5.16 r p2
363.26 107.84 -96.86 5.16 r p2
358.33 111.28 -91.93 5.16 r p2
354.99 114.72 -88.59 5.16 r p2
354.10 118.16 -87.70 5.16 r p2
352.35 121.60 -85.95 5.16 r p2
350.97 125.04 -84.57 5.16 r p2
350.60 128.48 -84.20 5.16 r p2
351.13 131.92 -84.73 5.16 r p2
351.75 135.36 -85.35 5.16 r p2
351.83 138.80 -85.43 5.16 r p2
356.99 142.24 -90.59 5.16 r p2
367.48 145.68 -101.08 5.16 r p2
381.21 149.12 -114.81 5.16 r p2
382.10 152.56 -115.70 5.16 r p2
388.91 156.00 -122.51 5.16 r p2
391.41 159.44 -125.01 5.16 r p2
391.19 162.88 -124.79 5.16 r p2
396.33 166.32 -129.93 5.16 r p2
394.49 169.76 -128.09 5.16 r p2
396.76 173.20 -130.36 5.16 r p2
400.21 176.64 -133.81 5.16 r p2
400.75 180.08 -134.35 5.16 r p2
401.64 183.52 -135.24 5.16 r p2
405.50 186.96 -139.10 5.16 r p2
406.55 190.40 -140.15 5.16 r p2
414.02 193.84 -147.62 5.16 r p2
430.35 197.28 -163.95 5.16 r p2
436.01 200.72 -169.61 5.16 r p2
438.66 204.16 -172.26 5.16 r p2
443.02 207.60 -176.62 5.16 r p2
446.93 211.04 -180.53 5.16 r p2
447.95 214.48 -181.55 5.16 r p2
435.74 217.92 -169.34 5.16 r p2
420.24 221.36 -153.84 5.16 r p2
411.75 224.80 -145.35 5.16 r p2
406.31 228.24 -139.91 5.16 r p2
400.40 231.68 -134.00 5.16 r p2
394.52 235.12 -128.12 5.16 r p2
394.62 238.56 -128.22 5.16 r p2
396.74 242.00 -130.34 5.16 r p2
401.79 245.44 -135.39 5.16 r p2
407.89 248.88 -141.49 5.16 r p2
403.91 252.32 -137.51 5.16 r p2
390.33 255.76 -123.93 5.16 r p2
387.77 259.20 -121.37 5.16 r p2
385.19 262.64 -118.79 5.16 r p2
384.33 266.08 -117.93 5.16 r p2
395.41 269.52 -129.01 5.16 r p2
405.02 272.96 -138.62 5.16 r p2
410.60 276.40 -144.20 5.16 r p2
412.50 279.84 -146.10 5.16 r p2
413.82 283.28 -147.42 5.16 r p2
414.70 286.72 -148.30 5.16 r p2
418.34 290.16 -151.94 5.16 r p2
420.02 293.60 -153.62 5.16 r p2
416.60 297.04 -150.20 5.16 r p2
413.34 300.48 -146.94 5.16 r p2
417.12 303.92 -150.72 5.16 r p2
423.39 307.36 -156.99 5.16 r p2
418.31 310.80 -151.91 5.16 r p2
389.60 314.24 -123.20 5.16 r p2
393.85 317.68 -127.45 5.16 r p2
389.59 321.12 -123.19 5.16 r p2
374.44 324.56 -108.04 5.16 r p2
369.30 328.00 -102.90 5.16 r p2
365.89 331.44 -99.49 5.16 r p2
354.62 334.88 -88.22 5.16 r p2
350.12 338.32 -83.72 5.16 r p2
344.45 341.76 -78.05 5.16 r p2
342.67 345.20 -76.27 5.16 r p2
341.33 348.64 -74.93 5.16 r p2
340.85 352.08 -74.45 5.16 r p2
339.49 355.52 -73.09 5.16 r p2
340.96 358.96 -74.56 5.16 r p2
338.23 362.40 -71.83 5.16 r p2
336.53 365.84 -70.13 5.16 r p2
329.20 369.28 -62.80 5.16 r p2
325.30 372.72 -58.90 5.16 r p2
319.44 376.16 -53.04 5.16 r p2
314.99 379.60 -48.59 5.16 r p2
309.85 383.04 -43.45 5.16 r p2
305.60 386.48 -39.20 5.16 r p2
300.56 389.92 -34.16 5.16 r p2
294.59 393.36 -28.19 5.16 r p2
289.02 396.80 -22.62 5.16 r p2
282.28 400.24 -15.88 5.16 r p2
276.78 403.68 -10.38 5.16 r p2
270.98 407.12 -4.58 5.16 r p2
269.95 410.56 -3.55 5.16 r p2
269.33 414.00 -2.93 5.16 r p2
269.10 417.44 -2.70 5.16 r p2
268.97 420.88 -2.57 5.16 r p2
268.05 424.32 -1.65 5.16 r p2
267.55 427.76 -1.15 5.16 r p2
267.04 431.20 -0.64 5.16 r p2
267.22 434.64 -0.82 5.16 r p2
0 0 0 srgb
0.75 setlinewidth
[] 0 setdash
1 setlinecap
1 setlinejoin
10.00 setmiterlimit
399.95 444.96 73.81 -43.20 r p1
0.2745 0.5098 0.6706 srgb
2.25 setlinewidth
[] 0 setdash
np
410.75 430.56 m
21.60 0 l
o
0.6706 0.2745 0.3137 srgb
np
410.75 416.16 m
21.60 0 l
o
/Font1 findfont 12 s
0 0 0 srgb
443.15 426.25 (m) 0 ta
-0.120 (uzi) tb gr
443.15 411.85 (z) 0 ta
-0.180 (en) tb
-0.180 (y) tb gr
ep
%%Trailer
%%Pages: 1
%%EOF
