%!PS-Adobe-3.0 EPSF-3.0
%%DocumentNeededResources: font Helvetica
%%+ font Helvetica-Bold
%%+ font Helvetica-Oblique
%%+ font Helvetica-BoldOblique
%%+ font Symbol
%%Title: R Graphics Output
%%Creator: R Software
%%Pages: (atend)
%%BoundingBox: 0 0 216 234
%%EndComments
%%BeginProlog
/bp  { gs sRGB gs } def
% begin .ps.prolog
/gs  { gsave } bind def
/gr  { grestore } bind def
/ep  { showpage gr gr } bind def
/m   { moveto } bind def
/l  { rlineto } bind def
/np  { newpath } bind def
/cp  { closepath } bind def
/f   { fill } bind def
/o   { stroke } bind def
/c   { newpath 0 360 arc } bind def
/r   { 4 2 roll moveto 1 copy 3 -1 roll exch 0 exch rlineto 0 rlineto -1 mul 0 exch rlineto closepath } bind def
/p1  { stroke } bind def
/p2  { gsave bg fill grestore newpath } bind def
/p3  { gsave bg fill grestore stroke } bind def
/p6  { gsave bg eofill grestore newpath } bind def
/p7  { gsave bg eofill grestore stroke } bind def
/t   { 5 -2 roll moveto gsave rotate
       1 index stringwidth pop
       mul neg 0 rmoveto show grestore } bind def
/ta  { 4 -2 roll moveto gsave rotate show } bind def
/tb  { 2 -1 roll 0 rmoveto show } bind def
/cl  { grestore gsave newpath 3 index 3 index moveto 1 index
       4 -1 roll lineto  exch 1 index lineto lineto
       closepath clip newpath } bind def
/rgb { setrgbcolor } bind def
/s   { scalefont setfont } bind def
% end   .ps.prolog
/sRGB { [ /CIEBasedABC
          << /DecodeLMN
               [ { dup 0.03928 le
                        {12.92321 div}
                        {0.055 add 1.055 div 2.4 exp }
                     ifelse
                 } bind dup dup
               ]
             /MatrixLMN [0.412457 0.212673 0.019334
                         0.357576 0.715152 0.119192
                         0.180437 0.072175 0.950301]
             /WhitePoint [0.9505 1.0 1.0890]
           >>
         ] setcolorspace } bind def
/srgb { setcolor } bind def
%%IncludeResource: font Helvetica
/Helvetica findfont
dup length dict begin
  {1 index /FID ne {def} {pop pop} ifelse} forall
  /Encoding ISOLatin1Encoding def
  currentdict
  end
/Font1 exch definefont pop
%%IncludeResource: font Helvetica-Bold
/Helvetica-Bold findfont
dup length dict begin
  {1 index /FID ne {def} {pop pop} ifelse} forall
  /Encoding ISOLatin1Encoding def
  currentdict
  end
/Font2 exch definefont pop
%%IncludeResource: font Helvetica-Oblique
/Helvetica-Oblique findfont
dup length dict begin
  {1 index /FID ne {def} {pop pop} ifelse} forall
  /Encoding ISOLatin1Encoding def
  currentdict
  end
/Font3 exch definefont pop
%%IncludeResource: font Helvetica-BoldOblique
/Helvetica-BoldOblique findfont
dup length dict begin
  {1 index /FID ne {def} {pop pop} ifelse} forall
  /Encoding ISOLatin1Encoding def
  currentdict
  end
/Font4 exch definefont pop
%%IncludeResource: font Symbol
/Symbol findfont
dup length dict begin
  {1 index /FID ne {def} {pop pop} ifelse} forall
  currentdict
  end
/Font5 exch definefont pop
%%EndProlog
%%Page: 1 1
bp
0.00 0.00 216.00 234.00 cl
/Font1 findfont 12 s
0 0 0 srgb
-2.88 117.00 (y) .5 90 t
43.20 0.00 172.80 234.00 cl
0 0 0 srgb
1.50 setlinewidth
[ 1.50 4.50 7.50 4.50] 0 setdash
1 setlinecap
1 setlinejoin
10.00 setmiterlimit
np
48.00 42.00 m
120.00 0 l
o
1.50 setlinewidth
[ 9.00 6.00] 0 setdash
np
48.00 75.33 m
120.00 0 l
o
1.50 setlinewidth
[ 0.00 6.00 4.50 6.00] 0 setdash
np
48.00 108.67 m
120.00 0 l
o
1.50 setlinewidth
[ 0.00 6.00] 0 setdash
np
48.00 142.00 m
120.00 0 l
o
1.50 setlinewidth
[ 4.50 7.50] 0 setdash
np
48.00 175.33 m
120.00 0 l
o
1.50 setlinewidth
[] 0 setdash
np
48.00 208.67 m
120.00 0 l
o
/Font1 findfont 12 s
108.00 191.12 (1) .5 0 t
108.00 157.78 (2) .5 0 t
108.00 124.56 (3) .5 0 t
108.00 91.12 (4) .5 0 t
108.00 57.99 (5) .5 0 t
108.00 24.56 (6) .5 0 t
108.00 191.12 (1) .5 0 t
108.00 157.78 (2) .5 0 t
108.00 124.56 (3) .5 0 t
108.00 91.12 (4) .5 0 t
108.00 57.99 (5) .5 0 t
108.00 24.56 (6) .5 0 t
ep
%%Trailer
%%Pages: 1
%%EOF
