%!PS-Adobe-3.0 EPSF-3.0
%%DocumentNeededResources: font Helvetica
%%+ font Helvetica-Bold
%%+ font Helvetica-Oblique
%%+ font Helvetica-BoldOblique
%%+ font Symbol
%%Title: R Graphics Output
%%Creator: R Software
%%Pages: (atend)
%%BoundingBox: 0 0 504 504
%%EndComments
%%BeginProlog
/bp  { gs sRGB gs } def
% begin .ps.prolog
/gs  { gsave } bind def
/gr  { grestore } bind def
/ep  { showpage gr gr } bind def
/m   { moveto } bind def
/l  { rlineto } bind def
/np  { newpath } bind def
/cp  { closepath } bind def
/f   { fill } bind def
/o   { stroke } bind def
/c   { newpath 0 360 arc } bind def
/r   { 4 2 roll moveto 1 copy 3 -1 roll exch 0 exch rlineto 0 rlineto -1 mul 0 exch rlineto closepath } bind def
/p1  { stroke } bind def
/p2  { gsave bg fill grestore newpath } bind def
/p3  { gsave bg fill grestore stroke } bind def
/p6  { gsave bg eofill grestore newpath } bind def
/p7  { gsave bg eofill grestore stroke } bind def
/t   { 5 -2 roll moveto gsave rotate
       1 index stringwidth pop
       mul neg 0 rmoveto show grestore } bind def
/ta  { 4 -2 roll moveto gsave rotate show } bind def
/tb  { 2 -1 roll 0 rmoveto show } bind def
/cl  { grestore gsave newpath 3 index 3 index moveto 1 index
       4 -1 roll lineto  exch 1 index lineto lineto
       closepath clip newpath } bind def
/rgb { setrgbcolor } bind def
/s   { scalefont setfont } bind def
% end   .ps.prolog
/sRGB { [ /CIEBasedABC
          << /DecodeLMN
               [ { dup 0.03928 le
                        {12.92321 div}
                        {0.055 add 1.055 div 2.4 exp }
                     ifelse
                 } bind dup dup
               ]
             /MatrixLMN [0.412457 0.212673 0.019334
                         0.357576 0.715152 0.119192
                         0.180437 0.072175 0.950301]
             /WhitePoint [0.9505 1.0 1.0890]
           >>
         ] setcolorspace } bind def
/srgb { setcolor } bind def
%%IncludeResource: font Helvetica
/Helvetica findfont
dup length dict begin
  {1 index /FID ne {def} {pop pop} ifelse} forall
  /Encoding ISOLatin1Encoding def
  currentdict
  end
/Font1 exch definefont pop
%%IncludeResource: font Helvetica-Bold
/Helvetica-Bold findfont
dup length dict begin
  {1 index /FID ne {def} {pop pop} ifelse} forall
  /Encoding ISOLatin1Encoding def
  currentdict
  end
/Font2 exch definefont pop
%%IncludeResource: font Helvetica-Oblique
/Helvetica-Oblique findfont
dup length dict begin
  {1 index /FID ne {def} {pop pop} ifelse} forall
  /Encoding ISOLatin1Encoding def
  currentdict
  end
/Font3 exch definefont pop
%%IncludeResource: font Helvetica-BoldOblique
/Helvetica-BoldOblique findfont
dup length dict begin
  {1 index /FID ne {def} {pop pop} ifelse} forall
  /Encoding ISOLatin1Encoding def
  currentdict
  end
/Font4 exch definefont pop
%%IncludeResource: font Symbol
/Symbol findfont
dup length dict begin
  {1 index /FID ne {def} {pop pop} ifelse} forall
  currentdict
  end
/Font5 exch definefont pop
%%EndProlog
%%Page: 1 1
bp
0.00 252.00 252.00 504.00 cl
/Font2 findfont 12 s
0 0 0 srgb
137.95 475.19 (Histogram of rnorm\(50\)) .5 0 t
/Font1 findfont 10 s
116.01 267.54 (r) 0 ta
0.250 (nor) tb
0.250 (m\(50\)) tb gr
10.76 383.98 (Frequency) .5 90 t
0.00 0.00 504.00 504.00 cl
0 0 0 srgb
0.75 setlinewidth
[] 0 setdash
1 setlinecap
1 setlinejoin
10.00 setmiterlimit
np
55.59 312.96 m
146.42 0 l
o
np
55.59 312.96 m
0 -5.98 l
o
np
92.20 312.96 m
0 -5.98 l
o
np
128.80 312.96 m
0 -5.98 l
o
np
165.41 312.96 m
0 -5.98 l
o
np
202.01 312.96 m
0 -5.98 l
o
/Font1 findfont 10 s
55.59 291.44 (-2) .5 0 t
92.20 291.44 (-1) .5 0 t
128.80 291.44 (0) .5 0 t
165.41 291.44 (1) .5 0 t
202.01 291.44 (2) .5 0 t
np
49.00 318.22 m
0 131.52 l
o
np
49.00 318.22 m
-5.97 0 l
o
np
49.00 337.00 m
-5.97 0 l
o
np
49.00 355.79 m
-5.97 0 l
o
np
49.00 374.58 m
-5.97 0 l
o
np
49.00 393.37 m
-5.97 0 l
o
np
49.00 412.16 m
-5.97 0 l
o
np
49.00 430.95 m
-5.97 0 l
o
np
49.00 449.74 m
-5.97 0 l
o
34.66 318.22 (0) .5 90 t
34.66 337.00 (2) .5 90 t
34.66 355.79 (4) .5 90 t
34.66 374.58 (6) .5 90 t
34.66 393.37 (8) .5 90 t
34.66 412.16 (10) .5 90 t
34.66 449.74 (14) .5 90 t
49.00 312.96 226.90 455.00 cl
0 0 0 srgb
0.75 setlinewidth
[] 0 setdash
1 setlinecap
1 setlinejoin
10.00 setmiterlimit
55.59 318.22 18.30 28.18 r p1
73.89 318.22 18.30 37.58 r p1
92.20 318.22 18.30 131.52 r p1
110.50 318.22 18.30 75.15 r p1
128.80 318.22 18.30 75.15 r p1
147.10 318.22 18.30 46.97 r p1
165.41 318.22 18.30 28.18 r p1
183.71 318.22 18.30 37.58 r p1
202.01 318.22 18.30 9.39 r p1
301.00 312.96 478.90 455.00 cl
252.00 252.00 504.00 504.00 cl
/Font2 findfont 12 s
0 0 0 srgb
389.95 475.19 (Histogram of runif\(50\)) .5 0 t
/Font1 findfont 10 s
371.34 267.54 (r) 0 ta
0.150 (unif\(50\)) tb gr
262.76 383.98 (Frequency) .5 90 t
0.00 0.00 504.00 504.00 cl
0 0 0 srgb
0.75 setlinewidth
[] 0 setdash
1 setlinecap
1 setlinejoin
10.00 setmiterlimit
np
307.59 312.96 m
164.72 0 l
o
np
307.59 312.96 m
0 -5.98 l
o
np
340.54 312.96 m
0 -5.98 l
o
np
373.48 312.96 m
0 -5.98 l
o
np
406.42 312.96 m
0 -5.98 l
o
np
439.37 312.96 m
0 -5.98 l
o
np
472.31 312.96 m
0 -5.98 l
o
/Font1 findfont 10 s
307.59 291.44 (0.0) .5 0 t
340.54 291.44 (0.2) .5 0 t
373.48 291.44 (0.4) .5 0 t
406.42 291.44 (0.6) .5 0 t
439.37 291.44 (0.8) .5 0 t
472.31 291.44 (1.0) .5 0 t
np
301.00 318.22 m
0 119.56 l
o
np
301.00 318.22 m
-5.97 0 l
o
np
301.00 342.13 m
-5.97 0 l
o
np
301.00 366.04 m
-5.97 0 l
o
np
301.00 389.95 m
-5.97 0 l
o
np
301.00 413.87 m
-5.97 0 l
o
np
301.00 437.78 m
-5.97 0 l
o
286.66 318.22 (0) .5 90 t
286.66 342.13 (2) .5 90 t
286.66 366.04 (4) .5 90 t
286.66 389.95 (6) .5 90 t
286.66 413.87 (8) .5 90 t
286.66 437.78 (10) .5 90 t
301.00 312.96 478.90 455.00 cl
0 0 0 srgb
0.75 setlinewidth
[] 0 setdash
1 setlinecap
1 setlinejoin
10.00 setmiterlimit
307.59 318.22 32.94 107.61 r p1
340.54 318.22 32.94 131.52 r p1
373.48 318.22 32.94 131.52 r p1
406.42 318.22 32.94 119.56 r p1
439.37 318.22 32.94 107.61 r p1
49.00 60.96 226.90 203.00 cl
0.00 0.00 252.00 252.00 cl
/Font2 findfont 12 s
0 0 0 srgb
137.95 223.19 (Histogram of rpois\(50, 1.5\)) .5 0 t
/Font1 findfont 10 s
108.50 15.54 (r) 0 ta
0.300 (pois\(50, 1.5\)) tb gr
10.76 131.98 (Frequency) .5 90 t
0.00 0.00 504.00 504.00 cl
0 0 0 srgb
0.75 setlinewidth
[] 0 setdash
1 setlinecap
1 setlinejoin
10.00 setmiterlimit
np
55.59 60.96 m
164.72 0 l
o
np
55.59 60.96 m
0 -5.98 l
o
np
96.77 60.96 m
0 -5.98 l
o
np
137.95 60.96 m
0 -5.98 l
o
np
179.13 60.96 m
0 -5.98 l
o
np
220.31 60.96 m
0 -5.98 l
o
/Font1 findfont 10 s
55.59 39.44 (0) .5 0 t
96.77 39.44 (1) .5 0 t
137.95 39.44 (2) .5 0 t
179.13 39.44 (3) .5 0 t
220.31 39.44 (4) .5 0 t
np
49.00 66.22 m
0 116.04 l
o
np
49.00 66.22 m
-5.97 0 l
o
np
49.00 104.90 m
-5.97 0 l
o
np
49.00 143.58 m
-5.97 0 l
o
np
49.00 182.26 m
-5.97 0 l
o
34.66 66.22 (0) .5 90 t
34.66 104.90 (5) .5 90 t
34.66 143.58 (10) .5 90 t
34.66 182.26 (15) .5 90 t
49.00 60.96 226.90 203.00 cl
0 0 0 srgb
0.75 setlinewidth
[] 0 setdash
1 setlinecap
1 setlinejoin
10.00 setmiterlimit
55.59 66.22 20.59 77.36 r p1
76.18 66.22 20.59 131.52 r p1
96.77 66.22 20.59 0.00 r p1
117.36 66.22 20.59 85.10 r p1
137.95 66.22 20.59 0.00 r p1
158.54 66.22 20.59 69.63 r p1
179.13 66.22 20.59 0.00 r p1
199.72 66.22 20.59 23.21 r p1
301.00 60.96 478.90 203.00 cl
252.00 0.00 504.00 252.00 cl
/Font2 findfont 12 s
0 0 0 srgb
326.27 223.19 (Histogram of r) 0 ta
0.240 (t\(50, 10\)) tb gr
/Font1 findfont 10 s
369.67 15.54 (r) 0 ta
0.400 (t\(50, 10\)) tb gr
262.76 131.98 (Frequency) .5 90 t
0.00 0.00 504.00 504.00 cl
0 0 0 srgb
0.75 setlinewidth
[] 0 setdash
1 setlinecap
1 setlinejoin
10.00 setmiterlimit
np
307.59 60.96 m
164.72 0 l
o
np
307.59 60.96 m
0 -5.98 l
o
np
331.12 60.96 m
0 -5.98 l
o
np
354.65 60.96 m
0 -5.98 l
o
np
378.19 60.96 m
0 -5.98 l
o
np
401.72 60.96 m
0 -5.98 l
o
np
425.25 60.96 m
0 -5.98 l
o
np
448.78 60.96 m
0 -5.98 l
o
np
472.31 60.96 m
0 -5.98 l
o
/Font1 findfont 10 s
307.59 39.44 (-4) .5 0 t
331.12 39.44 (-3) .5 0 t
354.65 39.44 (-2) .5 0 t
378.19 39.44 (-1) .5 0 t
401.72 39.44 (0) .5 0 t
425.25 39.44 (1) .5 0 t
448.78 39.44 (2) .5 0 t
472.31 39.44 (3) .5 0 t
np
301.00 66.22 m
0 103.83 l
o
np
301.00 66.22 m
-5.97 0 l
o
np
301.00 100.83 m
-5.97 0 l
o
np
301.00 135.44 m
-5.97 0 l
o
np
301.00 170.05 m
-5.97 0 l
o
286.66 66.22 (0) .5 90 t
286.66 100.83 (5) .5 90 t
286.66 135.44 (10) .5 90 t
286.66 170.05 (15) .5 90 t
301.00 60.96 478.90 203.00 cl
0 0 0 srgb
0.75 setlinewidth
[] 0 setdash
1 setlinecap
1 setlinejoin
10.00 setmiterlimit
307.59 66.22 23.53 20.77 r p1
331.12 66.22 23.53 6.92 r p1
354.65 66.22 23.53 48.45 r p1
378.19 66.22 23.53 110.75 r p1
401.72 66.22 23.53 131.52 r p1
425.25 66.22 23.53 20.77 r p1
448.78 66.22 23.53 6.92 r p1
ep
%%Trailer
%%Pages: 1
%%EOF
