%!PS-Adobe-3.0 EPSF-3.0
%%DocumentNeededResources: font Helvetica
%%+ font Helvetica-Bold
%%+ font Helvetica-Oblique
%%+ font Helvetica-BoldOblique
%%+ font Symbol
%%Title: R Graphics Output
%%Creator: R Software
%%Pages: (atend)
%%BoundingBox: 0 0 504 504
%%EndComments
%%BeginProlog
/bp  { gs sRGB gs } def
% begin .ps.prolog
/gs  { gsave } bind def
/gr  { grestore } bind def
/ep  { showpage gr gr } bind def
/m   { moveto } bind def
/l  { rlineto } bind def
/np  { newpath } bind def
/cp  { closepath } bind def
/f   { fill } bind def
/o   { stroke } bind def
/c   { newpath 0 360 arc } bind def
/r   { 4 2 roll moveto 1 copy 3 -1 roll exch 0 exch rlineto 0 rlineto -1 mul 0 exch rlineto closepath } bind def
/p1  { stroke } bind def
/p2  { gsave bg fill grestore newpath } bind def
/p3  { gsave bg fill grestore stroke } bind def
/p6  { gsave bg eofill grestore newpath } bind def
/p7  { gsave bg eofill grestore stroke } bind def
/t   { 5 -2 roll moveto gsave rotate
       1 index stringwidth pop
       mul neg 0 rmoveto show grestore } bind def
/ta  { 4 -2 roll moveto gsave rotate show } bind def
/tb  { 2 -1 roll 0 rmoveto show } bind def
/cl  { grestore gsave newpath 3 index 3 index moveto 1 index
       4 -1 roll lineto  exch 1 index lineto lineto
       closepath clip newpath } bind def
/rgb { setrgbcolor } bind def
/s   { scalefont setfont } bind def
% end   .ps.prolog
/sRGB { [ /CIEBasedABC
          << /DecodeLMN
               [ { dup 0.03928 le
                        {12.92321 div}
                        {0.055 add 1.055 div 2.4 exp }
                     ifelse
                 } bind dup dup
               ]
             /MatrixLMN [0.412457 0.212673 0.019334
                         0.357576 0.715152 0.119192
                         0.180437 0.072175 0.950301]
             /WhitePoint [0.9505 1.0 1.0890]
           >>
         ] setcolorspace } bind def
/srgb { setcolor } bind def
%%IncludeResource: font Helvetica
/Helvetica findfont
dup length dict begin
  {1 index /FID ne {def} {pop pop} ifelse} forall
  /Encoding ISOLatin1Encoding def
  currentdict
  end
/Font1 exch definefont pop
%%IncludeResource: font Helvetica-Bold
/Helvetica-Bold findfont
dup length dict begin
  {1 index /FID ne {def} {pop pop} ifelse} forall
  /Encoding ISOLatin1Encoding def
  currentdict
  end
/Font2 exch definefont pop
%%IncludeResource: font Helvetica-Oblique
/Helvetica-Oblique findfont
dup length dict begin
  {1 index /FID ne {def} {pop pop} ifelse} forall
  /Encoding ISOLatin1Encoding def
  currentdict
  end
/Font3 exch definefont pop
%%IncludeResource: font Helvetica-BoldOblique
/Helvetica-BoldOblique findfont
dup length dict begin
  {1 index /FID ne {def} {pop pop} ifelse} forall
  /Encoding ISOLatin1Encoding def
  currentdict
  end
/Font4 exch definefont pop
%%IncludeResource: font Symbol
/Symbol findfont
dup length dict begin
  {1 index /FID ne {def} {pop pop} ifelse} forall
  currentdict
  end
/Font5 exch definefont pop
%%EndProlog
%%Page: 1 1
bp
0.00 0.00 504.00 504.00 cl
0.00 0.00 504.00 504.00 cl
0.00 0.00 504.00 504.00 cl
0.00 0.00 504.00 504.00 cl
0.00 0.00 504.00 504.00 cl
0.00 0.00 504.00 504.00 cl
0.00 0.00 504.00 504.00 cl
0.00 0.00 504.00 504.00 cl
0.00 0.00 504.00 504.00 cl
0.00 0.00 504.00 504.00 cl
0.00 0.00 504.00 504.00 cl
0.00 0.00 504.00 504.00 cl
0.00 0.00 504.00 504.00 cl
0.00 0.00 504.00 504.00 cl
0.00 0.00 504.00 504.00 cl
0.00 0.00 504.00 504.00 cl
/bg { 0.8000 0.8000 0.8000 srgb } def
0 0 0 srgb
0.75 setlinewidth
[] 0 setdash
1 setlinecap
1 setlinejoin
10.00 setmiterlimit
43.20 429.49 250.69 31.31 r p3
0.00 0.00 504.00 504.00 cl
/bg { 0.8000 0.8000 0.8000 srgb } def
0 0 0 srgb
0.75 setlinewidth
[] 0 setdash
1 setlinecap
1 setlinejoin
10.00 setmiterlimit
43.20 389.94 250.69 35.23 r p3
0.00 0.00 504.00 504.00 cl
0.00 0.00 504.00 504.00 cl
/bg { 0.8000 0.8000 0.8000 srgb } def
0 0 0 srgb
0.75 setlinewidth
[] 0 setdash
1 setlinecap
1 setlinejoin
10.00 setmiterlimit
300.37 424.20 73.73 36.60 r p3
0.00 0.00 504.00 504.00 cl
/bg { 0.8000 0.8000 0.8000 srgb } def
0 0 0 srgb
0.75 setlinewidth
[] 0 setdash
1 setlinecap
1 setlinejoin
10.00 setmiterlimit
300.37 389.94 73.73 29.94 r p3
0.00 0.00 504.00 504.00 cl
0.00 0.00 504.00 504.00 cl
/bg { 0.8000 0.8000 0.8000 srgb } def
0 0 0 srgb
0.75 setlinewidth
[] 0 setdash
1 setlinecap
1 setlinejoin
10.00 setmiterlimit
380.59 416.44 55.30 44.36 r p3
0.00 0.00 504.00 504.00 cl
/bg { 0.8000 0.8000 0.8000 srgb } def
0 0 0 srgb
0.75 setlinewidth
[] 0 setdash
1 setlinecap
1 setlinejoin
10.00 setmiterlimit
380.59 389.94 55.30 22.18 r p3
0.00 0.00 504.00 504.00 cl
0.00 0.00 504.00 504.00 cl
/bg { 0.8000 0.8000 0.8000 srgb } def
0 0 0 srgb
0.75 setlinewidth
[] 0 setdash
1 setlinecap
1 setlinejoin
10.00 setmiterlimit
442.37 420.87 18.43 39.93 r p3
0.00 0.00 504.00 504.00 cl
/bg { 0.8000 0.8000 0.8000 srgb } def
0 0 0 srgb
0.75 setlinewidth
[] 0 setdash
1 setlinecap
1 setlinejoin
10.00 setmiterlimit
442.37 389.94 18.43 26.62 r p3
0.00 0.00 504.00 504.00 cl
0.00 0.00 504.00 504.00 cl
0.00 0.00 504.00 504.00 cl
/bg { 0.8000 0.8000 0.8000 srgb } def
0 0 0 srgb
0.75 setlinewidth
[] 0 setdash
1 setlinecap
1 setlinejoin
10.00 setmiterlimit
43.20 298.56 165.67 81.65 r p3
0.00 0.00 504.00 504.00 cl
/bg { 0.8000 0.8000 0.8000 srgb } def
0 0 0 srgb
0.75 setlinewidth
[] 0 setdash
1 setlinecap
1 setlinejoin
10.00 setmiterlimit
43.20 192.56 165.67 101.68 r p3
0.00 0.00 504.00 504.00 cl
0.00 0.00 504.00 504.00 cl
/bg { 0.8000 0.8000 0.8000 srgb } def
0 0 0 srgb
0.75 setlinewidth
[] 0 setdash
1 setlinecap
1 setlinejoin
10.00 setmiterlimit
215.35 271.09 116.94 109.13 r p3
0.00 0.00 504.00 504.00 cl
/bg { 0.8000 0.8000 0.8000 srgb } def
0 0 0 srgb
0.75 setlinewidth
[] 0 setdash
1 setlinecap
1 setlinejoin
10.00 setmiterlimit
215.35 192.56 116.94 74.21 r p3
0.00 0.00 504.00 504.00 cl
0.00 0.00 504.00 504.00 cl
/bg { 0.8000 0.8000 0.8000 srgb } def
0 0 0 srgb
0.75 setlinewidth
[] 0 setdash
1 setlinecap
1 setlinejoin
10.00 setmiterlimit
338.77 295.34 75.18 84.88 r p3
0.00 0.00 504.00 504.00 cl
/bg { 0.8000 0.8000 0.8000 srgb } def
0 0 0 srgb
0.75 setlinewidth
[] 0 setdash
1 setlinecap
1 setlinejoin
10.00 setmiterlimit
338.77 192.56 75.18 98.46 r p3
0.00 0.00 504.00 504.00 cl
0.00 0.00 504.00 504.00 cl
/bg { 0.8000 0.8000 0.8000 srgb } def
0 0 0 srgb
0.75 setlinewidth
[] 0 setdash
1 setlinecap
1 setlinejoin
10.00 setmiterlimit
420.43 285.39 40.37 94.83 r p3
0.00 0.00 504.00 504.00 cl
/bg { 0.8000 0.8000 0.8000 srgb } def
0 0 0 srgb
0.75 setlinewidth
[] 0 setdash
1 setlinecap
1 setlinejoin
10.00 setmiterlimit
420.43 192.56 40.37 88.51 r p3
0.00 0.00 504.00 504.00 cl
0.00 0.00 504.00 504.00 cl
0.00 0.00 504.00 504.00 cl
/bg { 0.8000 0.8000 0.8000 srgb } def
0 0 0 srgb
0.75 setlinewidth
[] 0 setdash
1 setlinecap
1 setlinejoin
10.00 setmiterlimit
43.20 166.58 145.81 16.26 r p3
0.00 0.00 504.00 504.00 cl
/bg { 0.8000 0.8000 0.8000 srgb } def
0 0 0 srgb
0.75 setlinewidth
[] 0 setdash
1 setlinecap
1 setlinejoin
10.00 setmiterlimit
43.20 136.25 145.81 26.01 r p3
0.00 0.00 504.00 504.00 cl
0.00 0.00 504.00 504.00 cl
/bg { 0.8000 0.8000 0.8000 srgb } def
0 0 0 srgb
0.75 setlinewidth
[] 0 setdash
1 setlinecap
1 setlinejoin
10.00 setmiterlimit
195.49 157.97 95.33 24.86 r p3
0.00 0.00 504.00 504.00 cl
/bg { 0.8000 0.8000 0.8000 srgb } def
0 0 0 srgb
0.75 setlinewidth
[] 0 setdash
1 setlinecap
1 setlinejoin
10.00 setmiterlimit
195.49 136.25 95.33 17.40 r p3
0.00 0.00 504.00 504.00 cl
0.00 0.00 504.00 504.00 cl
/bg { 0.8000 0.8000 0.8000 srgb } def
0 0 0 srgb
0.75 setlinewidth
[] 0 setdash
1 setlinecap
1 setlinejoin
10.00 setmiterlimit
297.30 161.70 78.51 21.13 r p3
0.00 0.00 504.00 504.00 cl
/bg { 0.8000 0.8000 0.8000 srgb } def
0 0 0 srgb
0.75 setlinewidth
[] 0 setdash
1 setlinecap
1 setlinejoin
10.00 setmiterlimit
297.30 136.25 78.51 21.13 r p3
0.00 0.00 504.00 504.00 cl
0.00 0.00 504.00 504.00 cl
/bg { 0.8000 0.8000 0.8000 srgb } def
0 0 0 srgb
0.75 setlinewidth
[] 0 setdash
1 setlinecap
1 setlinejoin
10.00 setmiterlimit
382.29 161.70 78.51 21.13 r p3
0.00 0.00 504.00 504.00 cl
/bg { 0.8000 0.8000 0.8000 srgb } def
0 0 0 srgb
0.75 setlinewidth
[] 0 setdash
1 setlinecap
1 setlinejoin
10.00 setmiterlimit
382.29 136.25 78.51 21.13 r p3
0.00 0.00 504.00 504.00 cl
0.00 0.00 504.00 504.00 cl
0.00 0.00 504.00 504.00 cl
/bg { 0.8000 0.8000 0.8000 srgb } def
0 0 0 srgb
0.75 setlinewidth
[] 0 setdash
1 setlinecap
1 setlinejoin
10.00 setmiterlimit
43.20 92.67 21.95 33.86 r p3
0.00 0.00 504.00 504.00 cl
/bg { 0.8000 0.8000 0.8000 srgb } def
0 0 0 srgb
0.75 setlinewidth
[] 0 setdash
1 setlinecap
1 setlinejoin
10.00 setmiterlimit
43.20 43.20 21.95 45.15 r p3
0.00 0.00 504.00 504.00 cl
0.00 0.00 504.00 504.00 cl
/bg { 0.8000 0.8000 0.8000 srgb } def
0 0 0 srgb
0.75 setlinewidth
[] 0 setdash
1 setlinecap
1 setlinejoin
10.00 setmiterlimit
71.63 101.31 294.70 25.22 r p3
0.00 0.00 504.00 504.00 cl
/bg { 0.8000 0.8000 0.8000 srgb } def
0 0 0 srgb
0.75 setlinewidth
[] 0 setdash
1 setlinecap
1 setlinejoin
10.00 setmiterlimit
71.63 43.20 294.70 53.79 r p3
0.00 0.00 504.00 504.00 cl
0.00 0.00 504.00 504.00 cl
/bg { 0.8000 0.8000 0.8000 srgb } def
0 0 0 srgb
0.75 setlinewidth
[] 0 setdash
1 setlinecap
1 setlinejoin
10.00 setmiterlimit
372.81 87.03 31.35 39.51 r p3
0.00 0.00 504.00 504.00 cl
/bg { 0.8000 0.8000 0.8000 srgb } def
0 0 0 srgb
0.75 setlinewidth
[] 0 setdash
1 setlinecap
1 setlinejoin
10.00 setmiterlimit
372.81 43.20 31.35 39.51 r p3
0.00 0.00 504.00 504.00 cl
0.00 0.00 504.00 504.00 cl
/bg { 0.8000 0.8000 0.8000 srgb } def
0 0 0 srgb
0.75 setlinewidth
[] 0 setdash
1 setlinecap
1 setlinejoin
10.00 setmiterlimit
410.64 87.03 50.16 39.51 r p3
0.00 0.00 504.00 504.00 cl
/bg { 0.8000 0.8000 0.8000 srgb } def
0 0 0 srgb
0.75 setlinewidth
[] 0 setdash
1 setlinecap
1 setlinejoin
10.00 setmiterlimit
410.64 43.20 50.16 39.51 r p3
0.00 0.00 504.00 504.00 cl
0.00 0.00 504.00 504.00 cl
0.00 0.00 504.00 504.00 cl
0.00 0.00 504.00 504.00 cl
/Font2 findfont 12 s
0 0 0 srgb
241.33 485.29 (Ey) 0 ta
-0.120 (e) tb gr
18.71 252.00 (Hair) .5 90 t
493.91 241.33 (Se) 90 ta
-0.180 (x) tb gr
0.00 0.00 504.00 504.00 cl
/Font1 findfont 12 s
0 0 0 srgb
33.11 84.87 (Blond) .5 90 t
0.00 0.00 504.00 504.00 cl
/Font1 findfont 12 s
0 0 0 srgb
480.95 42.95 (F) 90 ta
-0.360 (emale) tb gr
0.00 0.00 504.00 504.00 cl
/Font1 findfont 12 s
0 0 0 srgb
480.95 106.78 (Male) .5 90 t
0.00 0.00 504.00 504.00 cl
/Font1 findfont 12 s
0 0 0 srgb
33.11 159.54 (Red) .5 90 t
0.00 0.00 504.00 504.00 cl
/Font1 findfont 12 s
0 0 0 srgb
480.95 126.81 (F) 90 ta
-0.360 (emale) tb gr
0.00 0.00 504.00 504.00 cl
/Font1 findfont 12 s
0 0 0 srgb
480.95 172.27 (Male) .5 90 t
0.00 0.00 504.00 504.00 cl
/Font1 findfont 12 s
0 0 0 srgb
33.11 269.38 (Bro) 90 ta
-0.180 (wn) tb gr
0.00 0.00 504.00 504.00 cl
/Font1 findfont 12 s
0 0 0 srgb
480.95 216.81 (F) 90 ta
-0.360 (emale) tb gr
0.00 0.00 504.00 504.00 cl
/Font1 findfont 12 s
0 0 0 srgb
480.95 332.80 (Male) .5 90 t
0.00 0.00 504.00 504.00 cl
/Font1 findfont 12 s
0 0 0 srgb
33.11 425.37 (Black) .5 90 t
0.00 0.00 504.00 504.00 cl
/Font1 findfont 12 s
0 0 0 srgb
151.54 470.89 (Bro) 0 ta
-0.180 (wn) tb gr
0.00 0.00 504.00 504.00 cl
/Font1 findfont 12 s
0 0 0 srgb
337.24 470.89 (Blue) .5 0 t
0.00 0.00 504.00 504.00 cl
/Font1 findfont 12 s
0 0 0 srgb
392.90 470.89 (Haz) 0 ta
-0.180 (el) tb gr
0.00 0.00 504.00 504.00 cl
/Font1 findfont 12 s
0 0 0 srgb
451.58 470.89 (Green) .5 0 t
0.00 0.00 504.00 504.00 cl
/Font1 findfont 12 s
0 0 0 srgb
480.95 383.24 (F) 90 ta
-0.360 (emale) tb gr
0.00 0.00 504.00 504.00 cl
/Font1 findfont 12 s
0 0 0 srgb
480.95 440.84 (Male) .5 90 t
0.00 0.00 504.00 504.00 cl
0.00 0.00 504.00 504.00 cl
0.00 0.00 504.00 504.00 cl
ep
%%Trailer
%%Pages: 1
%%EOF
