%!PS-Adobe-3.0 EPSF-3.0
%%DocumentNeededResources: font Helvetica
%%+ font Helvetica-Bold
%%+ font Helvetica-Oblique
%%+ font Helvetica-BoldOblique
%%+ font Symbol
%%Title: R Graphics Output
%%Creator: R Software
%%Pages: (atend)
%%BoundingBox: 0 0 504 504
%%EndComments
%%BeginProlog
/bp  { gs sRGB gs } def
% begin .ps.prolog
/gs  { gsave } bind def
/gr  { grestore } bind def
/ep  { showpage gr gr } bind def
/m   { moveto } bind def
/l  { rlineto } bind def
/np  { newpath } bind def
/cp  { closepath } bind def
/f   { fill } bind def
/o   { stroke } bind def
/c   { newpath 0 360 arc } bind def
/r   { 4 2 roll moveto 1 copy 3 -1 roll exch 0 exch rlineto 0 rlineto -1 mul 0 exch rlineto closepath } bind def
/p1  { stroke } bind def
/p2  { gsave bg fill grestore newpath } bind def
/p3  { gsave bg fill grestore stroke } bind def
/p6  { gsave bg eofill grestore newpath } bind def
/p7  { gsave bg eofill grestore stroke } bind def
/t   { 5 -2 roll moveto gsave rotate
       1 index stringwidth pop
       mul neg 0 rmoveto show grestore } bind def
/ta  { 4 -2 roll moveto gsave rotate show } bind def
/tb  { 2 -1 roll 0 rmoveto show } bind def
/cl  { grestore gsave newpath 3 index 3 index moveto 1 index
       4 -1 roll lineto  exch 1 index lineto lineto
       closepath clip newpath } bind def
/rgb { setrgbcolor } bind def
/s   { scalefont setfont } bind def
% end   .ps.prolog
/sRGB { [ /CIEBasedABC
          << /DecodeLMN
               [ { dup 0.03928 le
                        {12.92321 div}
                        {0.055 add 1.055 div 2.4 exp }
                     ifelse
                 } bind dup dup
               ]
             /MatrixLMN [0.412457 0.212673 0.019334
                         0.357576 0.715152 0.119192
                         0.180437 0.072175 0.950301]
             /WhitePoint [0.9505 1.0 1.0890]
           >>
         ] setcolorspace } bind def
/srgb { setcolor } bind def
%%IncludeResource: font Helvetica
/Helvetica findfont
dup length dict begin
  {1 index /FID ne {def} {pop pop} ifelse} forall
  /Encoding ISOLatin1Encoding def
  currentdict
  end
/Font1 exch definefont pop
%%IncludeResource: font Helvetica-Bold
/Helvetica-Bold findfont
dup length dict begin
  {1 index /FID ne {def} {pop pop} ifelse} forall
  /Encoding ISOLatin1Encoding def
  currentdict
  end
/Font2 exch definefont pop
%%IncludeResource: font Helvetica-Oblique
/Helvetica-Oblique findfont
dup length dict begin
  {1 index /FID ne {def} {pop pop} ifelse} forall
  /Encoding ISOLatin1Encoding def
  currentdict
  end
/Font3 exch definefont pop
%%IncludeResource: font Helvetica-BoldOblique
/Helvetica-BoldOblique findfont
dup length dict begin
  {1 index /FID ne {def} {pop pop} ifelse} forall
  /Encoding ISOLatin1Encoding def
  currentdict
  end
/Font4 exch definefont pop
%%IncludeResource: font Symbol
/Symbol findfont
dup length dict begin
  {1 index /FID ne {def} {pop pop} ifelse} forall
  currentdict
  end
/Font5 exch definefont pop
%%EndProlog
%%Page: 1 1
bp
0.00 0.00 504.00 504.00 cl
0.00 0.00 504.00 504.00 cl
0.00 0.00 504.00 504.00 cl
0.00 0.00 504.00 504.00 cl
0.00 0.00 504.00 504.00 cl
0.00 0.00 504.00 504.00 cl
0.00 0.00 504.00 504.00 cl
0.00 0.00 504.00 504.00 cl
0.00 0.00 504.00 504.00 cl
0.00 0.00 504.00 504.00 cl
0.00 0.00 504.00 504.00 cl
0.00 0.00 504.00 504.00 cl
0.00 0.00 504.00 504.00 cl
0.00 0.00 504.00 504.00 cl
0.00 0.00 504.00 504.00 cl
0.00 0.00 504.00 504.00 cl
/bg { 0.8275 0.2471 0.4157 srgb } def
446.40 84.96 10.08 5.32 r p2
/bg { 0.8941 0.5843 0.6471 srgb } def
446.40 90.28 10.08 54.69 r p2
/bg { 0.8863 0.8863 0.8863 srgb } def
446.40 144.97 10.08 54.69 r p2
446.40 199.67 10.08 54.69 r p2
/bg { 0.6157 0.6588 0.8863 srgb } def
446.40 254.36 10.08 54.69 r p2
/bg { 0.2902 0.4353 0.8902 srgb } def
446.40 309.05 10.08 109.99 r p2
0 0 0 srgb
0.75 setlinewidth
[] 0 setdash
1 setlinecap
1 setlinejoin
10.00 setmiterlimit
446.40 84.96 10.08 334.08 r p1
/Font1 findfont 12 s
498.36 80.65 (-4.19) 1 0 t
498.36 140.67 (-2.00) 1 0 t
498.36 195.36 ( 0.00) 1 0 t
498.36 250.05 ( 2.00) 1 0 t
498.36 304.75 ( 4.00) 1 0 t
498.36 414.73 ( 8.02) 1 0 t
np
456.48 84.96 m
7.20 0 l
o
np
456.48 90.28 m
7.20 0 l
o
np
456.48 144.97 m
7.20 0 l
o
np
456.48 199.67 m
7.20 0 l
o
np
456.48 254.36 m
7.20 0 l
o
np
456.48 309.05 m
7.20 0 l
o
np
456.48 419.04 m
7.20 0 l
o
0.00 0.00 504.00 504.00 cl
/Font1 findfont 12 s
0 0 0 srgb
441.60 440.16 (P) 0 ta
-0.600 (earson) tb gr
441.60 428.64 (residuals:) 0 0 t
441.60 66.74 (p-v) 0 ta
-0.300 (alue =) tb gr
441.60 55.22 (< 2.22e-16) 0 0 t
0.00 0.00 504.00 504.00 cl
/bg { 0.6157 0.6588 0.8863 srgb } def
0 0 0 srgb
0.75 setlinewidth
[] 0 setdash
1 setlinecap
1 setlinejoin
10.00 setmiterlimit
43.20 429.49 205.36 31.31 r p3
0.00 0.00 504.00 504.00 cl
/bg { 0.6157 0.6588 0.8863 srgb } def
0 0 0 srgb
0.75 setlinewidth
[] 0 setdash
1 setlinecap
1 setlinejoin
10.00 setmiterlimit
43.20 389.94 205.36 35.23 r p3
0.00 0.00 504.00 504.00 cl
0.00 0.00 504.00 504.00 cl
/bg { 0.8863 0.8863 0.8863 srgb } def
0 0 0 srgb
0.75 setlinewidth
[] 0 setdash
1 setlinecap
1 setlinejoin
10.00 setmiterlimit
255.04 424.20 60.40 36.60 r p3
0.00 0.00 504.00 504.00 cl
/bg { 0.8941 0.5843 0.6471 srgb } def
0 0 0 srgb
0.75 setlinewidth
[] 0 setdash
1 setlinecap
1 setlinejoin
10.00 setmiterlimit
255.04 389.94 60.40 29.94 r p3
0.00 0.00 504.00 504.00 cl
0.00 0.00 504.00 504.00 cl
/bg { 0.8863 0.8863 0.8863 srgb } def
0 0 0 srgb
0.75 setlinewidth
[] 0 setdash
1 setlinecap
1 setlinejoin
10.00 setmiterlimit
321.92 416.44 45.30 44.36 r p3
0.00 0.00 504.00 504.00 cl
/bg { 0.8863 0.8863 0.8863 srgb } def
0 0 0 srgb
0.75 setlinewidth
[] 0 setdash
1 setlinecap
1 setlinejoin
10.00 setmiterlimit
321.92 389.94 45.30 22.18 r p3
0.00 0.00 504.00 504.00 cl
0.00 0.00 504.00 504.00 cl
/bg { 0.8863 0.8863 0.8863 srgb } def
0 0 0 srgb
0.75 setlinewidth
[] 0 setdash
1 setlinecap
1 setlinejoin
10.00 setmiterlimit
373.70 420.87 15.10 39.93 r p3
0.00 0.00 504.00 504.00 cl
/bg { 0.8863 0.8863 0.8863 srgb } def
0 0 0 srgb
0.75 setlinewidth
[] 0 setdash
1 setlinecap
1 setlinejoin
10.00 setmiterlimit
373.70 389.94 15.10 26.62 r p3
0.00 0.00 504.00 504.00 cl
0.00 0.00 504.00 504.00 cl
0.00 0.00 504.00 504.00 cl
/bg { 0.8863 0.8863 0.8863 srgb } def
0 0 0 srgb
0.75 setlinewidth
[] 0 setdash
1 setlinecap
1 setlinejoin
10.00 setmiterlimit
43.20 298.56 135.71 81.65 r p3
0.00 0.00 504.00 504.00 cl
/bg { 0.8863 0.8863 0.8863 srgb } def
0 0 0 srgb
0.75 setlinewidth
[] 0 setdash
1 setlinecap
1 setlinejoin
10.00 setmiterlimit
43.20 192.56 135.71 101.68 r p3
0.00 0.00 504.00 504.00 cl
0.00 0.00 504.00 504.00 cl
/bg { 0.8863 0.8863 0.8863 srgb } def
0 0 0 srgb
0.75 setlinewidth
[] 0 setdash
1 setlinecap
1 setlinejoin
10.00 setmiterlimit
185.39 271.09 95.80 109.13 r p3
0.00 0.00 504.00 504.00 cl
/bg { 0.8941 0.5843 0.6471 srgb } def
0 0 0 srgb
0.75 setlinewidth
[] 0 setdash
1 setlinecap
1 setlinejoin
10.00 setmiterlimit
185.39 192.56 95.80 74.21 r p3
0.00 0.00 504.00 504.00 cl
0.00 0.00 504.00 504.00 cl
/bg { 0.8863 0.8863 0.8863 srgb } def
0 0 0 srgb
0.75 setlinewidth
[] 0 setdash
1 setlinecap
1 setlinejoin
10.00 setmiterlimit
287.67 295.34 61.58 84.88 r p3
0.00 0.00 504.00 504.00 cl
/bg { 0.8863 0.8863 0.8863 srgb } def
0 0 0 srgb
0.75 setlinewidth
[] 0 setdash
1 setlinecap
1 setlinejoin
10.00 setmiterlimit
287.67 192.56 61.58 98.46 r p3
0.00 0.00 504.00 504.00 cl
0.00 0.00 504.00 504.00 cl
/bg { 0.8863 0.8863 0.8863 srgb } def
0 0 0 srgb
0.75 setlinewidth
[] 0 setdash
1 setlinecap
1 setlinejoin
10.00 setmiterlimit
355.73 285.39 33.07 94.83 r p3
0.00 0.00 504.00 504.00 cl
/bg { 0.8863 0.8863 0.8863 srgb } def
0 0 0 srgb
0.75 setlinewidth
[] 0 setdash
1 setlinecap
1 setlinejoin
10.00 setmiterlimit
355.73 192.56 33.07 88.51 r p3
0.00 0.00 504.00 504.00 cl
0.00 0.00 504.00 504.00 cl
0.00 0.00 504.00 504.00 cl
/bg { 0.8863 0.8863 0.8863 srgb } def
0 0 0 srgb
0.75 setlinewidth
[] 0 setdash
1 setlinecap
1 setlinejoin
10.00 setmiterlimit
43.20 166.58 119.44 16.26 r p3
0.00 0.00 504.00 504.00 cl
/bg { 0.8863 0.8863 0.8863 srgb } def
0 0 0 srgb
0.75 setlinewidth
[] 0 setdash
1 setlinecap
1 setlinejoin
10.00 setmiterlimit
43.20 136.25 119.44 26.01 r p3
0.00 0.00 504.00 504.00 cl
0.00 0.00 504.00 504.00 cl
/bg { 0.8863 0.8863 0.8863 srgb } def
0 0 0 srgb
0.75 setlinewidth
[] 0 setdash
1 setlinecap
1 setlinejoin
10.00 setmiterlimit
169.12 157.97 78.09 24.86 r p3
0.00 0.00 504.00 504.00 cl
/bg { 0.8863 0.8863 0.8863 srgb } def
0 0 0 srgb
0.75 setlinewidth
[] 0 setdash
1 setlinecap
1 setlinejoin
10.00 setmiterlimit
169.12 136.25 78.09 17.40 r p3
0.00 0.00 504.00 504.00 cl
0.00 0.00 504.00 504.00 cl
/bg { 0.8863 0.8863 0.8863 srgb } def
0 0 0 srgb
0.75 setlinewidth
[] 0 setdash
1 setlinecap
1 setlinejoin
10.00 setmiterlimit
253.69 161.70 64.31 21.13 r p3
0.00 0.00 504.00 504.00 cl
/bg { 0.8863 0.8863 0.8863 srgb } def
0 0 0 srgb
0.75 setlinewidth
[] 0 setdash
1 setlinecap
1 setlinejoin
10.00 setmiterlimit
253.69 136.25 64.31 21.13 r p3
0.00 0.00 504.00 504.00 cl
0.00 0.00 504.00 504.00 cl
/bg { 0.8863 0.8863 0.8863 srgb } def
0 0 0 srgb
0.75 setlinewidth
[] 0 setdash
1 setlinecap
1 setlinejoin
10.00 setmiterlimit
324.49 161.70 64.31 21.13 r p3
0.00 0.00 504.00 504.00 cl
/bg { 0.8863 0.8863 0.8863 srgb } def
0 0 0 srgb
0.75 setlinewidth
[] 0 setdash
1 setlinecap
1 setlinejoin
10.00 setmiterlimit
324.49 136.25 64.31 21.13 r p3
0.00 0.00 504.00 504.00 cl
0.00 0.00 504.00 504.00 cl
0.00 0.00 504.00 504.00 cl
/bg { 0.8275 0.2471 0.4157 srgb } def
0 0 0 srgb
0.75 setlinewidth
[] 0 setdash
1 setlinecap
1 setlinejoin
10.00 setmiterlimit
43.20 92.67 17.98 33.86 r p3
0.00 0.00 504.00 504.00 cl
/bg { 0.8275 0.2471 0.4157 srgb } def
0 0 0 srgb
0.75 setlinewidth
[] 0 setdash
1 setlinecap
1 setlinejoin
10.00 setmiterlimit
43.20 43.20 17.98 45.15 r p3
0.00 0.00 504.00 504.00 cl
0.00 0.00 504.00 504.00 cl
/bg { 0.8863 0.8863 0.8863 srgb } def
0 0 0 srgb
0.75 setlinewidth
[] 0 setdash
1 setlinecap
1 setlinejoin
10.00 setmiterlimit
67.66 101.31 241.41 25.22 r p3
0.00 0.00 504.00 504.00 cl
/bg { 0.2902 0.4353 0.8902 srgb } def
0 0 0 srgb
0.75 setlinewidth
[] 0 setdash
1 setlinecap
1 setlinejoin
10.00 setmiterlimit
67.66 43.20 241.41 53.79 r p3
0.00 0.00 504.00 504.00 cl
0.00 0.00 504.00 504.00 cl
/bg { 0.8863 0.8863 0.8863 srgb } def
0 0 0 srgb
0.75 setlinewidth
[] 0 setdash
1 setlinecap
1 setlinejoin
10.00 setmiterlimit
315.55 87.03 25.68 39.51 r p3
0.00 0.00 504.00 504.00 cl
/bg { 0.8863 0.8863 0.8863 srgb } def
0 0 0 srgb
0.75 setlinewidth
[] 0 setdash
1 setlinecap
1 setlinejoin
10.00 setmiterlimit
315.55 43.20 25.68 39.51 r p3
0.00 0.00 504.00 504.00 cl
0.00 0.00 504.00 504.00 cl
/bg { 0.8863 0.8863 0.8863 srgb } def
0 0 0 srgb
0.75 setlinewidth
[] 0 setdash
1 setlinecap
1 setlinejoin
10.00 setmiterlimit
347.71 87.03 41.09 39.51 r p3
0.00 0.00 504.00 504.00 cl
/bg { 0.8863 0.8863 0.8863 srgb } def
0 0 0 srgb
0.75 setlinewidth
[] 0 setdash
1 setlinecap
1 setlinejoin
10.00 setmiterlimit
347.71 43.20 41.09 39.51 r p3
0.00 0.00 504.00 504.00 cl
0.00 0.00 504.00 504.00 cl
0.00 0.00 504.00 504.00 cl
0.00 0.00 504.00 504.00 cl
/Font2 findfont 12 s
0 0 0 srgb
205.33 485.29 (Ey) 0 ta
-0.120 (e) tb gr
18.71 252.00 (Hair) .5 90 t
421.91 241.33 (Se) 90 ta
-0.180 (x) tb gr
0.00 0.00 504.00 504.00 cl
/Font1 findfont 12 s
0 0 0 srgb
33.11 84.87 (Blond) .5 90 t
0.00 0.00 504.00 504.00 cl
/Font1 findfont 12 s
0 0 0 srgb
408.95 42.95 (F) 90 ta
-0.360 (emale) tb gr
0.00 0.00 504.00 504.00 cl
/Font1 findfont 12 s
0 0 0 srgb
408.95 106.78 (Male) .5 90 t
0.00 0.00 504.00 504.00 cl
/Font1 findfont 12 s
0 0 0 srgb
33.11 159.54 (Red) .5 90 t
0.00 0.00 504.00 504.00 cl
/Font1 findfont 12 s
0 0 0 srgb
408.95 126.81 (F) 90 ta
-0.360 (emale) tb gr
0.00 0.00 504.00 504.00 cl
/Font1 findfont 12 s
0 0 0 srgb
408.95 172.27 (Male) .5 90 t
0.00 0.00 504.00 504.00 cl
/Font1 findfont 12 s
0 0 0 srgb
33.11 269.38 (Bro) 90 ta
-0.180 (wn) tb gr
0.00 0.00 504.00 504.00 cl
/Font1 findfont 12 s
0 0 0 srgb
408.95 216.81 (F) 90 ta
-0.360 (emale) tb gr
0.00 0.00 504.00 504.00 cl
/Font1 findfont 12 s
0 0 0 srgb
408.95 332.80 (Male) .5 90 t
0.00 0.00 504.00 504.00 cl
/Font1 findfont 12 s
0 0 0 srgb
33.11 425.37 (Black) .5 90 t
0.00 0.00 504.00 504.00 cl
/Font1 findfont 12 s
0 0 0 srgb
128.88 470.89 (Bro) 0 ta
-0.180 (wn) tb gr
0.00 0.00 504.00 504.00 cl
/Font1 findfont 12 s
0 0 0 srgb
285.24 470.89 (Blue) .5 0 t
0.00 0.00 504.00 504.00 cl
/Font1 findfont 12 s
0 0 0 srgb
329.23 470.89 (Haz) 0 ta
-0.180 (el) tb gr
0.00 0.00 504.00 504.00 cl
/Font1 findfont 12 s
0 0 0 srgb
381.25 470.89 (Green) .5 0 t
0.00 0.00 504.00 504.00 cl
/Font1 findfont 12 s
0 0 0 srgb
408.95 383.24 (F) 90 ta
-0.360 (emale) tb gr
0.00 0.00 504.00 504.00 cl
/Font1 findfont 12 s
0 0 0 srgb
408.95 440.84 (Male) .5 90 t
0.00 0.00 504.00 504.00 cl
0.00 0.00 504.00 504.00 cl
0.00 0.00 504.00 504.00 cl
ep
%%Trailer
%%Pages: 1
%%EOF
