%!PS-Adobe-3.0 EPSF-3.0
%%DocumentNeededResources: font Helvetica
%%+ font Helvetica-Bold
%%+ font Helvetica-Oblique
%%+ font Helvetica-BoldOblique
%%+ font Symbol
%%Title: R Graphics Output
%%Creator: R Software
%%Pages: (atend)
%%BoundingBox: 0 0 504 504
%%EndComments
%%BeginProlog
/bp  { gs sRGB gs } def
% begin .ps.prolog
/gs  { gsave } bind def
/gr  { grestore } bind def
/ep  { showpage gr gr } bind def
/m   { moveto } bind def
/l  { rlineto } bind def
/np  { newpath } bind def
/cp  { closepath } bind def
/f   { fill } bind def
/o   { stroke } bind def
/c   { newpath 0 360 arc } bind def
/r   { 4 2 roll moveto 1 copy 3 -1 roll exch 0 exch rlineto 0 rlineto -1 mul 0 exch rlineto closepath } bind def
/p1  { stroke } bind def
/p2  { gsave bg fill grestore newpath } bind def
/p3  { gsave bg fill grestore stroke } bind def
/p6  { gsave bg eofill grestore newpath } bind def
/p7  { gsave bg eofill grestore stroke } bind def
/t   { 5 -2 roll moveto gsave rotate
       1 index stringwidth pop
       mul neg 0 rmoveto show grestore } bind def
/ta  { 4 -2 roll moveto gsave rotate show } bind def
/tb  { 2 -1 roll 0 rmoveto show } bind def
/cl  { grestore gsave newpath 3 index 3 index moveto 1 index
       4 -1 roll lineto  exch 1 index lineto lineto
       closepath clip newpath } bind def
/rgb { setrgbcolor } bind def
/s   { scalefont setfont } bind def
% end   .ps.prolog
/sRGB { [ /CIEBasedABC
          << /DecodeLMN
               [ { dup 0.03928 le
                        {12.92321 div}
                        {0.055 add 1.055 div 2.4 exp }
                     ifelse
                 } bind dup dup
               ]
             /MatrixLMN [0.412457 0.212673 0.019334
                         0.357576 0.715152 0.119192
                         0.180437 0.072175 0.950301]
             /WhitePoint [0.9505 1.0 1.0890]
           >>
         ] setcolorspace } bind def
/srgb { setcolor } bind def
%%IncludeResource: font Helvetica
/Helvetica findfont
dup length dict begin
  {1 index /FID ne {def} {pop pop} ifelse} forall
  /Encoding ISOLatin1Encoding def
  currentdict
  end
/Font1 exch definefont pop
%%IncludeResource: font Helvetica-Bold
/Helvetica-Bold findfont
dup length dict begin
  {1 index /FID ne {def} {pop pop} ifelse} forall
  /Encoding ISOLatin1Encoding def
  currentdict
  end
/Font2 exch definefont pop
%%IncludeResource: font Helvetica-Oblique
/Helvetica-Oblique findfont
dup length dict begin
  {1 index /FID ne {def} {pop pop} ifelse} forall
  /Encoding ISOLatin1Encoding def
  currentdict
  end
/Font3 exch definefont pop
%%IncludeResource: font Helvetica-BoldOblique
/Helvetica-BoldOblique findfont
dup length dict begin
  {1 index /FID ne {def} {pop pop} ifelse} forall
  /Encoding ISOLatin1Encoding def
  currentdict
  end
/Font4 exch definefont pop
%%IncludeResource: font Symbol
/Symbol findfont
dup length dict begin
  {1 index /FID ne {def} {pop pop} ifelse} forall
  currentdict
  end
/Font5 exch definefont pop
%%EndProlog
%%Page: 1 1
bp
59.04 73.44 473.76 444.96 cl
0 0 0 srgb
2.25 setlinewidth
[] 0 setdash
0 setlinecap
1 setlinejoin
10.00 setmiterlimit
np
97.02 121.67 m
2.76 0 l
o
0.75 setlinewidth
[ 2.25 3.75] 0 setdash
1 setlinecap
np
98.40 121.67 m
0 0 l
o
np
98.40 121.67 m
0 0 l
o
0.75 setlinewidth
[] 0 setdash
np
97.71 121.67 m
1.38 0 l
o
np
97.71 121.67 m
1.38 0 l
o
np
97.02 121.67 m
2.76 0 l
0 0 l
-2.76 0 l
0 0 l
o
2.25 setlinewidth
[] 0 setdash
0 setlinecap
np
127.27 171.49 m
38.26 0 l
o
0.75 setlinewidth
[ 2.25 3.75] 0 setdash
1 setlinecap
np
146.40 98.38 m
0 52.05 l
o
np
146.40 237.93 m
0 -51.02 l
o
0.75 setlinewidth
[] 0 setdash
np
136.84 98.38 m
19.12 0 l
o
np
136.84 237.93 m
19.12 0 l
o
np
127.27 150.43 m
38.26 0 l
0 36.48 l
-38.26 0 l
0 -36.48 l
o
146.40 87.28 2.70 c p1
146.40 87.20 2.70 c p1
2.25 setlinewidth
[] 0 setdash
0 setlinecap
np
189.34 208.14 m
10.12 0 l
o
0.75 setlinewidth
[ 2.25 3.75] 0 setdash
1 setlinecap
np
194.40 167.27 m
0 7.17 l
o
np
194.40 261.43 m
0 -25.25 l
o
0.75 setlinewidth
[] 0 setdash
np
191.87 167.27 m
5.06 0 l
o
np
191.87 261.43 m
5.06 0 l
o
np
189.34 174.44 m
10.12 0 l
0 61.74 l
-10.12 0 l
0 -61.74 l
o
2.25 setlinewidth
[] 0 setdash
0 setlinecap
np
223.20 216.62 m
38.40 0 l
o
0.75 setlinewidth
[ 2.25 3.75] 0 setdash
1 setlinecap
np
242.40 168.86 m
0 36.19 l
o
np
242.40 275.06 m
0 -41.70 l
o
0.75 setlinewidth
[] 0 setdash
np
232.80 168.86 m
19.20 0 l
o
np
232.80 275.06 m
19.20 0 l
o
np
223.20 205.05 m
38.40 0 l
0 28.31 l
-38.40 0 l
0 -28.31 l
o
242.40 152.38 2.70 c p1
242.40 161.59 2.70 c p1
242.40 276.24 2.70 c p1
242.40 290.13 2.70 c p1
242.40 290.13 2.70 c p1
242.40 148.18 2.70 c p1
242.40 154.46 2.70 c p1
242.40 277.25 2.70 c p1
242.40 160.28 2.70 c p1
2.25 setlinewidth
[] 0 setdash
0 setlinecap
np
274.73 280.69 m
31.34 0 l
o
0.75 setlinewidth
[ 2.25 3.75] 0 setdash
1 setlinecap
np
290.40 200.67 m
0 51.26 l
o
np
290.40 393.30 m
0 -81.11 l
o
0.75 setlinewidth
[] 0 setdash
np
282.57 200.67 m
15.66 0 l
o
np
282.57 393.30 m
15.66 0 l
o
np
274.73 251.93 m
31.34 0 l
0 60.26 l
-31.34 0 l
0 -60.26 l
o
2.25 setlinewidth
[] 0 setdash
0 setlinecap
np
335.17 317.08 m
6.46 0 l
o
0.75 setlinewidth
[ 2.25 3.75] 0 setdash
1 setlinecap
np
338.40 284.92 m
0 10.07 l
o
np
338.40 385.71 m
0 -46.86 l
o
0.75 setlinewidth
[] 0 setdash
np
336.79 284.92 m
3.22 0 l
o
np
336.79 385.71 m
3.22 0 l
o
np
335.17 294.99 m
6.46 0 l
0 43.86 l
-6.46 0 l
0 -43.86 l
o
338.40 406.03 2.70 c p1
2.25 setlinewidth
[] 0 setdash
0 setlinecap
np
380.89 327.24 m
11.02 0 l
o
0.75 setlinewidth
[ 2.25 3.75] 0 setdash
1 setlinecap
np
386.40 276.65 m
0 34.35 l
o
np
386.40 373.40 m
0 -26.54 l
o
0.75 setlinewidth
[] 0 setdash
np
383.65 276.65 m
5.50 0 l
o
np
383.65 373.40 m
5.50 0 l
o
np
380.89 311.00 m
11.02 0 l
0 35.86 l
-11.02 0 l
0 -35.86 l
o
2.25 setlinewidth
[] 0 setdash
0 setlinecap
np
433.43 431.20 m
1.94 0 l
o
0.75 setlinewidth
[ 2.25 3.75] 0 setdash
1 setlinecap
np
434.40 431.20 m
0 0 l
o
np
434.40 431.20 m
0 0 l
o
0.75 setlinewidth
[] 0 setdash
np
433.91 431.20 m
0.98 0 l
o
np
433.91 431.20 m
0.98 0 l
o
np
433.43 431.20 m
1.94 0 l
0 0 l
-1.94 0 l
0 0 l
o
0.00 0.00 504.00 504.00 cl
0 0 0 srgb
0.75 setlinewidth
[] 0 setdash
1 setlinecap
1 setlinejoin
10.00 setmiterlimit
np
98.40 73.44 m
336.00 0 l
o
np
98.40 73.44 m
0 -7.20 l
o
np
146.40 73.44 m
0 -7.20 l
o
np
194.40 73.44 m
0 -7.20 l
o
np
242.40 73.44 m
0 -7.20 l
o
np
290.40 73.44 m
0 -7.20 l
o
np
338.40 73.44 m
0 -7.20 l
o
np
386.40 73.44 m
0 -7.20 l
o
np
434.40 73.44 m
0 -7.20 l
o
/Font1 findfont 12 s
98.40 47.52 (3) .5 0 t
146.40 47.52 (4) .5 0 t
194.40 47.52 (5) .5 0 t
242.40 47.52 (6) .5 0 t
290.40 47.52 (8) .5 0 t
338.40 47.52 (10) .5 0 t
386.40 47.52 (12) .5 0 t
434.40 47.52 (16) .5 0 t
np
59.04 92.12 m
0 290.23 l
o
np
59.04 92.12 m
-7.20 0 l
o
np
59.04 188.86 m
-7.20 0 l
o
np
59.04 285.60 m
-7.20 0 l
o
np
59.04 382.35 m
-7.20 0 l
o
41.76 92.12 (5) .5 90 t
41.76 188.86 (10) .5 90 t
41.76 285.60 (15) .5 90 t
41.76 382.35 (20) .5 90 t
np
59.04 73.44 m
414.72 0 l
0 371.52 l
-414.72 0 l
0 -371.52 l
o
ep
%%Trailer
%%Pages: 1
%%EOF
