%!PS-Adobe-3.0 EPSF-3.0
%%DocumentNeededResources: font Helvetica
%%+ font Helvetica-Bold
%%+ font Helvetica-Oblique
%%+ font Helvetica-BoldOblique
%%+ font Symbol
%%Title: R Graphics Output
%%Creator: R Software
%%Pages: (atend)
%%BoundingBox: 0 0 504 504
%%EndComments
%%BeginProlog
/bp  { gs sRGB gs } def
% begin .ps.prolog
/gs  { gsave } bind def
/gr  { grestore } bind def
/ep  { showpage gr gr } bind def
/m   { moveto } bind def
/l  { rlineto } bind def
/np  { newpath } bind def
/cp  { closepath } bind def
/f   { fill } bind def
/o   { stroke } bind def
/c   { newpath 0 360 arc } bind def
/r   { 4 2 roll moveto 1 copy 3 -1 roll exch 0 exch rlineto 0 rlineto -1 mul 0 exch rlineto closepath } bind def
/p1  { stroke } bind def
/p2  { gsave bg fill grestore newpath } bind def
/p3  { gsave bg fill grestore stroke } bind def
/p6  { gsave bg eofill grestore newpath } bind def
/p7  { gsave bg eofill grestore stroke } bind def
/t   { 5 -2 roll moveto gsave rotate
       1 index stringwidth pop
       mul neg 0 rmoveto show grestore } bind def
/ta  { 4 -2 roll moveto gsave rotate show } bind def
/tb  { 2 -1 roll 0 rmoveto show } bind def
/cl  { grestore gsave newpath 3 index 3 index moveto 1 index
       4 -1 roll lineto  exch 1 index lineto lineto
       closepath clip newpath } bind def
/rgb { setrgbcolor } bind def
/s   { scalefont setfont } bind def
% end   .ps.prolog
/sRGB { [ /CIEBasedABC
          << /DecodeLMN
               [ { dup 0.03928 le
                        {12.92321 div}
                        {0.055 add 1.055 div 2.4 exp }
                     ifelse
                 } bind dup dup
               ]
             /MatrixLMN [0.412457 0.212673 0.019334
                         0.357576 0.715152 0.119192
                         0.180437 0.072175 0.950301]
             /WhitePoint [0.9505 1.0 1.0890]
           >>
         ] setcolorspace } bind def
/srgb { setcolor } bind def
%%IncludeResource: font Helvetica
/Helvetica findfont
dup length dict begin
  {1 index /FID ne {def} {pop pop} ifelse} forall
  /Encoding ISOLatin1Encoding def
  currentdict
  end
/Font1 exch definefont pop
%%IncludeResource: font Helvetica-Bold
/Helvetica-Bold findfont
dup length dict begin
  {1 index /FID ne {def} {pop pop} ifelse} forall
  /Encoding ISOLatin1Encoding def
  currentdict
  end
/Font2 exch definefont pop
%%IncludeResource: font Helvetica-Oblique
/Helvetica-Oblique findfont
dup length dict begin
  {1 index /FID ne {def} {pop pop} ifelse} forall
  /Encoding ISOLatin1Encoding def
  currentdict
  end
/Font3 exch definefont pop
%%IncludeResource: font Helvetica-BoldOblique
/Helvetica-BoldOblique findfont
dup length dict begin
  {1 index /FID ne {def} {pop pop} ifelse} forall
  /Encoding ISOLatin1Encoding def
  currentdict
  end
/Font4 exch definefont pop
%%IncludeResource: font Symbol
/Symbol findfont
dup length dict begin
  {1 index /FID ne {def} {pop pop} ifelse} forall
  currentdict
  end
/Font5 exch definefont pop
%%EndProlog
%%Page: 1 1
bp
0.00 0.00 504.00 504.00 cl
0 0 0 srgb
0.75 setlinewidth
[] 0 setdash
1 setlinecap
1 setlinejoin
10.00 setmiterlimit
np
59.04 103.35 m
0 331.54 l
o
np
59.04 103.35 m
-7.20 0 l
o
np
59.04 186.23 m
-7.20 0 l
o
np
59.04 269.12 m
-7.20 0 l
o
np
59.04 352.00 m
-7.20 0 l
o
np
59.04 434.89 m
-7.20 0 l
o
/Font1 findfont 12 s
41.76 103.35 (5) .5 90 t
41.76 186.23 (10) .5 90 t
41.76 269.12 (15) .5 90 t
41.76 352.00 (20) .5 90 t
41.76 434.89 (25) .5 90 t
59.04 73.44 473.76 444.96 cl
0 0 0 srgb
2.25 setlinewidth
[] 0 setdash
0 setlinecap
1 setlinejoin
10.00 setmiterlimit
np
89.76 128.67 m
20.48 0 l
o
0.75 setlinewidth
[ 2.25 3.75] 0 setdash
1 setlinecap
np
100.00 128.67 m
0 0 l
o
np
100.00 128.67 m
0 0 l
o
0.75 setlinewidth
[] 0 setdash
np
94.88 128.67 m
10.24 0 l
o
np
94.88 128.67 m
10.24 0 l
o
np
89.76 128.67 m
20.48 0 l
0 0 l
-20.48 0 l
0 0 l
o
2.25 setlinewidth
[] 0 setdash
0 setlinecap
np
115.36 171.35 m
20.48 0 l
o
0.75 setlinewidth
[ 2.25 3.75] 0 setdash
1 setlinecap
np
125.60 108.71 m
0 44.60 l
o
np
125.60 228.28 m
0 -43.72 l
o
0.75 setlinewidth
[] 0 setdash
np
120.48 108.71 m
10.24 0 l
o
np
120.48 228.28 m
10.24 0 l
o
np
115.36 153.31 m
20.48 0 l
0 31.25 l
-20.48 0 l
0 -31.25 l
o
125.60 99.20 2.70 c p1
125.60 99.14 2.70 c p1
2.25 setlinewidth
[] 0 setdash
0 setlinecap
np
140.96 202.75 m
20.48 0 l
o
0.75 setlinewidth
[ 2.25 3.75] 0 setdash
1 setlinecap
np
151.20 167.73 m
0 6.15 l
o
np
151.20 248.41 m
0 -21.63 l
o
0.75 setlinewidth
[] 0 setdash
np
146.08 167.73 m
10.24 0 l
o
np
146.08 248.41 m
10.24 0 l
o
np
140.96 173.88 m
20.48 0 l
0 52.90 l
-20.48 0 l
0 -52.90 l
o
2.25 setlinewidth
[] 0 setdash
0 setlinecap
np
166.56 210.02 m
20.48 0 l
o
0.75 setlinewidth
[ 2.25 3.75] 0 setdash
1 setlinecap
np
176.80 169.10 m
0 31.00 l
o
np
176.80 260.09 m
0 -35.73 l
o
0.75 setlinewidth
[] 0 setdash
np
171.68 169.10 m
10.24 0 l
o
np
171.68 260.09 m
10.24 0 l
o
np
166.56 200.10 m
20.48 0 l
0 24.26 l
-20.48 0 l
0 -24.26 l
o
176.80 154.98 2.70 c p1
176.80 162.87 2.70 c p1
176.80 261.10 2.70 c p1
176.80 273.00 2.70 c p1
176.80 273.00 2.70 c p1
176.80 151.38 2.70 c p1
176.80 156.76 2.70 c p1
176.80 261.96 2.70 c p1
176.80 161.75 2.70 c p1
2.25 setlinewidth
[] 0 setdash
0 setlinecap
np
217.76 264.91 m
20.48 0 l
o
0.75 setlinewidth
[ 2.25 3.75] 0 setdash
1 setlinecap
np
228.00 196.36 m
0 43.91 l
o
np
228.00 361.39 m
0 -69.50 l
o
0.75 setlinewidth
[] 0 setdash
np
222.88 196.36 m
10.24 0 l
o
np
222.88 361.39 m
10.24 0 l
o
np
217.76 240.27 m
20.48 0 l
0 51.62 l
-20.48 0 l
0 -51.62 l
o
2.25 setlinewidth
[] 0 setdash
0 setlinecap
np
268.96 296.09 m
20.48 0 l
o
0.75 setlinewidth
[ 2.25 3.75] 0 setdash
1 setlinecap
np
279.20 268.53 m
0 8.63 l
o
np
279.20 354.89 m
0 -40.15 l
o
0.75 setlinewidth
[] 0 setdash
np
274.08 268.53 m
10.24 0 l
o
np
274.08 354.89 m
10.24 0 l
o
np
268.96 277.16 m
20.48 0 l
0 37.58 l
-20.48 0 l
0 -37.58 l
o
279.20 372.30 2.70 c p1
2.25 setlinewidth
[] 0 setdash
0 setlinecap
np
320.16 304.80 m
20.48 0 l
o
0.75 setlinewidth
[ 2.25 3.75] 0 setdash
1 setlinecap
np
330.40 261.45 m
0 29.43 l
o
np
330.40 344.34 m
0 -22.74 l
o
0.75 setlinewidth
[] 0 setdash
np
325.28 261.45 m
10.24 0 l
o
np
325.28 344.34 m
10.24 0 l
o
np
320.16 290.88 m
20.48 0 l
0 30.72 l
-20.48 0 l
0 -30.72 l
o
2.25 setlinewidth
[] 0 setdash
0 setlinecap
np
422.56 393.86 m
20.48 0 l
o
0.75 setlinewidth
[ 2.25 3.75] 0 setdash
1 setlinecap
np
432.80 393.86 m
0 0 l
o
np
432.80 393.86 m
0 0 l
o
0.75 setlinewidth
[] 0 setdash
np
427.68 393.86 m
10.24 0 l
o
np
427.68 393.86 m
10.24 0 l
o
np
422.56 393.86 m
20.48 0 l
0 0 l
-20.48 0 l
0 0 l
o
0.00 0.00 504.00 504.00 cl
0 0 0 srgb
0.75 setlinewidth
[] 0 setdash
1 setlinecap
1 setlinejoin
10.00 setmiterlimit
np
100.00 73.44 m
332.80 0 l
o
np
100.00 73.44 m
0 -7.20 l
o
np
125.60 73.44 m
0 -7.20 l
o
np
151.20 73.44 m
0 -7.20 l
o
np
176.80 73.44 m
0 -7.20 l
o
np
228.00 73.44 m
0 -7.20 l
o
np
279.20 73.44 m
0 -7.20 l
o
np
330.40 73.44 m
0 -7.20 l
o
np
432.80 73.44 m
0 -7.20 l
o
/Font1 findfont 12 s
100.00 47.52 (3) .5 0 t
125.60 47.52 (4) .5 0 t
151.20 47.52 (5) .5 0 t
176.80 47.52 (6) .5 0 t
228.00 47.52 (8) .5 0 t
279.20 47.52 (10) .5 0 t
330.40 47.52 (12) .5 0 t
432.80 47.52 (16) .5 0 t
np
59.04 103.35 m
0 331.54 l
o
np
59.04 103.35 m
-7.20 0 l
o
np
59.04 186.23 m
-7.20 0 l
o
np
59.04 269.12 m
-7.20 0 l
o
np
59.04 352.00 m
-7.20 0 l
o
np
59.04 434.89 m
-7.20 0 l
o
41.76 103.35 (5) .5 90 t
41.76 186.23 (10) .5 90 t
41.76 269.12 (15) .5 90 t
41.76 352.00 (20) .5 90 t
41.76 434.89 (25) .5 90 t
np
59.04 73.44 m
414.72 0 l
0 371.52 l
-414.72 0 l
0 -371.52 l
o
59.04 73.44 473.76 444.96 cl
1 0 0 srgb
0.75 setlinewidth
[] 0 setdash
1 setlinecap
1 setlinejoin
10.00 setmiterlimit
np
59.04 117.67 m
414.72 340.14 l
o
ep
%%Trailer
%%Pages: 1
%%EOF
