%!PS-Adobe-3.0 EPSF-3.0
%%DocumentNeededResources: font Helvetica
%%+ font Helvetica-Bold
%%+ font Helvetica-Oblique
%%+ font Helvetica-BoldOblique
%%+ font Symbol
%%Title: R Graphics Output
%%Creator: R Software
%%Pages: (atend)
%%BoundingBox: 0 0 122 144
%%EndComments
%%BeginProlog
/bp  { gs sRGB gs } def
% begin .ps.prolog
/gs  { gsave } bind def
/gr  { grestore } bind def
/ep  { showpage gr gr } bind def
/m   { moveto } bind def
/l  { rlineto } bind def
/np  { newpath } bind def
/cp  { closepath } bind def
/f   { fill } bind def
/o   { stroke } bind def
/c   { newpath 0 360 arc } bind def
/r   { 4 2 roll moveto 1 copy 3 -1 roll exch 0 exch rlineto 0 rlineto -1 mul 0 exch rlineto closepath } bind def
/p1  { stroke } bind def
/p2  { gsave bg fill grestore newpath } bind def
/p3  { gsave bg fill grestore stroke } bind def
/p6  { gsave bg eofill grestore newpath } bind def
/p7  { gsave bg eofill grestore stroke } bind def
/t   { 5 -2 roll moveto gsave rotate
       1 index stringwidth pop
       mul neg 0 rmoveto show grestore } bind def
/ta  { 4 -2 roll moveto gsave rotate show } bind def
/tb  { 2 -1 roll 0 rmoveto show } bind def
/cl  { grestore gsave newpath 3 index 3 index moveto 1 index
       4 -1 roll lineto  exch 1 index lineto lineto
       closepath clip newpath } bind def
/rgb { setrgbcolor } bind def
/s   { scalefont setfont } bind def
% end   .ps.prolog
/sRGB { [ /CIEBasedABC
          << /DecodeLMN
               [ { dup 0.03928 le
                        {12.92321 div}
                        {0.055 add 1.055 div 2.4 exp }
                     ifelse
                 } bind dup dup
               ]
             /MatrixLMN [0.412457 0.212673 0.019334
                         0.357576 0.715152 0.119192
                         0.180437 0.072175 0.950301]
             /WhitePoint [0.9505 1.0 1.0890]
           >>
         ] setcolorspace } bind def
/srgb { setcolor } bind def
%%IncludeResource: font Helvetica
/Helvetica findfont
dup length dict begin
  {1 index /FID ne {def} {pop pop} ifelse} forall
  /Encoding ISOLatin1Encoding def
  currentdict
  end
/Font1 exch definefont pop
%%IncludeResource: font Helvetica-Bold
/Helvetica-Bold findfont
dup length dict begin
  {1 index /FID ne {def} {pop pop} ifelse} forall
  /Encoding ISOLatin1Encoding def
  currentdict
  end
/Font2 exch definefont pop
%%IncludeResource: font Helvetica-Oblique
/Helvetica-Oblique findfont
dup length dict begin
  {1 index /FID ne {def} {pop pop} ifelse} forall
  /Encoding ISOLatin1Encoding def
  currentdict
  end
/Font3 exch definefont pop
%%IncludeResource: font Helvetica-BoldOblique
/Helvetica-BoldOblique findfont
dup length dict begin
  {1 index /FID ne {def} {pop pop} ifelse} forall
  /Encoding ISOLatin1Encoding def
  currentdict
  end
/Font4 exch definefont pop
%%IncludeResource: font Symbol
/Symbol findfont
dup length dict begin
  {1 index /FID ne {def} {pop pop} ifelse} forall
  currentdict
  end
/Font5 exch definefont pop
%%EndProlog
%%Page: 1 1
bp
14.40 0.00 108.00 144.00 cl
0 0 0 srgb
0.75 setlinewidth
[] 0 setdash
1 setlinecap
1 setlinejoin
10.00 setmiterlimit
26.00 123.85 5.40 5.40 r p1
50.37 126.55 2.70 c p1
np
72.03 130.74 m
3.64 -6.29 l
-7.27 0 l
3.63 6.29 l
o
np
89.88 126.55 m
7.64 0 l
o
np
93.70 122.73 m
0 7.63 l
o
np
26.00 99.60 m
5.40 5.40 l
o
np
26.00 105.00 m
5.40 -5.40 l
o
np
46.55 102.30 m
3.82 3.82 l
3.82 -3.82 l
-3.82 -3.82 l
-3.82 3.82 l
o
np
72.03 98.10 m
3.64 6.30 l
-7.27 0 l
3.63 -6.30 l
o
91.00 99.60 5.40 5.40 r p1
np
91.00 99.60 m
5.40 5.40 l
o
np
91.00 105.00 m
5.40 -5.40 l
o
np
26.00 75.36 m
5.40 5.40 l
o
np
26.00 80.76 m
5.40 -5.40 l
o
np
24.88 78.06 m
7.64 0 l
o
np
28.70 74.24 m
0 7.64 l
o
np
46.55 78.06 m
7.64 0 l
o
np
50.37 74.24 m
0 7.64 l
o
np
46.55 78.06 m
3.82 3.82 l
3.82 -3.82 l
-3.82 -3.82 l
-3.82 3.82 l
o
72.03 78.06 2.70 c p1
np
69.33 78.06 m
5.40 0 l
o
np
72.03 75.36 m
0 5.40 l
o
np
93.70 73.86 m
3.64 7.35 l
-7.28 0 l
3.64 -7.35 l
o
np
93.70 82.26 m
3.64 -7.35 l
-7.28 0 l
3.64 7.35 l
o
np
26.00 53.82 m
5.40 0 l
o
np
28.70 51.12 m
0 5.40 l
o
26.00 51.12 5.40 5.40 r p1
50.37 53.82 2.70 c p1
np
47.67 51.12 m
5.40 5.40 l
o
np
47.67 56.52 m
5.40 -5.40 l
o
np
72.03 56.52 m
2.70 -5.40 l
-5.40 0 l
2.70 5.40 l
o
69.33 51.12 5.40 5.40 r p1
/bg { 0 0 0 srgb } def
np
 91.00 51.12 m
5.40 0 l
0 5.40 l
-5.40 0 l
cp p2
28.70 29.58 2.70 c p2
np
 50.37 33.77 m
3.63 -6.29 l
-7.27 0 l
cp p2
np
 69.33 29.58 m
2.70 2.70 l
2.70 -2.70 l
-2.70 -2.70 l
cp p2
0.00 0.00 122.40 144.00 cl
14.40 0.00 108.00 144.00 cl
/Font1 findfont 8 s
0 0 0 srgb
28.70 112.90 (0) .5 0 t
50.37 112.82 (1) .5 0 t
72.03 112.82 (2) .5 0 t
93.70 112.90 (3) .5 0 t
28.70 88.58 (4) .5 0 t
50.37 88.72 (5) .5 0 t
72.03 88.66 (6) .5 0 t
93.70 88.64 (7) .5 0 t
28.70 64.42 (8) .5 0 t
50.37 64.42 (9) .5 0 t
72.03 64.42 (10) .5 0 t
93.70 64.34 (11) .5 0 t
28.70 40.10 (12) .5 0 t
50.37 40.17 (13) .5 0 t
72.03 40.10 (14) .5 0 t
93.70 40.17 (15) .5 0 t
28.70 15.93 (16) .5 0 t
50.37 15.85 (17) .5 0 t
72.03 15.93 (18) .5 0 t
ep
%%Trailer
%%Pages: 1
%%EOF
