%!PS-Adobe-3.0 EPSF-3.0
%%DocumentNeededResources: font Helvetica
%%+ font Helvetica-Bold
%%+ font Helvetica-Oblique
%%+ font Helvetica-BoldOblique
%%+ font Symbol
%%Title: R Graphics Output
%%Creator: R Software
%%Pages: (atend)
%%BoundingBox: 0 0 504 504
%%EndComments
%%BeginProlog
/bp  { gs sRGB gs } def
% begin .ps.prolog
/gs  { gsave } bind def
/gr  { grestore } bind def
/ep  { showpage gr gr } bind def
/m   { moveto } bind def
/l  { rlineto } bind def
/np  { newpath } bind def
/cp  { closepath } bind def
/f   { fill } bind def
/o   { stroke } bind def
/c   { newpath 0 360 arc } bind def
/r   { 4 2 roll moveto 1 copy 3 -1 roll exch 0 exch rlineto 0 rlineto -1 mul 0 exch rlineto closepath } bind def
/p1  { stroke } bind def
/p2  { gsave bg fill grestore newpath } bind def
/p3  { gsave bg fill grestore stroke } bind def
/p6  { gsave bg eofill grestore newpath } bind def
/p7  { gsave bg eofill grestore stroke } bind def
/t   { 5 -2 roll moveto gsave rotate
       1 index stringwidth pop
       mul neg 0 rmoveto show grestore } bind def
/ta  { 4 -2 roll moveto gsave rotate show } bind def
/tb  { 2 -1 roll 0 rmoveto show } bind def
/cl  { grestore gsave newpath 3 index 3 index moveto 1 index
       4 -1 roll lineto  exch 1 index lineto lineto
       closepath clip newpath } bind def
/rgb { setrgbcolor } bind def
/s   { scalefont setfont } bind def
% end   .ps.prolog
/sRGB { [ /CIEBasedABC
          << /DecodeLMN
               [ { dup 0.03928 le
                        {12.92321 div}
                        {0.055 add 1.055 div 2.4 exp }
                     ifelse
                 } bind dup dup
               ]
             /MatrixLMN [0.412457 0.212673 0.019334
                         0.357576 0.715152 0.119192
                         0.180437 0.072175 0.950301]
             /WhitePoint [0.9505 1.0 1.0890]
           >>
         ] setcolorspace } bind def
/srgb { setcolor } bind def
%%IncludeResource: font Helvetica
/Helvetica findfont
dup length dict begin
  {1 index /FID ne {def} {pop pop} ifelse} forall
  /Encoding ISOLatin1Encoding def
  currentdict
  end
/Font1 exch definefont pop
%%IncludeResource: font Helvetica-Bold
/Helvetica-Bold findfont
dup length dict begin
  {1 index /FID ne {def} {pop pop} ifelse} forall
  /Encoding ISOLatin1Encoding def
  currentdict
  end
/Font2 exch definefont pop
%%IncludeResource: font Helvetica-Oblique
/Helvetica-Oblique findfont
dup length dict begin
  {1 index /FID ne {def} {pop pop} ifelse} forall
  /Encoding ISOLatin1Encoding def
  currentdict
  end
/Font3 exch definefont pop
%%IncludeResource: font Helvetica-BoldOblique
/Helvetica-BoldOblique findfont
dup length dict begin
  {1 index /FID ne {def} {pop pop} ifelse} forall
  /Encoding ISOLatin1Encoding def
  currentdict
  end
/Font4 exch definefont pop
%%IncludeResource: font Symbol
/Symbol findfont
dup length dict begin
  {1 index /FID ne {def} {pop pop} ifelse} forall
  currentdict
  end
/Font5 exch definefont pop
%%EndProlog
%%Page: 1 1
bp
59.04 73.44 473.76 444.96 cl
/bg { 1 1 1 srgb } def
0 0 0 srgb
0.75 setlinewidth
[] 0 setdash
1 setlinecap
1 setlinejoin
10.00 setmiterlimit
np
 404.00 259.20 m
-0.25 8.32 l
-137.35 -8.32 l
cp p3
/bg { 0.6784 0.8471 0.9020 srgb } def
np
 403.75 267.52 m
-0.40 5.07 l
-0.59 5.05 l
-0.77 5.02 l
-0.96 4.99 l
-1.15 4.96 l
-1.32 4.90 l
-1.51 4.86 l
-130.65 -43.17 l
cp p3
np
401.53 285.16 m
6.75 1.30 l
o
0.00 0.00 504.00 504.00 cl
/Font1 findfont 12 s
0 0 0 srgb
415.04 283.54 (A) 0 ta
-0.360 (udi) tb gr
59.04 73.44 473.76 444.96 cl
/bg { 1 0.8941 0.8824 srgb } def
0 0 0 srgb
0.75 setlinewidth
[] 0 setdash
1 setlinecap
1 setlinejoin
10.00 setmiterlimit
np
 397.05 302.37 m
-1.49 4.29 l
-129.16 -47.46 l
cp p3
/bg { 0.8784 1 1 srgb } def
np
 395.56 306.66 m
-1.67 4.31 l
-1.81 4.25 l
-1.95 4.19 l
-2.09 4.12 l
-2.23 4.05 l
-2.37 3.97 l
-2.49 3.89 l
-2.63 3.81 l
-2.75 3.71 l
-2.87 3.62 l
-3.00 3.52 l
-3.11 3.42 l
-3.22 3.31 l
-3.34 3.20 l
-3.44 3.09 l
-3.54 2.97 l
-3.64 2.85 l
-3.73 2.72 l
-3.82 2.60 l
-75.46 -115.06 l
cp p3
np
374.15 344.78 m
5.39 4.28 l
o
0.00 0.00 504.00 504.00 cl
/Font1 findfont 12 s
0 0 0 srgb
384.92 349.03 (BMW) 0 0 t
59.04 73.44 473.76 444.96 cl
/bg { 0.9020 0.9020 0.9804 srgb } def
0 0 0 srgb
0.75 setlinewidth
[] 0 setdash
1 setlinecap
1 setlinejoin
10.00 setmiterlimit
np
 341.86 374.26 m
-0.63 0.42 l
-74.83 -115.48 l
cp p3
/bg { 1 0.9725 0.8627 srgb } def
np
 341.23 374.68 m
-4.27 2.65 l
-4.36 2.50 l
-4.45 2.33 l
-4.53 2.18 l
-4.60 2.00 l
-4.68 1.84 l
-4.74 1.66 l
-4.80 1.49 l
-4.85 1.32 l
-4.89 1.13 l
-4.93 0.96 l
-23.73 -135.54 l
cp p3
np
316.69 387.28 m
2.51 6.41 l
o
0.00 0.00 504.00 504.00 cl
/Font1 findfont 12 s
0 0 0 srgb
321.72 396.95 (Chr) 0 ta
0.360 (ysler Group LLC) tb gr
59.04 73.44 473.76 444.96 cl
/bg { 1 1 1 srgb } def
0 0 0 srgb
0.75 setlinewidth
[] 0 setdash
1 setlinecap
1 setlinejoin
10.00 setmiterlimit
np
 290.13 394.74 m
-5.99 0.91 l
-17.74 -136.45 l
cp p3
/bg { 0.6784 0.8471 0.9020 srgb } def
np
 284.14 395.65 m
-4.78 0.54 l
-4.80 0.37 l
-4.81 0.20 l
-4.81 0.03 l
-4.81 -0.13 l
-4.80 -0.31 l
-4.79 -0.47 l
-4.77 -0.64 l
-4.75 -0.80 l
-4.71 -0.97 l
-4.68 -1.14 l
-4.63 -1.29 l
-4.59 -1.46 l
-4.53 -1.62 l
48.52 -128.76 l
cp p3
np
250.54 395.88 m
-0.80 6.84 l
o
0.00 0.00 504.00 504.00 cl
/Font1 findfont 12 s
0 0 0 srgb
135.59 406.41 (F) 0 ta
-0.360 (ord Motor Compan) tb
-0.180 (y) tb gr
59.04 73.44 473.76 444.96 cl
/bg { 1 0.8941 0.8824 srgb } def
0 0 0 srgb
0.75 setlinewidth
[] 0 setdash
1 setlinecap
1 setlinejoin
10.00 setmiterlimit
np
 217.88 387.96 m
-4.25 -1.68 l
-4.18 -1.82 l
-4.13 -1.96 l
-4.05 -2.09 l
-3.99 -2.23 l
-3.91 -2.36 l
-3.82 -2.48 l
-3.75 -2.62 l
-3.65 -2.73 l
-3.57 -2.86 l
-3.46 -2.97 l
-3.37 -3.08 l
-3.26 -3.20 l
-3.15 -3.30 l
-3.04 -3.40 l
-2.93 -3.50 l
-2.81 -3.60 l
-2.69 -3.69 l
-2.56 -3.78 l
-2.44 -3.86 l
-2.31 -3.94 l
-2.18 -4.01 l
-2.04 -4.08 l
-1.91 -4.15 l
-1.76 -4.21 l
-1.63 -4.26 l
-1.49 -4.32 l
-1.34 -4.36 l
-1.19 -4.41 l
-1.05 -4.44 l
-0.90 -4.48 l
-0.75 -4.50 l
-0.60 -4.53 l
136.68 -15.86 l
cp p3
np
157.95 343.89 m
-5.42 4.23 l
o
0.00 0.00 504.00 504.00 cl
/Font1 findfont 12 s
0 0 0 srgb
64.41 348.05 (Gener) 0 ta
-0.120 (al Motors) tb gr
59.04 73.44 473.76 444.96 cl
/bg { 0.8784 1 1 srgb } def
0 0 0 srgb
0.75 setlinewidth
[] 0 setdash
1 setlinecap
1 setlinejoin
10.00 setmiterlimit
np
 129.72 275.06 m
-0.51 -5.27 l
-0.31 -5.29 l
-0.10 -5.30 l
0.10 -5.30 l
0.31 -5.29 l
0.51 -5.27 l
136.68 15.86 l
cp p3
np
128.80 259.20 m
-6.88 0 l
o
0.00 0.00 504.00 504.00 cl
/Font1 findfont 12 s
0 0 0 srgb
115.04 254.98 (Honda) 1 0 t
59.04 73.44 473.76 444.96 cl
/bg { 0.9020 0.9020 0.9804 srgb } def
0 0 0 srgb
0.75 setlinewidth
[] 0 setdash
1 setlinecap
1 setlinejoin
10.00 setmiterlimit
np
 129.72 243.34 m
0.71 -5.25 l
0.91 -5.22 l
1.12 -5.18 l
1.31 -5.14 l
1.51 -5.08 l
131.12 41.73 l
cp p3
np
131.88 230.27 m
-6.73 -1.45 l
o
0.00 0.00 504.00 504.00 cl
/Font1 findfont 12 s
0 0 0 srgb
118.42 224.35 (Hyundai) 1 0 t
59.04 73.44 473.76 444.96 cl
/bg { 1 0.9725 0.8627 srgb } def
0 0 0 srgb
0.75 setlinewidth
[] 0 setdash
1 setlinecap
1 setlinejoin
10.00 setmiterlimit
np
 135.28 217.47 m
2.49 -7.15 l
128.63 48.88 l
cp p3
/bg { 1 1 1 srgb } def
np
 137.77 210.32 m
2.10 -5.19 l
2.30 -5.11 l
2.52 -5.00 l
2.71 -4.90 l
2.91 -4.79 l
116.09 73.87 l
cp p3
np
143.40 197.51 m
-6.15 -3.09 l
o
0.00 0.00 504.00 504.00 cl
/Font1 findfont 12 s
0 0 0 srgb
131.11 187.12 (Kia) 1 0 t
59.04 73.44 473.76 444.96 cl
/bg { 0.6784 0.8471 0.9020 srgb } def
0 0 0 srgb
0.75 setlinewidth
[] 0 setdash
1 setlinecap
1 setlinejoin
10.00 setmiterlimit
np
 150.31 185.33 m
0.82 -1.27 l
115.27 75.14 l
cp p3
/bg { 1 0.8941 0.8824 srgb } def
np
 151.13 184.06 m
2.98 -4.39 l
112.29 79.53 l
cp p3
/bg { 0.8784 1 1 srgb } def
np
 154.11 179.67 m
1.78 -2.45 l
110.51 81.98 l
cp p3
/bg { 0.9020 0.9020 0.9804 srgb } def
np
 155.89 177.22 m
1.36 -1.81 l
109.15 83.79 l
cp p3
/bg { 1 0.9725 0.8627 srgb } def
np
 157.25 175.41 m
3.80 -4.72 l
3.99 -4.55 l
4.20 -4.37 l
97.16 97.43 l
cp p3
np
163.02 168.39 m
-5.17 -4.54 l
o
0.00 0.00 504.00 504.00 cl
/Font1 findfont 12 s
0 0 0 srgb
110.68 155.00 (MAZD) 0 ta
-0.480 (A) tb gr
59.04 73.44 473.76 444.96 cl
/bg { 1 1 1 srgb } def
0 0 0 srgb
0.75 setlinewidth
[] 0 setdash
1 setlinecap
1 setlinejoin
10.00 setmiterlimit
np
 169.24 161.77 m
0.53 -0.53 l
96.63 97.96 l
cp p3
/bg { 0.6784 0.8471 0.9020 srgb } def
np
 169.77 161.24 m
3.44 -3.28 l
3.55 -3.16 l
3.66 -3.03 l
3.75 -2.90 l
3.86 -2.77 l
3.95 -2.64 l
4.04 -2.50 l
4.12 -2.36 l
4.20 -2.21 l
4.27 -2.07 l
4.35 -1.92 l
53.44 126.80 l
cp p3
np
189.99 144.76 m
-3.82 -5.72 l
o
0.00 0.00 504.00 504.00 cl
/Font1 findfont 12 s
0 0 0 srgb
182.35 129.10 (Mercedes-Benz) 1 0 t
59.04 73.44 473.76 444.96 cl
/bg { 1 0.8941 0.8824 srgb } def
0 0 0 srgb
0.75 setlinewidth
[] 0 setdash
1 setlinecap
1 setlinejoin
10.00 setmiterlimit
np
 212.96 132.40 m
12.07 -4.43 l
41.37 131.23 l
cp p3
/bg { 0.8784 1 1 srgb } def
np
 225.03 127.97 m
4.36 -1.30 l
37.01 132.53 l
cp p3
/bg { 0.9020 0.9020 0.9804 srgb } def
np
 229.39 126.67 m
4.76 -1.24 l
4.80 -1.06 l
4.84 -0.90 l
4.87 -0.72 l
4.89 -0.55 l
4.91 -0.37 l
4.91 -0.20 l
4.92 -0.02 l
4.92 0.16 l
4.91 0.33 l
4.89 0.51 l
4.88 0.68 l
-21.49 135.91 l
cp p3
np
258.46 121.83 m
-0.40 -6.87 l
o
0.00 0.00 504.00 504.00 cl
/Font1 findfont 12 s
0 0 0 srgb
257.66 103.87 (Nissan) 1 0 t
59.04 73.44 473.76 444.96 cl
/bg { 1 0.9725 0.8627 srgb } def
0 0 0 srgb
0.75 setlinewidth
[] 0 setdash
1 setlinecap
1 setlinejoin
10.00 setmiterlimit
np
 287.89 123.29 m
4.99 0.88 l
4.96 1.07 l
4.92 1.25 l
4.86 1.43 l
4.81 1.61 l
4.75 1.78 l
4.68 1.96 l
4.60 2.13 l
4.52 2.30 l
4.44 2.46 l
-69.02 119.04 l
cp p3
np
312.43 129.53 m
2.30 -6.49 l
o
0.00 0.00 504.00 504.00 cl
/Font1 findfont 12 s
0 0 0 srgb
317.04 112.34 (P) 0 ta
-0.600 (orsche) tb gr
59.04 73.44 473.76 444.96 cl
/bg { 1 1 1 srgb } def
0 0 0 srgb
0.75 setlinewidth
[] 0 setdash
1 setlinecap
1 setlinejoin
10.00 setmiterlimit
np
 335.42 140.16 m
3.89 2.34 l
-72.91 116.70 l
cp p3
/bg { 0.6784 0.8471 0.9020 srgb } def
np
 339.31 142.50 m
1.28 0.81 l
-74.19 115.89 l
cp p3
/bg { 1 0.8941 0.8824 srgb } def
np
 340.59 143.31 m
8.09 5.60 l
-82.28 110.29 l
cp p3
/bg { 0.8784 1 1 srgb } def
np
 348.68 148.91 m
5.65 4.45 l
5.41 4.74 l
-93.34 101.10 l
cp p3
np
354.33 153.36 m
4.40 -5.29 l
o
0.00 0.00 504.00 504.00 cl
/Font1 findfont 12 s
0 0 0 srgb
363.12 138.47 (Subar) 0 ta
0.180 (u) tb gr
59.04 73.44 473.76 444.96 cl
/bg { 0.9020 0.9020 0.9804 srgb } def
0 0 0 srgb
0.75 setlinewidth
[] 0 setdash
1 setlinecap
1 setlinejoin
10.00 setmiterlimit
np
 359.74 158.10 m
9.03 9.16 l
-102.37 91.94 l
cp p3
/bg { 1 0.9725 0.8627 srgb } def
np
 368.77 167.26 m
3.21 3.70 l
3.07 3.80 l
2.93 3.92 l
2.79 4.02 l
2.65 4.11 l
2.50 4.20 l
2.35 4.30 l
2.19 4.37 l
2.04 4.44 l
1.87 4.52 l
1.72 4.58 l
1.55 4.64 l
1.39 4.69 l
-132.63 36.65 l
cp p3
np
387.11 193.15 m
6.04 -3.30 l
o
0.00 0.00 504.00 504.00 cl
/Font1 findfont 12 s
0 0 0 srgb
399.18 183.52 (T) 0 ta
-1.440 (o) tb
-0.360 (y) tb
-0.240 (ota) tb gr
59.04 73.44 473.76 444.96 cl
/bg { 1 1 1 srgb } def
0 0 0 srgb
0.75 setlinewidth
[] 0 setdash
1 setlinecap
1 setlinejoin
10.00 setmiterlimit
np
 399.03 222.55 m
1.48 5.87 l
1.23 5.93 l
0.96 5.98 l
0.70 6.02 l
-137.00 12.85 l
cp p3
np
401.74 234.35 m
6.77 -1.24 l
o
0.00 0.00 504.00 504.00 cl
/Font1 findfont 12 s
0 0 0 srgb
415.27 228.88 (V) 0 ta
-0.960 (olksw) tb
-0.180 (agen) tb gr
59.04 73.44 473.76 444.96 cl
/bg { 0.6784 0.8471 0.9020 srgb } def
0 0 0 srgb
0.75 setlinewidth
[] 0 setdash
1 setlinecap
1 setlinejoin
10.00 setmiterlimit
np
 403.40 246.35 m
0.59 11.34 l
-137.59 1.51 l
cp p3
/bg { 1 0.8941 0.8824 srgb } def
np
 403.99 257.69 m
0.01 1.51 l
-137.60 0 l
cp p3
ep
%%Trailer
%%Pages: 1
%%EOF
