%!PS-Adobe-3.0 EPSF-3.0
%%DocumentNeededResources: font Helvetica
%%+ font Helvetica-Bold
%%+ font Helvetica-Oblique
%%+ font Helvetica-BoldOblique
%%+ font Symbol
%%Title: R Graphics Output
%%Creator: R Software
%%Pages: (atend)
%%BoundingBox: 0 0 504 504
%%EndComments
%%BeginProlog
/bp  { gs sRGB gs } def
% begin .ps.prolog
/gs  { gsave } bind def
/gr  { grestore } bind def
/ep  { showpage gr gr } bind def
/m   { moveto } bind def
/l  { rlineto } bind def
/np  { newpath } bind def
/cp  { closepath } bind def
/f   { fill } bind def
/o   { stroke } bind def
/c   { newpath 0 360 arc } bind def
/r   { 4 2 roll moveto 1 copy 3 -1 roll exch 0 exch rlineto 0 rlineto -1 mul 0 exch rlineto closepath } bind def
/p1  { stroke } bind def
/p2  { gsave bg fill grestore newpath } bind def
/p3  { gsave bg fill grestore stroke } bind def
/p6  { gsave bg eofill grestore newpath } bind def
/p7  { gsave bg eofill grestore stroke } bind def
/t   { 5 -2 roll moveto gsave rotate
       1 index stringwidth pop
       mul neg 0 rmoveto show grestore } bind def
/ta  { 4 -2 roll moveto gsave rotate show } bind def
/tb  { 2 -1 roll 0 rmoveto show } bind def
/cl  { grestore gsave newpath 3 index 3 index moveto 1 index
       4 -1 roll lineto  exch 1 index lineto lineto
       closepath clip newpath } bind def
/rgb { setrgbcolor } bind def
/s   { scalefont setfont } bind def
% end   .ps.prolog
/sRGB { [ /CIEBasedABC
          << /DecodeLMN
               [ { dup 0.03928 le
                        {12.92321 div}
                        {0.055 add 1.055 div 2.4 exp }
                     ifelse
                 } bind dup dup
               ]
             /MatrixLMN [0.412457 0.212673 0.019334
                         0.357576 0.715152 0.119192
                         0.180437 0.072175 0.950301]
             /WhitePoint [0.9505 1.0 1.0890]
           >>
         ] setcolorspace } bind def
/srgb { setcolor } bind def
%%IncludeResource: font Helvetica
/Helvetica findfont
dup length dict begin
  {1 index /FID ne {def} {pop pop} ifelse} forall
  /Encoding ISOLatin1Encoding def
  currentdict
  end
/Font1 exch definefont pop
%%IncludeResource: font Helvetica-Bold
/Helvetica-Bold findfont
dup length dict begin
  {1 index /FID ne {def} {pop pop} ifelse} forall
  /Encoding ISOLatin1Encoding def
  currentdict
  end
/Font2 exch definefont pop
%%IncludeResource: font Helvetica-Oblique
/Helvetica-Oblique findfont
dup length dict begin
  {1 index /FID ne {def} {pop pop} ifelse} forall
  /Encoding ISOLatin1Encoding def
  currentdict
  end
/Font3 exch definefont pop
%%IncludeResource: font Helvetica-BoldOblique
/Helvetica-BoldOblique findfont
dup length dict begin
  {1 index /FID ne {def} {pop pop} ifelse} forall
  /Encoding ISOLatin1Encoding def
  currentdict
  end
/Font4 exch definefont pop
%%IncludeResource: font Symbol
/Symbol findfont
dup length dict begin
  {1 index /FID ne {def} {pop pop} ifelse} forall
  currentdict
  end
/Font5 exch definefont pop
%%EndProlog
%%Page: 1 1
bp
59.04 73.44 473.76 444.96 cl
0.7451 0.7451 0.7451 srgb
0.75 setlinewidth
[] 0 setdash
1 setlinecap
1 setlinejoin
10.00 setmiterlimit
74.40 141.49 2.70 c p1
78.28 123.31 2.70 c p1
82.16 191.41 2.70 c p1
86.04 208.36 2.70 c p1
89.92 180.86 2.70 c p1
93.79 115.41 2.70 c p1
97.67 237.70 2.70 c p1
101.55 360.70 2.70 c p1
105.43 232.02 2.70 c p1
109.31 349.73 2.70 c p1
113.19 176.70 2.70 c p1
117.07 383.68 2.70 c p1
120.95 304.80 2.70 c p1
124.82 87.20 2.70 c p1
128.70 180.81 2.70 c p1
132.58 269.58 2.70 c p1
136.46 343.41 2.70 c p1
140.34 298.60 2.70 c p1
144.22 416.32 2.70 c p1
148.10 236.84 2.70 c p1
151.98 202.87 2.70 c p1
155.85 185.90 2.70 c p1
159.73 200.55 2.70 c p1
163.61 347.75 2.70 c p1
167.49 337.37 2.70 c p1
171.37 136.47 2.70 c p1
175.25 431.20 2.70 c p1
179.13 296.27 2.70 c p1
183.01 268.43 2.70 c p1
186.88 322.72 2.70 c p1
190.76 349.50 2.70 c p1
194.64 174.33 2.70 c p1
198.52 285.99 2.70 c p1
202.40 247.29 2.70 c p1
206.28 302.44 2.70 c p1
210.16 294.17 2.70 c p1
214.04 187.93 2.70 c p1
217.92 256.13 2.70 c p1
221.79 316.99 2.70 c p1
225.67 147.52 2.70 c p1
229.55 308.85 2.70 c p1
233.43 231.36 2.70 c p1
237.31 287.32 2.70 c p1
241.19 122.55 2.70 c p1
245.07 287.90 2.70 c p1
248.95 108.67 2.70 c p1
252.82 322.15 2.70 c p1
256.70 313.97 2.70 c p1
260.58 190.16 2.70 c p1
264.46 174.78 2.70 c p1
268.34 346.56 2.70 c p1
272.22 126.32 2.70 c p1
276.10 151.65 2.70 c p1
279.98 233.04 2.70 c p1
283.85 330.18 2.70 c p1
287.73 113.41 2.70 c p1
291.61 241.51 2.70 c p1
295.49 278.96 2.70 c p1
299.37 334.70 2.70 c p1
303.25 306.18 2.70 c p1
307.13 299.84 2.70 c p1
311.01 201.03 2.70 c p1
314.88 301.10 2.70 c p1
318.76 295.71 2.70 c p1
322.64 268.26 2.70 c p1
326.52 315.30 2.70 c p1
330.40 277.06 2.70 c p1
334.28 198.48 2.70 c p1
338.16 334.31 2.70 c p1
342.04 161.03 2.70 c p1
345.92 183.76 2.70 c p1
349.79 214.39 2.70 c p1
353.67 289.38 2.70 c p1
357.55 271.64 2.70 c p1
361.43 186.43 2.70 c p1
365.31 336.44 2.70 c p1
369.19 258.68 2.70 c p1
373.07 387.74 2.70 c p1
376.95 302.96 2.70 c p1
380.82 212.40 2.70 c p1
384.70 370.78 2.70 c p1
388.58 185.11 2.70 c p1
392.46 292.67 2.70 c p1
396.34 335.97 2.70 c p1
400.22 150.44 2.70 c p1
404.10 247.63 2.70 c p1
407.98 329.90 2.70 c p1
411.85 321.23 2.70 c p1
415.73 144.22 2.70 c p1
419.61 246.99 2.70 c p1
423.49 309.91 2.70 c p1
427.37 164.95 2.70 c p1
431.25 336.08 2.70 c p1
435.13 127.35 2.70 c p1
439.01 245.41 2.70 c p1
442.88 194.47 2.70 c p1
446.76 188.67 2.70 c p1
450.64 264.13 2.70 c p1
454.52 230.49 2.70 c p1
458.40 256.98 2.70 c p1
0.00 0.00 504.00 504.00 cl
0 0 0 srgb
0.75 setlinewidth
[] 0 setdash
1 setlinecap
1 setlinejoin
10.00 setmiterlimit
np
70.52 73.44 m
387.88 0 l
o
np
70.52 73.44 m
0 -7.20 l
o
np
148.10 73.44 m
0 -7.20 l
o
np
225.67 73.44 m
0 -7.20 l
o
np
303.25 73.44 m
0 -7.20 l
o
np
380.82 73.44 m
0 -7.20 l
o
np
458.40 73.44 m
0 -7.20 l
o
/Font1 findfont 12 s
70.52 47.52 (0) .5 0 t
148.10 47.52 (20) .5 0 t
225.67 47.52 (40) .5 0 t
303.25 47.52 (60) .5 0 t
380.82 47.52 (80) .5 0 t
458.40 47.52 (100) .5 0 t
np
59.04 103.95 m
0 300.85 l
o
np
59.04 103.95 m
-7.20 0 l
o
np
59.04 179.16 m
-7.20 0 l
o
np
59.04 254.37 m
-7.20 0 l
o
np
59.04 329.59 m
-7.20 0 l
o
np
59.04 404.80 m
-7.20 0 l
o
41.76 103.95 (-2) .5 90 t
41.76 179.16 (-1) .5 90 t
41.76 254.37 (0) .5 90 t
41.76 329.59 (1) .5 90 t
41.76 404.80 (2) .5 90 t
np
59.04 73.44 m
414.72 0 l
0 371.52 l
-414.72 0 l
0 -371.52 l
o
0.00 0.00 504.00 504.00 cl
/Font1 findfont 12 s
0 0 0 srgb
251.72 18.72 (Inde) 0 ta
-0.360 (x) tb gr
12.96 229.53 (r) 90 ta
0.300 (nor) tb
0.300 (m\(100\)) tb gr
59.04 73.44 473.76 444.96 cl
1 0 0 srgb
0.75 setlinewidth
[] 0 setdash
1 setlinecap
1 setlinejoin
10.00 setmiterlimit
np
225.67 409.00 m
3.64 -6.30 l
-7.27 0 l
3.63 6.30 l
o
0 0 1 srgb
np
299.43 103.95 m
3.82 3.82 l
3.82 -3.82 l
-3.82 -3.82 l
-3.82 3.82 l
o
0 1 0 srgb
np
416.91 326.89 m
5.40 5.40 l
o
np
416.91 332.29 m
5.40 -5.40 l
o
np
415.79 329.59 m
7.64 0 l
o
np
419.61 325.77 m
0 7.64 l
o
ep
%%Trailer
%%Pages: 1
%%EOF
