%!PS-Adobe-3.0 EPSF-3.0
%%DocumentNeededResources: font Helvetica
%%+ font Helvetica-Bold
%%+ font Helvetica-Oblique
%%+ font Helvetica-BoldOblique
%%+ font Symbol
%%Title: R Graphics Output
%%Creator: R Software
%%Pages: (atend)
%%BoundingBox: 0 0 504 504
%%EndComments
%%BeginProlog
/bp  { gs sRGB gs } def
% begin .ps.prolog
/gs  { gsave } bind def
/gr  { grestore } bind def
/ep  { showpage gr gr } bind def
/m   { moveto } bind def
/l  { rlineto } bind def
/np  { newpath } bind def
/cp  { closepath } bind def
/f   { fill } bind def
/o   { stroke } bind def
/c   { newpath 0 360 arc } bind def
/r   { 4 2 roll moveto 1 copy 3 -1 roll exch 0 exch rlineto 0 rlineto -1 mul 0 exch rlineto closepath } bind def
/p1  { stroke } bind def
/p2  { gsave bg fill grestore newpath } bind def
/p3  { gsave bg fill grestore stroke } bind def
/p6  { gsave bg eofill grestore newpath } bind def
/p7  { gsave bg eofill grestore stroke } bind def
/t   { 5 -2 roll moveto gsave rotate
       1 index stringwidth pop
       mul neg 0 rmoveto show grestore } bind def
/ta  { 4 -2 roll moveto gsave rotate show } bind def
/tb  { 2 -1 roll 0 rmoveto show } bind def
/cl  { grestore gsave newpath 3 index 3 index moveto 1 index
       4 -1 roll lineto  exch 1 index lineto lineto
       closepath clip newpath } bind def
/rgb { setrgbcolor } bind def
/s   { scalefont setfont } bind def
% end   .ps.prolog
/sRGB { [ /CIEBasedABC
          << /DecodeLMN
               [ { dup 0.03928 le
                        {12.92321 div}
                        {0.055 add 1.055 div 2.4 exp }
                     ifelse
                 } bind dup dup
               ]
             /MatrixLMN [0.412457 0.212673 0.019334
                         0.357576 0.715152 0.119192
                         0.180437 0.072175 0.950301]
             /WhitePoint [0.9505 1.0 1.0890]
           >>
         ] setcolorspace } bind def
/srgb { setcolor } bind def
%%IncludeResource: font Helvetica
/Helvetica findfont
dup length dict begin
  {1 index /FID ne {def} {pop pop} ifelse} forall
  /Encoding ISOLatin1Encoding def
  currentdict
  end
/Font1 exch definefont pop
%%IncludeResource: font Helvetica-Bold
/Helvetica-Bold findfont
dup length dict begin
  {1 index /FID ne {def} {pop pop} ifelse} forall
  /Encoding ISOLatin1Encoding def
  currentdict
  end
/Font2 exch definefont pop
%%IncludeResource: font Helvetica-Oblique
/Helvetica-Oblique findfont
dup length dict begin
  {1 index /FID ne {def} {pop pop} ifelse} forall
  /Encoding ISOLatin1Encoding def
  currentdict
  end
/Font3 exch definefont pop
%%IncludeResource: font Helvetica-BoldOblique
/Helvetica-BoldOblique findfont
dup length dict begin
  {1 index /FID ne {def} {pop pop} ifelse} forall
  /Encoding ISOLatin1Encoding def
  currentdict
  end
/Font4 exch definefont pop
%%IncludeResource: font Symbol
/Symbol findfont
dup length dict begin
  {1 index /FID ne {def} {pop pop} ifelse} forall
  currentdict
  end
/Font5 exch definefont pop
%%EndProlog
%%Page: 1 1
bp
59.04 73.44 473.76 444.96 cl
0 0 0 srgb
0.75 setlinewidth
[] 0 setdash
1 setlinecap
1 setlinejoin
10.00 setmiterlimit
294.44 277.62 2.70 c p1
298.04 279.68 2.70 c p1
295.18 277.69 2.70 c p1
327.84 307.09 2.70 c p1
295.04 277.69 2.70 c p1
325.81 304.85 2.70 c p1
379.94 370.56 2.70 c p1
264.70 253.31 2.70 c p1
317.34 295.49 2.70 c p1
326.03 304.85 2.70 c p1
380.85 370.56 2.70 c p1
264.83 253.31 2.70 c p1
317.54 295.49 2.70 c p1
277.34 263.69 2.70 c p1
232.30 227.48 2.70 c p1
278.67 264.94 2.70 c p1
263.78 252.56 2.70 c p1
317.73 295.52 2.70 c p1
266.40 255.06 2.70 c p1
317.93 295.52 2.70 c p1
305.95 285.63 2.70 c p1
160.73 152.29 2.70 c p1
137.79 117.09 2.70 c p1
185.10 192.44 2.70 c p1
140.72 118.72 2.70 c p1
383.78 376.08 2.70 c p1
374.23 366.62 2.70 c p1
384.82 376.08 2.70 c p1
374.98 366.62 2.70 c p1
347.70 324.22 2.70 c p1
342.42 318.87 2.70 c p1
181.80 189.18 2.70 c p1
204.03 210.58 2.70 c p1
286.03 271.52 2.70 c p1
239.82 234.54 2.70 c p1
286.72 271.82 2.70 c p1
242.70 236.19 2.70 c p1
316.58 294.48 2.70 c p1
409.23 392.90 2.70 c p1
320.71 299.38 2.70 c p1
299.57 280.86 2.70 c p1
313.77 291.67 2.70 c p1
287.28 272.12 2.70 c p1
219.57 219.13 2.70 c p1
296.83 278.43 2.70 c p1
280.15 266.29 2.70 c p1
283.00 269.65 2.70 c p1
191.91 199.85 2.70 c p1
134.48 95.03 2.70 c p1
205.64 211.42 2.70 c p1
205.87 211.42 2.70 c p1
234.92 231.37 2.70 c p1
235.07 231.37 2.70 c p1
232.46 227.52 2.70 c p1
209.81 214.94 2.70 c p1
242.84 236.27 2.70 c p1
237.02 232.76 2.70 c p1
258.12 247.90 2.70 c p1
241.99 236.15 2.70 c p1
258.25 247.90 2.70 c p1
242.13 236.15 2.70 c p1
268.23 256.22 2.70 c p1
268.37 256.22 2.70 c p1
218.84 218.59 2.70 c p1
236.87 232.69 2.70 c p1
247.33 239.02 2.70 c p1
249.53 241.64 2.70 c p1
213.50 216.63 2.70 c p1
224.84 222.95 2.70 c p1
267.97 255.98 2.70 c p1
202.12 209.23 2.70 c p1
238.50 233.40 2.70 c p1
195.09 203.86 2.70 c p1
231.83 227.05 2.70 c p1
225.01 222.95 2.70 c p1
268.10 255.98 2.70 c p1
195.37 203.86 2.70 c p1
231.99 227.05 2.70 c p1
202.36 209.23 2.70 c p1
238.65 233.40 2.70 c p1
175.61 182.32 2.70 c p1
282.86 269.32 2.70 c p1
251.16 242.43 2.70 c p1
294.30 277.62 2.70 c p1
202.84 209.67 2.70 c p1
246.22 237.78 2.70 c p1
264.96 253.48 2.70 c p1
183.67 191.48 2.70 c p1
223.47 222.46 2.70 c p1
223.64 222.46 2.70 c p1
198.34 205.92 2.70 c p1
202.60 209.63 2.70 c p1
223.29 222.25 2.70 c p1
247.05 238.64 2.70 c p1
264.57 253.23 2.70 c p1
232.61 227.52 2.70 c p1
210.02 214.94 2.70 c p1
242.98 236.27 2.70 c p1
237.17 232.76 2.70 c p1
258.38 247.90 2.70 c p1
242.27 236.15 2.70 c p1
258.52 247.90 2.70 c p1
242.41 236.15 2.70 c p1
268.50 256.22 2.70 c p1
268.63 256.22 2.70 c p1
311.25 289.92 2.70 c p1
283.82 270.00 2.70 c p1
226.35 223.94 2.70 c p1
238.06 233.10 2.70 c p1
215.84 217.65 2.70 c p1
251.84 243.05 2.70 c p1
220.12 220.83 2.70 c p1
240.83 235.51 2.70 c p1
234.00 229.97 2.70 c p1
250.62 242.08 2.70 c p1
238.80 233.61 2.70 c p1
244.26 236.95 2.70 c p1
238.94 233.61 2.70 c p1
244.40 236.95 2.70 c p1
226.51 223.94 2.70 c p1
238.21 233.10 2.70 c p1
216.03 217.65 2.70 c p1
251.97 243.05 2.70 c p1
216.22 217.65 2.70 c p1
252.11 243.05 2.70 c p1
220.30 220.83 2.70 c p1
237.76 232.84 2.70 c p1
209.38 214.75 2.70 c p1
239.09 233.76 2.70 c p1
213.69 216.63 2.70 c p1
230.09 226.04 2.70 c p1
209.59 214.75 2.70 c p1
239.24 233.76 2.70 c p1
213.89 216.63 2.70 c p1
230.25 226.04 2.70 c p1
288.12 272.44 2.70 c p1
287.84 272.37 2.70 c p1
271.25 258.92 2.70 c p1
279.08 265.18 2.70 c p1
288.26 272.44 2.70 c p1
271.38 258.92 2.70 c p1
197.28 205.14 2.70 c p1
231.52 226.92 2.70 c p1
197.55 205.14 2.70 c p1
228.97 225.68 2.70 c p1
193.96 201.63 2.70 c p1
204.49 210.63 2.70 c p1
200.39 208.58 2.70 c p1
210.44 215.24 2.70 c p1
190.38 198.31 2.70 c p1
189.12 197.32 2.70 c p1
290.67 274.58 2.70 c p1
310.55 289.72 2.70 c p1
310.73 289.72 2.70 c p1
293.27 276.92 2.70 c p1
208.31 213.27 2.70 c p1
287.56 272.26 2.70 c p1
303.03 283.56 2.70 c p1
277.47 263.69 2.70 c p1
330.44 310.52 2.70 c p1
255.46 245.66 2.70 c p1
240.11 234.85 2.70 c p1
274.68 261.73 2.70 c p1
260.23 249.45 2.70 c p1
264.04 252.57 2.70 c p1
260.36 249.45 2.70 c p1
285.47 270.95 2.70 c p1
230.57 226.27 2.70 c p1
287.98 272.39 2.70 c p1
252.78 244.02 2.70 c p1
274.81 261.73 2.70 c p1
296.08 277.90 2.70 c p1
264.17 252.57 2.70 c p1
260.50 249.45 2.70 c p1
291.25 275.48 2.70 c p1
311.43 290.40 2.70 c p1
259.31 248.59 2.70 c p1
252.92 244.02 2.70 c p1
259.44 248.59 2.70 c p1
253.05 244.02 2.70 c p1
265.61 254.47 2.70 c p1
259.04 248.43 2.70 c p1
318.12 295.52 2.70 c p1
280.29 266.58 2.70 c p1
318.32 295.52 2.70 c p1
280.42 266.58 2.70 c p1
342.73 319.51 2.70 c p1
346.32 321.41 2.70 c p1
329.96 309.37 2.70 c p1
325.37 304.42 2.70 c p1
206.32 211.59 2.70 c p1
207.65 213.15 2.70 c p1
201.88 209.20 2.70 c p1
184.03 191.59 2.70 c p1
200.14 208.50 2.70 c p1
158.57 150.72 2.70 c p1
161.42 153.83 2.70 c p1
194.25 202.03 2.70 c p1
190.07 198.16 2.70 c p1
321.74 300.07 2.70 c p1
307.63 287.96 2.70 c p1
241.27 235.74 2.70 c p1
244.12 236.72 2.70 c p1
256.40 246.67 2.70 c p1
290.96 275.15 2.70 c p1
214.29 216.89 2.70 c p1
275.21 261.96 2.70 c p1
248.71 240.19 2.70 c p1
274.28 261.46 2.70 c p1
231.36 226.82 2.70 c p1
280.83 267.04 2.70 c p1
245.94 237.63 2.70 c p1
212.09 216.07 2.70 c p1
188.47 196.55 2.70 c p1
319.90 297.38 2.70 c p1
322.57 301.05 2.70 c p1
307.12 286.60 2.70 c p1
211.06 215.83 2.70 c p1
212.29 216.23 2.70 c p1
236.27 232.27 2.70 c p1
233.39 228.27 2.70 c p1
211.27 215.83 2.70 c p1
211.47 215.83 2.70 c p1
208.74 213.54 2.70 c p1
199.89 208.44 2.70 c p1
220.66 221.00 2.70 c p1
223.12 222.14 2.70 c p1
180.64 186.32 2.70 c p1
165.26 161.54 2.70 c p1
243.13 236.27 2.70 c p1
237.32 232.76 2.70 c p1
258.65 247.90 2.70 c p1
242.56 236.15 2.70 c p1
268.76 256.22 2.70 c p1
302.07 282.54 2.70 c p1
309.68 289.09 2.70 c p1
257.59 247.48 2.70 c p1
239.53 234.41 2.70 c p1
248.02 239.57 2.70 c p1
196.74 204.80 2.70 c p1
234.61 230.87 2.70 c p1
291.10 275.32 2.70 c p1
206.10 211.46 2.70 c p1
263.25 251.99 2.70 c p1
237.62 232.81 2.70 c p1
236.72 232.59 2.70 c p1
292.83 276.79 2.70 c p1
309.51 288.89 2.70 c p1
247.74 239.19 2.70 c p1
240.69 235.46 2.70 c p1
291.68 275.81 2.70 c p1
314.51 292.79 2.70 c p1
259.84 248.89 2.70 c p1
284.37 270.37 2.70 c p1
203.79 210.33 2.70 c p1
290.81 274.58 2.70 c p1
310.90 289.72 2.70 c p1
293.42 276.92 2.70 c p1
270.33 258.00 2.70 c p1
277.20 263.68 2.70 c p1
240.26 234.85 2.70 c p1
267.19 255.31 2.70 c p1
263.91 252.56 2.70 c p1
174.70 181.14 2.70 c p1
225.17 222.98 2.70 c p1
215.26 217.49 2.70 c p1
175.16 181.14 2.70 c p1
245.10 237.38 2.70 c p1
260.63 249.79 2.70 c p1
288.82 273.22 2.70 c p1
245.24 237.38 2.70 c p1
260.76 249.79 2.70 c p1
278.81 265.10 2.70 c p1
316.77 294.61 2.70 c p1
275.08 261.79 2.70 c p1
200.89 208.88 2.70 c p1
215.65 217.53 2.70 c p1
254.80 244.90 2.70 c p1
300.66 281.51 2.70 c p1
151.01 142.28 2.70 c p1
123.57 94.22 2.70 c p1
211.68 215.87 2.70 c p1
243.83 236.62 2.70 c p1
221.19 221.49 2.70 c p1
250.21 241.92 2.70 c p1
235.82 232.12 2.70 c p1
324.49 304.10 2.70 c p1
203.08 210.14 2.70 c p1
196.20 204.70 2.70 c p1
204.96 210.74 2.70 c p1
222.43 221.72 2.70 c p1
196.47 204.70 2.70 c p1
198.08 205.81 2.70 c p1
222.60 221.82 2.70 c p1
187.82 195.68 2.70 c p1
188.15 195.68 2.70 c p1
249.66 241.65 2.70 c p1
248.98 240.61 2.70 c p1
197.01 204.96 2.70 c p1
257.32 247.33 2.70 c p1
218.29 218.43 2.70 c p1
200.64 208.61 2.70 c p1
211.88 215.90 2.70 c p1
268.89 256.33 2.70 c p1
193.67 201.23 2.70 c p1
155.44 149.51 2.70 c p1
167.59 167.47 2.70 c p1
167.02 167.04 2.70 c p1
230.89 226.58 2.70 c p1
217.36 218.03 2.70 c p1
241.12 235.70 2.70 c p1
231.05 226.58 2.70 c p1
233.85 229.63 2.70 c p1
250.07 241.79 2.70 c p1
252.65 244.01 2.70 c p1
254.53 244.85 2.70 c p1
231.20 226.58 2.70 c p1
217.55 218.03 2.70 c p1
154.61 147.78 2.70 c p1
165.86 161.88 2.70 c p1
241.41 235.77 2.70 c p1
229.13 225.79 2.70 c p1
257.72 247.57 2.70 c p1
239.97 234.72 2.70 c p1
265.22 254.02 2.70 c p1
295.33 277.81 2.70 c p1
187.49 194.95 2.70 c p1
201.63 209.12 2.70 c p1
306.62 286.21 2.70 c p1
302.71 283.29 2.70 c p1
290.39 274.33 2.70 c p1
192.80 200.99 2.70 c p1
204.73 210.70 2.70 c p1
236.42 232.27 2.70 c p1
229.93 225.90 2.70 c p1
272.57 259.75 2.70 c p1
188.80 196.68 2.70 c p1
214.87 217.20 2.70 c p1
176.49 182.88 2.70 c p1
181.03 187.13 2.70 c p1
164.65 159.39 2.70 c p1
281.23 267.37 2.70 c p1
237.47 232.76 2.70 c p1
269.41 256.86 2.70 c p1
259.70 248.84 2.70 c p1
293.56 277.09 2.70 c p1
272.17 259.46 2.70 c p1
366.94 353.57 2.70 c p1
233.54 229.22 2.70 c p1
243.55 236.57 2.70 c p1
255.73 245.99 2.70 c p1
256.79 247.06 2.70 c p1
271.65 259.01 2.70 c p1
390.73 386.35 2.70 c p1
385.91 378.73 2.70 c p1
199.63 207.15 2.70 c p1
237.91 232.86 2.70 c p1
269.94 257.57 2.70 c p1
224.15 222.86 2.70 c p1
256.66 246.96 2.70 c p1
221.55 221.56 2.70 c p1
221.72 221.56 2.70 c p1
351.00 329.08 2.70 c p1
298.34 279.87 2.70 c p1
330.68 310.64 2.70 c p1
298.49 279.87 2.70 c p1
251.70 242.88 2.70 c p1
251.30 242.69 2.70 c p1
210.85 215.82 2.70 c p1
247.19 238.64 2.70 c p1
338.55 316.29 2.70 c p1
371.38 360.61 2.70 c p1
256.00 246.21 2.70 c p1
290.24 274.09 2.70 c p1
271.52 258.93 2.70 c p1
246.36 237.86 2.70 c p1
276.14 262.60 2.70 c p1
263.65 252.33 2.70 c p1
246.77 238.26 2.70 c p1
267.05 255.10 2.70 c p1
279.88 265.91 2.70 c p1
273.76 261.07 2.70 c p1
239.67 234.44 2.70 c p1
233.08 227.99 2.70 c p1
145.77 128.83 2.70 c p1
225.85 223.07 2.70 c p1
207.43 213.03 2.70 c p1
285.61 270.98 2.70 c p1
304.32 284.50 2.70 c p1
269.55 257.12 2.70 c p1
178.21 183.04 2.70 c p1
176.93 182.90 2.70 c p1
212.90 216.62 2.70 c p1
217.73 218.03 2.70 c p1
341.50 318.65 2.70 c p1
254.26 244.69 2.70 c p1
294.89 277.68 2.70 c p1
262.99 251.65 2.70 c p1
178.62 183.04 2.70 c p1
281.37 267.56 2.70 c p1
247.88 239.43 2.70 c p1
278.00 264.82 2.70 c p1
177.36 182.90 2.70 c p1
213.10 216.62 2.70 c p1
217.92 218.03 2.70 c p1
255.33 245.44 2.70 c p1
256.26 246.58 2.70 c p1
272.96 260.38 2.70 c p1
270.07 257.60 2.70 c p1
267.32 255.41 2.70 c p1
193.38 201.12 2.70 c p1
230.73 226.55 2.70 c p1
256.93 247.18 2.70 c p1
251.03 242.33 2.70 c p1
254.93 244.90 2.70 c p1
256.13 246.22 2.70 c p1
170.81 173.70 2.70 c p1
255.60 245.66 2.70 c p1
321.33 299.77 2.70 c p1
257.99 247.84 2.70 c p1
275.87 262.30 2.70 c p1
215.46 217.49 2.70 c p1
225.34 222.98 2.70 c p1
199.12 206.52 2.70 c p1
245.38 237.38 2.70 c p1
260.89 249.79 2.70 c p1
278.94 265.10 2.70 c p1
181.42 188.46 2.70 c p1
185.80 192.73 2.70 c p1
207.87 213.19 2.70 c p1
249.25 241.03 2.70 c p1
248.43 239.84 2.70 c p1
275.74 262.29 2.70 c p1
340.60 318.21 2.70 c p1
348.41 324.96 2.70 c p1
344.65 320.47 2.70 c p1
312.50 290.95 2.70 c p1
349.13 326.93 2.70 c p1
208.09 213.19 2.70 c p1
297.73 279.56 2.70 c p1
297.88 279.56 2.70 c p1
262.07 250.87 2.70 c p1
239.38 234.31 2.70 c p1
284.51 270.43 2.70 c p1
297.28 278.69 2.70 c p1
218.47 218.45 2.70 c p1
284.09 270.19 2.70 c p1
245.52 237.48 2.70 c p1
253.32 244.19 2.70 c p1
250.48 242.05 2.70 c p1
275.61 262.21 2.70 c p1
243.27 236.39 2.70 c p1
246.91 238.61 2.70 c p1
219.21 218.82 2.70 c p1
254.39 244.81 2.70 c p1
253.59 244.46 2.70 c p1
270.99 258.82 2.70 c p1
243.98 236.62 2.70 c p1
221.37 221.49 2.70 c p1
250.35 241.92 2.70 c p1
235.97 232.12 2.70 c p1
281.91 268.56 2.70 c p1
293.71 277.11 2.70 c p1
203.32 210.14 2.70 c p1
282.05 268.56 2.70 c p1
293.86 277.11 2.70 c p1
203.56 210.14 2.70 c p1
241.55 235.99 2.70 c p1
162.75 158.06 2.70 c p1
173.29 175.89 2.70 c p1
169.24 169.89 2.70 c p1
171.83 173.78 2.70 c p1
306.95 286.47 2.70 c p1
294.74 277.68 2.70 c p1
287.00 272.08 2.70 c p1
289.11 273.24 2.70 c p1
238.36 233.23 2.70 c p1
267.71 255.73 2.70 c p1
270.73 258.27 2.70 c p1
246.50 237.98 2.70 c p1
234.31 230.70 2.70 c p1
146.89 129.40 2.70 c p1
258.91 248.34 2.70 c p1
201.14 208.90 2.70 c p1
201.39 208.90 2.70 c p1
159.31 152.04 2.70 c p1
252.24 243.79 2.70 c p1
274.02 261.15 2.70 c p1
214.48 216.89 2.70 c p1
275.34 261.96 2.70 c p1
248.84 240.19 2.70 c p1
144.59 127.60 2.70 c p1
229.29 225.83 2.70 c p1
262.86 251.65 2.70 c p1
166.45 164.70 2.70 c p1
168.70 169.35 2.70 c p1
229.45 225.87 2.70 c p1
182.18 189.62 2.70 c p1
228.48 225.06 2.70 c p1
235.52 231.73 2.70 c p1
249.12 240.78 2.70 c p1
254.66 244.85 2.70 c p1
208.52 213.39 2.70 c p1
269.68 257.28 2.70 c p1
224.67 222.94 2.70 c p1
227.67 224.57 2.70 c p1
160.03 152.04 2.70 c p1
214.68 217.02 2.70 c p1
189.44 197.56 2.70 c p1
212.49 216.26 2.70 c p1
189.75 197.56 2.70 c p1
212.69 216.26 2.70 c p1
156.26 150.27 2.70 c p1
287.14 272.08 2.70 c p1
152.86 144.75 2.70 c p1
147.98 129.40 2.70 c p1
192.50 200.09 2.70 c p1
205.19 210.81 2.70 c p1
263.52 252.31 2.70 c p1
270.46 258.27 2.70 c p1
231.68 227.00 2.70 c p1
352.95 331.12 2.70 c p1
193.09 201.04 2.70 c p1
206.99 211.78 2.70 c p1
186.48 192.93 2.70 c p1
179.44 183.21 2.70 c p1
168.15 167.51 2.70 c p1
279.48 265.41 2.70 c p1
234.15 230.33 2.70 c p1
206.77 211.76 2.70 c p1
226.01 223.61 2.70 c p1
222.25 221.59 2.70 c p1
264.30 252.94 2.70 c p1
240.98 235.65 2.70 c p1
281.77 268.37 2.70 c p1
351.38 329.08 2.70 c p1
298.65 279.87 2.70 c p1
308.30 288.12 2.70 c p1
252.51 243.83 2.70 c p1
318.91 296.18 2.70 c p1
347.00 322.41 2.70 c p1
262.47 251.29 2.70 c p1
204.26 210.62 2.70 c p1
174.23 180.34 2.70 c p1
139.29 117.92 2.70 c p1
143.36 126.56 2.70 c p1
136.19 114.97 2.70 c p1
176.05 182.77 2.70 c p1
172.81 175.70 2.70 c p1
235.67 231.90 2.70 c p1
233.23 228.07 2.70 c p1
195.93 204.28 2.70 c p1
273.10 260.38 2.70 c p1
210.23 215.21 2.70 c p1
171.32 173.70 2.70 c p1
150.03 137.66 2.70 c p1
253.19 244.10 2.70 c p1
272.30 259.48 2.70 c p1
249.80 241.71 2.70 c p1
288.97 273.22 2.70 c p1
301.75 282.22 2.70 c p1
301.91 282.22 2.70 c p1
182.93 190.53 2.70 c p1
186.14 192.73 2.70 c p1
220.83 221.37 2.70 c p1
221.01 221.37 2.70 c p1
241.70 235.99 2.70 c p1
191.30 199.58 2.70 c p1
163.39 158.06 2.70 c p1
228.65 225.21 2.70 c p1
179.85 184.78 2.70 c p1
169.77 169.89 2.70 c p1
241.84 235.99 2.70 c p1
191.60 199.58 2.70 c p1
164.03 158.06 2.70 c p1
228.81 225.21 2.70 c p1
180.25 184.78 2.70 c p1
170.30 169.89 2.70 c p1
269.15 256.75 2.70 c p1
280.56 266.72 2.70 c p1
232.14 227.45 2.70 c p1
246.64 237.98 2.70 c p1
243.41 236.42 2.70 c p1
235.22 231.63 2.70 c p1
187.16 193.76 2.70 c p1
198.60 206.36 2.70 c p1
194.81 203.67 2.70 c p1
195.65 204.25 2.70 c p1
192.20 199.94 2.70 c p1
162.09 157.42 2.70 c p1
198.86 206.47 2.70 c p1
269.81 257.28 2.70 c p1
226.18 223.90 2.70 c p1
227.51 224.35 2.70 c p1
182.56 190.11 2.70 c p1
229.61 225.87 2.70 c p1
229.77 225.87 2.70 c p1
205.41 210.82 2.70 c p1
280.69 266.72 2.70 c p1
296.68 278.39 2.70 c p1
276.27 262.62 2.70 c p1
350.62 327.94 2.70 c p1
367.54 354.53 2.70 c p1
361.99 344.51 2.70 c p1
368.15 354.53 2.70 c p1
362.50 344.51 2.70 c p1
363.03 344.51 2.70 c p1
194.53 202.39 2.70 c p1
199.38 206.84 2.70 c p1
232.77 227.80 2.70 c p1
257.85 247.80 2.70 c p1
183.30 191.38 2.70 c p1
208.95 213.57 2.70 c p1
244.54 237.15 2.70 c p1
236.57 232.34 2.70 c p1
248.29 239.75 2.70 c p1
184.39 192.28 2.70 c p1
184.74 192.28 2.70 c p1
185.45 192.68 2.70 c p1
223.81 222.53 2.70 c p1
223.98 222.53 2.70 c p1
157.05 150.53 2.70 c p1
157.82 150.53 2.70 c p1
221.90 221.56 2.70 c p1
222.07 221.56 2.70 c p1
207.21 211.92 2.70 c p1
272.83 260.25 2.70 c p1
306.45 285.79 2.70 c p1
179.04 183.04 2.70 c p1
307.46 287.09 2.70 c p1
315.44 293.82 2.70 c p1
311.08 289.72 2.70 c p1
274.95 261.73 2.70 c p1
296.23 277.90 2.70 c p1
291.39 275.48 2.70 c p1
311.61 290.40 2.70 c p1
262.20 250.87 2.70 c p1
247.47 239.10 2.70 c p1
297.43 278.69 2.70 c p1
218.66 218.45 2.70 c p1
284.23 270.19 2.70 c p1
245.66 237.48 2.70 c p1
299.72 281.01 2.70 c p1
260.10 249.35 2.70 c p1
285.75 271.00 2.70 c p1
234.76 231.15 2.70 c p1
248.57 240.01 2.70 c p1
261.15 250.02 2.70 c p1
272.70 260.00 2.70 c p1
274.15 261.18 2.70 c p1
274.55 261.56 2.70 c p1
286.58 271.82 2.70 c p1
280.96 267.12 2.70 c p1
281.10 267.12 2.70 c p1
289.96 273.98 2.70 c p1
273.49 260.93 2.70 c p1
267.84 255.90 2.70 c p1
273.62 260.93 2.70 c p1
252.38 243.79 2.70 c p1
271.78 259.01 2.70 c p1
250.89 242.31 2.70 c p1
271.12 258.87 2.70 c p1
251.57 242.86 2.70 c p1
279.75 265.84 2.70 c p1
277.60 263.96 2.70 c p1
351.77 329.08 2.70 c p1
298.80 279.87 2.70 c p1
284.92 270.69 2.70 c p1
282.59 269.06 2.70 c p1
210.64 215.63 2.70 c p1
248.16 239.74 2.70 c p1
338.84 316.29 2.70 c p1
372.07 360.61 2.70 c p1
277.87 264.63 2.70 c p1
288.40 272.54 2.70 c p1
283.96 270.07 2.70 c p1
290.53 274.36 2.70 c p1
263.39 252.20 2.70 c p1
245.80 237.58 2.70 c p1
317.15 295.19 2.70 c p1
280.02 266.19 2.70 c p1
283.41 269.96 2.70 c p1
186.82 193.08 2.70 c p1
177.79 182.90 2.70 c p1
213.30 216.62 2.70 c p1
218.10 218.03 2.70 c p1
320.51 298.39 2.70 c p1
292.69 276.68 2.70 c p1
232.92 227.87 2.70 c p1
173.77 178.70 2.70 c p1
153.75 145.93 2.70 c p1
301.60 282.20 2.70 c p1
358.10 337.31 2.70 c p1
309.85 289.32 2.70 c p1
296.53 278.32 2.70 c p1
358.57 337.31 2.70 c p1
310.03 289.32 2.70 c p1
373.49 363.88 2.70 c p1
341.20 318.55 2.70 c p1
340.00 318.08 2.70 c p1
323.42 302.48 2.70 c p1
372.77 363.79 2.70 c p1
341.80 318.73 2.70 c p1
339.42 317.18 2.70 c p1
326.26 304.97 2.70 c p1
303.67 284.21 2.70 c p1
276.67 263.40 2.70 c p1
302.55 283.08 2.70 c p1
312.68 291.19 2.70 c p1
334.72 315.60 2.70 c p1
334.99 315.60 2.70 c p1
308.13 288.03 2.70 c p1
335.25 315.60 2.70 c p1
335.52 315.60 2.70 c p1
354.59 333.41 2.70 c p1
329.72 308.97 2.70 c p1
352.16 329.19 2.70 c p1
361.48 343.17 2.70 c p1
363.56 347.50 2.70 c p1
308.65 288.42 2.70 c p1
337.71 315.71 2.70 c p1
321.53 299.89 2.70 c p1
302.87 283.53 2.70 c p1
224.50 222.87 2.70 c p1
284.64 270.59 2.70 c p1
102.13 91.98 2.70 c p1
190.69 199.41 2.70 c p1
365.21 349.31 2.70 c p1
292.11 276.28 2.70 c p1
244.68 237.34 2.70 c p1
314.88 293.47 2.70 c p1
315.63 293.96 2.70 c p1
282.32 268.77 2.70 c p1
291.97 275.83 2.70 c p1
291.82 275.82 2.70 c p1
234.46 230.82 2.70 c p1
235.37 231.67 2.70 c p1
320.31 298.16 2.70 c p1
301.44 282.15 2.70 c p1
224.33 222.86 2.70 c p1
284.78 270.59 2.70 c p1
108.44 91.98 2.70 c p1
191.00 199.41 2.70 c p1
299.41 280.67 2.70 c p1
304.48 285.10 2.70 c p1
313.96 291.99 2.70 c p1
270.86 258.30 2.70 c p1
265.09 253.77 2.70 c p1
364.10 347.79 2.70 c p1
339.13 317.14 2.70 c p1
225.51 222.98 2.70 c p1
299.26 280.58 2.70 c p1
126.18 94.54 2.70 c p1
307.29 286.89 2.70 c p1
270.60 258.27 2.70 c p1
349.50 327.00 2.70 c p1
349.87 327.39 2.70 c p1
348.77 325.48 2.70 c p1
327.39 306.80 2.70 c p1
327.16 306.79 2.70 c p1
278.54 264.92 2.70 c p1
279.34 265.30 2.70 c p1
352.55 329.43 2.70 c p1
364.65 347.79 2.70 c p1
340.30 318.13 2.70 c p1
225.68 223.00 2.70 c p1
300.50 281.12 2.70 c p1
128.54 94.54 2.70 c p1
298.95 280.14 2.70 c p1
345.31 320.73 2.70 c p1
342.11 318.80 2.70 c p1
332.66 314.72 2.70 c p1
304.15 284.43 2.70 c p1
309.33 288.89 2.70 c p1
286.44 271.68 2.70 c p1
323.85 303.48 2.70 c p1
318.51 295.58 2.70 c p1
335.79 315.62 2.70 c p1
412.16 402.46 2.70 c p1
415.53 402.46 2.70 c p1
439.88 431.20 2.70 c p1
333.17 315.00 2.70 c p1
333.42 315.00 2.70 c p1
359.99 338.37 2.70 c p1
355.44 334.72 2.70 c p1
360.48 338.37 2.70 c p1
357.64 336.85 2.70 c p1
365.78 349.31 2.70 c p1
369.41 357.42 2.70 c p1
324.06 303.48 2.70 c p1
318.71 295.58 2.70 c p1
336.06 315.62 2.70 c p1
419.50 402.46 2.70 c p1
424.36 402.46 2.70 c p1
458.40 431.20 2.70 c p1
333.68 315.00 2.70 c p1
333.94 315.00 2.70 c p1
336.33 315.62 2.70 c p1
400.15 392.26 2.70 c p1
375.75 367.29 2.70 c p1
402.12 392.26 2.70 c p1
398.32 391.11 2.70 c p1
334.20 315.00 2.70 c p1
370.71 358.52 2.70 c p1
370.05 357.42 2.70 c p1
392.08 387.18 2.70 c p1
389.44 385.59 2.70 c p1
336.60 315.62 2.70 c p1
404.26 392.26 2.70 c p1
376.54 367.29 2.70 c p1
406.62 392.26 2.70 c p1
393.51 387.75 2.70 c p1
334.46 315.00 2.70 c p1
322.36 300.82 2.70 c p1
316.39 294.45 2.70 c p1
356.75 336.26 2.70 c p1
430.67 405.98 2.70 c p1
266.53 255.06 2.70 c p1
266.66 255.06 2.70 c p1
266.79 255.06 2.70 c p1
243.69 236.59 2.70 c p1
215.07 217.36 2.70 c p1
257.46 247.45 2.70 c p1
220.48 220.94 2.70 c p1
219.39 219.04 2.70 c p1
249.94 241.77 2.70 c p1
328.31 307.96 2.70 c p1
255.86 246.13 2.70 c p1
266.92 255.06 2.70 c p1
299.11 280.31 2.70 c p1
348.06 324.22 2.70 c p1
289.53 273.95 2.70 c p1
227.83 225.00 2.70 c p1
113.30 91.98 2.70 c p1
228.00 225.00 2.70 c p1
287.42 272.22 2.70 c p1
216.41 217.76 2.70 c p1
216.60 217.76 2.70 c p1
216.79 217.76 2.70 c p1
117.27 91.98 2.70 c p1
387.03 380.52 2.70 c p1
304.64 285.21 2.70 c p1
316.96 294.92 2.70 c p1
253.72 244.66 2.70 c p1
253.86 244.66 2.70 c p1
312.86 291.34 2.70 c p1
313.04 291.34 2.70 c p1
289.67 273.95 2.70 c p1
300.81 281.78 2.70 c p1
244.82 237.34 2.70 c p1
323.63 303.19 2.70 c p1
273.23 260.41 2.70 c p1
306.12 285.64 2.70 c p1
222.77 221.94 2.70 c p1
219.76 220.31 2.70 c p1
291.53 275.70 2.70 c p1
265.75 254.66 2.70 c p1
267.58 255.43 2.70 c p1
172.32 173.97 2.70 c p1
261.02 249.80 2.70 c p1
328.07 307.59 2.70 c p1
272.04 259.08 2.70 c p1
285.89 271.37 2.70 c p1
289.82 273.95 2.70 c p1
216.98 217.76 2.70 c p1
228.16 225.00 2.70 c p1
120.64 91.98 2.70 c p1
217.17 217.76 2.70 c p1
228.32 225.00 2.70 c p1
388.21 380.52 2.70 c p1
253.99 244.66 2.70 c p1
254.13 244.66 2.70 c p1
313.23 291.34 2.70 c p1
313.41 291.34 2.70 c p1
281.64 268.35 2.70 c p1
236.12 232.24 2.70 c p1
253.46 244.43 2.70 c p1
259.18 248.53 2.70 c p1
308.82 288.58 2.70 c p1
331.17 312.03 2.70 c p1
206.54 211.76 2.70 c p1
290.10 273.98 2.70 c p1
343.05 320.25 2.70 c p1
261.68 250.69 2.70 c p1
304.80 285.21 2.70 c p1
297.13 278.60 2.70 c p1
314.14 292.17 2.70 c p1
250.75 242.23 2.70 c p1
299.88 281.01 2.70 c p1
288.54 272.66 2.70 c p1
292.40 276.42 2.70 c p1
266.14 254.95 2.70 c p1
289.25 273.30 2.70 c p1
244.96 237.34 2.70 c p1
315.07 293.51 2.70 c p1
300.03 281.01 2.70 c p1
288.68 272.66 2.70 c p1
292.54 276.42 2.70 c p1
266.27 254.95 2.70 c p1
282.73 269.15 2.70 c p1
283.27 269.85 2.70 c p1
320.11 297.65 2.70 c p1
214.09 216.67 2.70 c p1
301.12 281.91 2.70 c p1
261.28 250.24 2.70 c p1
304.97 285.21 2.70 c p1
255.06 244.99 2.70 c p1
142.07 119.76 2.70 c p1
281.50 267.80 2.70 c p1
219.94 220.31 2.70 c p1
259.57 248.74 2.70 c p1
360.97 342.60 2.70 c p1
311.79 290.66 2.70 c p1
276.01 262.35 2.70 c p1
319.30 296.56 2.70 c p1
271.91 259.03 2.70 c p1
255.20 245.00 2.70 c p1
256.53 246.85 2.70 c p1
269.02 256.48 2.70 c p1
303.35 283.97 2.70 c p1
308.47 288.24 2.70 c p1
261.94 250.81 2.70 c p1
322.16 300.58 2.70 c p1
261.81 250.72 2.70 c p1
297.58 279.14 2.70 c p1
293.13 276.87 2.70 c p1
336.87 315.64 2.70 c p1
329.24 308.76 2.70 c p1
262.34 251.24 2.70 c p1
283.14 269.68 2.70 c p1
316.01 294.03 2.70 c p1
265.35 254.26 2.70 c p1
276.80 263.51 2.70 c p1
219.03 218.76 2.70 c p1
286.86 272.02 2.70 c p1
289.39 273.88 2.70 c p1
282.45 268.96 2.70 c p1
233.69 229.39 2.70 c p1
315.25 293.58 2.70 c p1
357.19 336.63 2.70 c p1
261.42 250.68 2.70 c p1
261.55 250.68 2.70 c p1
322.78 301.54 2.70 c p1
324.28 303.52 2.70 c p1
377.36 367.42 2.70 c p1
292.25 276.29 2.70 c p1
331.41 312.33 2.70 c p1
294.00 277.31 2.70 c p1
296.38 277.98 2.70 c p1
356.31 335.51 2.70 c p1
266.01 254.92 2.70 c p1
265.48 254.44 2.70 c p1
262.73 251.61 2.70 c p1
337.99 315.96 2.70 c p1
305.46 285.44 2.70 c p1
378.19 367.84 2.70 c p1
338.27 315.96 2.70 c p1
305.62 285.44 2.70 c p1
379.05 367.84 2.70 c p1
322.99 301.63 2.70 c p1
74.40 87.20 2.70 c p1
240.40 235.38 2.70 c p1
285.06 270.89 2.70 c p1
285.19 270.89 2.70 c p1
314.33 292.36 2.70 c p1
339.71 317.42 2.70 c p1
295.48 277.83 2.70 c p1
295.63 277.83 2.70 c p1
328.77 308.69 2.70 c p1
324.71 304.23 2.70 c p1
226.68 224.11 2.70 c p1
226.85 224.11 2.70 c p1
227.01 224.11 2.70 c p1
130.68 94.54 2.70 c p1
395.01 389.66 2.70 c p1
308.99 288.87 2.70 c p1
307.79 288.02 2.70 c p1
273.36 260.73 2.70 c p1
300.19 281.08 2.70 c p1
258.78 248.28 2.70 c p1
276.94 263.68 2.70 c p1
303.83 284.29 2.70 c p1
301.28 282.11 2.70 c p1
197.81 205.43 2.70 c p1
320.92 299.72 2.70 c p1
302.23 282.62 2.70 c p1
316.20 294.19 2.70 c p1
326.70 306.30 2.70 c p1
309.16 288.87 2.70 c p1
227.18 224.11 2.70 c p1
132.65 94.54 2.70 c p1
240.55 235.38 2.70 c p1
92.92 87.20 2.70 c p1
227.34 224.11 2.70 c p1
285.33 270.89 2.70 c p1
396.61 389.66 2.70 c p1
295.78 277.83 2.70 c p1
295.93 277.83 2.70 c p1
329.01 308.69 2.70 c p1
324.93 304.23 2.70 c p1
257.19 247.33 2.70 c p1
267.45 255.42 2.70 c p1
274.42 261.53 2.70 c p1
329.48 308.83 2.70 c p1
222.95 221.96 2.70 c p1
296.98 278.54 2.70 c p1
343.68 320.34 2.70 c p1
314.70 292.80 2.70 c p1
330.20 309.64 2.70 c p1
265.88 254.69 2.70 c p1
257.06 247.31 2.70 c p1
310.20 289.46 2.70 c p1
337.15 315.69 2.70 c p1
276.40 262.93 2.70 c p1
307.96 288.02 2.70 c p1
282.18 268.69 2.70 c p1
279.21 265.28 2.70 c p1
345.98 321.14 2.70 c p1
310.37 289.46 2.70 c p1
337.43 315.69 2.70 c p1
276.54 262.93 2.70 c p1
313.59 291.65 2.70 c p1
312.32 290.68 2.70 c p1
332.41 313.89 2.70 c p1
331.66 312.37 2.70 c p1
302.39 282.92 2.70 c p1
323.21 301.98 2.70 c p1
259.97 249.04 2.70 c p1
343.36 320.25 2.70 c p1
305.13 285.21 2.70 c p1
344.00 320.34 2.70 c p1
355.87 334.85 2.70 c p1
353.36 331.61 2.70 c p1
366.35 352.47 2.70 c p1
346.66 321.98 2.70 c p1
350.24 327.45 2.70 c p1
368.77 355.94 2.70 c p1
340.89 318.26 2.70 c p1
263.12 251.68 2.70 c p1
272.44 259.54 2.70 c p1
149.02 131.47 2.70 c p1
326.93 306.30 2.70 c p1
277.07 263.68 2.70 c p1
321.12 299.72 2.70 c p1
381.79 373.07 2.70 c p1
303.99 284.30 2.70 c p1
382.77 375.98 2.70 c p1
331.91 312.42 2.70 c p1
354.18 333.05 2.70 c p1
332.91 314.74 2.70 c p1
332.16 312.74 2.70 c p1
300.34 281.11 2.70 c p1
279.61 265.44 2.70 c p1
251.43 242.80 2.70 c p1
269.28 256.86 2.70 c p1
278.14 264.82 2.70 c p1
328.54 308.30 2.70 c p1
305.29 285.32 2.70 c p1
287.70 272.28 2.70 c p1
277.74 264.42 2.70 c p1
294.15 277.59 2.70 c p1
326.48 305.71 2.70 c p1
325.59 304.65 2.70 c p1
270.20 257.82 2.70 c p1
306.29 285.64 2.70 c p1
353.76 331.63 2.70 c p1
315.82 293.98 2.70 c p1
286.30 271.64 2.70 c p1
345.64 320.98 2.70 c p1
327.61 307.04 2.70 c p1
292.98 276.83 2.70 c p1
344.98 320.70 2.70 c p1
209.17 214.11 2.70 c p1
264.43 252.96 2.70 c p1
246.08 237.76 2.70 c p1
359.51 338.01 2.70 c p1
325.15 304.23 2.70 c p1
298.19 279.70 2.70 c p1
344.33 320.42 2.70 c p1
294.59 277.62 2.70 c p1
275.48 262.18 2.70 c p1
319.11 296.18 2.70 c p1
262.60 251.29 2.70 c p1
321.95 300.45 2.70 c p1
355.01 334.27 2.70 c p1
283.55 269.97 2.70 c p1
283.68 269.97 2.70 c p1
303.51 284.08 2.70 c p1
359.03 337.49 2.70 c p1
306.79 286.29 2.70 c p1
151.95 142.32 2.70 c p1
286.16 271.57 2.70 c p1
230.41 226.13 2.70 c p1
347.35 324.15 2.70 c p1
319.50 297.06 2.70 c p1
305.79 285.56 2.70 c p1
303.19 283.92 2.70 c p1
249.39 241.31 2.70 c p1
319.70 297.31 2.70 c p1
247.61 239.12 2.70 c p1
300.97 281.84 2.70 c p1
273.89 261.10 2.70 c p1
311.97 290.67 2.70 c p1
278.27 264.88 2.70 c p1
312.14 290.67 2.70 c p1
278.41 264.88 2.70 c p1
330.92 311.79 2.70 c p1
0.00 0.00 504.00 504.00 cl
0 0 0 srgb
0.75 setlinewidth
[] 0 setdash
1 setlinecap
1 setlinejoin
10.00 setmiterlimit
np
92.85 73.44 m
347.10 0 l
o
np
92.85 73.44 m
0 -7.20 l
o
np
150.70 73.44 m
0 -7.20 l
o
np
208.55 73.44 m
0 -7.20 l
o
np
266.40 73.44 m
0 -7.20 l
o
np
324.25 73.44 m
0 -7.20 l
o
np
382.10 73.44 m
0 -7.20 l
o
np
439.95 73.44 m
0 -7.20 l
o
/Font1 findfont 12 s
92.85 47.52 (-3) .5 0 t
150.70 47.52 (-2) .5 0 t
208.55 47.52 (-1) .5 0 t
266.40 47.52 (0) .5 0 t
324.25 47.52 (1) .5 0 t
382.10 47.52 (2) .5 0 t
439.95 47.52 (3) .5 0 t
np
59.04 111.79 m
0 288.49 l
o
np
59.04 111.79 m
-7.20 0 l
o
np
59.04 183.91 m
-7.20 0 l
o
np
59.04 256.04 m
-7.20 0 l
o
np
59.04 328.16 m
-7.20 0 l
o
np
59.04 400.28 m
-7.20 0 l
o
41.76 111.79 (-4) .5 90 t
41.76 183.91 (-2) .5 90 t
41.76 256.04 (0) .5 90 t
41.76 328.16 (2) .5 90 t
41.76 400.28 (4) .5 90 t
np
59.04 73.44 m
414.72 0 l
0 371.52 l
-414.72 0 l
0 -371.52 l
o
0.00 0.00 504.00 504.00 cl
/Font2 findfont 14 s
0 0 0 srgb
266.40 469.45 (Normal Q-Q Plot) .5 0 t
/Font1 findfont 12 s
266.40 18.72 (Theoretical Quantiles) .5 0 t
12.96 259.20 (Sample Quantiles) .5 90 t
59.04 73.44 473.76 444.96 cl
0 0 0 srgb
0.75 setlinewidth
[] 0 setdash
1 setlinecap
1 setlinejoin
10.00 setmiterlimit
np
59.04 92.32 m
414.72 324.98 l
o
ep
%%Trailer
%%Pages: 1
%%EOF
