%!PS-Adobe-3.0 EPSF-3.0
%%DocumentNeededResources: font Helvetica
%%+ font Helvetica-Bold
%%+ font Helvetica-Oblique
%%+ font Helvetica-BoldOblique
%%+ font Symbol
%%Title: R Graphics Output
%%Creator: R Software
%%Pages: (atend)
%%BoundingBox: 0 0 504 504
%%EndComments
%%BeginProlog
/bp  { gs sRGB gs } def
% begin .ps.prolog
/gs  { gsave } bind def
/gr  { grestore } bind def
/ep  { showpage gr gr } bind def
/m   { moveto } bind def
/l  { rlineto } bind def
/np  { newpath } bind def
/cp  { closepath } bind def
/f   { fill } bind def
/o   { stroke } bind def
/c   { newpath 0 360 arc } bind def
/r   { 4 2 roll moveto 1 copy 3 -1 roll exch 0 exch rlineto 0 rlineto -1 mul 0 exch rlineto closepath } bind def
/p1  { stroke } bind def
/p2  { gsave bg fill grestore newpath } bind def
/p3  { gsave bg fill grestore stroke } bind def
/p6  { gsave bg eofill grestore newpath } bind def
/p7  { gsave bg eofill grestore stroke } bind def
/t   { 5 -2 roll moveto gsave rotate
       1 index stringwidth pop
       mul neg 0 rmoveto show grestore } bind def
/ta  { 4 -2 roll moveto gsave rotate show } bind def
/tb  { 2 -1 roll 0 rmoveto show } bind def
/cl  { grestore gsave newpath 3 index 3 index moveto 1 index
       4 -1 roll lineto  exch 1 index lineto lineto
       closepath clip newpath } bind def
/rgb { setrgbcolor } bind def
/s   { scalefont setfont } bind def
% end   .ps.prolog
/sRGB { [ /CIEBasedABC
          << /DecodeLMN
               [ { dup 0.03928 le
                        {12.92321 div}
                        {0.055 add 1.055 div 2.4 exp }
                     ifelse
                 } bind dup dup
               ]
             /MatrixLMN [0.412457 0.212673 0.019334
                         0.357576 0.715152 0.119192
                         0.180437 0.072175 0.950301]
             /WhitePoint [0.9505 1.0 1.0890]
           >>
         ] setcolorspace } bind def
/srgb { setcolor } bind def
%%IncludeResource: font Helvetica
/Helvetica findfont
dup length dict begin
  {1 index /FID ne {def} {pop pop} ifelse} forall
  /Encoding ISOLatin1Encoding def
  currentdict
  end
/Font1 exch definefont pop
%%IncludeResource: font Helvetica-Bold
/Helvetica-Bold findfont
dup length dict begin
  {1 index /FID ne {def} {pop pop} ifelse} forall
  /Encoding ISOLatin1Encoding def
  currentdict
  end
/Font2 exch definefont pop
%%IncludeResource: font Helvetica-Oblique
/Helvetica-Oblique findfont
dup length dict begin
  {1 index /FID ne {def} {pop pop} ifelse} forall
  /Encoding ISOLatin1Encoding def
  currentdict
  end
/Font3 exch definefont pop
%%IncludeResource: font Helvetica-BoldOblique
/Helvetica-BoldOblique findfont
dup length dict begin
  {1 index /FID ne {def} {pop pop} ifelse} forall
  /Encoding ISOLatin1Encoding def
  currentdict
  end
/Font4 exch definefont pop
%%IncludeResource: font Symbol
/Symbol findfont
dup length dict begin
  {1 index /FID ne {def} {pop pop} ifelse} forall
  currentdict
  end
/Font5 exch definefont pop
%%EndProlog
%%Page: 1 1
bp
59.04 73.44 473.76 444.96 cl
0 0 0 srgb
0.75 setlinewidth
[] 0 setdash
1 setlinecap
1 setlinejoin
10.00 setmiterlimit
182.06 121.24 2.70 c p1
272.91 289.56 2.70 c p1
214.11 173.72 2.70 c p1
266.99 277.25 2.70 c p1
245.40 220.79 2.70 c p1
240.40 204.13 2.70 c p1
291.14 323.58 2.70 c p1
292.40 324.06 2.70 c p1
407.18 427.31 2.70 c p1
346.11 404.83 2.70 c p1
184.42 123.06 2.70 c p1
244.16 220.58 2.70 c p1
133.30 93.81 2.70 c p1
236.57 199.97 2.70 c p1
284.94 316.16 2.70 c p1
270.54 285.90 2.70 c p1
308.35 344.32 2.70 c p1
179.60 119.16 2.70 c p1
205.99 158.68 2.70 c p1
309.77 346.97 2.70 c p1
271.73 286.55 2.70 c p1
431.03 429.33 2.70 c p1
288.64 319.00 2.70 c p1
204.27 153.18 2.70 c p1
374.49 415.06 2.70 c p1
378.45 418.58 2.70 c p1
261.07 266.42 2.70 c p1
320.25 362.46 2.70 c p1
339.75 400.20 2.70 c p1
358.46 409.02 2.70 c p1
263.44 273.85 2.70 c p1
287.40 317.86 2.70 c p1
224.45 182.61 2.70 c p1
301.49 333.93 2.70 c p1
269.36 279.54 2.70 c p1
161.96 106.03 2.70 c p1
325.12 372.60 2.70 c p1
343.92 401.57 2.70 c p1
229.97 189.04 2.70 c p1
348.38 405.80 2.70 c p1
115.80 90.55 2.70 c p1
198.87 140.24 2.70 c p1
220.14 181.30 2.70 c p1
274.10 289.63 2.70 c p1
314.13 356.89 2.70 c p1
361.28 410.03 2.70 c p1
318.69 360.92 2.70 c p1
231.31 189.73 2.70 c p1
305.56 340.39 2.70 c p1
317.15 360.05 2.70 c p1
217.17 177.65 2.70 c p1
186.69 125.48 2.70 c p1
333.93 386.40 2.70 c p1
168.53 108.98 2.70 c p1
218.67 178.45 2.70 c p1
191.00 126.06 2.70 c p1
74.40 87.20 2.70 c p1
196.99 133.99 2.70 c p1
225.85 184.35 2.70 c p1
298.84 329.21 2.70 c p1
311.20 349.34 2.70 c p1
235.27 198.51 2.70 c p1
210.95 164.57 2.70 c p1
200.72 141.77 2.70 c p1
302.83 337.56 2.70 c p1
171.52 111.27 2.70 c p1
188.88 125.87 2.70 c p1
262.26 273.05 2.70 c p1
330.29 377.09 2.70 c p1
212.55 166.81 2.70 c p1
228.61 187.02 2.70 c p1
350.74 406.14 2.70 c p1
215.65 175.06 2.70 c p1
207.68 158.70 2.70 c p1
315.63 359.91 2.70 c p1
353.20 406.98 2.70 c p1
221.60 181.66 2.70 c p1
293.67 324.66 2.70 c p1
283.72 312.27 2.70 c p1
250.30 241.90 2.70 c p1
195.05 128.47 2.70 c p1
297.53 328.07 2.70 c p1
251.51 243.50 2.70 c p1
256.31 259.49 2.70 c p1
237.85 200.40 2.70 c p1
275.29 293.61 2.70 c p1
278.88 303.52 2.70 c p1
247.86 236.39 2.70 c p1
253.92 250.31 2.70 c p1
223.03 182.50 2.70 c p1
300.16 330.33 2.70 c p1
399.50 425.90 2.70 c p1
139.67 93.94 2.70 c p1
202.51 148.84 2.70 c p1
265.81 277.21 2.70 c p1
289.88 319.95 2.70 c p1
193.05 126.83 2.70 c p1
101.77 88.66 2.70 c p1
332.08 378.83 2.70 c p1
246.63 224.20 2.70 c p1
304.19 338.51 2.70 c p1
282.50 306.16 2.70 c p1
341.80 400.35 2.70 c p1
145.16 95.59 2.70 c p1
241.66 206.42 2.70 c p1
321.85 368.03 2.70 c p1
458.40 431.20 2.70 c p1
249.08 238.61 2.70 c p1
259.89 265.48 2.70 c p1
239.13 201.54 2.70 c p1
232.64 193.07 2.70 c p1
255.12 255.98 2.70 c p1
312.66 350.71 2.70 c p1
393.13 419.99 2.70 c p1
367.45 413.28 2.70 c p1
177.03 118.68 2.70 c p1
158.31 103.24 2.70 c p1
382.80 419.12 2.70 c p1
258.70 265.35 2.70 c p1
257.51 265.11 2.70 c p1
150.00 96.12 2.70 c p1
268.17 277.68 2.70 c p1
306.95 342.96 2.70 c p1
242.92 211.96 2.70 c p1
328.53 376.92 2.70 c p1
281.29 305.72 2.70 c p1
233.96 195.60 2.70 c p1
252.72 243.83 2.70 c p1
209.33 161.57 2.70 c p1
154.35 99.24 2.70 c p1
335.81 387.78 2.70 c p1
296.23 327.96 2.70 c p1
264.63 276.74 2.70 c p1
370.84 414.77 2.70 c p1
364.27 411.00 2.70 c p1
387.64 419.78 2.70 c p1
355.77 407.97 2.70 c p1
276.49 295.42 2.70 c p1
227.24 186.70 2.70 c p1
280.08 303.86 2.70 c p1
337.75 394.38 2.70 c p1
286.17 316.75 2.70 c p1
294.95 327.06 2.70 c p1
174.34 111.54 2.70 c p1
417.00 428.32 2.70 c p1
277.68 299.74 2.70 c p1
323.47 370.96 2.70 c p1
165.35 106.25 2.70 c p1
326.81 372.65 2.70 c p1
125.62 92.79 2.70 c p1
0.00 0.00 504.00 504.00 cl
0 0 0 srgb
0.75 setlinewidth
[] 0 setdash
1 setlinecap
1 setlinejoin
10.00 setmiterlimit
np
124.86 73.44 m
283.08 0 l
o
np
124.86 73.44 m
0 -7.20 l
o
np
195.63 73.44 m
0 -7.20 l
o
np
266.40 73.44 m
0 -7.20 l
o
np
337.17 73.44 m
0 -7.20 l
o
np
407.94 73.44 m
0 -7.20 l
o
/Font1 findfont 12 s
124.86 47.52 (-2) .5 0 t
195.63 47.52 (-1) .5 0 t
266.40 47.52 (0) .5 0 t
337.17 47.52 (1) .5 0 t
407.94 47.52 (2) .5 0 t
np
59.04 87.01 m
0 344.24 l
o
np
59.04 87.01 m
-7.20 0 l
o
np
59.04 155.86 m
-7.20 0 l
o
np
59.04 224.70 m
-7.20 0 l
o
np
59.04 293.55 m
-7.20 0 l
o
np
59.04 362.40 m
-7.20 0 l
o
np
59.04 431.25 m
-7.20 0 l
o
41.76 87.01 (0) .5 90 t
41.76 155.86 (20) .5 90 t
41.76 224.70 (40) .5 90 t
41.76 293.55 (60) .5 90 t
41.76 362.40 (80) .5 90 t
41.76 431.25 (100) .5 90 t
np
59.04 73.44 m
414.72 0 l
0 371.52 l
-414.72 0 l
0 -371.52 l
o
0.00 0.00 504.00 504.00 cl
/Font2 findfont 14 s
0 0 0 srgb
266.40 469.45 (Normal Q-Q Plot) .5 0 t
/Font1 findfont 12 s
266.40 18.72 (Theoretical Quantiles) .5 0 t
12.96 259.20 (Sample Quantiles) .5 90 t
59.04 73.44 473.76 444.96 cl
0 0 0 srgb
0.75 setlinewidth
[] 0 setdash
1 setlinecap
1 setlinejoin
10.00 setmiterlimit
np
121.58 0.00 m
273.10 504.00 l
o
ep
%%Trailer
%%Pages: 1
%%EOF
