%!PS-Adobe-3.0 EPSF-3.0
%%DocumentNeededResources: font Helvetica
%%+ font Helvetica-Bold
%%+ font Helvetica-Oblique
%%+ font Helvetica-BoldOblique
%%+ font Symbol
%%Title: R Graphics Output
%%Creator: R Software
%%Pages: (atend)
%%BoundingBox: 0 0 504 504
%%EndComments
%%BeginProlog
/bp  { gs sRGB gs } def
% begin .ps.prolog
/gs  { gsave } bind def
/gr  { grestore } bind def
/ep  { showpage gr gr } bind def
/m   { moveto } bind def
/l  { rlineto } bind def
/np  { newpath } bind def
/cp  { closepath } bind def
/f   { fill } bind def
/o   { stroke } bind def
/c   { newpath 0 360 arc } bind def
/r   { 4 2 roll moveto 1 copy 3 -1 roll exch 0 exch rlineto 0 rlineto -1 mul 0 exch rlineto closepath } bind def
/p1  { stroke } bind def
/p2  { gsave bg fill grestore newpath } bind def
/p3  { gsave bg fill grestore stroke } bind def
/p6  { gsave bg eofill grestore newpath } bind def
/p7  { gsave bg eofill grestore stroke } bind def
/t   { 5 -2 roll moveto gsave rotate
       1 index stringwidth pop
       mul neg 0 rmoveto show grestore } bind def
/ta  { 4 -2 roll moveto gsave rotate show } bind def
/tb  { 2 -1 roll 0 rmoveto show } bind def
/cl  { grestore gsave newpath 3 index 3 index moveto 1 index
       4 -1 roll lineto  exch 1 index lineto lineto
       closepath clip newpath } bind def
/rgb { setrgbcolor } bind def
/s   { scalefont setfont } bind def
% end   .ps.prolog
/sRGB { [ /CIEBasedABC
          << /DecodeLMN
               [ { dup 0.03928 le
                        {12.92321 div}
                        {0.055 add 1.055 div 2.4 exp }
                     ifelse
                 } bind dup dup
               ]
             /MatrixLMN [0.412457 0.212673 0.019334
                         0.357576 0.715152 0.119192
                         0.180437 0.072175 0.950301]
             /WhitePoint [0.9505 1.0 1.0890]
           >>
         ] setcolorspace } bind def
/srgb { setcolor } bind def
%%IncludeResource: font Helvetica
/Helvetica findfont
dup length dict begin
  {1 index /FID ne {def} {pop pop} ifelse} forall
  /Encoding ISOLatin1Encoding def
  currentdict
  end
/Font1 exch definefont pop
%%IncludeResource: font Helvetica-Bold
/Helvetica-Bold findfont
dup length dict begin
  {1 index /FID ne {def} {pop pop} ifelse} forall
  /Encoding ISOLatin1Encoding def
  currentdict
  end
/Font2 exch definefont pop
%%IncludeResource: font Helvetica-Oblique
/Helvetica-Oblique findfont
dup length dict begin
  {1 index /FID ne {def} {pop pop} ifelse} forall
  /Encoding ISOLatin1Encoding def
  currentdict
  end
/Font3 exch definefont pop
%%IncludeResource: font Helvetica-BoldOblique
/Helvetica-BoldOblique findfont
dup length dict begin
  {1 index /FID ne {def} {pop pop} ifelse} forall
  /Encoding ISOLatin1Encoding def
  currentdict
  end
/Font4 exch definefont pop
%%IncludeResource: font Symbol
/Symbol findfont
dup length dict begin
  {1 index /FID ne {def} {pop pop} ifelse} forall
  currentdict
  end
/Font5 exch definefont pop
%%EndProlog
%%Page: 1 1
bp
43.20 379.20 208.80 460.80 cl
0 0 0 srgb
0.75 setlinewidth
[] 0 setdash
1 setlinecap
1 setlinejoin
10.00 setmiterlimit
106.56 413.09 2.70 c p1
130.50 424.14 2.70 c p1
100.90 410.24 2.70 c p1
167.74 443.40 2.70 c p1
133.18 426.13 2.70 c p1
101.25 410.44 2.70 c p1
138.83 428.29 2.70 c p1
145.73 431.71 2.70 c p1
141.88 429.49 2.70 c p1
117.22 417.47 2.70 c p1
164.87 442.26 2.70 c p1
135.25 426.95 2.70 c p1
107.13 413.16 2.70 c p1
69.32 391.42 2.70 c p1
156.05 436.98 2.70 c p1
125.45 421.02 2.70 c p1
126.76 421.41 2.70 c p1
150.41 434.51 2.70 c p1
147.83 432.84 2.70 c p1
142.14 429.74 2.70 c p1
149.74 434.17 2.70 c p1
147.21 432.31 2.70 c p1
128.95 422.65 2.70 c p1
73.23 394.49 2.70 c p1
142.94 430.09 2.70 c p1
124.80 420.87 2.70 c p1
121.73 419.51 2.70 c p1
85.02 401.57 2.70 c p1
110.65 415.11 2.70 c p1
137.13 427.34 2.70 c p1
161.29 440.17 2.70 c p1
122.83 420.23 2.70 c p1
135.01 426.92 2.70 c p1
125.02 420.90 2.70 c p1
88.40 402.85 2.70 c p1
112.68 415.97 2.70 c p1
113.42 416.26 2.70 c p1
124.36 420.83 2.70 c p1
155.63 436.64 2.70 c p1
146.32 432.05 2.70 c p1
121.06 419.39 2.70 c p1
119.04 418.18 2.70 c p1
144.31 431.14 2.70 c p1
140.33 429.23 2.70 c p1
103.86 412.24 2.70 c p1
103.23 411.98 2.70 c p1
133.86 426.61 2.70 c p1
146.91 432.12 2.70 c p1
122.61 420.10 2.70 c p1
148.77 433.66 2.70 c p1
135.71 427.07 2.70 c p1
107.97 413.29 2.70 c p1
133.64 426.29 2.70 c p1
95.09 406.23 2.70 c p1
162.41 441.19 2.70 c p1
175.78 448.65 2.70 c p1
114.63 416.63 2.70 c p1
96.78 407.39 2.70 c p1
141.09 429.41 2.70 c p1
122.39 419.79 2.70 c p1
188.53 454.40 2.70 c p1
125.89 421.10 2.70 c p1
143.75 431.05 2.70 c p1
128.08 422.02 2.70 c p1
102.26 411.50 2.70 c p1
130.72 424.21 2.70 c p1
76.22 397.01 2.70 c p1
164.23 441.63 2.70 c p1
129.83 423.73 2.70 c p1
180.58 451.28 2.70 c p1
138.58 428.12 2.70 c p1
102.91 411.95 2.70 c p1
142.67 429.97 2.70 c p1
98.74 408.89 2.70 c p1
91.25 404.53 2.70 c p1
132.73 425.61 2.70 c p1
111.67 415.59 2.70 c p1
127.42 421.65 2.70 c p1
128.73 422.65 2.70 c p1
108.25 413.59 2.70 c p1
109.33 413.88 2.70 c p1
122.17 419.79 2.70 c p1
158.74 437.71 2.70 c p1
82.61 400.85 2.70 c p1
142.40 429.74 2.70 c p1
133.41 426.18 2.70 c p1
154.81 436.14 2.70 c p1
117.45 417.49 2.70 c p1
134.09 426.68 2.70 c p1
132.28 425.28 2.70 c p1
109.86 414.23 2.70 c p1
159.23 438.11 2.70 c p1
157.35 437.47 2.70 c p1
144.59 431.19 2.70 c p1
166.98 443.28 2.70 c p1
140.58 429.25 2.70 c p1
90.71 404.22 2.70 c p1
109.06 413.81 2.70 c p1
92.77 404.93 2.70 c p1
110.91 415.18 2.70 c p1
107.41 413.17 2.70 c p1
128.29 422.21 2.70 c p1
99.85 409.21 2.70 c p1
130.27 423.79 2.70 c p1
104.79 412.71 2.70 c p1
171.23 445.75 2.70 c p1
145.44 431.41 2.70 c p1
149.42 434.05 2.70 c p1
134.78 426.88 2.70 c p1
168.55 444.59 2.70 c p1
105.98 412.96 2.70 c p1
111.42 415.34 2.70 c p1
161.84 441.18 2.70 c p1
105.39 412.76 2.70 c p1
119.94 418.81 2.70 c p1
113.66 416.28 2.70 c p1
116.29 417.27 2.70 c p1
118.14 417.83 2.70 c p1
139.08 428.38 2.70 c p1
120.39 419.22 2.70 c p1
110.39 414.73 2.70 c p1
160.75 439.96 2.70 c p1
119.72 418.71 2.70 c p1
120.17 419.19 2.70 c p1
123.05 420.27 2.70 c p1
145.16 431.36 2.70 c p1
123.71 420.63 2.70 c p1
126.11 421.12 2.70 c p1
104.17 412.34 2.70 c p1
116.05 417.21 2.70 c p1
128.51 422.46 2.70 c p1
108.52 413.60 2.70 c p1
139.82 428.89 2.70 c p1
83.45 400.92 2.70 c p1
132.96 425.82 2.70 c p1
81.72 400.67 2.70 c p1
117.68 417.53 2.70 c p1
110.12 414.43 2.70 c p1
105.09 412.74 2.70 c p1
124.58 420.86 2.70 c p1
74.81 395.52 2.70 c p1
158.27 437.69 2.70 c p1
78.67 398.92 2.70 c p1
111.16 415.31 2.70 c p1
95.53 406.41 2.70 c p1
101.92 411.39 2.70 c p1
178.77 450.11 2.70 c p1
127.86 421.87 2.70 c p1
90.16 404.09 2.70 c p1
79.76 399.25 2.70 c p1
138.09 427.78 2.70 c p1
126.55 421.38 2.70 c p1
116.52 417.30 2.70 c p1
99.11 408.96 2.70 c p1
84.26 401.34 2.70 c p1
95.95 406.97 2.70 c p1
152.52 435.28 2.70 c p1
106.84 413.16 2.70 c p1
87.77 402.75 2.70 c p1
174.50 447.14 2.70 c p1
137.61 427.44 2.70 c p1
119.50 418.38 2.70 c p1
154.41 436.08 2.70 c p1
149.09 433.73 2.70 c p1
107.69 413.19 2.70 c p1
182.68 451.73 2.70 c p1
118.82 418.16 2.70 c p1
87.13 402.20 2.70 c p1
121.95 419.67 2.70 c p1
131.16 424.47 2.70 c p1
185.24 453.12 2.70 c p1
129.17 423.08 2.70 c p1
138.34 427.87 2.70 c p1
123.49 420.58 2.70 c p1
115.11 417.08 2.70 c p1
126.33 421.16 2.70 c p1
147.52 432.38 2.70 c p1
177.19 449.95 2.70 c p1
153.64 435.65 2.70 c p1
159.72 438.11 2.70 c p1
92.28 404.84 2.70 c p1
151.80 435.06 2.70 c p1
131.38 424.64 2.70 c p1
85.75 401.62 2.70 c p1
139.57 428.74 2.70 c p1
121.50 419.47 2.70 c p1
163.60 441.62 2.70 c p1
101.59 411.18 2.70 c p1
111.93 415.77 2.70 c p1
99.48 409.00 2.70 c p1
120.62 419.22 2.70 c p1
136.18 427.12 2.70 c p1
102.58 411.65 2.70 c p1
148.14 432.96 2.70 c p1
93.26 405.15 2.70 c p1
96.37 407.34 2.70 c p1
163.00 441.30 2.70 c p1
97.19 407.78 2.70 c p1
136.89 427.26 2.70 c p1
114.39 416.44 2.70 c p1
136.65 427.22 2.70 c p1
169.39 444.68 2.70 c p1
166.25 443.28 2.70 c p1
115.82 417.12 2.70 c p1
66.76 390.46 2.70 c p1
193.28 455.71 2.70 c p1
143.48 430.74 2.70 c p1
140.07 429.02 2.70 c p1
126.98 421.45 2.70 c p1
139.32 428.59 2.70 c p1
121.28 419.39 2.70 c p1
137.37 427.37 2.70 c p1
113.17 416.17 2.70 c p1
89.00 402.94 2.70 c p1
152.15 435.11 2.70 c p1
165.55 442.37 2.70 c p1
116.75 417.42 2.70 c p1
91.77 404.54 2.70 c p1
143.21 430.40 2.70 c p1
125.67 421.03 2.70 c p1
77.50 397.99 2.70 c p1
127.64 421.66 2.70 c p1
106.27 413.04 2.70 c p1
114.87 416.98 2.70 c p1
94.65 405.86 2.70 c p1
173.33 446.24 2.70 c p1
115.35 417.12 2.70 c p1
80.77 399.73 2.70 c p1
130.94 424.33 2.70 c p1
132.06 425.23 2.70 c p1
97.98 408.19 2.70 c p1
49.33 382.22 2.70 c p1
105.68 412.90 2.70 c p1
141.35 429.42 2.70 c p1
124.14 420.82 2.70 c p1
123.27 420.30 2.70 c p1
140.84 429.29 2.70 c p1
94.19 405.45 2.70 c p1
155.22 436.60 2.70 c p1
127.20 421.56 2.70 c p1
144.87 431.29 2.70 c p1
154.02 435.74 2.70 c p1
131.61 424.68 2.70 c p1
100.20 409.65 2.70 c p1
157.81 437.50 2.70 c p1
71.42 394.35 2.70 c p1
109.60 414.20 2.70 c p1
118.59 418.15 2.70 c p1
120.84 419.37 2.70 c p1
153.26 435.56 2.70 c p1
129.61 423.49 2.70 c p1
136.42 427.19 2.70 c p1
123.92 420.69 2.70 c p1
119.27 418.26 2.70 c p1
144.03 431.12 2.70 c p1
156.91 437.27 2.70 c p1
58.72 388.85 2.70 c p1
141.61 429.45 2.70 c p1
134.32 426.75 2.70 c p1
112.18 415.83 2.70 c p1
151.10 434.61 2.70 c p1
114.15 416.33 2.70 c p1
117.91 417.76 2.70 c p1
148.45 433.33 2.70 c p1
170.28 445.10 2.70 c p1
132.50 425.32 2.70 c p1
112.43 415.88 2.70 c p1
93.73 405.41 2.70 c p1
115.58 417.12 2.70 c p1
98.36 408.81 2.70 c p1
118.36 418.10 2.70 c p1
135.48 427.02 2.70 c p1
100.56 410.01 2.70 c p1
202.67 457.78 2.70 c p1
130.05 423.76 2.70 c p1
156.47 437.05 2.70 c p1
63.47 390.41 2.70 c p1
146.02 431.74 2.70 c p1
89.59 403.68 2.70 c p1
150.08 434.18 2.70 c p1
135.95 427.07 2.70 c p1
112.92 416.08 2.70 c p1
160.23 439.70 2.70 c p1
103.55 412.07 2.70 c p1
108.79 413.71 2.70 c p1
97.59 407.98 2.70 c p1
104.48 412.52 2.70 c p1
150.75 434.53 2.70 c p1
137.85 427.55 2.70 c p1
152.89 435.35 2.70 c p1
113.91 416.31 2.70 c p1
134.55 426.77 2.70 c p1
131.83 424.97 2.70 c p1
86.45 402.18 2.70 c p1
172.24 445.90 2.70 c p1
129.39 423.47 2.70 c p1
146.61 432.08 2.70 c p1
151.44 434.67 2.70 c p1
125.24 420.95 2.70 c p1
116.99 417.46 2.70 c p1
0.00 0.00 504.00 504.00 cl
0 0 0 srgb
0.75 setlinewidth
[] 0 setdash
1 setlinecap
1 setlinejoin
10.00 setmiterlimit
np
47.64 379.20 m
156.72 0 l
o
np
47.64 379.20 m
0 -7.20 l
o
np
73.76 379.20 m
0 -7.20 l
o
np
99.88 379.20 m
0 -7.20 l
o
np
126.00 379.20 m
0 -7.20 l
o
np
152.12 379.20 m
0 -7.20 l
o
np
178.24 379.20 m
0 -7.20 l
o
np
204.36 379.20 m
0 -7.20 l
o
/Font1 findfont 12 s
47.64 353.28 (-3) .5 0 t
73.76 353.28 (-2) .5 0 t
99.88 353.28 (-1) .5 0 t
126.00 353.28 (0) .5 0 t
152.12 353.28 (1) .5 0 t
178.24 353.28 (2) .5 0 t
204.36 353.28 (3) .5 0 t
np
43.20 380.71 m
0 68.21 l
o
np
43.20 380.71 m
-7.20 0 l
o
np
43.20 394.35 m
-7.20 0 l
o
np
43.20 407.99 m
-7.20 0 l
o
np
43.20 421.64 m
-7.20 0 l
o
np
43.20 435.28 m
-7.20 0 l
o
np
43.20 448.92 m
-7.20 0 l
o
25.92 380.71 (-3) .5 90 t
25.92 407.99 (-1) .5 90 t
25.92 435.28 (1) .5 90 t
np
43.20 379.20 m
165.60 0 l
0 81.60 l
-165.60 0 l
0 -81.60 l
o
0.00 336.00 252.00 504.00 cl
/Font2 findfont 14 s
0 0 0 srgb
62.99 477.37 (Normalni r) 0 ta
-0.280 (ozdeleni) tb gr
/Font1 findfont 12 s
126.00 324.48 (Theoretical Quantiles) .5 0 t
-2.88 420.00 (Sample Quantiles) .5 90 t
43.20 379.20 208.80 460.80 cl
0 0 0 srgb
0.75 setlinewidth
[] 0 setdash
1 setlinecap
1 setlinejoin
10.00 setmiterlimit
np
43.20 381.75 m
165.60 80.91 l
o
295.20 379.20 460.80 460.80 cl
295.20 379.20 460.80 460.80 cl
0 0 0 srgb
0.75 setlinewidth
[] 0 setdash
1 setlinecap
1 setlinejoin
10.00 setmiterlimit
400.77 443.76 2.70 c p1
414.41 452.43 2.70 c p1
351.85 393.29 2.70 c p1
395.21 438.88 2.70 c p1
434.68 455.98 2.70 c p1
432.58 455.91 2.70 c p1
367.58 408.66 2.70 c p1
371.27 411.94 2.70 c p1
422.28 454.11 2.70 c p1
347.95 390.20 2.70 c p1
416.23 452.88 2.70 c p1
366.39 408.33 2.70 c p1
380.73 422.47 2.70 c p1
380.95 422.91 2.70 c p1
391.32 436.22 2.70 c p1
371.94 412.84 2.70 c p1
352.20 393.69 2.70 c p1
365.91 407.88 2.70 c p1
386.32 429.56 2.70 c p1
341.00 386.47 2.70 c p1
404.52 446.59 2.70 c p1
357.09 398.22 2.70 c p1
381.17 422.96 2.70 c p1
350.74 392.45 2.70 c p1
364.43 406.71 2.70 c p1
385.64 429.14 2.70 c p1
360.25 401.50 2.70 c p1
386.78 430.18 2.70 c p1
377.24 418.89 2.70 c p1
416.87 453.14 2.70 c p1
404.89 447.03 2.70 c p1
369.68 410.20 2.70 c p1
363.93 405.91 2.70 c p1
402.41 444.84 2.70 c p1
375.27 416.33 2.70 c p1
364.18 406.03 2.70 c p1
347.53 389.53 2.70 c p1
343.25 387.04 2.70 c p1
389.61 434.31 2.70 c p1
387.71 432.69 2.70 c p1
409.81 450.59 2.70 c p1
363.42 404.96 2.70 c p1
415.60 452.73 2.70 c p1
355.86 397.41 2.70 c p1
399.21 442.10 2.70 c p1
358.27 399.13 2.70 c p1
330.67 384.45 2.70 c p1
405.64 447.38 2.70 c p1
389.37 433.98 2.70 c p1
417.55 453.43 2.70 c p1
388.42 433.28 2.70 c p1
403.44 445.94 2.70 c p1
368.75 409.52 2.70 c p1
371.04 411.82 2.70 c p1
382.94 425.09 2.70 c p1
347.09 389.33 2.70 c p1
355.23 396.79 2.70 c p1
384.06 426.64 2.70 c p1
396.03 439.01 2.70 c p1
406.81 447.77 2.70 c p1
369.91 410.27 2.70 c p1
399.52 442.59 2.70 c p1
342.16 386.54 2.70 c p1
385.86 429.31 2.70 c p1
368.29 409.12 2.70 c p1
383.83 426.63 2.70 c p1
411.72 451.29 2.70 c p1
355.55 397.22 2.70 c p1
369.45 410.06 2.70 c p1
387.95 432.95 2.70 c p1
396.87 440.27 2.70 c p1
380.08 421.65 2.70 c p1
402.08 444.80 2.70 c p1
380.29 422.02 2.70 c p1
378.55 420.10 2.70 c p1
372.17 413.91 2.70 c p1
368.99 409.55 2.70 c p1
349.59 391.47 2.70 c p1
363.16 404.69 2.70 c p1
362.12 403.07 2.70 c p1
397.16 440.43 2.70 c p1
397.73 441.03 2.70 c p1
351.11 393.01 2.70 c p1
379.42 421.15 2.70 c p1
384.50 427.33 2.70 c p1
378.98 420.41 2.70 c p1
370.59 411.35 2.70 c p1
373.28 414.38 2.70 c p1
321.32 383.01 2.70 c p1
412.75 451.71 2.70 c p1
345.73 388.14 2.70 c p1
379.20 420.53 2.70 c p1
401.42 444.21 2.70 c p1
384.73 427.42 2.70 c p1
373.06 414.23 2.70 c p1
382.50 424.46 2.70 c p1
398.91 441.85 2.70 c p1
353.92 394.82 2.70 c p1
427.78 455.58 2.70 c p1
376.58 417.97 2.70 c p1
415.00 452.50 2.70 c p1
408.91 450.32 2.70 c p1
395.48 438.96 2.70 c p1
388.65 433.34 2.70 c p1
387.48 431.17 2.70 c p1
344.28 387.67 2.70 c p1
372.84 414.18 2.70 c p1
380.51 422.30 2.70 c p1
418.25 453.48 2.70 c p1
390.83 436.04 2.70 c p1
392.84 436.96 2.70 c p1
375.92 417.71 2.70 c p1
348.78 391.23 2.70 c p1
398.32 441.40 2.70 c p1
374.61 415.29 2.70 c p1
373.73 414.78 2.70 c p1
328.22 384.20 2.70 c p1
351.48 393.22 2.70 c p1
372.62 414.11 2.70 c p1
396.59 440.19 2.70 c p1
310.72 382.48 2.70 c p1
384.96 427.81 2.70 c p1
410.27 450.67 2.70 c p1
390.34 435.61 2.70 c p1
361.06 402.00 2.70 c p1
404.15 446.55 2.70 c p1
365.17 407.38 2.70 c p1
383.38 425.90 2.70 c p1
373.95 414.88 2.70 c p1
340.40 386.03 2.70 c p1
393.61 437.37 2.70 c p1
381.83 423.62 2.70 c p1
395.75 438.99 2.70 c p1
339.13 385.97 2.70 c p1
391.57 436.24 2.70 c p1
362.91 404.66 2.70 c p1
362.39 403.58 2.70 c p1
402.75 444.94 2.70 c p1
346.65 388.66 2.70 c p1
337.75 385.35 2.70 c p1
367.11 408.52 2.70 c p1
381.39 423.18 2.70 c p1
385.18 428.26 2.70 c p1
361.60 402.66 2.70 c p1
356.17 397.66 2.70 c p1
370.14 411.01 2.70 c p1
376.36 417.89 2.70 c p1
403.10 445.37 2.70 c p1
349.19 391.32 2.70 c p1
388.18 433.28 2.70 c p1
378.33 419.72 2.70 c p1
409.35 450.42 2.70 c p1
382.05 423.85 2.70 c p1
349.98 391.85 2.70 c p1
374.83 415.58 2.70 c p1
354.91 396.68 2.70 c p1
374.17 415.04 2.70 c p1
358.56 399.16 2.70 c p1
425.33 454.87 2.70 c p1
375.05 416.07 2.70 c p1
397.44 440.95 2.70 c p1
352.56 394.10 2.70 c p1
406.41 447.74 2.70 c p1
356.48 397.73 2.70 c p1
354.58 395.59 2.70 c p1
353.25 394.60 2.70 c p1
382.72 424.91 2.70 c p1
393.09 437.17 2.70 c p1
408.05 448.43 2.70 c p1
390.58 435.75 2.70 c p1
377.02 418.26 2.70 c p1
401.74 444.21 2.70 c p1
325.23 383.38 2.70 c p1
445.28 457.52 2.70 c p1
387.01 430.18 2.70 c p1
373.50 414.56 2.70 c p1
329.50 384.27 2.70 c p1
396.31 439.15 2.70 c p1
356.79 397.92 2.70 c p1
454.67 457.78 2.70 c p1
410.74 450.80 2.70 c p1
391.08 436.05 2.70 c p1
393.88 437.45 2.70 c p1
376.14 417.89 2.70 c p1
406.02 447.41 2.70 c p1
353.59 394.64 2.70 c p1
385.41 429.09 2.70 c p1
362.65 404.25 2.70 c p1
375.71 416.65 2.70 c p1
338.45 385.58 2.70 c p1
354.26 395.57 2.70 c p1
341.59 386.51 2.70 c p1
418.98 453.61 2.70 c p1
366.15 408.07 2.70 c p1
379.86 421.33 2.70 c p1
386.09 429.45 2.70 c p1
359.13 400.08 2.70 c p1
379.64 421.19 2.70 c p1
400.14 443.17 2.70 c p1
366.87 408.49 2.70 c p1
405.26 447.12 2.70 c p1
332.77 384.73 2.70 c p1
429.19 455.62 2.70 c p1
394.94 438.52 2.70 c p1
361.86 402.81 2.70 c p1
388.89 433.38 2.70 c p1
366.63 408.46 2.70 c p1
421.39 453.81 2.70 c p1
365.66 407.76 2.70 c p1
331.76 384.52 2.70 c p1
368.05 408.89 2.70 c p1
370.82 411.43 2.70 c p1
368.52 409.14 2.70 c p1
424.24 454.79 2.70 c p1
370.36 411.17 2.70 c p1
381.61 423.48 2.70 c p1
413.84 452.17 2.70 c p1
412.23 451.53 2.70 c p1
359.69 400.50 2.70 c p1
392.07 436.40 2.70 c p1
367.35 408.54 2.70 c p1
382.27 424.08 2.70 c p1
394.40 438.36 2.70 c p1
401.09 444.17 2.70 c p1
407.22 447.95 2.70 c p1
334.61 384.84 2.70 c p1
357.68 398.78 2.70 c p1
369.22 409.90 2.70 c p1
363.67 405.26 2.70 c p1
393.35 437.22 2.70 c p1
390.09 435.09 2.70 c p1
411.23 451.01 2.70 c p1
403.80 446.13 2.70 c p1
398.02 441.06 2.70 c p1
371.72 412.47 2.70 c p1
383.16 425.78 2.70 c p1
344.77 387.90 2.70 c p1
407.63 448.20 2.70 c p1
423.23 454.51 2.70 c p1
378.76 420.39 2.70 c p1
413.29 452.09 2.70 c p1
350.36 392.30 2.70 c p1
359.41 400.19 2.70 c p1
377.67 419.21 2.70 c p1
376.80 418.01 2.70 c p1
374.39 415.05 2.70 c p1
337.02 385.09 2.70 c p1
387.25 430.90 2.70 c p1
391.82 436.29 2.70 c p1
367.82 408.74 2.70 c p1
420.55 453.77 2.70 c p1
394.67 438.37 2.70 c p1
339.77 385.97 2.70 c p1
437.24 456.33 2.70 c p1
357.39 398.61 2.70 c p1
335.45 384.86 2.70 c p1
360.79 401.86 2.70 c p1
392.33 436.66 2.70 c p1
359.97 400.89 2.70 c p1
358.84 399.90 2.70 c p1
326.81 383.71 2.70 c p1
361.33 402.15 2.70 c p1
389.85 434.49 2.70 c p1
333.72 384.75 2.70 c p1
342.71 386.88 2.70 c p1
371.50 412.23 2.70 c p1
377.89 419.22 2.70 c p1
386.55 429.89 2.70 c p1
392.58 436.88 2.70 c p1
345.26 387.93 2.70 c p1
372.39 414.02 2.70 c p1
430.77 455.83 2.70 c p1
400.45 443.72 2.70 c p1
357.98 399.06 2.70 c p1
377.45 419.19 2.70 c p1
318.76 382.98 2.70 c p1
360.52 401.70 2.70 c p1
375.49 416.53 2.70 c p1
394.14 438.21 2.70 c p1
440.53 457.11 2.70 c p1
364.92 407.27 2.70 c p1
419.74 453.64 2.70 c p1
426.50 454.93 2.70 c p1
408.47 450.19 2.70 c p1
378.11 419.42 2.70 c p1
398.61 441.54 2.70 c p1
399.83 442.92 2.70 c p1
389.13 433.43 2.70 c p1
383.61 426.12 2.70 c p1
364.68 407.15 2.70 c p1
301.33 382.22 2.70 c p1
343.77 387.10 2.70 c p1
346.19 388.63 2.70 c p1
323.42 383.12 2.70 c p1
365.42 407.54 2.70 c p1
348.37 391.15 2.70 c p1
384.28 427.06 2.70 c p1
336.26 384.95 2.70 c p1
315.47 382.85 2.70 c p1
352.90 394.35 2.70 c p1
0.00 0.00 504.00 504.00 cl
0 0 0 srgb
0.75 setlinewidth
[] 0 setdash
1 setlinecap
1 setlinejoin
10.00 setmiterlimit
np
299.64 379.20 m
156.72 0 l
o
np
299.64 379.20 m
0 -7.20 l
o
np
325.76 379.20 m
0 -7.20 l
o
np
351.88 379.20 m
0 -7.20 l
o
np
378.00 379.20 m
0 -7.20 l
o
np
404.12 379.20 m
0 -7.20 l
o
np
430.24 379.20 m
0 -7.20 l
o
np
456.36 379.20 m
0 -7.20 l
o
/Font1 findfont 12 s
299.64 353.28 (-3) .5 0 t
325.76 353.28 (-2) .5 0 t
351.88 353.28 (-1) .5 0 t
378.00 353.28 (0) .5 0 t
404.12 353.28 (1) .5 0 t
430.24 353.28 (2) .5 0 t
456.36 353.28 (3) .5 0 t
np
295.20 382.12 m
0 75.70 l
o
np
295.20 382.12 m
-7.20 0 l
o
np
295.20 394.74 m
-7.20 0 l
o
np
295.20 407.35 m
-7.20 0 l
o
np
295.20 419.97 m
-7.20 0 l
o
np
295.20 432.59 m
-7.20 0 l
o
np
295.20 445.20 m
-7.20 0 l
o
np
295.20 457.82 m
-7.20 0 l
o
277.92 382.12 (-3) .5 90 t
277.92 407.35 (-1) .5 90 t
277.92 432.59 (1) .5 90 t
277.92 457.82 (3) .5 90 t
np
295.20 379.20 m
165.60 0 l
0 81.60 l
-165.60 0 l
0 -81.60 l
o
252.00 336.00 504.00 504.00 cl
/Font2 findfont 14 s
0 0 0 srgb
302.54 477.37 (Ro) 0 ta
-0.280 (vnomerne r) tb
-0.280 (ozdeleni) tb gr
/Font1 findfont 12 s
378.00 324.48 (Theoretical Quantiles) .5 0 t
249.12 420.00 (Sample Quantiles) .5 90 t
295.20 379.20 460.80 460.80 cl
0 0 0 srgb
0.75 setlinewidth
[] 0 setdash
1 setlinecap
1 setlinejoin
10.00 setmiterlimit
np
295.20 332.61 m
161.82 171.39 l
o
43.20 211.20 208.80 292.80 cl
43.20 211.20 208.80 292.80 cl
0 0 0 srgb
0.75 setlinewidth
[] 0 setdash
1 setlinecap
1 setlinejoin
10.00 setmiterlimit
145.16 238.20 2.70 c p1
109.33 221.85 2.70 c p1
193.28 278.07 2.70 c p1
120.62 225.43 2.70 c p1
106.27 221.08 2.70 c p1
139.32 234.62 2.70 c p1
122.83 226.25 2.70 c p1
103.55 220.31 2.70 c p1
119.50 225.03 2.70 c p1
134.55 231.82 2.70 c p1
154.81 243.59 2.70 c p1
84.26 217.22 2.70 c p1
149.42 240.70 2.70 c p1
108.25 221.61 2.70 c p1
124.14 226.88 2.70 c p1
121.73 225.76 2.70 c p1
111.67 222.53 2.70 c p1
151.10 242.03 2.70 c p1
137.85 233.91 2.70 c p1
126.98 228.15 2.70 c p1
165.55 250.58 2.70 c p1
79.76 216.31 2.70 c p1
136.18 232.67 2.70 c p1
94.19 218.51 2.70 c p1
118.14 224.74 2.70 c p1
127.42 228.26 2.70 c p1
202.67 289.78 2.70 c p1
93.26 218.40 2.70 c p1
103.23 220.19 2.70 c p1
132.50 230.78 2.70 c p1
102.26 219.90 2.70 c p1
135.01 232.28 2.70 c p1
162.41 248.79 2.70 c p1
71.42 215.24 2.70 c p1
146.61 238.60 2.70 c p1
161.29 247.22 2.70 c p1
81.72 216.94 2.70 c p1
151.80 242.24 2.70 c p1
110.65 222.40 2.70 c p1
188.53 269.94 2.70 c p1
109.06 221.85 2.70 c p1
129.83 229.52 2.70 c p1
113.42 223.31 2.70 c p1
102.58 220.02 2.70 c p1
150.75 241.30 2.70 c p1
105.39 220.85 2.70 c p1
125.45 227.19 2.70 c p1
119.27 224.95 2.70 c p1
123.92 226.69 2.70 c p1
126.76 228.02 2.70 c p1
154.41 243.12 2.70 c p1
99.11 219.19 2.70 c p1
128.29 228.59 2.70 c p1
87.77 217.91 2.70 c p1
98.74 219.19 2.70 c p1
112.92 223.07 2.70 c p1
122.61 226.24 2.70 c p1
131.38 230.29 2.70 c p1
152.15 242.59 2.70 c p1
137.61 233.70 2.70 c p1
116.52 224.30 2.70 c p1
115.58 223.96 2.70 c p1
135.95 232.65 2.70 c p1
125.89 227.33 2.70 c p1
154.02 243.12 2.70 c p1
123.27 226.51 2.70 c p1
111.42 222.47 2.70 c p1
172.24 254.01 2.70 c p1
89.59 218.09 2.70 c p1
113.91 223.54 2.70 c p1
116.99 224.40 2.70 c p1
158.27 245.76 2.70 c p1
145.73 238.26 2.70 c p1
152.89 242.76 2.70 c p1
121.95 225.84 2.70 c p1
148.77 240.01 2.70 c p1
118.59 224.83 2.70 c p1
101.25 219.54 2.70 c p1
142.94 237.40 2.70 c p1
97.98 219.10 2.70 c p1
99.48 219.21 2.70 c p1
112.43 222.94 2.70 c p1
160.75 247.07 2.70 c p1
122.39 226.10 2.70 c p1
133.64 231.09 2.70 c p1
104.79 220.68 2.70 c p1
113.66 223.49 2.70 c p1
156.05 244.21 2.70 c p1
161.84 247.75 2.70 c p1
134.78 232.02 2.70 c p1
138.09 234.05 2.70 c p1
109.86 222.04 2.70 c p1
171.23 253.77 2.70 c p1
129.61 229.41 2.70 c p1
128.51 228.81 2.70 c p1
131.83 230.61 2.70 c p1
114.39 223.63 2.70 c p1
114.63 223.63 2.70 c p1
113.17 223.30 2.70 c p1
49.33 214.22 2.70 c p1
118.36 224.82 2.70 c p1
136.65 232.85 2.70 c p1
125.67 227.20 2.70 c p1
110.91 222.43 2.70 c p1
163.00 249.87 2.70 c p1
140.07 234.75 2.70 c p1
93.73 218.44 2.70 c p1
153.64 242.87 2.70 c p1
101.59 219.68 2.70 c p1
155.22 243.76 2.70 c p1
86.45 217.71 2.70 c p1
137.37 233.60 2.70 c p1
117.68 224.62 2.70 c p1
164.23 250.32 2.70 c p1
116.29 224.28 2.70 c p1
141.61 236.73 2.70 c p1
182.68 258.90 2.70 c p1
130.27 229.76 2.70 c p1
155.63 243.99 2.70 c p1
150.08 241.14 2.70 c p1
125.02 227.05 2.70 c p1
126.55 227.86 2.70 c p1
178.77 256.98 2.70 c p1
90.16 218.11 2.70 c p1
90.71 218.14 2.70 c p1
80.77 216.53 2.70 c p1
133.41 231.04 2.70 c p1
100.56 219.43 2.70 c p1
105.68 220.88 2.70 c p1
85.75 217.38 2.70 c p1
148.14 239.75 2.70 c p1
87.13 217.87 2.70 c p1
112.18 222.80 2.70 c p1
95.53 218.66 2.70 c p1
88.40 218.02 2.70 c p1
144.87 238.17 2.70 c p1
159.72 246.64 2.70 c p1
96.78 218.81 2.70 c p1
132.06 230.66 2.70 c p1
107.69 221.52 2.70 c p1
105.09 220.72 2.70 c p1
126.33 227.80 2.70 c p1
106.56 221.26 2.70 c p1
137.13 233.44 2.70 c p1
138.34 234.33 2.70 c p1
116.75 224.32 2.70 c p1
133.86 231.13 2.70 c p1
116.05 224.27 2.70 c p1
124.80 227.01 2.70 c p1
98.36 219.14 2.70 c p1
78.67 216.22 2.70 c p1
127.20 228.17 2.70 c p1
117.45 224.47 2.70 c p1
160.23 246.82 2.70 c p1
153.26 242.81 2.70 c p1
119.04 224.92 2.70 c p1
125.24 227.19 2.70 c p1
141.88 236.92 2.70 c p1
146.02 238.45 2.70 c p1
117.22 224.43 2.70 c p1
127.64 228.47 2.70 c p1
148.45 240.00 2.70 c p1
135.25 232.37 2.70 c p1
104.17 220.55 2.70 c p1
107.97 221.54 2.70 c p1
99.85 219.22 2.70 c p1
105.98 220.96 2.70 c p1
142.40 236.93 2.70 c p1
135.71 232.51 2.70 c p1
115.35 223.89 2.70 c p1
122.17 225.88 2.70 c p1
95.95 218.68 2.70 c p1
146.91 238.61 2.70 c p1
94.65 218.54 2.70 c p1
144.59 237.72 2.70 c p1
120.39 225.27 2.70 c p1
119.94 225.12 2.70 c p1
136.89 232.97 2.70 c p1
147.83 239.68 2.70 c p1
169.39 252.91 2.70 c p1
145.44 238.24 2.70 c p1
147.52 239.22 2.70 c p1
163.60 249.96 2.70 c p1
110.12 222.10 2.70 c p1
152.52 242.60 2.70 c p1
128.08 228.57 2.70 c p1
92.28 218.37 2.70 c p1
157.81 244.81 2.70 c p1
157.35 244.55 2.70 c p1
123.49 226.54 2.70 c p1
85.02 217.27 2.70 c p1
127.86 228.55 2.70 c p1
114.15 223.62 2.70 c p1
139.82 234.72 2.70 c p1
141.09 235.35 2.70 c p1
73.23 215.44 2.70 c p1
134.09 231.26 2.70 c p1
142.67 237.28 2.70 c p1
83.45 217.13 2.70 c p1
144.31 237.71 2.70 c p1
175.78 256.34 2.70 c p1
92.77 218.39 2.70 c p1
123.05 226.31 2.70 c p1
143.75 237.59 2.70 c p1
130.94 230.18 2.70 c p1
121.50 225.70 2.70 c p1
97.19 218.88 2.70 c p1
95.09 218.58 2.70 c p1
174.50 255.09 2.70 c p1
111.93 222.64 2.70 c p1
120.84 225.46 2.70 c p1
136.42 232.82 2.70 c p1
150.41 241.27 2.70 c p1
112.68 222.98 2.70 c p1
132.96 230.84 2.70 c p1
140.58 235.21 2.70 c p1
139.08 234.49 2.70 c p1
170.28 252.92 2.70 c p1
108.79 221.76 2.70 c p1
164.87 250.46 2.70 c p1
147.21 238.86 2.70 c p1
110.39 222.17 2.70 c p1
107.13 221.46 2.70 c p1
180.58 257.80 2.70 c p1
131.16 230.28 2.70 c p1
96.37 218.80 2.70 c p1
89.00 218.06 2.70 c p1
58.72 214.26 2.70 c p1
149.09 240.29 2.70 c p1
159.23 246.15 2.70 c p1
167.74 252.38 2.70 c p1
129.17 229.19 2.70 c p1
102.91 220.08 2.70 c p1
63.47 214.58 2.70 c p1
76.22 216.00 2.70 c p1
138.83 234.38 2.70 c p1
166.98 252.12 2.70 c p1
109.60 221.96 2.70 c p1
104.48 220.65 2.70 c p1
156.91 244.55 2.70 c p1
82.61 216.95 2.70 c p1
141.35 236.07 2.70 c p1
146.32 238.53 2.70 c p1
103.86 220.44 2.70 c p1
166.25 250.77 2.70 c p1
142.14 236.93 2.70 c p1
77.50 216.03 2.70 c p1
74.81 215.48 2.70 c p1
126.11 227.40 2.70 c p1
66.76 214.60 2.70 c p1
132.28 230.73 2.70 c p1
108.52 221.71 2.70 c p1
151.44 242.12 2.70 c p1
118.82 224.83 2.70 c p1
128.73 228.94 2.70 c p1
144.03 237.60 2.70 c p1
131.61 230.47 2.70 c p1
115.11 223.78 2.70 c p1
124.58 226.98 2.70 c p1
123.71 226.54 2.70 c p1
134.32 231.34 2.70 c p1
117.91 224.70 2.70 c p1
100.20 219.36 2.70 c p1
139.57 234.64 2.70 c p1
156.47 244.22 2.70 c p1
106.84 221.43 2.70 c p1
158.74 245.76 2.70 c p1
133.18 231.04 2.70 c p1
130.50 229.83 2.70 c p1
124.36 226.91 2.70 c p1
111.16 222.46 2.70 c p1
114.87 223.75 2.70 c p1
130.72 229.87 2.70 c p1
91.77 218.34 2.70 c p1
115.82 224.01 2.70 c p1
138.58 234.38 2.70 c p1
130.05 229.59 2.70 c p1
140.33 235.06 2.70 c p1
100.90 219.46 2.70 c p1
143.48 237.51 2.70 c p1
129.39 229.27 2.70 c p1
128.95 228.95 2.70 c p1
121.28 225.57 2.70 c p1
107.41 221.52 2.70 c p1
143.21 237.41 2.70 c p1
119.72 225.06 2.70 c p1
168.55 252.80 2.70 c p1
140.84 235.33 2.70 c p1
185.24 259.30 2.70 c p1
132.73 230.79 2.70 c p1
91.25 218.25 2.70 c p1
101.92 219.85 2.70 c p1
97.59 219.02 2.70 c p1
149.74 240.97 2.70 c p1
173.33 254.24 2.70 c p1
135.48 232.50 2.70 c p1
69.32 215.02 2.70 c p1
121.06 225.51 2.70 c p1
120.17 225.26 2.70 c p1
177.19 256.62 2.70 c p1
0.00 0.00 504.00 504.00 cl
0 0 0 srgb
0.75 setlinewidth
[] 0 setdash
1 setlinecap
1 setlinejoin
10.00 setmiterlimit
np
47.64 211.20 m
156.72 0 l
o
np
47.64 211.20 m
0 -7.20 l
o
np
73.76 211.20 m
0 -7.20 l
o
np
99.88 211.20 m
0 -7.20 l
o
np
126.00 211.20 m
0 -7.20 l
o
np
152.12 211.20 m
0 -7.20 l
o
np
178.24 211.20 m
0 -7.20 l
o
np
204.36 211.20 m
0 -7.20 l
o
/Font1 findfont 12 s
47.64 185.28 (-3) .5 0 t
73.76 185.28 (-2) .5 0 t
99.88 185.28 (-1) .5 0 t
126.00 185.28 (0) .5 0 t
152.12 185.28 (1) .5 0 t
178.24 185.28 (2) .5 0 t
204.36 185.28 (3) .5 0 t
np
43.20 213.26 m
0 69.45 l
o
np
43.20 213.26 m
-7.20 0 l
o
np
43.20 230.62 m
-7.20 0 l
o
np
43.20 247.98 m
-7.20 0 l
o
np
43.20 265.35 m
-7.20 0 l
o
np
43.20 282.71 m
-7.20 0 l
o
25.92 213.26 (0) .5 90 t
25.92 230.62 (5) .5 90 t
25.92 265.35 (15) .5 90 t
np
43.20 211.20 m
165.60 0 l
0 81.60 l
-165.60 0 l
0 -81.60 l
o
0.00 168.00 252.00 336.00 cl
/Font2 findfont 14 s
0 0 0 srgb
67.26 309.37 (Kladne z) 0 ta
0.140 (esikmeni) tb gr
/Font1 findfont 12 s
126.00 156.48 (Theoretical Quantiles) .5 0 t
-2.88 252.00 (Sample Quantiles) .5 90 t
43.20 211.20 208.80 292.80 cl
0 0 0 srgb
0.75 setlinewidth
[] 0 setdash
1 setlinecap
1 setlinejoin
10.00 setmiterlimit
np
43.20 192.36 m
165.60 74.49 l
o
295.20 211.20 460.80 292.80 cl
295.20 211.20 460.80 292.80 cl
0 0 0 srgb
0.75 setlinewidth
[] 0 setdash
1 setlinecap
1 setlinejoin
10.00 setmiterlimit
355.23 258.20 2.70 c p1
330.67 237.86 2.70 c p1
348.78 252.07 2.70 c p1
339.13 243.91 2.70 c p1
352.20 256.76 2.70 c p1
377.67 267.09 2.70 c p1
383.61 269.83 2.70 c p1
363.42 260.75 2.70 c p1
339.77 243.92 2.70 c p1
382.72 269.07 2.70 c p1
398.02 276.77 2.70 c p1
454.67 289.78 2.70 c p1
346.19 250.26 2.70 c p1
373.50 264.19 2.70 c p1
394.67 274.55 2.70 c p1
351.85 255.69 2.70 c p1
374.39 264.92 2.70 c p1
363.16 260.45 2.70 c p1
351.48 255.43 2.70 c p1
361.33 259.79 2.70 c p1
386.55 271.25 2.70 c p1
369.68 263.25 2.70 c p1
347.53 250.65 2.70 c p1
315.47 225.12 2.70 c p1
342.16 245.92 2.70 c p1
352.90 257.08 2.70 c p1
310.72 221.17 2.70 c p1
445.28 289.19 2.70 c p1
326.81 235.93 2.70 c p1
335.45 240.65 2.70 c p1
401.42 278.35 2.70 c p1
318.76 225.84 2.70 c p1
379.86 268.00 2.70 c p1
349.19 252.41 2.70 c p1
372.62 263.92 2.70 c p1
384.28 270.00 2.70 c p1
338.45 243.57 2.70 c p1
343.25 247.20 2.70 c p1
301.33 214.22 2.70 c p1
337.75 243.53 2.70 c p1
368.99 262.84 2.70 c p1
373.95 264.63 2.70 c p1
437.24 286.54 2.70 c p1
355.86 258.29 2.70 c p1
372.84 264.04 2.70 c p1
357.68 258.44 2.70 c p1
346.65 250.35 2.70 c p1
380.08 268.14 2.70 c p1
373.06 264.05 2.70 c p1
359.97 259.23 2.70 c p1
341.59 245.62 2.70 c p1
352.56 256.78 2.70 c p1
381.17 268.61 2.70 c p1
377.89 267.10 2.70 c p1
347.09 250.41 2.70 c p1
344.28 247.73 2.70 c p1
374.17 264.74 2.70 c p1
389.13 272.46 2.70 c p1
359.69 259.11 2.70 c p1
349.98 252.85 2.70 c p1
340.40 244.69 2.70 c p1
347.95 251.33 2.70 c p1
328.22 236.02 2.70 c p1
343.77 247.32 2.70 c p1
392.07 273.70 2.70 c p1
390.34 273.37 2.70 c p1
341.00 244.83 2.70 c p1
362.65 260.40 2.70 c p1
357.39 258.36 2.70 c p1
323.42 233.43 2.70 c p1
382.50 269.03 2.70 c p1
321.32 229.83 2.70 c p1
334.61 239.42 2.70 c p1
387.71 271.73 2.70 c p1
345.26 249.58 2.70 c p1
350.74 254.25 2.70 c p1
325.23 234.02 2.70 c p1
329.50 236.48 2.70 c p1
367.82 262.41 2.70 c p1
351.11 254.85 2.70 c p1
344.77 248.85 2.70 c p1
331.76 238.16 2.70 c p1
336.26 241.57 2.70 c p1
440.53 286.67 2.70 c p1
349.59 252.66 2.70 c p1
380.95 268.50 2.70 c p1
381.39 268.66 2.70 c p1
380.73 268.35 2.70 c p1
365.17 261.61 2.70 c p1
333.72 239.34 2.70 c p1
337.02 242.83 2.70 c p1
380.29 268.18 2.70 c p1
332.77 238.53 2.70 c p1
374.61 264.96 2.70 c p1
345.73 249.68 2.70 c p1
348.37 251.63 2.70 c p1
342.71 246.00 2.70 c p1
350.36 254.05 2.70 c p1
384.06 269.99 2.70 c p1
372.39 263.89 2.70 c p1
382.94 269.11 2.70 c p1
415.00 283.10 2.70 c p1
408.05 280.62 2.70 c p1
359.13 258.87 2.70 c p1
421.39 284.75 2.70 c p1
387.48 271.73 2.70 c p1
387.25 271.68 2.70 c p1
369.45 263.16 2.70 c p1
398.32 276.97 2.70 c p1
390.09 273.12 2.70 c p1
395.21 274.91 2.70 c p1
376.80 266.23 2.70 c p1
366.15 262.09 2.70 c p1
410.74 281.76 2.70 c p1
368.05 262.46 2.70 c p1
393.35 274.24 2.70 c p1
430.77 285.36 2.70 c p1
389.85 272.74 2.70 c p1
408.47 280.71 2.70 c p1
396.31 276.10 2.70 c p1
404.89 279.56 2.70 c p1
357.09 258.36 2.70 c p1
390.58 273.45 2.70 c p1
363.67 260.82 2.70 c p1
398.61 277.12 2.70 c p1
418.25 283.68 2.70 c p1
390.83 273.49 2.70 c p1
392.84 273.93 2.70 c p1
388.65 272.24 2.70 c p1
397.44 276.31 2.70 c p1
393.61 274.30 2.70 c p1
360.52 259.66 2.70 c p1
365.66 261.86 2.70 c p1
432.58 285.72 2.70 c p1
434.68 285.92 2.70 c p1
376.14 265.85 2.70 c p1
406.41 280.07 2.70 c p1
398.91 277.14 2.70 c p1
382.05 268.90 2.70 c p1
381.83 268.79 2.70 c p1
413.29 282.91 2.70 c p1
408.91 281.03 2.70 c p1
375.05 265.00 2.70 c p1
368.29 262.58 2.70 c p1
423.23 284.90 2.70 c p1
409.35 281.47 2.70 c p1
378.33 267.34 2.70 c p1
409.81 281.61 2.70 c p1
353.92 257.65 2.70 c p1
370.82 263.54 2.70 c p1
417.55 283.67 2.70 c p1
358.56 258.76 2.70 c p1
411.72 282.44 2.70 c p1
396.87 276.24 2.70 c p1
371.27 263.68 2.70 c p1
353.59 257.63 2.70 c p1
360.25 259.64 2.70 c p1
404.15 279.46 2.70 c p1
356.48 258.32 2.70 c p1
405.26 279.67 2.70 c p1
381.61 268.70 2.70 c p1
406.02 279.96 2.70 c p1
356.79 258.32 2.70 c p1
379.20 267.90 2.70 c p1
370.14 263.34 2.70 c p1
427.78 285.17 2.70 c p1
391.57 273.63 2.70 c p1
384.50 270.06 2.70 c p1
407.63 280.51 2.70 c p1
366.39 262.13 2.70 c p1
369.91 263.30 2.70 c p1
378.55 267.40 2.70 c p1
385.41 270.34 2.70 c p1
362.12 260.33 2.70 c p1
394.94 274.65 2.70 c p1
361.86 260.26 2.70 c p1
424.24 284.92 2.70 c p1
393.09 274.09 2.70 c p1
366.87 262.22 2.70 c p1
388.89 272.29 2.70 c p1
359.41 258.93 2.70 c p1
368.52 262.60 2.70 c p1
356.17 258.30 2.70 c p1
383.16 269.27 2.70 c p1
400.45 277.83 2.70 c p1
383.83 269.98 2.70 c p1
386.09 271.07 2.70 c p1
380.51 268.29 2.70 c p1
405.64 279.82 2.70 c p1
425.33 285.05 2.70 c p1
384.96 270.14 2.70 c p1
375.49 265.33 2.70 c p1
396.59 276.16 2.70 c p1
402.41 279.09 2.70 c p1
393.88 274.31 2.70 c p1
379.42 267.93 2.70 c p1
388.42 272.03 2.70 c p1
364.92 261.51 2.70 c p1
375.27 265.04 2.70 c p1
367.58 262.37 2.70 c p1
415.60 283.17 2.70 c p1
391.08 273.55 2.70 c p1
378.11 267.22 2.70 c p1
375.71 265.53 2.70 c p1
401.74 278.88 2.70 c p1
391.32 273.57 2.70 c p1
391.82 273.64 2.70 c p1
395.75 275.60 2.70 c p1
426.50 285.07 2.70 c p1
404.52 279.50 2.70 c p1
403.44 279.29 2.70 c p1
365.42 261.76 2.70 c p1
379.64 267.95 2.70 c p1
416.87 283.67 2.70 c p1
387.01 271.65 2.70 c p1
354.91 258.16 2.70 c p1
385.18 270.32 2.70 c p1
354.58 258.15 2.70 c p1
354.26 257.89 2.70 c p1
412.23 282.47 2.70 c p1
422.28 284.86 2.70 c p1
413.84 283.06 2.70 c p1
411.23 282.02 2.70 c p1
363.93 260.92 2.70 c p1
371.94 263.74 2.70 c p1
399.52 277.24 2.70 c p1
396.03 276.04 2.70 c p1
361.60 260.00 2.70 c p1
394.40 274.51 2.70 c p1
420.55 284.55 2.70 c p1
364.18 261.07 2.70 c p1
389.37 272.47 2.70 c p1
418.98 284.19 2.70 c p1
384.73 270.09 2.70 c p1
382.27 268.94 2.70 c p1
378.98 267.89 2.70 c p1
392.58 273.85 2.70 c p1
362.91 260.42 2.70 c p1
397.16 276.28 2.70 c p1
407.22 280.41 2.70 c p1
365.91 261.97 2.70 c p1
387.95 271.73 2.70 c p1
364.68 261.36 2.70 c p1
399.21 277.19 2.70 c p1
386.32 271.20 2.70 c p1
370.36 263.35 2.70 c p1
401.09 278.03 2.70 c p1
377.45 266.96 2.70 c p1
389.61 272.60 2.70 c p1
394.14 274.45 2.70 c p1
403.10 279.24 2.70 c p1
357.98 258.51 2.70 c p1
395.48 275.53 2.70 c p1
367.35 262.27 2.70 c p1
400.14 277.72 2.70 c p1
374.83 264.98 2.70 c p1
360.79 259.67 2.70 c p1
400.77 277.90 2.70 c p1
402.08 278.98 2.70 c p1
367.11 262.26 2.70 c p1
371.04 263.55 2.70 c p1
364.43 261.30 2.70 c p1
377.02 266.60 2.70 c p1
397.73 276.35 2.70 c p1
385.64 270.56 2.70 c p1
372.17 263.75 2.70 c p1
358.84 258.79 2.70 c p1
410.27 281.63 2.70 c p1
385.86 270.62 2.70 c p1
358.27 258.65 2.70 c p1
377.24 266.86 2.70 c p1
378.76 267.45 2.70 c p1
373.28 264.16 2.70 c p1
370.59 263.39 2.70 c p1
375.92 265.70 2.70 c p1
376.36 265.99 2.70 c p1
414.41 283.09 2.70 c p1
403.80 279.32 2.70 c p1
362.39 260.36 2.70 c p1
402.75 279.20 2.70 c p1
383.38 269.30 2.70 c p1
371.72 263.73 2.70 c p1
353.25 257.56 2.70 c p1
355.55 258.23 2.70 c p1
373.73 264.56 2.70 c p1
371.50 263.71 2.70 c p1
376.58 266.23 2.70 c p1
416.23 283.53 2.70 c p1
419.74 284.38 2.70 c p1
386.78 271.52 2.70 c p1
366.63 262.20 2.70 c p1
368.75 262.80 2.70 c p1
369.22 262.88 2.70 c p1
388.18 271.86 2.70 c p1
361.06 259.70 2.70 c p1
406.81 280.24 2.70 c p1
392.33 273.81 2.70 c p1
429.19 285.26 2.70 c p1
412.75 282.58 2.70 c p1
399.83 277.68 2.70 c p1
0.00 0.00 504.00 504.00 cl
0 0 0 srgb
0.75 setlinewidth
[] 0 setdash
1 setlinecap
1 setlinejoin
10.00 setmiterlimit
np
299.64 211.20 m
156.72 0 l
o
np
299.64 211.20 m
0 -7.20 l
o
np
325.76 211.20 m
0 -7.20 l
o
np
351.88 211.20 m
0 -7.20 l
o
np
378.00 211.20 m
0 -7.20 l
o
np
404.12 211.20 m
0 -7.20 l
o
np
430.24 211.20 m
0 -7.20 l
o
np
456.36 211.20 m
0 -7.20 l
o
/Font1 findfont 12 s
299.64 185.28 (-3) .5 0 t
325.76 185.28 (-2) .5 0 t
351.88 185.28 (-1) .5 0 t
378.00 185.28 (0) .5 0 t
404.12 185.28 (1) .5 0 t
430.24 185.28 (2) .5 0 t
456.36 185.28 (3) .5 0 t
np
295.20 214.18 m
0 71.97 l
o
np
295.20 214.18 m
-7.20 0 l
o
np
295.20 228.57 m
-7.20 0 l
o
np
295.20 242.97 m
-7.20 0 l
o
np
295.20 257.36 m
-7.20 0 l
o
np
295.20 271.76 m
-7.20 0 l
o
np
295.20 286.15 m
-7.20 0 l
o
277.92 214.18 (-3) .5 90 t
277.92 242.97 (-1) .5 90 t
277.92 271.76 (1) .5 90 t
np
295.20 211.20 m
165.60 0 l
0 81.60 l
-165.60 0 l
0 -81.60 l
o
252.00 168.00 504.00 336.00 cl
/Font2 findfont 14 s
0 0 0 srgb
314.98 309.37 (Zaporne z) 0 ta
0.140 (esikmeni) tb gr
/Font1 findfont 12 s
378.00 156.48 (Theoretical Quantiles) .5 0 t
249.12 252.00 (Sample Quantiles) .5 90 t
295.20 211.20 460.80 292.80 cl
0 0 0 srgb
0.75 setlinewidth
[] 0 setdash
1 setlinecap
1 setlinejoin
10.00 setmiterlimit
np
295.20 230.26 m
165.60 74.69 l
o
43.20 43.20 208.80 124.80 cl
43.20 43.20 208.80 124.80 cl
0 0 0 srgb
0.75 setlinewidth
[] 0 setdash
1 setlinecap
1 setlinejoin
10.00 setmiterlimit
85.76 57.58 2.70 c p1
100.91 61.94 2.70 c p1
122.89 72.04 2.70 c p1
95.07 60.48 2.70 c p1
116.66 68.20 2.70 c p1
114.05 66.53 2.70 c p1
81.97 56.98 2.70 c p1
121.29 71.20 2.70 c p1
118.50 68.82 2.70 c p1
99.85 61.58 2.70 c p1
91.41 59.24 2.70 c p1
102.42 62.14 2.70 c p1
118.67 68.93 2.70 c p1
97.59 61.16 2.70 c p1
62.66 53.77 2.70 c p1
107.16 63.53 2.70 c p1
118.17 68.69 2.70 c p1
86.31 57.80 2.70 c p1
105.66 62.99 2.70 c p1
83.98 57.45 2.70 c p1
111.31 64.99 2.70 c p1
107.58 63.59 2.70 c p1
109.19 64.15 2.70 c p1
96.36 60.83 2.70 c p1
94.39 60.34 2.70 c p1
119.16 69.25 2.70 c p1
111.13 64.93 2.70 c p1
106.53 63.28 2.70 c p1
49.33 46.22 2.70 c p1
83.34 57.15 2.70 c p1
117.84 68.64 2.70 c p1
101.93 62.04 2.70 c p1
84.59 57.52 2.70 c p1
100.39 61.86 2.70 c p1
102.67 62.22 2.70 c p1
99.58 61.51 2.70 c p1
115.28 67.14 2.70 c p1
123.53 72.91 2.70 c p1
119.66 69.91 2.70 c p1
121.77 71.36 2.70 c p1
103.62 62.48 2.70 c p1
118.83 69.10 2.70 c p1
88.81 58.81 2.70 c p1
107.37 63.55 2.70 c p1
125.28 76.66 2.70 c p1
109.78 64.26 2.70 c p1
104.09 62.61 2.70 c p1
96.98 61.04 2.70 c p1
118.00 68.68 2.70 c p1
124.97 76.21 2.70 c p1
114.76 66.66 2.70 c p1
105.22 62.86 2.70 c p1
124.65 76.03 2.70 c p1
93.68 59.95 2.70 c p1
120.64 70.71 2.70 c p1
101.17 61.96 2.70 c p1
87.85 58.58 2.70 c p1
121.45 71.20 2.70 c p1
68.14 54.19 2.70 c p1
103.85 62.60 2.70 c p1
110.36 64.42 2.70 c p1
100.12 61.84 2.70 c p1
73.25 55.10 2.70 c p1
95.72 60.72 2.70 c p1
76.83 55.56 2.70 c p1
124.33 75.18 2.70 c p1
65.75 53.87 2.70 c p1
58.20 52.46 2.70 c p1
116.99 68.27 2.70 c p1
119.33 69.45 2.70 c p1
106.31 63.23 2.70 c p1
106.10 63.17 2.70 c p1
117.16 68.42 2.70 c p1
123.21 72.22 2.70 c p1
74.56 55.37 2.70 c p1
122.25 71.69 2.70 c p1
112.43 65.44 2.70 c p1
103.39 62.42 2.70 c p1
121.93 71.47 2.70 c p1
119.49 69.63 2.70 c p1
122.09 71.54 2.70 c p1
105.00 62.69 2.70 c p1
118.34 68.71 2.70 c p1
113.16 66.00 2.70 c p1
98.75 61.42 2.70 c p1
124.17 74.24 2.70 c p1
111.69 65.25 2.70 c p1
108.60 64.03 2.70 c p1
115.63 67.32 2.70 c p1
114.23 66.53 2.70 c p1
94.73 60.36 2.70 c p1
109.00 64.04 2.70 c p1
125.76 79.03 2.70 c p1
108.19 63.93 2.70 c p1
104.54 62.67 2.70 c p1
117.33 68.48 2.70 c p1
114.41 66.60 2.70 c p1
98.17 61.30 2.70 c p1
86.84 58.23 2.70 c p1
119.00 69.12 2.70 c p1
111.50 65.01 2.70 c p1
115.11 67.05 2.70 c p1
104.77 62.69 2.70 c p1
71.78 55.02 2.70 c p1
110.94 64.73 2.70 c p1
125.60 77.81 2.70 c p1
77.83 56.10 2.70 c p1
88.34 58.78 2.70 c p1
80.46 56.80 2.70 c p1
102.91 62.28 2.70 c p1
123.05 72.12 2.70 c p1
106.95 63.47 2.70 c p1
105.44 62.90 2.70 c p1
82.67 57.07 2.70 c p1
110.75 64.70 2.70 c p1
119.98 70.17 2.70 c p1
125.44 77.08 2.70 c p1
122.41 71.75 2.70 c p1
91.80 59.43 2.70 c p1
99.31 61.50 2.70 c p1
115.97 67.76 2.70 c p1
109.98 64.28 2.70 c p1
112.97 65.89 2.70 c p1
81.23 56.94 2.70 c p1
100.65 61.93 2.70 c p1
90.58 59.11 2.70 c p1
90.16 59.10 2.70 c p1
94.04 60.28 2.70 c p1
101.43 62.00 2.70 c p1
110.17 64.30 2.70 c p1
116.31 67.91 2.70 c p1
99.03 61.47 2.70 c p1
92.19 59.50 2.70 c p1
123.85 73.45 2.70 c p1
119.82 69.94 2.70 c p1
116.83 68.26 2.70 c p1
124.01 73.92 2.70 c p1
89.27 58.82 2.70 c p1
124.49 75.89 2.70 c p1
121.61 71.25 2.70 c p1
113.34 66.07 2.70 c p1
116.14 67.86 2.70 c p1
110.56 64.68 2.70 c p1
107.78 63.71 2.70 c p1
75.74 55.45 2.70 c p1
117.67 68.52 2.70 c p1
125.13 76.41 2.70 c p1
124.81 76.12 2.70 c p1
111.87 65.29 2.70 c p1
107.99 63.73 2.70 c p1
112.06 65.36 2.70 c p1
120.80 70.80 2.70 c p1
123.37 72.66 2.70 c p1
114.58 66.64 2.70 c p1
120.31 70.62 2.70 c p1
109.39 64.18 2.70 c p1
115.45 67.14 2.70 c p1
121.12 71.02 2.70 c p1
125.92 84.85 2.70 c p1
108.80 64.03 2.70 c p1
95.40 60.57 2.70 c p1
114.93 66.85 2.70 c p1
102.18 62.05 2.70 c p1
116.49 67.92 2.70 c p1
113.69 66.26 2.70 c p1
122.57 71.76 2.70 c p1
89.72 58.93 2.70 c p1
85.19 57.54 2.70 c p1
123.69 73.17 2.70 c p1
112.61 65.61 2.70 c p1
91.00 59.14 2.70 c p1
87.35 58.28 2.70 c p1
97.88 61.22 2.70 c p1
115.80 67.66 2.70 c p1
98.46 61.36 2.70 c p1
122.73 71.90 2.70 c p1
112.79 65.71 2.70 c p1
112.24 65.44 2.70 c p1
109.59 64.25 2.70 c p1
104.32 62.66 2.70 c p1
106.74 63.39 2.70 c p1
120.96 70.86 2.70 c p1
79.64 56.79 2.70 c p1
120.15 70.46 2.70 c p1
103.15 62.36 2.70 c p1
117.50 68.48 2.70 c p1
108.39 64.01 2.70 c p1
78.76 56.75 2.70 c p1
113.87 66.29 2.70 c p1
96.05 60.74 2.70 c p1
120.47 70.67 2.70 c p1
92.95 59.67 2.70 c p1
70.10 54.26 2.70 c p1
92.58 59.52 2.70 c p1
97.29 61.11 2.70 c p1
93.32 59.68 2.70 c p1
105.88 63.00 2.70 c p1
96.67 60.98 2.70 c p1
101.68 62.02 2.70 c p1
113.52 66.19 2.70 c p1
129.75 102.88 2.70 c p1
155.33 113.72 2.70 c p1
143.81 109.42 2.70 c p1
143.40 109.22 2.70 c p1
126.56 97.96 2.70 c p1
138.66 107.74 2.70 c p1
135.69 106.30 2.70 c p1
156.93 114.21 2.70 c p1
170.77 117.28 2.70 c p1
165.16 116.38 2.70 c p1
130.07 103.16 2.70 c p1
133.50 104.95 2.70 c p1
142.41 108.93 2.70 c p1
130.55 103.46 2.70 c p1
127.35 100.39 2.70 c p1
155.95 113.90 2.70 c p1
144.84 109.82 2.70 c p1
152.97 112.90 2.70 c p1
129.43 102.65 2.70 c p1
138.31 107.52 2.70 c p1
129.59 102.83 2.70 c p1
132.51 104.76 2.70 c p1
148.38 110.73 2.70 c p1
133.00 104.84 2.70 c p1
131.04 103.83 2.70 c p1
128.15 102.07 2.70 c p1
127.83 101.35 2.70 c p1
132.34 104.57 2.70 c p1
176.26 119.04 2.70 c p1
134.84 105.74 2.70 c p1
130.23 103.16 2.70 c p1
127.99 101.51 2.70 c p1
141.83 108.59 2.70 c p1
137.59 107.21 2.70 c p1
149.33 110.86 2.70 c p1
139.03 107.84 2.70 c p1
157.61 114.33 2.70 c p1
154.12 113.49 2.70 c p1
161.84 115.39 2.70 c p1
148.85 110.81 2.70 c p1
164.15 115.72 2.70 c p1
143.00 109.00 2.70 c p1
159.42 114.69 2.70 c p1
141.44 108.54 2.70 c p1
134.33 105.59 2.70 c p1
128.95 102.56 2.70 c p1
134.16 105.44 2.70 c p1
133.83 105.21 2.70 c p1
152.42 112.68 2.70 c p1
143.20 109.14 2.70 c p1
135.01 105.88 2.70 c p1
132.02 104.37 2.70 c p1
172.36 117.96 2.70 c p1
140.31 108.10 2.70 c p1
128.63 102.40 2.70 c p1
137.07 107.01 2.70 c p1
145.69 109.96 2.70 c p1
156.60 114.13 2.70 c p1
142.61 108.96 2.70 c p1
146.12 110.07 2.70 c p1
130.88 103.58 2.70 c p1
156.28 113.92 2.70 c p1
145.90 110.00 2.70 c p1
154.41 113.59 2.70 c p1
173.24 118.16 2.70 c p1
147.68 110.44 2.70 c p1
139.21 107.84 2.70 c p1
133.66 105.11 2.70 c p1
135.51 106.19 2.70 c p1
131.69 104.28 2.70 c p1
150.57 111.52 2.70 c p1
127.67 101.16 2.70 c p1
127.19 99.60 2.70 c p1
134.50 105.67 2.70 c p1
162.28 115.55 2.70 c p1
146.78 110.13 2.70 c p1
136.37 106.65 2.70 c p1
153.83 113.21 2.70 c p1
138.13 107.45 2.70 c p1
142.02 108.79 2.70 c p1
145.05 109.85 2.70 c p1
162.73 115.57 2.70 c p1
166.24 116.72 2.70 c p1
165.69 116.67 2.70 c p1
161.42 114.95 2.70 c p1
150.07 111.29 2.70 c p1
181.90 120.03 2.70 c p1
186.25 120.95 2.70 c p1
167.41 116.92 2.70 c p1
140.69 108.20 2.70 c p1
130.71 103.57 2.70 c p1
147.91 110.52 2.70 c p1
135.86 106.30 2.70 c p1
149.82 110.99 2.70 c p1
136.03 106.33 2.70 c p1
159.05 114.63 2.70 c p1
202.67 121.78 2.70 c p1
160.59 114.87 2.70 c p1
154.71 113.62 2.70 c p1
144.01 109.65 2.70 c p1
193.80 121.73 2.70 c p1
142.81 108.99 2.70 c p1
169.33 117.19 2.70 c p1
174.17 118.32 2.70 c p1
147.46 110.34 2.70 c p1
126.08 91.10 2.70 c p1
138.48 107.58 2.70 c p1
151.35 112.01 2.70 c p1
128.31 102.08 2.70 c p1
128.47 102.16 2.70 c p1
158.68 114.54 2.70 c p1
126.40 93.67 2.70 c p1
148.61 110.75 2.70 c p1
139.57 107.92 2.70 c p1
134.67 105.72 2.70 c p1
144.63 109.79 2.70 c p1
144.22 109.74 2.70 c p1
149.09 110.83 2.70 c p1
147.00 110.13 2.70 c p1
136.20 106.42 2.70 c p1
149.58 110.89 2.70 c p1
170.03 117.26 2.70 c p1
153.54 113.20 2.70 c p1
171.54 117.87 2.70 c p1
139.39 107.89 2.70 c p1
152.69 112.72 2.70 c p1
151.61 112.27 2.70 c p1
134.00 105.25 2.70 c p1
132.84 104.83 2.70 c p1
180.22 119.98 2.70 c p1
132.67 104.77 2.70 c p1
159.81 114.79 2.70 c p1
139.76 107.93 2.70 c p1
130.39 103.24 2.70 c p1
127.51 100.79 2.70 c p1
129.27 102.63 2.70 c p1
126.72 98.44 2.70 c p1
132.18 104.45 2.70 c p1
161.00 114.92 2.70 c p1
135.34 106.16 2.70 c p1
177.44 119.23 2.70 c p1
141.25 108.46 2.70 c p1
131.36 104.15 2.70 c p1
138.84 107.83 2.70 c p1
135.17 106.11 2.70 c p1
136.89 106.93 2.70 c p1
144.42 109.77 2.70 c p1
145.26 109.90 2.70 c p1
155.02 113.71 2.70 c p1
152.15 112.48 2.70 c p1
155.64 113.81 2.70 c p1
147.23 110.18 2.70 c p1
133.17 104.89 2.70 c p1
151.09 111.97 2.70 c p1
150.83 111.76 2.70 c p1
137.24 107.16 2.70 c p1
137.95 107.25 2.70 c p1
163.66 115.61 2.70 c p1
168.66 116.99 2.70 c p1
146.34 110.08 2.70 c p1
137.77 107.22 2.70 c p1
175.17 118.75 2.70 c p1
128.79 102.42 2.70 c p1
131.85 104.29 2.70 c p1
157.27 114.23 2.70 c p1
131.53 104.22 2.70 c p1
158.32 114.47 2.70 c p1
131.20 104.13 2.70 c p1
151.88 112.47 2.70 c p1
141.06 108.41 2.70 c p1
157.96 114.46 2.70 c p1
168.02 116.93 2.70 c p1
142.22 108.85 2.70 c p1
153.25 112.90 2.70 c p1
127.03 99.29 2.70 c p1
139.94 107.95 2.70 c p1
129.11 102.61 2.70 c p1
148.15 110.59 2.70 c p1
143.61 109.36 2.70 c p1
140.50 108.11 2.70 c p1
140.87 108.37 2.70 c p1
160.20 114.80 2.70 c p1
141.64 108.57 2.70 c p1
178.75 119.89 2.70 c p1
126.87 98.70 2.70 c p1
150.32 111.46 2.70 c p1
189.34 121.36 2.70 c p1
129.91 103.03 2.70 c p1
133.33 104.95 2.70 c p1
137.42 107.19 2.70 c p1
145.47 109.95 2.70 c p1
140.13 108.09 2.70 c p1
136.72 106.83 2.70 c p1
183.86 120.29 2.70 c p1
146.56 110.12 2.70 c p1
163.19 115.59 2.70 c p1
126.24 92.68 2.70 c p1
164.65 115.80 2.70 c p1
166.81 116.83 2.70 c p1
136.55 106.71 2.70 c p1
0.00 0.00 504.00 504.00 cl
0 0 0 srgb
0.75 setlinewidth
[] 0 setdash
1 setlinecap
1 setlinejoin
10.00 setmiterlimit
np
49.93 43.20 m
152.14 0 l
o
np
49.93 43.20 m
0 -7.20 l
o
np
75.28 43.20 m
0 -7.20 l
o
np
100.64 43.20 m
0 -7.20 l
o
np
126.00 43.20 m
0 -7.20 l
o
np
151.36 43.20 m
0 -7.20 l
o
np
176.72 43.20 m
0 -7.20 l
o
np
202.07 43.20 m
0 -7.20 l
o
/Font1 findfont 12 s
49.93 17.28 (-3) .5 0 t
75.28 17.28 (-2) .5 0 t
100.64 17.28 (-1) .5 0 t
126.00 17.28 (0) .5 0 t
151.36 17.28 (1) .5 0 t
176.72 17.28 (2) .5 0 t
202.07 17.28 (3) .5 0 t
np
43.20 53.06 m
0 67.65 l
o
np
43.20 53.06 m
-7.20 0 l
o
np
43.20 64.34 m
-7.20 0 l
o
np
43.20 75.61 m
-7.20 0 l
o
np
43.20 86.89 m
-7.20 0 l
o
np
43.20 98.16 m
-7.20 0 l
o
np
43.20 109.44 m
-7.20 0 l
o
np
43.20 120.71 m
-7.20 0 l
o
25.92 53.06 (-2) .5 90 t
25.92 75.61 (2) .5 90 t
25.92 98.16 (6) .5 90 t
25.92 120.71 (10) .5 90 t
np
43.20 43.20 m
165.60 0 l
0 81.60 l
-165.60 0 l
0 -81.60 l
o
0.00 0.00 252.00 168.00 cl
/Font2 findfont 14 s
0 0 0 srgb
126.00 141.37 (Bimodalita) .5 0 t
/Font1 findfont 12 s
-2.88 84.00 (Sample Quantiles) .5 90 t
43.20 43.20 208.80 124.80 cl
0 0 0 srgb
0.75 setlinewidth
[] 0 setdash
1 setlinecap
1 setlinejoin
10.00 setmiterlimit
np
60.22 0.00 m
148.58 195.47 l
o
295.20 43.20 460.80 124.80 cl
295.20 43.20 460.80 124.80 cl
0 0 0 srgb
0.75 setlinewidth
[] 0 setdash
1 setlinecap
1 setlinejoin
10.00 setmiterlimit
371.04 55.99 2.70 c p1
415.60 63.70 2.70 c p1
377.89 57.08 2.70 c p1
401.74 61.13 2.70 c p1
391.32 59.30 2.70 c p1
372.62 56.27 2.70 c p1
369.45 55.72 2.70 c p1
346.65 51.13 2.70 c p1
328.22 48.21 2.70 c p1
375.92 56.82 2.70 c p1
383.38 58.01 2.70 c p1
364.68 54.86 2.70 c p1
392.07 59.48 2.70 c p1
389.13 58.84 2.70 c p1
368.29 55.52 2.70 c p1
378.11 57.11 2.70 c p1
407.22 62.18 2.70 c p1
384.96 58.19 2.70 c p1
396.03 60.17 2.70 c p1
389.61 58.89 2.70 c p1
416.87 63.93 2.70 c p1
379.64 57.33 2.70 c p1
354.26 52.88 2.70 c p1
365.91 55.04 2.70 c p1
382.72 57.88 2.70 c p1
370.14 55.81 2.70 c p1
372.39 56.22 2.70 c p1
392.58 59.62 2.70 c p1
357.68 53.75 2.70 c p1
335.45 49.10 2.70 c p1
419.74 65.13 2.70 c p1
387.71 58.68 2.70 c p1
402.08 61.18 2.70 c p1
368.99 55.64 2.70 c p1
378.55 57.29 2.70 c p1
326.81 48.15 2.70 c p1
386.78 58.37 2.70 c p1
388.65 58.81 2.70 c p1
355.23 53.22 2.70 c p1
363.16 54.76 2.70 c p1
408.91 62.38 2.70 c p1
388.89 58.82 2.70 c p1
370.36 55.88 2.70 c p1
387.25 58.41 2.70 c p1
348.78 51.43 2.70 c p1
403.80 61.68 2.70 c p1
336.26 49.14 2.70 c p1
353.92 52.82 2.70 c p1
392.84 59.66 2.70 c p1
403.10 61.60 2.70 c p1
339.13 49.86 2.70 c p1
391.57 59.36 2.70 c p1
385.64 58.30 2.70 c p1
375.49 56.77 2.70 c p1
360.79 54.36 2.70 c p1
356.17 53.43 2.70 c p1
380.73 57.53 2.70 c p1
404.89 61.82 2.70 c p1
344.77 50.85 2.70 c p1
353.25 52.63 2.70 c p1
415.00 63.58 2.70 c p1
350.74 52.00 2.70 c p1
301.33 46.22 2.70 c p1
377.45 56.98 2.70 c p1
386.09 58.31 2.70 c p1
377.24 56.96 2.70 c p1
355.86 53.36 2.70 c p1
385.86 58.30 2.70 c p1
372.17 56.19 2.70 c p1
397.73 60.66 2.70 c p1
384.06 58.13 2.70 c p1
393.61 59.73 2.70 c p1
385.18 58.23 2.70 c p1
387.48 58.57 2.70 c p1
394.94 60.00 2.70 c p1
325.23 47.60 2.70 c p1
390.09 59.02 2.70 c p1
348.37 51.43 2.70 c p1
387.01 58.39 2.70 c p1
408.47 62.26 2.70 c p1
366.15 55.09 2.70 c p1
357.09 53.62 2.70 c p1
374.17 56.56 2.70 c p1
413.29 63.36 2.70 c p1
379.20 57.32 2.70 c p1
380.51 57.51 2.70 c p1
362.65 54.69 2.70 c p1
363.42 54.76 2.70 c p1
373.28 56.34 2.70 c p1
342.16 50.44 2.70 c p1
406.81 61.93 2.70 c p1
368.52 55.54 2.70 c p1
331.76 48.77 2.70 c p1
376.36 56.84 2.70 c p1
370.59 55.93 2.70 c p1
337.75 49.62 2.70 c p1
421.39 65.25 2.70 c p1
351.85 52.36 2.70 c p1
347.95 51.40 2.70 c p1
387.95 58.75 2.70 c p1
401.42 61.11 2.70 c p1
371.72 56.11 2.70 c p1
382.27 57.83 2.70 c p1
352.20 52.42 2.70 c p1
398.02 60.80 2.70 c p1
384.73 58.18 2.70 c p1
378.98 57.32 2.70 c p1
394.67 59.95 2.70 c p1
400.77 60.97 2.70 c p1
358.84 53.93 2.70 c p1
389.37 58.87 2.70 c p1
354.58 52.88 2.70 c p1
424.24 65.98 2.70 c p1
388.18 58.77 2.70 c p1
375.27 56.76 2.70 c p1
365.42 54.91 2.70 c p1
371.27 56.01 2.70 c p1
352.56 52.43 2.70 c p1
378.33 57.17 2.70 c p1
391.08 59.28 2.70 c p1
364.18 54.82 2.70 c p1
356.79 53.60 2.70 c p1
340.40 50.28 2.70 c p1
390.58 59.22 2.70 c p1
385.41 58.27 2.70 c p1
371.50 56.05 2.70 c p1
362.39 54.67 2.70 c p1
383.16 57.96 2.70 c p1
347.09 51.31 2.70 c p1
345.26 50.92 2.70 c p1
346.19 51.03 2.70 c p1
367.58 55.44 2.70 c p1
395.48 60.13 2.70 c p1
394.14 59.82 2.70 c p1
361.33 54.61 2.70 c p1
410.74 62.68 2.70 c p1
351.48 52.25 2.70 c p1
365.17 54.90 2.70 c p1
358.56 53.93 2.70 c p1
380.95 57.56 2.70 c p1
338.45 49.78 2.70 c p1
404.15 61.73 2.70 c p1
405.26 61.82 2.70 c p1
399.52 60.89 2.70 c p1
374.39 56.58 2.70 c p1
403.44 61.62 2.70 c p1
389.85 58.89 2.70 c p1
398.32 60.81 2.70 c p1
381.39 57.63 2.70 c p1
383.61 58.10 2.70 c p1
329.50 48.31 2.70 c p1
362.91 54.72 2.70 c p1
401.09 61.04 2.70 c p1
379.42 57.32 2.70 c p1
350.36 51.95 2.70 c p1
354.91 53.01 2.70 c p1
361.86 54.65 2.70 c p1
422.28 65.54 2.70 c p1
371.94 56.18 2.70 c p1
360.52 54.29 2.70 c p1
330.67 48.39 2.70 c p1
337.02 49.17 2.70 c p1
406.02 61.88 2.70 c p1
356.48 53.45 2.70 c p1
414.41 63.51 2.70 c p1
368.75 55.57 2.70 c p1
323.42 47.44 2.70 c p1
423.23 65.83 2.70 c p1
352.90 52.50 2.70 c p1
364.43 54.85 2.70 c p1
378.76 57.30 2.70 c p1
373.73 56.42 2.70 c p1
343.77 50.73 2.70 c p1
344.28 50.76 2.70 c p1
410.27 62.59 2.70 c p1
359.13 54.03 2.70 c p1
396.59 60.28 2.70 c p1
416.23 63.86 2.70 c p1
357.39 53.74 2.70 c p1
359.41 54.03 2.70 c p1
332.77 48.80 2.70 c p1
418.25 64.64 2.70 c p1
358.27 53.83 2.70 c p1
367.11 55.37 2.70 c p1
347.53 51.36 2.70 c p1
394.40 59.93 2.70 c p1
413.84 63.47 2.70 c p1
382.50 57.83 2.70 c p1
366.87 55.28 2.70 c p1
339.77 50.12 2.70 c p1
412.23 62.98 2.70 c p1
393.09 59.72 2.70 c p1
375.05 56.74 2.70 c p1
404.52 61.81 2.70 c p1
407.63 62.19 2.70 c p1
365.66 55.03 2.70 c p1
349.98 51.92 2.70 c p1
398.61 60.83 2.70 c p1
393.35 59.73 2.70 c p1
364.92 54.87 2.70 c p1
425.33 69.74 2.70 c p1
310.72 46.54 2.70 c p1
376.58 56.88 2.70 c p1
402.75 61.54 2.70 c p1
411.72 62.94 2.70 c p1
398.91 60.88 2.70 c p1
380.29 57.51 2.70 c p1
395.21 60.12 2.70 c p1
390.34 59.18 2.70 c p1
375.71 56.80 2.70 c p1
355.55 53.34 2.70 c p1
405.64 61.86 2.70 c p1
368.05 55.48 2.70 c p1
369.22 55.71 2.70 c p1
382.94 57.94 2.70 c p1
377.02 56.96 2.70 c p1
333.72 48.87 2.70 c p1
366.39 55.17 2.70 c p1
391.82 59.40 2.70 c p1
406.41 61.92 2.70 c p1
349.19 51.74 2.70 c p1
360.25 54.26 2.70 c p1
321.32 46.97 2.70 c p1
400.45 60.97 2.70 c p1
376.80 56.93 2.70 c p1
395.75 60.13 2.70 c p1
361.60 54.62 2.70 c p1
382.05 57.78 2.70 c p1
399.21 60.89 2.70 c p1
370.82 55.96 2.70 c p1
396.87 60.36 2.70 c p1
392.33 59.57 2.70 c p1
341.59 50.44 2.70 c p1
384.28 58.17 2.70 c p1
318.76 46.79 2.70 c p1
369.91 55.78 2.70 c p1
362.12 54.66 2.70 c p1
397.16 60.47 2.70 c p1
383.83 58.10 2.70 c p1
361.06 54.48 2.70 c p1
372.84 56.27 2.70 c p1
381.61 57.66 2.70 c p1
353.59 52.79 2.70 c p1
359.69 54.14 2.70 c p1
349.59 51.85 2.70 c p1
343.25 50.66 2.70 c p1
363.67 54.77 2.70 c p1
376.14 56.83 2.70 c p1
342.71 50.53 2.70 c p1
388.42 58.81 2.70 c p1
359.97 54.19 2.70 c p1
384.50 58.18 2.70 c p1
380.08 57.49 2.70 c p1
367.35 55.39 2.70 c p1
334.61 48.99 2.70 c p1
341.00 50.41 2.70 c p1
315.47 46.57 2.70 c p1
409.81 62.45 2.70 c p1
367.82 55.44 2.70 c p1
418.98 64.79 2.70 c p1
345.73 50.98 2.70 c p1
411.23 62.94 2.70 c p1
402.41 61.29 2.70 c p1
357.98 53.83 2.70 c p1
393.88 59.82 2.70 c p1
390.83 59.28 2.70 c p1
373.06 56.31 2.70 c p1
412.75 63.04 2.70 c p1
369.68 55.77 2.70 c p1
420.55 65.16 2.70 c p1
351.11 52.04 2.70 c p1
408.05 62.25 2.70 c p1
363.93 54.78 2.70 c p1
386.32 58.35 2.70 c p1
374.61 56.62 2.70 c p1
373.50 56.37 2.70 c p1
373.95 56.55 2.70 c p1
397.44 60.64 2.70 c p1
377.67 57.04 2.70 c p1
409.35 62.44 2.70 c p1
379.86 57.37 2.70 c p1
381.17 57.62 2.70 c p1
374.83 56.69 2.70 c p1
366.63 55.18 2.70 c p1
381.83 57.76 2.70 c p1
399.83 60.95 2.70 c p1
396.31 60.22 2.70 c p1
400.14 60.96 2.70 c p1
417.55 63.96 2.70 c p1
386.55 58.36 2.70 c p1
434.68 120.24 2.70 c p1
437.24 120.33 2.70 c p1
454.67 121.78 2.70 c p1
430.77 119.19 2.70 c p1
432.58 119.88 2.70 c p1
440.53 121.33 2.70 c p1
426.50 118.59 2.70 c p1
445.28 121.75 2.70 c p1
427.78 118.71 2.70 c p1
429.19 119.15 2.70 c p1
0.00 0.00 504.00 504.00 cl
0 0 0 srgb
0.75 setlinewidth
[] 0 setdash
1 setlinecap
1 setlinejoin
10.00 setmiterlimit
np
299.64 43.20 m
156.72 0 l
o
np
299.64 43.20 m
0 -7.20 l
o
np
325.76 43.20 m
0 -7.20 l
o
np
351.88 43.20 m
0 -7.20 l
o
np
378.00 43.20 m
0 -7.20 l
o
np
404.12 43.20 m
0 -7.20 l
o
np
430.24 43.20 m
0 -7.20 l
o
np
456.36 43.20 m
0 -7.20 l
o
/Font1 findfont 12 s
299.64 17.28 (-3) .5 0 t
325.76 17.28 (-2) .5 0 t
351.88 17.28 (-1) .5 0 t
378.00 17.28 (0) .5 0 t
404.12 17.28 (1) .5 0 t
430.24 17.28 (2) .5 0 t
456.36 17.28 (3) .5 0 t
np
295.20 56.91 m
0 61.04 l
o
np
295.20 56.91 m
-7.20 0 l
o
np
295.20 77.26 m
-7.20 0 l
o
np
295.20 97.61 m
-7.20 0 l
o
np
295.20 117.95 m
-7.20 0 l
o
277.92 56.91 (0) .5 90 t
277.92 77.26 (5) .5 90 t
277.92 97.61 (10) .5 90 t
np
295.20 43.20 m
165.60 0 l
0 81.60 l
-165.60 0 l
0 -81.60 l
o
252.00 0.00 504.00 168.00 cl
/Font2 findfont 14 s
0 0 0 srgb
313.04 141.37 (Odlehla pozor) 0 ta
-0.280 (o) tb
-0.280 (v) tb
-0.280 (ani) tb gr
/Font1 findfont 12 s
249.12 84.00 (Sample Quantiles) .5 90 t
295.20 43.20 460.80 124.80 cl
0 0 0 srgb
0.75 setlinewidth
[] 0 setdash
1 setlinecap
1 setlinejoin
10.00 setmiterlimit
np
295.20 43.46 m
165.60 27.49 l
o
ep
%%Trailer
%%Pages: 1
%%EOF
