%!PS-Adobe-3.0 EPSF-3.0
%%DocumentNeededResources: font Helvetica
%%+ font Helvetica-Bold
%%+ font Helvetica-Oblique
%%+ font Helvetica-BoldOblique
%%+ font Symbol
%%Title: R Graphics Output
%%Creator: R Software
%%Pages: (atend)
%%BoundingBox: 0 0 504 504
%%EndComments
%%BeginProlog
/bp  { gs sRGB gs } def
% begin .ps.prolog
/gs  { gsave } bind def
/gr  { grestore } bind def
/ep  { showpage gr gr } bind def
/m   { moveto } bind def
/l  { rlineto } bind def
/np  { newpath } bind def
/cp  { closepath } bind def
/f   { fill } bind def
/o   { stroke } bind def
/c   { newpath 0 360 arc } bind def
/r   { 4 2 roll moveto 1 copy 3 -1 roll exch 0 exch rlineto 0 rlineto -1 mul 0 exch rlineto closepath } bind def
/p1  { stroke } bind def
/p2  { gsave bg fill grestore newpath } bind def
/p3  { gsave bg fill grestore stroke } bind def
/p6  { gsave bg eofill grestore newpath } bind def
/p7  { gsave bg eofill grestore stroke } bind def
/t   { 5 -2 roll moveto gsave rotate
       1 index stringwidth pop
       mul neg 0 rmoveto show grestore } bind def
/ta  { 4 -2 roll moveto gsave rotate show } bind def
/tb  { 2 -1 roll 0 rmoveto show } bind def
/cl  { grestore gsave newpath 3 index 3 index moveto 1 index
       4 -1 roll lineto  exch 1 index lineto lineto
       closepath clip newpath } bind def
/rgb { setrgbcolor } bind def
/s   { scalefont setfont } bind def
% end   .ps.prolog
/sRGB { [ /CIEBasedABC
          << /DecodeLMN
               [ { dup 0.03928 le
                        {12.92321 div}
                        {0.055 add 1.055 div 2.4 exp }
                     ifelse
                 } bind dup dup
               ]
             /MatrixLMN [0.412457 0.212673 0.019334
                         0.357576 0.715152 0.119192
                         0.180437 0.072175 0.950301]
             /WhitePoint [0.9505 1.0 1.0890]
           >>
         ] setcolorspace } bind def
/srgb { setcolor } bind def
%%IncludeResource: font Helvetica
/Helvetica findfont
dup length dict begin
  {1 index /FID ne {def} {pop pop} ifelse} forall
  /Encoding ISOLatin1Encoding def
  currentdict
  end
/Font1 exch definefont pop
%%IncludeResource: font Helvetica-Bold
/Helvetica-Bold findfont
dup length dict begin
  {1 index /FID ne {def} {pop pop} ifelse} forall
  /Encoding ISOLatin1Encoding def
  currentdict
  end
/Font2 exch definefont pop
%%IncludeResource: font Helvetica-Oblique
/Helvetica-Oblique findfont
dup length dict begin
  {1 index /FID ne {def} {pop pop} ifelse} forall
  /Encoding ISOLatin1Encoding def
  currentdict
  end
/Font3 exch definefont pop
%%IncludeResource: font Helvetica-BoldOblique
/Helvetica-BoldOblique findfont
dup length dict begin
  {1 index /FID ne {def} {pop pop} ifelse} forall
  /Encoding ISOLatin1Encoding def
  currentdict
  end
/Font4 exch definefont pop
%%IncludeResource: font Symbol
/Symbol findfont
dup length dict begin
  {1 index /FID ne {def} {pop pop} ifelse} forall
  currentdict
  end
/Font5 exch definefont pop
%%EndProlog
%%Page: 1 1
bp
59.04 73.44 473.76 444.96 cl
0 0 0 srgb
0.75 setlinewidth
[] 0 setdash
1 setlinecap
1 setlinejoin
10.00 setmiterlimit
252.15 248.95 2.70 c p1
254.77 250.15 2.70 c p1
278.03 268.97 2.70 c p1
419.71 394.44 2.70 c p1
325.82 304.33 2.70 c p1
312.00 292.29 2.70 c p1
308.83 289.52 2.70 c p1
270.26 263.61 2.70 c p1
181.59 186.50 2.70 c p1
305.76 288.22 2.70 c p1
158.59 156.49 2.70 c p1
210.65 210.83 2.70 c p1
211.83 215.01 2.70 c p1
349.39 319.34 2.70 c p1
203.13 206.29 2.70 c p1
222.92 220.13 2.70 c p1
166.71 172.49 2.70 c p1
355.04 323.65 2.70 c p1
315.26 294.61 2.70 c p1
317.50 298.40 2.70 c p1
247.74 243.88 2.70 c p1
344.26 317.51 2.70 c p1
215.30 216.50 2.70 c p1
251.28 247.31 2.70 c p1
380.60 347.20 2.70 c p1
265.97 259.59 2.70 c p1
279.77 269.32 2.70 c p1
309.88 290.06 2.70 c p1
330.99 307.89 2.70 c p1
253.90 250.04 2.70 c p1
129.28 133.06 2.70 c p1
357.06 324.06 2.70 c p1
245.95 240.77 2.70 c p1
351.21 319.64 2.70 c p1
214.16 216.24 2.70 c p1
281.52 270.53 2.70 c p1
242.34 238.98 2.70 c p1
294.15 279.73 2.70 c p1
271.98 265.55 2.70 c p1
342.64 316.66 2.70 c p1
229.05 229.23 2.70 c p1
278.90 269.30 2.70 c p1
221.87 219.73 2.70 c p1
280.65 269.45 2.70 c p1
314.16 292.78 2.70 c p1
353.09 323.58 2.70 c p1
249.51 244.82 2.70 c p1
241.42 238.76 2.70 c p1
232.97 232.78 2.70 c p1
292.29 278.99 2.70 c p1
307.80 288.77 2.70 c p1
306.78 288.41 2.70 c p1
243.25 239.16 2.70 c p1
397.65 368.37 2.70 c p1
268.54 260.70 2.70 c p1
144.62 151.58 2.70 c p1
135.15 143.26 2.70 c p1
237.72 235.77 2.70 c p1
265.11 259.59 2.70 c p1
122.19 125.71 2.70 c p1
272.84 266.08 2.70 c p1
320.97 299.79 2.70 c p1
267.69 260.20 2.70 c p1
322.15 300.33 2.70 c p1
366.09 331.93 2.70 c p1
171.43 176.91 2.70 c p1
240.51 237.97 2.70 c p1
333.72 310.28 2.70 c p1
392.61 359.41 2.70 c p1
199.08 203.97 2.70 c p1
284.17 273.79 2.70 c p1
300.80 284.85 2.70 c p1
263.40 257.90 2.70 c p1
186.88 189.87 2.70 c p1
245.06 240.33 2.70 c p1
299.83 284.65 2.70 c p1
273.70 266.30 2.70 c p1
236.78 234.61 2.70 c p1
233.93 233.23 2.70 c p1
205.72 207.77 2.70 c p1
288.65 276.43 2.70 c p1
361.37 328.44 2.70 c p1
336.56 312.36 2.70 c p1
266.83 260.08 2.70 c p1
313.07 292.36 2.70 c p1
220.80 219.67 2.70 c p1
310.93 290.09 2.70 c p1
226.02 223.84 2.70 c p1
388.18 359.33 2.70 c p1
248.63 244.01 2.70 c p1
232.00 231.54 2.70 c p1
324.58 303.94 2.70 c p1
169.13 174.66 2.70 c p1
277.16 268.60 2.70 c p1
74.40 87.20 2.70 c p1
231.02 231.35 2.70 c p1
283.29 273.12 2.70 c p1
293.22 279.07 2.70 c p1
339.53 314.71 2.70 c p1
193.27 200.54 2.70 c p1
183.41 187.04 2.70 c p1
196.24 201.92 2.70 c p1
152.20 153.92 2.70 c p1
213.00 215.16 2.70 c p1
190.16 193.66 2.70 c p1
285.06 273.97 2.70 c p1
329.67 307.86 2.70 c p1
363.67 328.65 2.70 c p1
287.74 275.39 2.70 c p1
371.33 336.75 2.70 c p1
239.58 236.93 2.70 c p1
286.85 274.28 2.70 c p1
209.44 210.50 2.70 c p1
225.00 223.47 2.70 c p1
328.36 305.97 2.70 c p1
235.84 233.46 2.70 c p1
244.15 239.63 2.70 c p1
432.77 404.96 2.70 c p1
298.87 284.53 2.70 c p1
410.61 374.71 2.70 c p1
219.73 218.63 2.70 c p1
191.73 196.92 2.70 c p1
260.82 255.23 2.70 c p1
301.78 285.89 2.70 c p1
100.03 109.68 2.70 c p1
359.17 327.75 2.70 c p1
384.21 358.09 2.70 c p1
230.04 229.83 2.70 c p1
246.85 242.32 2.70 c p1
197.67 203.43 2.70 c p1
140.19 148.66 2.70 c p1
261.68 255.32 2.70 c p1
216.42 217.27 2.70 c p1
194.77 201.83 2.70 c p1
335.13 311.69 2.70 c p1
258.24 251.92 2.70 c p1
275.43 267.30 2.70 c p1
285.95 274.22 2.70 c p1
161.47 156.98 2.70 c p1
259.10 252.45 2.70 c p1
403.52 372.55 2.70 c p1
323.36 303.68 2.70 c p1
253.03 249.55 2.70 c p1
274.56 266.41 2.70 c p1
255.64 250.31 2.70 c p1
223.97 221.97 2.70 c p1
338.03 312.58 2.70 c p1
302.76 286.00 2.70 c p1
271.12 264.22 2.70 c p1
204.44 206.52 2.70 c p1
458.40 431.20 2.70 c p1
347.63 318.43 2.70 c p1
217.54 217.32 2.70 c p1
297.91 283.83 2.70 c p1
295.08 281.10 2.70 c p1
282.40 270.97 2.70 c p1
374.21 342.21 2.70 c p1
303.75 287.28 2.70 c p1
256.51 250.46 2.70 c p1
290.46 278.15 2.70 c p1
257.37 250.79 2.70 c p1
316.38 296.24 2.70 c p1
291.38 278.21 2.70 c p1
318.64 298.71 2.70 c p1
227.04 224.38 2.70 c p1
155.52 154.70 2.70 c p1
276.29 267.34 2.70 c p1
259.96 252.50 2.70 c p1
188.54 191.29 2.70 c p1
179.71 180.29 2.70 c p1
304.75 287.38 2.70 c p1
345.92 317.71 2.70 c p1
250.40 245.91 2.70 c p1
185.17 187.51 2.70 c p1
262.54 256.74 2.70 c p1
332.34 309.46 2.70 c p1
208.22 207.95 2.70 c p1
173.63 177.94 2.70 c p1
234.89 233.31 2.70 c p1
289.55 277.08 2.70 c p1
368.63 336.49 2.70 c p1
238.65 236.56 2.70 c p1
200.46 204.28 2.70 c p1
327.08 304.54 2.70 c p1
113.09 115.84 2.70 c p1
264.26 258.02 2.70 c p1
341.07 315.93 2.70 c p1
269.40 261.97 2.70 c p1
296.96 281.56 2.70 c p1
201.81 205.07 2.70 c p1
296.02 281.27 2.70 c p1
148.59 152.58 2.70 c p1
177.76 179.83 2.70 c p1
206.98 207.83 2.70 c p1
218.64 218.27 2.70 c p1
175.74 179.64 2.70 c p1
228.05 226.02 2.70 c p1
319.80 298.97 2.70 c p1
164.17 163.69 2.70 c p1
377.28 345.47 2.70 c p1
0.00 0.00 504.00 504.00 cl
0 0 0 srgb
0.75 setlinewidth
[] 0 setdash
1 setlinecap
1 setlinejoin
10.00 setmiterlimit
np
61.20 73.44 m
410.40 0 l
o
np
61.20 73.44 m
0 -7.20 l
o
np
129.60 73.44 m
0 -7.20 l
o
np
198.00 73.44 m
0 -7.20 l
o
np
266.40 73.44 m
0 -7.20 l
o
np
334.80 73.44 m
0 -7.20 l
o
np
403.20 73.44 m
0 -7.20 l
o
np
471.60 73.44 m
0 -7.20 l
o
/Font1 findfont 12 s
61.20 47.52 (-3) .5 0 t
129.60 47.52 (-2) .5 0 t
198.00 47.52 (-1) .5 0 t
266.40 47.52 (0) .5 0 t
334.80 47.52 (1) .5 0 t
403.20 47.52 (2) .5 0 t
471.60 47.52 (3) .5 0 t
np
59.04 79.47 m
0 349.17 l
o
np
59.04 79.47 m
-7.20 0 l
o
np
59.04 137.67 m
-7.20 0 l
o
np
59.04 195.86 m
-7.20 0 l
o
np
59.04 254.06 m
-7.20 0 l
o
np
59.04 312.25 m
-7.20 0 l
o
np
59.04 370.45 m
-7.20 0 l
o
np
59.04 428.64 m
-7.20 0 l
o
41.76 79.47 (-3) .5 90 t
41.76 137.67 (-2) .5 90 t
41.76 195.86 (-1) .5 90 t
41.76 254.06 (0) .5 90 t
41.76 312.25 (1) .5 90 t
41.76 370.45 (2) .5 90 t
41.76 428.64 (3) .5 90 t
np
59.04 73.44 m
414.72 0 l
0 371.52 l
-414.72 0 l
0 -371.52 l
o
0.00 0.00 504.00 504.00 cl
/Font2 findfont 14 s
0 0 0 srgb
266.40 469.45 (Normal Q-Q Plot) .5 0 t
/Font1 findfont 12 s
266.40 18.72 (Theoretical Quantiles) .5 0 t
12.96 259.20 (Sample Quantiles) .5 90 t
ep
%%Trailer
%%Pages: 1
%%EOF
