%!PS-Adobe-3.0 EPSF-3.0
%%DocumentNeededResources: font Helvetica
%%+ font Helvetica-Bold
%%+ font Helvetica-Oblique
%%+ font Helvetica-BoldOblique
%%+ font Symbol
%%Title: R Graphics Output
%%Creator: R Software
%%Pages: (atend)
%%BoundingBox: 0 0 504 504
%%EndComments
%%BeginProlog
/bp  { gs sRGB gs } def
% begin .ps.prolog
/gs  { gsave } bind def
/gr  { grestore } bind def
/ep  { showpage gr gr } bind def
/m   { moveto } bind def
/l  { rlineto } bind def
/np  { newpath } bind def
/cp  { closepath } bind def
/f   { fill } bind def
/o   { stroke } bind def
/c   { newpath 0 360 arc } bind def
/r   { 4 2 roll moveto 1 copy 3 -1 roll exch 0 exch rlineto 0 rlineto -1 mul 0 exch rlineto closepath } bind def
/p1  { stroke } bind def
/p2  { gsave bg fill grestore newpath } bind def
/p3  { gsave bg fill grestore stroke } bind def
/p6  { gsave bg eofill grestore newpath } bind def
/p7  { gsave bg eofill grestore stroke } bind def
/t   { 5 -2 roll moveto gsave rotate
       1 index stringwidth pop
       mul neg 0 rmoveto show grestore } bind def
/ta  { 4 -2 roll moveto gsave rotate show } bind def
/tb  { 2 -1 roll 0 rmoveto show } bind def
/cl  { grestore gsave newpath 3 index 3 index moveto 1 index
       4 -1 roll lineto  exch 1 index lineto lineto
       closepath clip newpath } bind def
/rgb { setrgbcolor } bind def
/s   { scalefont setfont } bind def
% end   .ps.prolog
/sRGB { [ /CIEBasedABC
          << /DecodeLMN
               [ { dup 0.03928 le
                        {12.92321 div}
                        {0.055 add 1.055 div 2.4 exp }
                     ifelse
                 } bind dup dup
               ]
             /MatrixLMN [0.412457 0.212673 0.019334
                         0.357576 0.715152 0.119192
                         0.180437 0.072175 0.950301]
             /WhitePoint [0.9505 1.0 1.0890]
           >>
         ] setcolorspace } bind def
/srgb { setcolor } bind def
%%IncludeResource: font Helvetica
/Helvetica findfont
dup length dict begin
  {1 index /FID ne {def} {pop pop} ifelse} forall
  /Encoding ISOLatin1Encoding def
  currentdict
  end
/Font1 exch definefont pop
%%IncludeResource: font Helvetica-Bold
/Helvetica-Bold findfont
dup length dict begin
  {1 index /FID ne {def} {pop pop} ifelse} forall
  /Encoding ISOLatin1Encoding def
  currentdict
  end
/Font2 exch definefont pop
%%IncludeResource: font Helvetica-Oblique
/Helvetica-Oblique findfont
dup length dict begin
  {1 index /FID ne {def} {pop pop} ifelse} forall
  /Encoding ISOLatin1Encoding def
  currentdict
  end
/Font3 exch definefont pop
%%IncludeResource: font Helvetica-BoldOblique
/Helvetica-BoldOblique findfont
dup length dict begin
  {1 index /FID ne {def} {pop pop} ifelse} forall
  /Encoding ISOLatin1Encoding def
  currentdict
  end
/Font4 exch definefont pop
%%IncludeResource: font Symbol
/Symbol findfont
dup length dict begin
  {1 index /FID ne {def} {pop pop} ifelse} forall
  currentdict
  end
/Font5 exch definefont pop
%%EndProlog
%%Page: 1 1
bp
49.00 312.96 226.90 455.00 cl
0 0 0 srgb
0.75 setlinewidth
[] 0 setdash
1 setlinecap
1 setlinejoin
10.00 setmiterlimit
55.59 318.22 2.24 c p1
69.78 323.80 2.24 c p1
96.22 326.13 2.24 c p1
104.72 327.53 2.24 c p1
115.47 331.22 2.24 c p1
117.22 331.81 2.24 c p1
120.85 332.06 2.24 c p1
126.87 332.83 2.24 c p1
132.61 333.28 2.24 c p1
136.76 339.83 2.24 c p1
139.31 340.27 2.24 c p1
147.68 343.70 2.24 c p1
158.01 343.70 2.24 c p1
161.92 346.22 2.24 c p1
166.95 351.00 2.24 c p1
168.21 353.96 2.24 c p1
177.73 355.99 2.24 c p1
195.43 367.30 2.24 c p1
216.24 421.39 2.24 c p1
220.31 449.74 2.24 c p1
0.00 0.00 504.00 504.00 cl
0 0 0 srgb
0.75 setlinewidth
[] 0 setdash
1 setlinecap
1 setlinejoin
10.00 setmiterlimit
np
49.46 312.96 m
155.44 0 l
o
np
49.46 312.96 m
0 -5.98 l
o
np
75.37 312.96 m
0 -5.98 l
o
np
101.28 312.96 m
0 -5.98 l
o
np
127.18 312.96 m
0 -5.98 l
o
np
153.09 312.96 m
0 -5.98 l
o
np
179.00 312.96 m
0 -5.98 l
o
np
204.90 312.96 m
0 -5.98 l
o
/Font1 findfont 10 s
49.46 291.44 (4) .5 0 t
75.37 291.44 (6) .5 0 t
101.28 291.44 (8) .5 0 t
127.18 291.44 (10) .5 0 t
153.09 291.44 (12) .5 0 t
179.00 291.44 (14) .5 0 t
204.90 291.44 (16) .5 0 t
np
49.00 331.53 m
0 101.02 l
o
np
49.00 331.53 m
-5.97 0 l
o
np
49.00 356.79 m
-5.97 0 l
o
np
49.00 382.04 m
-5.97 0 l
o
np
49.00 407.30 m
-5.97 0 l
o
np
49.00 432.55 m
-5.97 0 l
o
34.66 331.53 (10) .5 90 t
34.66 356.79 (12) .5 90 t
34.66 382.04 (14) .5 90 t
34.66 407.30 (16) .5 90 t
34.66 432.55 (18) .5 90 t
np
49.00 312.96 m
177.90 0 l
0 142.04 l
-177.90 0 l
0 -142.04 l
o
0.00 252.00 252.00 504.00 cl
/Font2 findfont 12 s
0 0 0 srgb
137.95 475.19 (20) .5 0 t
/Font1 findfont 10 s
137.95 267.54 (sample\(spotreba, x\)) .5 0 t
10.76 383.98 (sample\(spotreba, x\)) .5 90 t
301.00 312.96 478.90 455.00 cl
301.00 312.96 478.90 455.00 cl
0 0 0 srgb
0.75 setlinewidth
[] 0 setdash
1 setlinecap
1 setlinejoin
10.00 setmiterlimit
307.59 318.22 2.24 c p1
326.23 319.15 2.24 c p1
339.03 319.41 2.24 c p1
341.00 320.75 2.24 c p1
343.41 325.20 2.24 c p1
345.25 326.20 2.24 c p1
350.28 333.60 2.24 c p1
354.09 333.88 2.24 c p1
357.36 337.23 2.24 c p1
357.92 337.52 2.24 c p1
361.62 340.05 2.24 c p1
364.71 340.27 2.24 c p1
366.04 350.90 2.24 c p1
366.42 351.83 2.24 c p1
366.87 351.92 2.24 c p1
369.71 355.13 2.24 c p1
371.76 355.33 2.24 c p1
373.82 358.24 2.24 c p1
374.86 358.88 2.24 c p1
375.66 360.58 2.24 c p1
376.45 361.71 2.24 c p1
378.03 363.41 2.24 c p1
380.96 364.12 2.24 c p1
382.02 367.39 2.24 c p1
383.30 369.58 2.24 c p1
383.37 375.01 2.24 c p1
384.47 375.26 2.24 c p1
386.49 377.00 2.24 c p1
387.82 378.05 2.24 c p1
389.70 379.07 2.24 c p1
396.60 382.79 2.24 c p1
404.31 382.94 2.24 c p1
407.04 383.89 2.24 c p1
409.53 389.33 2.24 c p1
410.82 389.39 2.24 c p1
415.82 390.59 2.24 c p1
416.09 391.87 2.24 c p1
429.83 393.58 2.24 c p1
440.99 397.20 2.24 c p1
441.56 397.41 2.24 c p1
444.74 399.35 2.24 c p1
450.43 400.54 2.24 c p1
454.02 413.01 2.24 c p1
456.27 413.85 2.24 c p1
463.34 416.62 2.24 c p1
464.84 419.71 2.24 c p1
468.41 420.25 2.24 c p1
470.18 420.40 2.24 c p1
471.88 447.03 2.24 c p1
472.31 449.74 2.24 c p1
0.00 0.00 504.00 504.00 cl
0 0 0 srgb
0.75 setlinewidth
[] 0 setdash
1 setlinecap
1 setlinejoin
10.00 setmiterlimit
np
331.66 312.96 m
130.77 0 l
o
np
331.66 312.96 m
0 -5.98 l
o
np
364.36 312.96 m
0 -5.98 l
o
np
397.05 312.96 m
0 -5.98 l
o
np
429.74 312.96 m
0 -5.98 l
o
np
462.43 312.96 m
0 -5.98 l
o
/Font1 findfont 10 s
331.66 291.44 (8) .5 0 t
364.36 291.44 (10) .5 0 t
397.05 291.44 (12) .5 0 t
429.74 291.44 (14) .5 0 t
462.43 291.44 (16) .5 0 t
np
301.00 327.77 m
0 106.86 l
o
np
301.00 327.77 m
-5.97 0 l
o
np
301.00 349.14 m
-5.97 0 l
o
np
301.00 370.51 m
-5.97 0 l
o
np
301.00 391.89 m
-5.97 0 l
o
np
301.00 413.26 m
-5.97 0 l
o
np
301.00 434.63 m
-5.97 0 l
o
286.66 327.77 (8) .5 90 t
286.66 349.14 (10) .5 90 t
286.66 370.51 (12) .5 90 t
286.66 391.89 (14) .5 90 t
286.66 413.26 (16) .5 90 t
286.66 434.63 (18) .5 90 t
np
301.00 312.96 m
177.90 0 l
0 142.04 l
-177.90 0 l
0 -142.04 l
o
252.00 252.00 504.00 504.00 cl
/Font2 findfont 12 s
0 0 0 srgb
389.95 475.19 (50) .5 0 t
/Font1 findfont 10 s
389.95 267.54 (sample\(spotreba, x\)) .5 0 t
262.76 383.98 (sample\(spotreba, x\)) .5 90 t
49.00 60.96 226.90 203.00 cl
49.00 60.96 226.90 203.00 cl
0 0 0 srgb
0.75 setlinewidth
[] 0 setdash
1 setlinecap
1 setlinejoin
10.00 setmiterlimit
55.59 66.22 2.24 c p1
64.13 73.99 2.24 c p1
76.88 81.00 2.24 c p1
78.58 83.99 2.24 c p1
79.47 85.15 2.24 c p1
80.02 86.83 2.24 c p1
84.21 87.57 2.24 c p1
85.46 89.84 2.24 c p1
86.62 90.75 2.24 c p1
86.62 91.41 2.24 c p1
86.89 92.63 2.24 c p1
87.71 93.25 2.24 c p1
88.03 94.08 2.24 c p1
93.08 94.76 2.24 c p1
93.60 95.67 2.24 c p1
94.85 95.70 2.24 c p1
96.82 95.85 2.24 c p1
96.99 96.97 2.24 c p1
97.32 97.28 2.24 c p1
97.53 97.40 2.24 c p1
97.54 97.91 2.24 c p1
99.58 98.97 2.24 c p1
101.16 101.20 2.24 c p1
103.86 103.22 2.24 c p1
106.24 103.24 2.24 c p1
106.32 104.48 2.24 c p1
106.77 105.23 2.24 c p1
108.54 107.42 2.24 c p1
108.64 107.96 2.24 c p1
108.98 108.06 2.24 c p1
109.47 108.15 2.24 c p1
109.61 108.92 2.24 c p1
112.28 109.05 2.24 c p1
113.13 109.16 2.24 c p1
114.03 109.21 2.24 c p1
114.20 109.48 2.24 c p1
114.43 110.34 2.24 c p1
114.66 110.61 2.24 c p1
115.00 110.81 2.24 c p1
115.39 110.99 2.24 c p1
115.49 111.14 2.24 c p1
116.92 111.87 2.24 c p1
117.34 112.59 2.24 c p1
118.35 112.90 2.24 c p1
119.68 114.01 2.24 c p1
119.75 114.91 2.24 c p1
119.84 115.15 2.24 c p1
120.39 115.19 2.24 c p1
120.76 115.31 2.24 c p1
120.89 117.14 2.24 c p1
121.38 118.05 2.24 c p1
121.44 119.43 2.24 c p1
122.10 119.84 2.24 c p1
122.65 120.09 2.24 c p1
123.29 120.25 2.24 c p1
124.24 120.25 2.24 c p1
125.04 121.56 2.24 c p1
125.04 122.44 2.24 c p1
125.84 122.59 2.24 c p1
126.15 122.59 2.24 c p1
129.17 122.88 2.24 c p1
129.30 123.27 2.24 c p1
131.08 123.27 2.24 c p1
131.18 123.61 2.24 c p1
132.87 124.44 2.24 c p1
134.08 124.58 2.24 c p1
134.15 125.70 2.24 c p1
134.22 128.40 2.24 c p1
134.90 130.22 2.24 c p1
135.04 130.67 2.24 c p1
135.13 130.88 2.24 c p1
135.72 132.55 2.24 c p1
136.40 133.08 2.24 c p1
138.76 133.59 2.24 c p1
139.73 134.23 2.24 c p1
140.87 134.81 2.24 c p1
141.45 134.89 2.24 c p1
144.52 136.08 2.24 c p1
146.22 136.61 2.24 c p1
146.34 137.34 2.24 c p1
147.14 137.84 2.24 c p1
147.73 140.10 2.24 c p1
155.31 142.42 2.24 c p1
155.90 142.70 2.24 c p1
156.18 142.79 2.24 c p1
160.73 143.01 2.24 c p1
160.82 143.81 2.24 c p1
165.70 144.59 2.24 c p1
167.26 146.94 2.24 c p1
168.64 149.08 2.24 c p1
169.03 152.78 2.24 c p1
172.65 157.60 2.24 c p1
172.82 157.74 2.24 c p1
176.60 159.26 2.24 c p1
181.78 159.37 2.24 c p1
186.95 163.33 2.24 c p1
187.19 170.30 2.24 c p1
187.74 180.36 2.24 c p1
188.05 192.19 2.24 c p1
220.31 197.74 2.24 c p1
0.00 0.00 504.00 504.00 cl
0 0 0 srgb
0.75 setlinewidth
[] 0 setdash
1 setlinecap
1 setlinejoin
10.00 setmiterlimit
np
58.09 60.96 m
149.98 0 l
o
np
58.09 60.96 m
0 -5.98 l
o
np
108.09 60.96 m
0 -5.98 l
o
np
158.08 60.96 m
0 -5.98 l
o
np
208.07 60.96 m
0 -5.98 l
o
/Font1 findfont 10 s
58.09 39.44 (5) .5 0 t
108.09 39.44 (10) .5 0 t
158.08 39.44 (15) .5 0 t
208.07 39.44 (20) .5 0 t
np
49.00 61.13 m
0 126.30 l
o
np
49.00 61.13 m
-5.97 0 l
o
np
49.00 103.23 m
-5.97 0 l
o
np
49.00 145.33 m
-5.97 0 l
o
np
49.00 187.43 m
-5.97 0 l
o
34.66 61.13 (5) .5 90 t
34.66 103.23 (10) .5 90 t
34.66 145.33 (15) .5 90 t
34.66 187.43 (20) .5 90 t
np
49.00 60.96 m
177.90 0 l
0 142.04 l
-177.90 0 l
0 -142.04 l
o
0.00 0.00 252.00 252.00 cl
/Font2 findfont 12 s
0 0 0 srgb
137.95 223.19 (100) .5 0 t
/Font1 findfont 10 s
137.95 15.54 (sample\(spotreba, x\)) .5 0 t
10.76 131.98 (sample\(spotreba, x\)) .5 90 t
301.00 60.96 478.90 203.00 cl
301.00 60.96 478.90 203.00 cl
0 0 0 srgb
0.75 setlinewidth
[] 0 setdash
1 setlinecap
1 setlinejoin
10.00 setmiterlimit
307.59 66.22 2.24 c p1
318.68 66.49 2.24 c p1
319.69 66.89 2.24 c p1
328.62 69.21 2.24 c p1
332.30 69.82 2.24 c p1
334.33 73.70 2.24 c p1
334.54 76.44 2.24 c p1
335.21 77.45 2.24 c p1
335.89 78.14 2.24 c p1
336.16 78.39 2.24 c p1
336.20 78.60 2.24 c p1
337.04 78.65 2.24 c p1
337.04 78.82 2.24 c p1
337.14 80.04 2.24 c p1
337.18 81.10 2.24 c p1
339.47 82.97 2.24 c p1
339.73 83.21 2.24 c p1
339.74 83.23 2.24 c p1
339.74 83.70 2.24 c p1
340.18 83.78 2.24 c p1
340.29 83.93 2.24 c p1
341.01 83.93 2.24 c p1
341.22 83.93 2.24 c p1
342.06 83.96 2.24 c p1
342.18 83.96 2.24 c p1
344.29 84.28 2.24 c p1
344.83 84.78 2.24 c p1
344.85 85.03 2.24 c p1
344.87 85.13 2.24 c p1
345.18 85.18 2.24 c p1
345.40 85.53 2.24 c p1
345.52 85.97 2.24 c p1
346.42 86.37 2.24 c p1
347.88 86.46 2.24 c p1
348.06 86.46 2.24 c p1
348.39 86.46 2.24 c p1
348.80 86.86 2.24 c p1
349.08 87.14 2.24 c p1
349.13 87.96 2.24 c p1
349.54 88.25 2.24 c p1
349.79 88.25 2.24 c p1
350.08 88.39 2.24 c p1
350.61 88.64 2.24 c p1
350.61 89.10 2.24 c p1
351.12 89.13 2.24 c p1
352.03 89.26 2.24 c p1
352.75 89.30 2.24 c p1
353.14 89.51 2.24 c p1
353.37 90.32 2.24 c p1
354.14 90.51 2.24 c p1
354.44 90.65 2.24 c p1
354.79 91.20 2.24 c p1
354.91 91.48 2.24 c p1
355.03 91.93 2.24 c p1
355.51 92.24 2.24 c p1
355.71 92.38 2.24 c p1
355.76 92.40 2.24 c p1
355.99 92.41 2.24 c p1
356.93 92.75 2.24 c p1
357.00 93.22 2.24 c p1
357.73 93.66 2.24 c p1
357.73 93.99 2.24 c p1
357.89 94.06 2.24 c p1
357.89 95.05 2.24 c p1
358.22 95.11 2.24 c p1
358.28 95.27 2.24 c p1
358.63 95.84 2.24 c p1
358.91 96.63 2.24 c p1
359.05 96.63 2.24 c p1
359.16 96.69 2.24 c p1
359.78 96.76 2.24 c p1
359.83 96.80 2.24 c p1
359.84 97.27 2.24 c p1
360.10 97.51 2.24 c p1
360.10 97.53 2.24 c p1
360.13 97.56 2.24 c p1
360.36 98.03 2.24 c p1
360.79 98.09 2.24 c p1
361.42 98.13 2.24 c p1
361.70 98.76 2.24 c p1
361.92 98.76 2.24 c p1
362.81 98.82 2.24 c p1
363.13 98.89 2.24 c p1
363.90 99.01 2.24 c p1
363.90 99.04 2.24 c p1
363.99 99.21 2.24 c p1
364.18 99.39 2.24 c p1
364.37 99.71 2.24 c p1
364.63 99.81 2.24 c p1
364.88 99.95 2.24 c p1
365.32 100.58 2.24 c p1
365.46 100.60 2.24 c p1
365.58 100.76 2.24 c p1
365.72 100.91 2.24 c p1
365.76 101.57 2.24 c p1
366.39 101.57 2.24 c p1
366.48 101.75 2.24 c p1
366.59 101.78 2.24 c p1
366.83 101.80 2.24 c p1
367.52 102.14 2.24 c p1
367.58 102.35 2.24 c p1
367.81 102.35 2.24 c p1
368.45 102.61 2.24 c p1
368.51 103.23 2.24 c p1
368.99 104.84 2.24 c p1
369.26 104.94 2.24 c p1
369.33 105.03 2.24 c p1
369.90 105.33 2.24 c p1
369.91 105.33 2.24 c p1
369.91 105.40 2.24 c p1
370.04 105.61 2.24 c p1
370.09 105.83 2.24 c p1
370.15 106.00 2.24 c p1
370.22 106.06 2.24 c p1
370.89 106.10 2.24 c p1
371.24 106.21 2.24 c p1
371.38 106.26 2.24 c p1
371.41 106.29 2.24 c p1
371.58 106.33 2.24 c p1
371.64 106.38 2.24 c p1
371.71 106.38 2.24 c p1
371.73 106.62 2.24 c p1
371.80 107.00 2.24 c p1
372.12 107.04 2.24 c p1
372.62 107.08 2.24 c p1
372.78 107.12 2.24 c p1
372.97 107.12 2.24 c p1
373.17 107.26 2.24 c p1
373.29 107.26 2.24 c p1
373.33 107.53 2.24 c p1
373.37 107.73 2.24 c p1
373.58 107.74 2.24 c p1
373.60 107.77 2.24 c p1
373.60 107.87 2.24 c p1
374.31 107.93 2.24 c p1
374.36 107.94 2.24 c p1
374.40 108.12 2.24 c p1
375.12 108.32 2.24 c p1
375.13 108.34 2.24 c p1
375.40 108.44 2.24 c p1
375.67 108.47 2.24 c p1
375.80 108.55 2.24 c p1
375.89 109.06 2.24 c p1
375.98 109.41 2.24 c p1
376.20 109.42 2.24 c p1
376.45 109.48 2.24 c p1
376.45 109.53 2.24 c p1
376.46 109.58 2.24 c p1
376.46 109.58 2.24 c p1
376.70 109.61 2.24 c p1
376.76 109.71 2.24 c p1
376.83 109.75 2.24 c p1
376.93 109.75 2.24 c p1
377.20 109.90 2.24 c p1
377.29 109.90 2.24 c p1
377.29 110.09 2.24 c p1
378.00 110.13 2.24 c p1
378.22 110.42 2.24 c p1
378.36 110.47 2.24 c p1
378.85 110.48 2.24 c p1
379.07 110.52 2.24 c p1
379.09 110.58 2.24 c p1
379.12 111.24 2.24 c p1
379.26 111.72 2.24 c p1
379.42 111.90 2.24 c p1
379.61 111.92 2.24 c p1
379.72 112.38 2.24 c p1
379.83 112.39 2.24 c p1
379.84 112.47 2.24 c p1
380.03 112.55 2.24 c p1
381.05 113.38 2.24 c p1
381.26 113.54 2.24 c p1
381.83 113.65 2.24 c p1
382.18 113.75 2.24 c p1
382.34 113.75 2.24 c p1
382.58 113.75 2.24 c p1
382.67 114.31 2.24 c p1
383.41 114.34 2.24 c p1
383.47 114.78 2.24 c p1
383.88 114.81 2.24 c p1
384.86 115.17 2.24 c p1
384.86 115.53 2.24 c p1
384.97 115.62 2.24 c p1
385.60 115.92 2.24 c p1
385.60 116.07 2.24 c p1
385.67 116.07 2.24 c p1
385.71 116.12 2.24 c p1
385.95 116.27 2.24 c p1
386.03 116.27 2.24 c p1
386.05 116.27 2.24 c p1
386.05 116.43 2.24 c p1
386.44 116.89 2.24 c p1
387.52 116.95 2.24 c p1
387.70 117.10 2.24 c p1
387.84 117.16 2.24 c p1
388.52 117.20 2.24 c p1
388.52 117.67 2.24 c p1
388.52 118.06 2.24 c p1
388.68 118.53 2.24 c p1
389.18 118.54 2.24 c p1
389.46 119.17 2.24 c p1
389.66 119.31 2.24 c p1
389.73 119.36 2.24 c p1
389.78 119.36 2.24 c p1
389.94 119.37 2.24 c p1
390.35 119.55 2.24 c p1
390.78 119.67 2.24 c p1
390.84 119.81 2.24 c p1
390.89 119.81 2.24 c p1
390.92 119.96 2.24 c p1
390.98 120.00 2.24 c p1
391.70 120.37 2.24 c p1
391.70 120.81 2.24 c p1
391.85 120.85 2.24 c p1
391.85 120.85 2.24 c p1
391.94 121.39 2.24 c p1
392.09 121.45 2.24 c p1
392.15 121.50 2.24 c p1
392.73 121.51 2.24 c p1
394.36 121.64 2.24 c p1
394.77 122.39 2.24 c p1
395.14 122.64 2.24 c p1
395.48 123.32 2.24 c p1
395.59 123.47 2.24 c p1
395.96 124.35 2.24 c p1
396.54 124.38 2.24 c p1
396.56 124.40 2.24 c p1
396.56 125.01 2.24 c p1
396.58 125.45 2.24 c p1
396.80 125.77 2.24 c p1
396.98 126.02 2.24 c p1
397.40 126.48 2.24 c p1
397.53 127.19 2.24 c p1
399.04 128.08 2.24 c p1
400.10 128.55 2.24 c p1
400.45 128.55 2.24 c p1
401.07 129.15 2.24 c p1
401.47 129.47 2.24 c p1
402.40 129.56 2.24 c p1
402.47 130.27 2.24 c p1
402.55 130.27 2.24 c p1
402.66 130.27 2.24 c p1
402.71 131.66 2.24 c p1
402.83 132.27 2.24 c p1
403.33 133.15 2.24 c p1
404.10 134.24 2.24 c p1
404.46 134.75 2.24 c p1
404.46 135.15 2.24 c p1
405.09 136.69 2.24 c p1
405.16 136.75 2.24 c p1
405.16 137.63 2.24 c p1
406.24 137.90 2.24 c p1
406.73 137.97 2.24 c p1
407.13 138.87 2.24 c p1
408.57 140.16 2.24 c p1
410.40 140.16 2.24 c p1
413.04 140.16 2.24 c p1
413.11 141.78 2.24 c p1
414.93 141.84 2.24 c p1
414.98 142.83 2.24 c p1
416.38 143.13 2.24 c p1
418.06 144.64 2.24 c p1
418.39 146.43 2.24 c p1
419.32 146.49 2.24 c p1
419.91 146.49 2.24 c p1
422.35 148.37 2.24 c p1
423.14 148.43 2.24 c p1
425.34 148.82 2.24 c p1
427.21 149.94 2.24 c p1
427.81 150.03 2.24 c p1
427.81 150.67 2.24 c p1
428.03 150.67 2.24 c p1
428.18 150.81 2.24 c p1
428.35 151.39 2.24 c p1
428.80 151.70 2.24 c p1
430.26 152.01 2.24 c p1
430.40 152.11 2.24 c p1
431.51 152.21 2.24 c p1
431.62 153.56 2.24 c p1
431.99 153.92 2.24 c p1
432.03 153.92 2.24 c p1
432.21 155.95 2.24 c p1
432.28 156.06 2.24 c p1
432.42 156.35 2.24 c p1
433.58 157.76 2.24 c p1
434.06 157.76 2.24 c p1
434.30 157.76 2.24 c p1
435.16 160.78 2.24 c p1
437.15 161.77 2.24 c p1
437.37 161.95 2.24 c p1
437.37 161.95 2.24 c p1
439.60 168.79 2.24 c p1
445.14 171.64 2.24 c p1
445.14 172.41 2.24 c p1
445.70 176.36 2.24 c p1
452.84 176.36 2.24 c p1
454.17 176.36 2.24 c p1
461.79 179.50 2.24 c p1
472.31 187.65 2.24 c p1
472.31 197.74 2.24 c p1
0.00 0.00 504.00 504.00 cl
0 0 0 srgb
0.75 setlinewidth
[] 0 setdash
1 setlinecap
1 setlinejoin
10.00 setmiterlimit
np
312.98 60.96 m
153.54 0 l
o
np
312.98 60.96 m
0 -5.98 l
o
np
364.16 60.96 m
0 -5.98 l
o
np
415.34 60.96 m
0 -5.98 l
o
np
466.52 60.96 m
0 -5.98 l
o
/Font1 findfont 10 s
312.98 39.44 (5) .5 0 t
364.16 39.44 (10) .5 0 t
415.34 39.44 (15) .5 0 t
466.52 39.44 (20) .5 0 t
np
301.00 61.81 m
0 116.34 l
o
np
301.00 61.81 m
-5.97 0 l
o
np
301.00 100.59 m
-5.97 0 l
o
np
301.00 139.37 m
-5.97 0 l
o
np
301.00 178.15 m
-5.97 0 l
o
286.66 61.81 (5) .5 90 t
286.66 100.59 (10) .5 90 t
286.66 139.37 (15) .5 90 t
286.66 178.15 (20) .5 90 t
np
301.00 60.96 m
177.90 0 l
0 142.04 l
-177.90 0 l
0 -142.04 l
o
252.00 0.00 504.00 252.00 cl
/Font2 findfont 12 s
0 0 0 srgb
389.95 223.19 (300) .5 0 t
/Font1 findfont 10 s
389.95 15.54 (sample\(spotreba, x\)) .5 0 t
262.76 131.98 (sample\(spotreba, x\)) .5 90 t
ep
%%Trailer
%%Pages: 1
%%EOF
