%!PS-Adobe-3.0 EPSF-3.0
%%DocumentNeededResources: font Helvetica
%%+ font Helvetica-Bold
%%+ font Helvetica-Oblique
%%+ font Helvetica-BoldOblique
%%+ font Symbol
%%Title: R Graphics Output
%%Creator: R Software
%%Pages: (atend)
%%BoundingBox: 0 0 504 504
%%EndComments
%%BeginProlog
/bp  { gs sRGB gs } def
% begin .ps.prolog
/gs  { gsave } bind def
/gr  { grestore } bind def
/ep  { showpage gr gr } bind def
/m   { moveto } bind def
/l  { rlineto } bind def
/np  { newpath } bind def
/cp  { closepath } bind def
/f   { fill } bind def
/o   { stroke } bind def
/c   { newpath 0 360 arc } bind def
/r   { 4 2 roll moveto 1 copy 3 -1 roll exch 0 exch rlineto 0 rlineto -1 mul 0 exch rlineto closepath } bind def
/p1  { stroke } bind def
/p2  { gsave bg fill grestore newpath } bind def
/p3  { gsave bg fill grestore stroke } bind def
/p6  { gsave bg eofill grestore newpath } bind def
/p7  { gsave bg eofill grestore stroke } bind def
/t   { 5 -2 roll moveto gsave rotate
       1 index stringwidth pop
       mul neg 0 rmoveto show grestore } bind def
/ta  { 4 -2 roll moveto gsave rotate show } bind def
/tb  { 2 -1 roll 0 rmoveto show } bind def
/cl  { grestore gsave newpath 3 index 3 index moveto 1 index
       4 -1 roll lineto  exch 1 index lineto lineto
       closepath clip newpath } bind def
/rgb { setrgbcolor } bind def
/s   { scalefont setfont } bind def
% end   .ps.prolog
/sRGB { [ /CIEBasedABC
          << /DecodeLMN
               [ { dup 0.03928 le
                        {12.92321 div}
                        {0.055 add 1.055 div 2.4 exp }
                     ifelse
                 } bind dup dup
               ]
             /MatrixLMN [0.412457 0.212673 0.019334
                         0.357576 0.715152 0.119192
                         0.180437 0.072175 0.950301]
             /WhitePoint [0.9505 1.0 1.0890]
           >>
         ] setcolorspace } bind def
/srgb { setcolor } bind def
%%IncludeResource: font Helvetica
/Helvetica findfont
dup length dict begin
  {1 index /FID ne {def} {pop pop} ifelse} forall
  /Encoding ISOLatin1Encoding def
  currentdict
  end
/Font1 exch definefont pop
%%IncludeResource: font Helvetica-Bold
/Helvetica-Bold findfont
dup length dict begin
  {1 index /FID ne {def} {pop pop} ifelse} forall
  /Encoding ISOLatin1Encoding def
  currentdict
  end
/Font2 exch definefont pop
%%IncludeResource: font Helvetica-Oblique
/Helvetica-Oblique findfont
dup length dict begin
  {1 index /FID ne {def} {pop pop} ifelse} forall
  /Encoding ISOLatin1Encoding def
  currentdict
  end
/Font3 exch definefont pop
%%IncludeResource: font Helvetica-BoldOblique
/Helvetica-BoldOblique findfont
dup length dict begin
  {1 index /FID ne {def} {pop pop} ifelse} forall
  /Encoding ISOLatin1Encoding def
  currentdict
  end
/Font4 exch definefont pop
%%IncludeResource: font Symbol
/Symbol findfont
dup length dict begin
  {1 index /FID ne {def} {pop pop} ifelse} forall
  currentdict
  end
/Font5 exch definefont pop
%%EndProlog
%%Page: 1 1
bp
59.04 73.44 473.76 444.96 cl
0 0 0 srgb
0.75 setlinewidth
[] 0 setdash
1 setlinecap
1 setlinejoin
10.00 setmiterlimit
74.40 87.20 2.70 c p1
80.20 87.24 2.70 c p1
80.29 87.94 2.70 c p1
92.49 88.14 2.70 c p1
97.44 88.22 2.70 c p1
97.70 88.29 2.70 c p1
98.46 88.50 2.70 c p1
99.55 88.60 2.70 c p1
100.80 89.73 2.70 c p1
105.89 89.75 2.70 c p1
107.57 89.96 2.70 c p1
107.57 90.46 2.70 c p1
115.89 90.57 2.70 c p1
115.89 91.07 2.70 c p1
118.10 91.59 2.70 c p1
118.10 91.64 2.70 c p1
118.23 91.80 2.70 c p1
118.23 91.83 2.70 c p1
121.41 91.85 2.70 c p1
124.04 91.92 2.70 c p1
125.58 92.02 2.70 c p1
125.66 92.12 2.70 c p1
125.66 92.22 2.70 c p1
125.66 92.33 2.70 c p1
125.74 92.46 2.70 c p1
125.74 92.46 2.70 c p1
125.74 92.61 2.70 c p1
128.52 92.74 2.70 c p1
129.19 93.08 2.70 c p1
129.96 93.21 2.70 c p1
130.40 93.39 2.70 c p1
130.68 93.51 2.70 c p1
131.08 93.57 2.70 c p1
131.66 94.30 2.70 c p1
131.81 94.35 2.70 c p1
132.26 94.51 2.70 c p1
132.26 94.53 2.70 c p1
132.72 94.58 2.70 c p1
132.76 94.74 2.70 c p1
133.20 94.79 2.70 c p1
133.20 95.31 2.70 c p1
133.78 95.41 2.70 c p1
133.78 95.60 2.70 c p1
133.86 95.75 2.70 c p1
135.44 95.86 2.70 c p1
135.61 96.00 2.70 c p1
135.61 96.00 2.70 c p1
135.61 96.02 2.70 c p1
135.61 96.25 2.70 c p1
135.80 96.25 2.70 c p1
135.89 96.32 2.70 c p1
137.48 96.71 2.70 c p1
138.52 96.94 2.70 c p1
138.52 96.95 2.70 c p1
139.17 97.78 2.70 c p1
139.74 99.98 2.70 c p1
140.65 100.01 2.70 c p1
140.65 100.09 2.70 c p1
140.65 101.00 2.70 c p1
140.65 101.10 2.70 c p1
141.13 101.10 2.70 c p1
141.18 101.19 2.70 c p1
141.18 101.91 2.70 c p1
141.20 102.09 2.70 c p1
141.20 102.32 2.70 c p1
141.23 102.73 2.70 c p1
141.87 103.00 2.70 c p1
142.08 103.50 2.70 c p1
142.12 103.76 2.70 c p1
142.35 103.91 2.70 c p1
143.37 104.95 2.70 c p1
143.64 105.69 2.70 c p1
143.84 105.89 2.70 c p1
144.30 106.83 2.70 c p1
144.30 106.87 2.70 c p1
144.30 107.38 2.70 c p1
144.30 107.41 2.70 c p1
144.35 107.42 2.70 c p1
144.38 107.71 2.70 c p1
144.97 107.99 2.70 c p1
145.08 108.52 2.70 c p1
145.65 108.54 2.70 c p1
145.87 109.16 2.70 c p1
146.03 109.87 2.70 c p1
146.29 110.12 2.70 c p1
146.29 110.15 2.70 c p1
146.29 110.42 2.70 c p1
146.29 111.08 2.70 c p1
146.29 111.15 2.70 c p1
146.36 111.26 2.70 c p1
146.36 111.60 2.70 c p1
146.36 111.81 2.70 c p1
146.87 111.84 2.70 c p1
147.24 111.92 2.70 c p1
148.48 112.51 2.70 c p1
148.56 112.92 2.70 c p1
148.62 113.84 2.70 c p1
149.30 115.15 2.70 c p1
149.30 115.18 2.70 c p1
149.58 115.44 2.70 c p1
149.71 115.98 2.70 c p1
150.25 116.69 2.70 c p1
150.53 116.90 2.70 c p1
150.67 117.02 2.70 c p1
151.13 117.14 2.70 c p1
151.78 117.59 2.70 c p1
151.82 117.68 2.70 c p1
151.86 118.67 2.70 c p1
152.42 119.90 2.70 c p1
152.53 120.10 2.70 c p1
152.98 120.28 2.70 c p1
153.22 121.33 2.70 c p1
153.22 121.40 2.70 c p1
153.22 121.89 2.70 c p1
153.22 121.97 2.70 c p1
153.22 122.47 2.70 c p1
153.22 122.83 2.70 c p1
153.78 122.95 2.70 c p1
154.15 122.95 2.70 c p1
154.30 123.12 2.70 c p1
154.30 123.18 2.70 c p1
154.46 123.43 2.70 c p1
155.08 124.47 2.70 c p1
155.08 124.51 2.70 c p1
155.32 124.89 2.70 c p1
155.48 125.14 2.70 c p1
156.23 125.91 2.70 c p1
157.32 126.00 2.70 c p1
157.94 126.07 2.70 c p1
158.06 126.12 2.70 c p1
158.13 127.09 2.70 c p1
158.13 127.29 2.70 c p1
158.13 127.63 2.70 c p1
158.13 127.95 2.70 c p1
158.13 127.99 2.70 c p1
158.32 128.44 2.70 c p1
158.51 128.44 2.70 c p1
158.54 128.68 2.70 c p1
159.01 128.88 2.70 c p1
159.19 128.92 2.70 c p1
160.04 128.95 2.70 c p1
160.05 129.31 2.70 c p1
160.40 129.55 2.70 c p1
160.45 129.60 2.70 c p1
160.55 129.61 2.70 c p1
160.62 129.98 2.70 c p1
160.72 130.47 2.70 c p1
160.89 131.21 2.70 c p1
161.01 131.72 2.70 c p1
161.15 132.02 2.70 c p1
161.57 132.20 2.70 c p1
161.58 132.84 2.70 c p1
161.98 133.12 2.70 c p1
162.11 133.16 2.70 c p1
162.69 134.29 2.70 c p1
163.38 134.50 2.70 c p1
163.81 134.70 2.70 c p1
163.81 135.19 2.70 c p1
163.97 135.36 2.70 c p1
164.32 135.61 2.70 c p1
164.56 136.41 2.70 c p1
164.56 137.29 2.70 c p1
164.71 138.30 2.70 c p1
164.86 138.52 2.70 c p1
165.09 138.53 2.70 c p1
165.18 138.86 2.70 c p1
166.22 138.90 2.70 c p1
166.75 139.06 2.70 c p1
166.75 139.80 2.70 c p1
166.97 139.80 2.70 c p1
167.05 139.81 2.70 c p1
167.11 140.20 2.70 c p1
168.01 140.49 2.70 c p1
168.23 140.95 2.70 c p1
168.23 141.58 2.70 c p1
168.23 141.84 2.70 c p1
168.25 141.93 2.70 c p1
168.37 142.23 2.70 c p1
168.82 142.27 2.70 c p1
168.85 142.89 2.70 c p1
169.06 143.53 2.70 c p1
169.06 144.64 2.70 c p1
169.06 144.81 2.70 c p1
169.06 145.26 2.70 c p1
169.46 145.89 2.70 c p1
169.52 145.95 2.70 c p1
169.53 146.14 2.70 c p1
169.53 146.38 2.70 c p1
169.98 146.64 2.70 c p1
169.98 146.94 2.70 c p1
170.25 147.33 2.70 c p1
170.44 147.34 2.70 c p1
170.48 147.99 2.70 c p1
170.58 148.00 2.70 c p1
171.09 148.10 2.70 c p1
171.14 148.13 2.70 c p1
171.44 148.49 2.70 c p1
171.69 148.62 2.70 c p1
171.69 148.98 2.70 c p1
171.77 149.47 2.70 c p1
171.83 149.64 2.70 c p1
172.48 149.98 2.70 c p1
172.50 150.02 2.70 c p1
172.56 150.03 2.70 c p1
172.73 150.63 2.70 c p1
172.75 150.66 2.70 c p1
172.87 150.94 2.70 c p1
172.87 151.02 2.70 c p1
172.87 151.67 2.70 c p1
172.87 151.67 2.70 c p1
172.96 152.04 2.70 c p1
172.98 152.27 2.70 c p1
172.98 152.27 2.70 c p1
173.32 152.77 2.70 c p1
173.32 152.81 2.70 c p1
173.65 152.86 2.70 c p1
173.78 152.86 2.70 c p1
173.87 153.51 2.70 c p1
173.98 153.74 2.70 c p1
174.05 153.74 2.70 c p1
174.28 154.77 2.70 c p1
174.30 154.84 2.70 c p1
174.40 155.68 2.70 c p1
174.51 156.52 2.70 c p1
174.62 156.54 2.70 c p1
174.98 156.88 2.70 c p1
175.07 157.18 2.70 c p1
175.36 157.27 2.70 c p1
175.60 157.65 2.70 c p1
176.16 158.48 2.70 c p1
176.42 159.15 2.70 c p1
176.78 159.34 2.70 c p1
176.93 159.65 2.70 c p1
177.08 159.77 2.70 c p1
177.24 160.19 2.70 c p1
177.39 160.44 2.70 c p1
177.62 160.47 2.70 c p1
177.73 160.70 2.70 c p1
178.54 161.02 2.70 c p1
178.61 161.04 2.70 c p1
178.61 161.13 2.70 c p1
178.94 161.23 2.70 c p1
178.94 161.52 2.70 c p1
179.13 161.92 2.70 c p1
179.22 162.10 2.70 c p1
179.34 162.72 2.70 c p1
179.39 163.01 2.70 c p1
179.39 163.36 2.70 c p1
179.61 164.10 2.70 c p1
179.74 164.25 2.70 c p1
179.74 164.49 2.70 c p1
179.75 164.73 2.70 c p1
180.07 165.39 2.70 c p1
180.47 165.43 2.70 c p1
181.04 165.78 2.70 c p1
181.08 165.82 2.70 c p1
181.12 166.50 2.70 c p1
181.12 166.78 2.70 c p1
181.21 166.92 2.70 c p1
181.28 168.38 2.70 c p1
181.33 168.44 2.70 c p1
181.33 168.58 2.70 c p1
181.35 168.66 2.70 c p1
181.44 168.84 2.70 c p1
181.46 168.91 2.70 c p1
181.51 168.97 2.70 c p1
181.54 169.02 2.70 c p1
181.57 169.53 2.70 c p1
182.07 169.54 2.70 c p1
182.09 170.72 2.70 c p1
182.51 171.47 2.70 c p1
182.86 171.74 2.70 c p1
182.86 171.85 2.70 c p1
182.86 171.88 2.70 c p1
182.86 171.93 2.70 c p1
182.97 172.57 2.70 c p1
182.98 173.06 2.70 c p1
183.44 173.47 2.70 c p1
183.45 174.01 2.70 c p1
183.45 174.09 2.70 c p1
183.53 174.19 2.70 c p1
183.53 175.07 2.70 c p1
183.53 175.37 2.70 c p1
183.59 175.44 2.70 c p1
183.59 175.45 2.70 c p1
183.65 176.15 2.70 c p1
183.65 176.49 2.70 c p1
184.07 176.66 2.70 c p1
184.95 177.02 2.70 c p1
185.11 177.23 2.70 c p1
185.23 178.45 2.70 c p1
185.57 178.60 2.70 c p1
185.59 178.63 2.70 c p1
185.89 179.03 2.70 c p1
185.90 179.13 2.70 c p1
186.26 179.54 2.70 c p1
186.35 180.22 2.70 c p1
186.68 180.60 2.70 c p1
186.84 180.88 2.70 c p1
186.96 180.97 2.70 c p1
186.96 181.48 2.70 c p1
187.12 182.18 2.70 c p1
187.26 182.21 2.70 c p1
187.32 182.41 2.70 c p1
187.63 182.90 2.70 c p1
187.73 182.93 2.70 c p1
187.79 183.18 2.70 c p1
188.04 183.34 2.70 c p1
188.18 183.71 2.70 c p1
188.22 184.08 2.70 c p1
188.40 184.39 2.70 c p1
188.67 184.70 2.70 c p1
188.67 184.78 2.70 c p1
188.67 185.22 2.70 c p1
188.67 185.25 2.70 c p1
189.16 185.73 2.70 c p1
189.39 186.15 2.70 c p1
189.55 186.19 2.70 c p1
189.82 186.35 2.70 c p1
190.23 186.36 2.70 c p1
190.89 186.71 2.70 c p1
190.95 186.73 2.70 c p1
191.09 186.80 2.70 c p1
191.42 187.01 2.70 c p1
191.42 187.22 2.70 c p1
191.44 187.43 2.70 c p1
191.46 187.61 2.70 c p1
191.48 187.79 2.70 c p1
191.60 187.80 2.70 c p1
191.60 188.11 2.70 c p1
191.95 188.13 2.70 c p1
191.95 188.22 2.70 c p1
192.01 188.64 2.70 c p1
192.01 188.71 2.70 c p1
192.40 189.22 2.70 c p1
192.44 189.52 2.70 c p1
192.44 189.83 2.70 c p1
192.44 189.85 2.70 c p1
192.44 189.99 2.70 c p1
192.85 190.19 2.70 c p1
192.93 190.28 2.70 c p1
193.15 190.54 2.70 c p1
193.45 190.68 2.70 c p1
193.45 190.80 2.70 c p1
193.46 191.07 2.70 c p1
193.87 191.98 2.70 c p1
194.15 192.38 2.70 c p1
194.15 192.73 2.70 c p1
194.37 193.23 2.70 c p1
194.48 193.40 2.70 c p1
194.66 193.92 2.70 c p1
194.66 195.49 2.70 c p1
194.77 195.63 2.70 c p1
194.91 195.70 2.70 c p1
194.91 195.99 2.70 c p1
195.00 197.17 2.70 c p1
195.01 197.19 2.70 c p1
195.12 197.41 2.70 c p1
195.16 197.44 2.70 c p1
195.19 197.91 2.70 c p1
195.21 198.18 2.70 c p1
195.22 198.32 2.70 c p1
195.24 199.29 2.70 c p1
195.28 199.65 2.70 c p1
195.44 199.67 2.70 c p1
195.46 199.95 2.70 c p1
196.23 199.95 2.70 c p1
196.60 200.41 2.70 c p1
196.79 200.43 2.70 c p1
196.79 200.54 2.70 c p1
196.79 201.14 2.70 c p1
196.79 201.15 2.70 c p1
197.02 201.48 2.70 c p1
197.02 201.52 2.70 c p1
197.32 201.64 2.70 c p1
197.32 201.94 2.70 c p1
197.40 201.97 2.70 c p1
197.50 202.18 2.70 c p1
198.78 202.61 2.70 c p1
198.88 203.36 2.70 c p1
198.94 203.62 2.70 c p1
199.08 204.29 2.70 c p1
199.21 204.54 2.70 c p1
199.21 204.67 2.70 c p1
199.29 205.28 2.70 c p1
199.29 205.48 2.70 c p1
199.55 205.80 2.70 c p1
199.57 206.00 2.70 c p1
199.79 206.00 2.70 c p1
200.26 206.46 2.70 c p1
200.67 206.56 2.70 c p1
200.89 206.84 2.70 c p1
201.01 207.00 2.70 c p1
201.51 207.46 2.70 c p1
201.51 207.46 2.70 c p1
201.52 207.53 2.70 c p1
201.60 207.57 2.70 c p1
202.01 208.06 2.70 c p1
202.51 208.36 2.70 c p1
202.56 208.79 2.70 c p1
202.67 208.81 2.70 c p1
202.70 209.04 2.70 c p1
203.25 209.20 2.70 c p1
203.25 209.39 2.70 c p1
203.25 209.70 2.70 c p1
203.62 210.06 2.70 c p1
203.70 210.20 2.70 c p1
203.89 210.74 2.70 c p1
203.91 210.86 2.70 c p1
203.91 212.05 2.70 c p1
203.91 213.02 2.70 c p1
204.05 213.05 2.70 c p1
204.11 213.20 2.70 c p1
204.12 213.38 2.70 c p1
204.15 213.52 2.70 c p1
204.18 213.79 2.70 c p1
204.28 213.84 2.70 c p1
204.41 214.10 2.70 c p1
204.56 214.48 2.70 c p1
204.62 214.60 2.70 c p1
204.82 214.90 2.70 c p1
204.96 215.82 2.70 c p1
204.97 215.84 2.70 c p1
205.16 216.24 2.70 c p1
205.47 216.92 2.70 c p1
205.64 217.59 2.70 c p1
205.73 218.54 2.70 c p1
205.95 218.58 2.70 c p1
205.95 218.65 2.70 c p1
206.35 218.79 2.70 c p1
206.68 218.91 2.70 c p1
206.68 219.16 2.70 c p1
206.68 219.47 2.70 c p1
206.81 220.70 2.70 c p1
206.96 220.72 2.70 c p1
207.03 220.74 2.70 c p1
207.07 221.37 2.70 c p1
207.07 221.72 2.70 c p1
207.07 221.94 2.70 c p1
207.12 221.94 2.70 c p1
207.18 222.01 2.70 c p1
207.39 222.04 2.70 c p1
207.52 222.73 2.70 c p1
207.53 223.00 2.70 c p1
207.59 223.08 2.70 c p1
207.61 223.99 2.70 c p1
207.63 224.32 2.70 c p1
207.65 224.34 2.70 c p1
207.70 224.78 2.70 c p1
207.72 225.15 2.70 c p1
207.76 225.22 2.70 c p1
207.84 225.81 2.70 c p1
207.84 225.81 2.70 c p1
207.93 226.37 2.70 c p1
208.37 226.60 2.70 c p1
208.50 227.12 2.70 c p1
208.92 227.37 2.70 c p1
209.46 227.52 2.70 c p1
209.55 227.54 2.70 c p1
209.55 227.67 2.70 c p1
209.67 227.84 2.70 c p1
209.76 227.84 2.70 c p1
209.76 228.01 2.70 c p1
209.88 228.27 2.70 c p1
209.88 228.83 2.70 c p1
209.92 229.08 2.70 c p1
209.92 229.19 2.70 c p1
209.99 229.59 2.70 c p1
210.08 230.52 2.70 c p1
210.27 230.76 2.70 c p1
210.27 230.88 2.70 c p1
210.27 230.90 2.70 c p1
210.62 231.29 2.70 c p1
210.68 231.41 2.70 c p1
210.72 231.58 2.70 c p1
210.77 231.83 2.70 c p1
210.93 232.15 2.70 c p1
210.93 233.25 2.70 c p1
211.01 233.28 2.70 c p1
211.11 233.38 2.70 c p1
211.11 233.51 2.70 c p1
211.36 234.35 2.70 c p1
211.36 234.39 2.70 c p1
211.43 234.79 2.70 c p1
211.43 234.79 2.70 c p1
211.54 235.02 2.70 c p1
211.58 235.14 2.70 c p1
211.58 235.29 2.70 c p1
211.65 235.57 2.70 c p1
211.89 235.61 2.70 c p1
211.89 236.02 2.70 c p1
211.89 236.04 2.70 c p1
211.91 236.25 2.70 c p1
211.94 236.36 2.70 c p1
211.94 236.59 2.70 c p1
212.11 236.83 2.70 c p1
212.11 237.07 2.70 c p1
212.14 237.35 2.70 c p1
212.14 237.39 2.70 c p1
212.34 237.50 2.70 c p1
212.46 237.75 2.70 c p1
212.46 237.76 2.70 c p1
212.46 237.79 2.70 c p1
212.61 238.59 2.70 c p1
212.79 238.98 2.70 c p1
213.07 239.09 2.70 c p1
213.07 239.16 2.70 c p1
213.07 239.56 2.70 c p1
213.16 240.00 2.70 c p1
213.22 240.22 2.70 c p1
213.23 240.25 2.70 c p1
213.50 240.48 2.70 c p1
213.58 240.88 2.70 c p1
213.59 241.28 2.70 c p1
213.80 241.58 2.70 c p1
213.81 241.86 2.70 c p1
213.81 242.35 2.70 c p1
214.74 243.03 2.70 c p1
214.76 243.10 2.70 c p1
214.76 243.25 2.70 c p1
214.95 244.09 2.70 c p1
215.20 244.44 2.70 c p1
215.32 244.54 2.70 c p1
215.63 244.78 2.70 c p1
215.89 244.79 2.70 c p1
216.16 244.87 2.70 c p1
216.19 246.14 2.70 c p1
216.33 246.35 2.70 c p1
216.33 246.60 2.70 c p1
216.34 247.26 2.70 c p1
216.34 247.52 2.70 c p1
216.39 247.63 2.70 c p1
216.39 248.16 2.70 c p1
216.49 249.57 2.70 c p1
216.53 249.66 2.70 c p1
216.62 249.95 2.70 c p1
216.62 250.32 2.70 c p1
216.62 250.90 2.70 c p1
216.62 251.31 2.70 c p1
216.62 251.58 2.70 c p1
216.64 251.64 2.70 c p1
216.72 252.00 2.70 c p1
216.72 252.13 2.70 c p1
216.77 252.17 2.70 c p1
216.78 252.18 2.70 c p1
216.78 252.22 2.70 c p1
216.98 252.28 2.70 c p1
216.98 253.00 2.70 c p1
217.09 253.07 2.70 c p1
217.09 253.12 2.70 c p1
217.11 253.15 2.70 c p1
217.14 253.43 2.70 c p1
217.37 253.66 2.70 c p1
217.51 253.83 2.70 c p1
217.51 254.38 2.70 c p1
217.51 254.53 2.70 c p1
217.52 254.78 2.70 c p1
217.52 254.89 2.70 c p1
217.52 254.98 2.70 c p1
217.81 255.00 2.70 c p1
217.81 255.22 2.70 c p1
218.02 255.42 2.70 c p1
218.02 255.64 2.70 c p1
218.14 255.78 2.70 c p1
218.14 257.20 2.70 c p1
218.14 257.20 2.70 c p1
218.14 257.42 2.70 c p1
218.22 257.68 2.70 c p1
218.25 258.14 2.70 c p1
218.29 259.55 2.70 c p1
218.50 259.56 2.70 c p1
218.50 259.67 2.70 c p1
218.50 259.74 2.70 c p1
218.67 260.96 2.70 c p1
218.94 261.35 2.70 c p1
219.07 261.40 2.70 c p1
219.07 261.80 2.70 c p1
219.11 262.06 2.70 c p1
219.15 262.32 2.70 c p1
219.21 262.90 2.70 c p1
219.25 263.00 2.70 c p1
219.26 263.11 2.70 c p1
219.38 263.14 2.70 c p1
219.38 263.87 2.70 c p1
220.25 265.13 2.70 c p1
220.33 265.36 2.70 c p1
220.37 265.70 2.70 c p1
220.37 265.78 2.70 c p1
220.72 265.97 2.70 c p1
220.77 266.10 2.70 c p1
221.11 266.21 2.70 c p1
221.17 267.09 2.70 c p1
221.43 267.18 2.70 c p1
221.47 267.59 2.70 c p1
221.79 267.81 2.70 c p1
222.09 268.06 2.70 c p1
222.18 269.12 2.70 c p1
222.18 269.35 2.70 c p1
222.49 269.40 2.70 c p1
222.49 269.51 2.70 c p1
222.50 269.61 2.70 c p1
222.50 269.61 2.70 c p1
222.56 269.85 2.70 c p1
222.57 269.95 2.70 c p1
222.57 270.41 2.70 c p1
222.63 270.59 2.70 c p1
222.95 271.01 2.70 c p1
222.98 271.48 2.70 c p1
223.06 271.53 2.70 c p1
223.20 271.97 2.70 c p1
223.34 272.20 2.70 c p1
223.50 272.37 2.70 c p1
223.62 272.40 2.70 c p1
223.67 272.86 2.70 c p1
223.67 273.38 2.70 c p1
223.74 273.38 2.70 c p1
223.75 273.70 2.70 c p1
223.80 274.16 2.70 c p1
224.07 274.63 2.70 c p1
224.31 274.71 2.70 c p1
224.32 275.04 2.70 c p1
224.33 275.08 2.70 c p1
224.52 275.44 2.70 c p1
224.55 276.10 2.70 c p1
224.76 276.72 2.70 c p1
224.76 276.89 2.70 c p1
224.95 277.33 2.70 c p1
225.63 277.68 2.70 c p1
225.63 277.85 2.70 c p1
225.72 278.32 2.70 c p1
225.97 278.87 2.70 c p1
226.17 279.63 2.70 c p1
226.34 279.91 2.70 c p1
226.45 280.24 2.70 c p1
226.58 280.91 2.70 c p1
227.05 281.03 2.70 c p1
227.05 281.32 2.70 c p1
227.10 281.36 2.70 c p1
227.49 282.22 2.70 c p1
227.52 282.77 2.70 c p1
227.52 282.90 2.70 c p1
227.70 283.01 2.70 c p1
227.79 283.53 2.70 c p1
227.95 283.55 2.70 c p1
228.05 283.62 2.70 c p1
228.05 284.20 2.70 c p1
228.05 284.41 2.70 c p1
228.05 285.01 2.70 c p1
228.29 285.27 2.70 c p1
228.68 285.48 2.70 c p1
229.42 285.56 2.70 c p1
229.54 286.01 2.70 c p1
229.60 286.04 2.70 c p1
229.60 286.32 2.70 c p1
229.69 286.41 2.70 c p1
229.75 286.46 2.70 c p1
229.75 287.30 2.70 c p1
229.75 287.39 2.70 c p1
229.75 287.73 2.70 c p1
230.23 287.77 2.70 c p1
230.39 287.78 2.70 c p1
230.43 288.19 2.70 c p1
230.66 288.75 2.70 c p1
230.87 288.86 2.70 c p1
230.89 288.88 2.70 c p1
230.96 288.96 2.70 c p1
231.43 289.11 2.70 c p1
231.52 289.24 2.70 c p1
231.96 289.57 2.70 c p1
232.10 289.61 2.70 c p1
232.65 289.95 2.70 c p1
232.91 290.03 2.70 c p1
232.95 290.09 2.70 c p1
232.95 290.35 2.70 c p1
233.18 290.77 2.70 c p1
233.93 290.82 2.70 c p1
233.93 290.86 2.70 c p1
234.01 291.73 2.70 c p1
234.43 292.12 2.70 c p1
234.43 292.21 2.70 c p1
234.57 292.26 2.70 c p1
234.59 293.09 2.70 c p1
234.59 293.14 2.70 c p1
234.98 293.41 2.70 c p1
234.98 293.58 2.70 c p1
234.98 294.43 2.70 c p1
234.98 294.69 2.70 c p1
235.22 294.83 2.70 c p1
235.41 295.52 2.70 c p1
236.51 295.80 2.70 c p1
236.51 295.93 2.70 c p1
236.67 296.19 2.70 c p1
236.74 296.38 2.70 c p1
236.83 296.64 2.70 c p1
236.94 296.67 2.70 c p1
236.96 297.18 2.70 c p1
237.09 297.22 2.70 c p1
237.09 297.54 2.70 c p1
237.10 297.54 2.70 c p1
237.25 297.55 2.70 c p1
237.41 297.64 2.70 c p1
237.41 297.86 2.70 c p1
237.45 297.94 2.70 c p1
237.45 298.33 2.70 c p1
237.45 298.70 2.70 c p1
237.45 298.92 2.70 c p1
237.52 299.57 2.70 c p1
237.52 300.45 2.70 c p1
237.73 300.49 2.70 c p1
238.27 300.69 2.70 c p1
238.81 301.42 2.70 c p1
239.06 301.69 2.70 c p1
239.24 302.67 2.70 c p1
239.68 302.83 2.70 c p1
239.87 302.91 2.70 c p1
240.50 303.37 2.70 c p1
240.89 303.60 2.70 c p1
240.89 303.86 2.70 c p1
240.89 305.00 2.70 c p1
241.11 306.01 2.70 c p1
241.17 306.41 2.70 c p1
241.19 306.42 2.70 c p1
241.19 306.49 2.70 c p1
241.62 306.56 2.70 c p1
241.95 307.03 2.70 c p1
242.42 307.31 2.70 c p1
242.59 307.54 2.70 c p1
242.59 307.71 2.70 c p1
242.59 308.19 2.70 c p1
242.59 308.44 2.70 c p1
242.59 308.49 2.70 c p1
242.59 308.87 2.70 c p1
242.68 309.43 2.70 c p1
242.92 310.12 2.70 c p1
243.31 310.27 2.70 c p1
243.45 310.29 2.70 c p1
243.45 310.47 2.70 c p1
243.46 310.54 2.70 c p1
243.46 311.23 2.70 c p1
243.95 311.48 2.70 c p1
243.96 312.70 2.70 c p1
243.96 312.85 2.70 c p1
244.29 313.40 2.70 c p1
244.55 313.65 2.70 c p1
244.69 313.99 2.70 c p1
244.69 314.00 2.70 c p1
244.96 315.33 2.70 c p1
245.09 316.19 2.70 c p1
245.09 316.25 2.70 c p1
245.21 316.62 2.70 c p1
245.21 316.79 2.70 c p1
245.35 316.98 2.70 c p1
245.39 317.11 2.70 c p1
245.39 317.29 2.70 c p1
245.45 317.74 2.70 c p1
245.48 317.87 2.70 c p1
245.51 318.39 2.70 c p1
245.55 318.54 2.70 c p1
245.67 318.57 2.70 c p1
245.83 319.25 2.70 c p1
245.89 319.49 2.70 c p1
245.92 320.26 2.70 c p1
246.21 320.55 2.70 c p1
246.39 320.91 2.70 c p1
247.09 322.46 2.70 c p1
247.28 322.53 2.70 c p1
247.42 322.91 2.70 c p1
247.52 323.04 2.70 c p1
247.52 323.69 2.70 c p1
247.52 324.17 2.70 c p1
247.57 324.32 2.70 c p1
247.71 325.22 2.70 c p1
248.38 325.41 2.70 c p1
248.74 325.48 2.70 c p1
248.94 325.89 2.70 c p1
249.02 326.84 2.70 c p1
249.15 326.92 2.70 c p1
249.19 327.04 2.70 c p1
249.19 327.70 2.70 c p1
249.32 327.93 2.70 c p1
249.32 328.14 2.70 c p1
249.36 328.18 2.70 c p1
249.50 328.37 2.70 c p1
249.50 328.43 2.70 c p1
249.69 328.59 2.70 c p1
249.69 329.60 2.70 c p1
249.69 330.07 2.70 c p1
249.71 330.22 2.70 c p1
250.00 331.46 2.70 c p1
250.13 332.49 2.70 c p1
250.37 332.59 2.70 c p1
250.76 332.76 2.70 c p1
251.33 333.51 2.70 c p1
251.37 333.73 2.70 c p1
251.49 334.00 2.70 c p1
251.54 334.13 2.70 c p1
251.69 335.14 2.70 c p1
251.75 335.21 2.70 c p1
252.22 335.34 2.70 c p1
252.22 335.36 2.70 c p1
252.43 335.90 2.70 c p1
254.31 335.95 2.70 c p1
254.73 336.81 2.70 c p1
255.12 337.01 2.70 c p1
255.57 337.10 2.70 c p1
256.34 337.15 2.70 c p1
256.52 337.43 2.70 c p1
256.89 337.55 2.70 c p1
257.05 337.72 2.70 c p1
257.12 337.93 2.70 c p1
257.22 338.09 2.70 c p1
257.22 338.94 2.70 c p1
257.28 339.04 2.70 c p1
257.28 339.39 2.70 c p1
257.40 339.40 2.70 c p1
257.59 339.48 2.70 c p1
257.64 339.67 2.70 c p1
258.04 340.43 2.70 c p1
258.46 340.59 2.70 c p1
258.95 341.27 2.70 c p1
258.95 341.63 2.70 c p1
258.95 341.72 2.70 c p1
258.95 342.09 2.70 c p1
259.25 342.21 2.70 c p1
259.29 342.51 2.70 c p1
259.29 342.97 2.70 c p1
259.29 343.32 2.70 c p1
259.34 343.33 2.70 c p1
259.79 343.41 2.70 c p1
260.16 343.66 2.70 c p1
260.20 343.80 2.70 c p1
260.60 343.89 2.70 c p1
261.03 344.77 2.70 c p1
261.04 344.91 2.70 c p1
261.08 345.39 2.70 c p1
261.14 345.65 2.70 c p1
261.14 345.88 2.70 c p1
261.30 345.98 2.70 c p1
261.30 346.48 2.70 c p1
261.72 346.66 2.70 c p1
261.79 347.67 2.70 c p1
261.84 347.84 2.70 c p1
262.31 347.90 2.70 c p1
262.95 347.90 2.70 c p1
262.96 348.33 2.70 c p1
263.28 348.55 2.70 c p1
263.28 348.61 2.70 c p1
263.55 348.91 2.70 c p1
263.61 349.03 2.70 c p1
264.45 349.13 2.70 c p1
264.92 349.32 2.70 c p1
265.38 350.04 2.70 c p1
265.79 350.39 2.70 c p1
266.04 351.03 2.70 c p1
266.61 351.07 2.70 c p1
266.61 351.24 2.70 c p1
266.61 352.34 2.70 c p1
266.65 352.50 2.70 c p1
266.65 353.39 2.70 c p1
267.37 354.00 2.70 c p1
268.47 354.26 2.70 c p1
268.50 355.00 2.70 c p1
268.66 355.26 2.70 c p1
268.66 356.89 2.70 c p1
268.66 357.37 2.70 c p1
269.49 357.83 2.70 c p1
269.72 358.73 2.70 c p1
270.29 358.93 2.70 c p1
271.19 359.03 2.70 c p1
271.42 359.11 2.70 c p1
271.58 359.29 2.70 c p1
271.75 359.31 2.70 c p1
271.75 359.46 2.70 c p1
271.96 359.74 2.70 c p1
271.96 359.92 2.70 c p1
271.96 360.37 2.70 c p1
271.96 360.43 2.70 c p1
271.96 361.01 2.70 c p1
272.09 361.19 2.70 c p1
272.32 361.22 2.70 c p1
273.11 362.10 2.70 c p1
273.36 362.82 2.70 c p1
273.36 362.82 2.70 c p1
273.36 362.91 2.70 c p1
274.03 363.24 2.70 c p1
274.47 363.28 2.70 c p1
274.97 364.03 2.70 c p1
274.97 364.98 2.70 c p1
275.04 365.64 2.70 c p1
275.05 365.73 2.70 c p1
275.05 366.51 2.70 c p1
275.64 367.28 2.70 c p1
275.64 368.09 2.70 c p1
275.66 369.46 2.70 c p1
275.71 369.51 2.70 c p1
275.71 370.20 2.70 c p1
275.71 370.57 2.70 c p1
275.71 371.38 2.70 c p1
275.71 371.42 2.70 c p1
276.30 371.89 2.70 c p1
277.02 372.06 2.70 c p1
277.17 372.13 2.70 c p1
277.17 372.56 2.70 c p1
277.17 372.60 2.70 c p1
277.70 372.76 2.70 c p1
278.16 372.78 2.70 c p1
278.86 372.83 2.70 c p1
279.41 373.02 2.70 c p1
280.43 373.56 2.70 c p1
280.43 374.26 2.70 c p1
281.27 374.39 2.70 c p1
284.07 374.63 2.70 c p1
284.25 375.68 2.70 c p1
285.11 375.68 2.70 c p1
285.66 375.80 2.70 c p1
285.69 376.23 2.70 c p1
286.74 376.29 2.70 c p1
287.64 376.49 2.70 c p1
287.64 377.23 2.70 c p1
288.04 377.31 2.70 c p1
288.05 377.33 2.70 c p1
288.48 377.33 2.70 c p1
289.15 377.38 2.70 c p1
290.31 377.95 2.70 c p1
290.97 377.95 2.70 c p1
291.14 378.03 2.70 c p1
291.14 378.14 2.70 c p1
291.70 378.17 2.70 c p1
291.92 378.20 2.70 c p1
292.32 378.47 2.70 c p1
292.43 378.48 2.70 c p1
292.47 378.54 2.70 c p1
292.47 378.82 2.70 c p1
292.93 378.85 2.70 c p1
293.04 379.21 2.70 c p1
293.55 379.80 2.70 c p1
293.69 379.87 2.70 c p1
293.69 380.05 2.70 c p1
294.29 380.16 2.70 c p1
294.29 381.02 2.70 c p1
294.29 381.37 2.70 c p1
294.48 381.40 2.70 c p1
295.09 381.54 2.70 c p1
296.47 382.97 2.70 c p1
296.58 383.39 2.70 c p1
296.61 384.59 2.70 c p1
296.61 384.66 2.70 c p1
296.96 384.75 2.70 c p1
297.29 384.90 2.70 c p1
297.48 385.47 2.70 c p1
297.58 385.50 2.70 c p1
298.08 385.55 2.70 c p1
298.55 385.76 2.70 c p1
300.48 385.84 2.70 c p1
300.48 386.00 2.70 c p1
300.48 386.81 2.70 c p1
300.48 387.84 2.70 c p1
302.41 388.17 2.70 c p1
302.76 388.43 2.70 c p1
303.31 388.51 2.70 c p1
303.31 388.60 2.70 c p1
303.98 389.10 2.70 c p1
304.05 389.29 2.70 c p1
304.15 389.40 2.70 c p1
304.15 389.62 2.70 c p1
304.66 390.30 2.70 c p1
304.77 390.98 2.70 c p1
304.77 391.35 2.70 c p1
304.93 391.58 2.70 c p1
305.11 391.66 2.70 c p1
306.60 391.77 2.70 c p1
306.60 391.95 2.70 c p1
306.64 392.08 2.70 c p1
307.81 392.57 2.70 c p1
308.09 392.69 2.70 c p1
308.49 393.87 2.70 c p1
308.65 394.48 2.70 c p1
308.65 394.57 2.70 c p1
311.59 394.77 2.70 c p1
312.78 394.77 2.70 c p1
312.90 395.19 2.70 c p1
314.54 395.41 2.70 c p1
315.85 395.62 2.70 c p1
315.86 395.78 2.70 c p1
317.11 395.85 2.70 c p1
317.15 395.90 2.70 c p1
317.70 396.23 2.70 c p1
317.87 396.51 2.70 c p1
317.87 396.95 2.70 c p1
319.10 397.13 2.70 c p1
319.57 397.29 2.70 c p1
319.77 397.64 2.70 c p1
320.18 397.80 2.70 c p1
320.79 398.01 2.70 c p1
321.62 398.21 2.70 c p1
322.73 398.94 2.70 c p1
323.00 399.05 2.70 c p1
323.00 399.13 2.70 c p1
323.00 399.35 2.70 c p1
323.16 399.48 2.70 c p1
323.80 399.54 2.70 c p1
324.25 399.62 2.70 c p1
324.25 399.88 2.70 c p1
324.69 400.61 2.70 c p1
325.01 400.69 2.70 c p1
325.18 401.34 2.70 c p1
325.36 401.38 2.70 c p1
326.30 401.42 2.70 c p1
327.32 401.79 2.70 c p1
327.37 402.03 2.70 c p1
327.37 402.21 2.70 c p1
327.55 402.85 2.70 c p1
327.55 403.06 2.70 c p1
327.55 403.15 2.70 c p1
329.32 403.70 2.70 c p1
329.32 403.74 2.70 c p1
329.32 403.82 2.70 c p1
329.32 404.17 2.70 c p1
329.32 404.41 2.70 c p1
329.32 404.73 2.70 c p1
329.51 405.25 2.70 c p1
329.63 405.51 2.70 c p1
329.69 405.54 2.70 c p1
329.69 405.90 2.70 c p1
329.69 407.91 2.70 c p1
329.69 407.97 2.70 c p1
331.04 408.07 2.70 c p1
331.30 408.22 2.70 c p1
331.90 408.47 2.70 c p1
331.92 408.78 2.70 c p1
332.00 409.01 2.70 c p1
332.15 409.11 2.70 c p1
332.15 409.36 2.70 c p1
332.46 409.63 2.70 c p1
332.46 409.79 2.70 c p1
332.94 410.02 2.70 c p1
333.01 410.03 2.70 c p1
333.27 410.57 2.70 c p1
333.38 411.03 2.70 c p1
333.53 411.14 2.70 c p1
333.53 411.67 2.70 c p1
333.58 411.95 2.70 c p1
333.81 412.90 2.70 c p1
334.56 413.13 2.70 c p1
336.14 414.18 2.70 c p1
336.24 414.31 2.70 c p1
336.24 414.36 2.70 c p1
337.24 414.72 2.70 c p1
337.73 415.19 2.70 c p1
337.73 415.29 2.70 c p1
338.22 415.29 2.70 c p1
338.22 415.66 2.70 c p1
338.94 415.91 2.70 c p1
339.51 415.98 2.70 c p1
339.65 416.72 2.70 c p1
343.34 416.98 2.70 c p1
343.65 417.11 2.70 c p1
343.80 417.26 2.70 c p1
343.80 417.59 2.70 c p1
344.11 417.88 2.70 c p1
344.11 418.15 2.70 c p1
344.91 418.27 2.70 c p1
345.39 418.84 2.70 c p1
348.75 419.18 2.70 c p1
348.75 419.30 2.70 c p1
348.75 419.65 2.70 c p1
348.75 420.32 2.70 c p1
355.37 420.36 2.70 c p1
357.04 420.37 2.70 c p1
357.04 420.76 2.70 c p1
359.76 421.24 2.70 c p1
360.27 421.27 2.70 c p1
360.27 421.80 2.70 c p1
360.75 422.04 2.70 c p1
361.42 422.39 2.70 c p1
361.42 422.92 2.70 c p1
361.42 423.14 2.70 c p1
361.42 423.97 2.70 c p1
362.08 423.98 2.70 c p1
364.13 424.09 2.70 c p1
370.68 424.59 2.70 c p1
371.08 424.67 2.70 c p1
372.83 424.72 2.70 c p1
373.66 425.04 2.70 c p1
376.26 425.34 2.70 c p1
379.03 426.03 2.70 c p1
379.03 426.73 2.70 c p1
380.21 426.88 2.70 c p1
386.83 426.91 2.70 c p1
386.83 426.98 2.70 c p1
388.94 427.04 2.70 c p1
388.94 427.23 2.70 c p1
388.94 427.40 2.70 c p1
391.10 427.50 2.70 c p1
392.22 427.89 2.70 c p1
392.22 428.17 2.70 c p1
393.08 428.34 2.70 c p1
394.85 428.46 2.70 c p1
394.85 429.34 2.70 c p1
399.78 429.36 2.70 c p1
399.78 429.64 2.70 c p1
399.78 429.65 2.70 c p1
399.78 429.66 2.70 c p1
408.39 430.11 2.70 c p1
416.73 430.33 2.70 c p1
416.73 431.04 2.70 c p1
430.73 431.18 2.70 c p1
458.40 431.20 2.70 c p1
0.00 0.00 504.00 504.00 cl
0 0 0 srgb
0.75 setlinewidth
[] 0 setdash
1 setlinecap
1 setlinejoin
10.00 setmiterlimit
np
85.61 73.44 m
319.08 0 l
o
np
85.61 73.44 m
0 -7.20 l
o
np
191.97 73.44 m
0 -7.20 l
o
np
298.33 73.44 m
0 -7.20 l
o
np
404.69 73.44 m
0 -7.20 l
o
/Font1 findfont 12 s
85.61 47.52 (5) .5 0 t
191.97 47.52 (10) .5 0 t
298.33 47.52 (15) .5 0 t
404.69 47.52 (20) .5 0 t
np
59.04 97.13 m
0 286.00 l
o
np
59.04 97.13 m
-7.20 0 l
o
np
59.04 192.46 m
-7.20 0 l
o
np
59.04 287.80 m
-7.20 0 l
o
np
59.04 383.13 m
-7.20 0 l
o
41.76 97.13 (5) .5 90 t
41.76 192.46 (10) .5 90 t
41.76 287.80 (15) .5 90 t
41.76 383.13 (20) .5 90 t
np
59.04 73.44 m
414.72 0 l
0 371.52 l
-414.72 0 l
0 -371.52 l
o
0.00 0.00 504.00 504.00 cl
/Font1 findfont 12 s
0 0 0 srgb
266.40 18.72 (spotreba) .5 0 t
12.96 238.86 (r) 90 ta
-0.120 (andom) tb gr
ep
%%Trailer
%%Pages: 1
%%EOF
