%!PS-Adobe-3.0 EPSF-3.0
%%DocumentNeededResources: font Helvetica
%%+ font Helvetica-Bold
%%+ font Helvetica-Oblique
%%+ font Helvetica-BoldOblique
%%+ font Symbol
%%Title: R Graphics Output
%%Creator: R Software
%%Pages: (atend)
%%BoundingBox: 0 0 504 504
%%EndComments
%%BeginProlog
/bp  { gs sRGB gs } def
% begin .ps.prolog
/gs  { gsave } bind def
/gr  { grestore } bind def
/ep  { showpage gr gr } bind def
/m   { moveto } bind def
/l  { rlineto } bind def
/np  { newpath } bind def
/cp  { closepath } bind def
/f   { fill } bind def
/o   { stroke } bind def
/c   { newpath 0 360 arc } bind def
/r   { 4 2 roll moveto 1 copy 3 -1 roll exch 0 exch rlineto 0 rlineto -1 mul 0 exch rlineto closepath } bind def
/p1  { stroke } bind def
/p2  { gsave bg fill grestore newpath } bind def
/p3  { gsave bg fill grestore stroke } bind def
/p6  { gsave bg eofill grestore newpath } bind def
/p7  { gsave bg eofill grestore stroke } bind def
/t   { 5 -2 roll moveto gsave rotate
       1 index stringwidth pop
       mul neg 0 rmoveto show grestore } bind def
/ta  { 4 -2 roll moveto gsave rotate show } bind def
/tb  { 2 -1 roll 0 rmoveto show } bind def
/cl  { grestore gsave newpath 3 index 3 index moveto 1 index
       4 -1 roll lineto  exch 1 index lineto lineto
       closepath clip newpath } bind def
/rgb { setrgbcolor } bind def
/s   { scalefont setfont } bind def
% end   .ps.prolog
/sRGB { [ /CIEBasedABC
          << /DecodeLMN
               [ { dup 0.03928 le
                        {12.92321 div}
                        {0.055 add 1.055 div 2.4 exp }
                     ifelse
                 } bind dup dup
               ]
             /MatrixLMN [0.412457 0.212673 0.019334
                         0.357576 0.715152 0.119192
                         0.180437 0.072175 0.950301]
             /WhitePoint [0.9505 1.0 1.0890]
           >>
         ] setcolorspace } bind def
/srgb { setcolor } bind def
%%IncludeResource: font Helvetica
/Helvetica findfont
dup length dict begin
  {1 index /FID ne {def} {pop pop} ifelse} forall
  /Encoding ISOLatin1Encoding def
  currentdict
  end
/Font1 exch definefont pop
%%IncludeResource: font Helvetica-Bold
/Helvetica-Bold findfont
dup length dict begin
  {1 index /FID ne {def} {pop pop} ifelse} forall
  /Encoding ISOLatin1Encoding def
  currentdict
  end
/Font2 exch definefont pop
%%IncludeResource: font Helvetica-Oblique
/Helvetica-Oblique findfont
dup length dict begin
  {1 index /FID ne {def} {pop pop} ifelse} forall
  /Encoding ISOLatin1Encoding def
  currentdict
  end
/Font3 exch definefont pop
%%IncludeResource: font Helvetica-BoldOblique
/Helvetica-BoldOblique findfont
dup length dict begin
  {1 index /FID ne {def} {pop pop} ifelse} forall
  /Encoding ISOLatin1Encoding def
  currentdict
  end
/Font4 exch definefont pop
%%IncludeResource: font Symbol
/Symbol findfont
dup length dict begin
  {1 index /FID ne {def} {pop pop} ifelse} forall
  currentdict
  end
/Font5 exch definefont pop
%%EndProlog
%%Page: 1 1
bp
59.04 73.44 473.76 444.96 cl
1 0 0 srgb
0.75 setlinewidth
[] 0 setdash
1 setlinecap
1 setlinejoin
10.00 setmiterlimit
np
74.40 306.62 m
3.49 -68.87 l
3.49 -21.03 l
3.49 -16.46 l
3.49 -1.32 l
3.49 -7.69 l
3.50 0.42 l
3.49 -7.20 l
3.49 -5.67 l
3.49 4.01 l
3.49 4.06 l
3.49 -13.95 l
3.49 19.34 l
3.49 -6.90 l
3.49 1.13 l
3.49 4.18 l
3.49 2.62 l
3.50 6.57 l
3.49 1.21 l
3.49 -2.23 l
3.49 2.05 l
3.49 6.75 l
3.49 -2.65 l
3.49 6.81 l
3.49 -6.79 l
3.49 6.72 l
3.49 -1.44 l
3.49 0.66 l
3.50 -1.09 l
3.49 -0.15 l
3.49 3.40 l
3.49 -4.09 l
3.49 6.32 l
3.49 -2.75 l
3.49 4.93 l
3.49 2.00 l
3.49 0.12 l
3.49 2.36 l
3.49 -0.90 l
3.50 1.94 l
3.49 2.57 l
3.49 1.98 l
3.49 -0.19 l
3.49 2.48 l
3.49 3.39 l
3.49 3.14 l
3.49 -1.60 l
3.49 2.95 l
3.49 3.47 l
3.49 1.10 l
3.50 0.12 l
3.49 5.22 l
3.49 -0.96 l
3.49 3.59 l
3.49 2.38 l
3.49 4.82 l
3.49 1.15 l
3.49 1.38 l
3.49 2.69 l
3.49 3.87 l
3.49 0.82 l
3.50 3.86 l
3.49 3.40 l
3.49 2.96 l
3.49 3.04 l
3.49 2.79 l
3.49 1.29 l
3.49 4.57 l
3.49 2.74 l
3.49 2.63 l
3.49 2.83 l
3.49 4.89 l
3.50 1.15 l
3.49 2.77 l
3.49 4.25 l
3.49 2.48 l
3.49 2.99 l
3.49 2.19 l
3.49 3.40 l
3.49 3.53 l
3.49 1.79 l
3.49 3.37 l
3.49 1.56 l
3.50 0.97 l
3.49 4.76 l
3.49 0.39 l
3.49 4.03 l
3.49 1.90 l
3.49 -0.77 l
3.49 6.65 l
3.49 -1.86 l
3.49 5.14 l
3.49 0.64 l
3.49 -1.41 l
3.50 7.78 l
3.49 3.03 l
3.49 -2.72 l
3.49 -10.61 l
3.49 20.63 l
3.49 -4.58 l
423.49 362.54 lineto
3.49 33.66 l
3.49 25.52 l
o
0.00 0.00 504.00 504.00 cl
0 0 0 srgb
0.75 setlinewidth
[] 0 setdash
1 setlinecap
1 setlinejoin
10.00 setmiterlimit
np
74.40 73.44 m
349.09 0 l
o
np
74.40 73.44 m
0 -7.20 l
o
np
144.22 73.44 m
0 -7.20 l
o
np
214.04 73.44 m
0 -7.20 l
o
np
283.85 73.44 m
0 -7.20 l
o
np
353.67 73.44 m
0 -7.20 l
o
np
423.49 73.44 m
0 -7.20 l
o
/Font1 findfont 12 s
74.40 47.52 (0) .5 0 t
144.22 47.52 (20) .5 0 t
214.04 47.52 (40) .5 0 t
283.85 47.52 (60) .5 0 t
353.67 47.52 (80) .5 0 t
423.49 47.52 (100) .5 0 t
np
59.04 112.23 m
0 324.60 l
o
np
59.04 112.23 m
-7.20 0 l
o
np
59.04 166.33 m
-7.20 0 l
o
np
59.04 220.43 m
-7.20 0 l
o
np
59.04 274.53 m
-7.20 0 l
o
np
59.04 328.63 m
-7.20 0 l
o
np
59.04 382.73 m
-7.20 0 l
o
np
59.04 436.83 m
-7.20 0 l
o
41.76 112.23 (-10) .5 90 t
41.76 166.33 (-8) .5 90 t
41.76 220.43 (-6) .5 90 t
41.76 274.53 (-4) .5 90 t
41.76 328.63 (-2) .5 90 t
41.76 382.73 (0) .5 90 t
41.76 436.83 (2) .5 90 t
np
59.04 73.44 m
414.72 0 l
0 371.52 l
-414.72 0 l
0 -371.52 l
o
0.00 0.00 504.00 504.00 cl
/Font2 findfont 14 s
0 0 0 srgb
104.76 469.45 (Cz) 0 ta
0.140 (ec) tb
-0.140 (h Repub) tb
-0.140 (lic: f) tb
-0.140 (emale death rates  \(1950-2011\)) tb gr
/Font1 findfont 12 s
266.40 18.72 (Age) .5 0 t
12.96 220.51 (Log death r) 90 ta
-0.120 (ate) tb gr
59.04 73.44 473.76 444.96 cl
1 0.0784 0 srgb
0.75 setlinewidth
[] 0 setdash
1 setlinecap
1 setlinejoin
10.00 setmiterlimit
np
74.40 303.12 m
3.49 -64.32 l
3.49 -21.08 l
3.49 -13.81 l
3.49 -6.03 l
3.49 -15.42 l
3.50 -1.32 l
3.49 2.87 l
3.49 -0.72 l
3.49 -11.54 l
3.49 1.10 l
3.49 1.42 l
3.49 8.80 l
3.49 -2.12 l
3.49 -5.50 l
3.49 3.70 l
3.49 4.10 l
3.50 9.53 l
3.49 1.16 l
3.49 6.43 l
3.49 2.20 l
3.49 1.18 l
3.49 -2.41 l
3.49 -2.26 l
3.49 2.76 l
3.49 1.00 l
3.49 2.56 l
3.49 3.24 l
3.50 -4.93 l
3.49 2.40 l
3.49 5.80 l
3.49 -1.34 l
3.49 -2.96 l
3.49 4.15 l
3.49 6.62 l
3.49 -9.21 l
3.49 8.93 l
3.49 1.01 l
3.49 0.96 l
3.50 2.09 l
3.49 -0.80 l
3.49 2.76 l
3.49 3.89 l
3.49 1.67 l
3.49 -2.34 l
3.49 6.61 l
3.49 0.23 l
3.49 1.30 l
3.49 0.97 l
3.49 7.11 l
3.50 -0.08 l
3.49 2.53 l
3.49 1.72 l
3.49 5.82 l
3.49 -1.60 l
3.49 3.01 l
3.49 4.19 l
3.49 -0.69 l
3.49 3.75 l
3.49 2.08 l
3.49 4.57 l
3.50 2.03 l
3.49 3.92 l
3.49 1.74 l
3.49 3.85 l
3.49 3.67 l
3.49 1.22 l
3.49 2.94 l
3.49 2.07 l
3.49 1.46 l
3.49 6.36 l
3.49 3.84 l
3.50 2.99 l
3.49 1.68 l
3.49 2.68 l
3.49 4.67 l
3.49 2.01 l
3.49 4.75 l
3.49 0.47 l
3.49 2.70 l
3.49 4.15 l
3.49 1.92 l
3.49 0.88 l
3.50 2.65 l
3.49 4.48 l
3.49 1.12 l
3.49 0.61 l
3.49 6.90 l
3.49 2.89 l
3.49 0.28 l
3.49 2.36 l
3.49 -2.79 l
3.49 6.09 l
3.49 4.03 l
3.50 -2.04 l
3.49 4.28 l
3.49 1.57 l
3.49 6.91 l
3.49 -13.99 l
3.49 15.57 l
423.49 363.12 lineto
3.49 0.16 l
o
1 0.1569 0 srgb
np
74.40 295.28 m
3.49 -64.57 l
3.49 -15.29 l
3.49 -12.98 l
3.49 -8.50 l
3.49 -9.51 l
3.50 -8.02 l
3.49 7.05 l
3.49 -12.71 l
3.49 5.72 l
3.49 -10.34 l
3.49 16.59 l
3.49 -11.70 l
3.49 0.67 l
3.49 13.27 l
3.49 -2.91 l
3.49 7.03 l
3.50 4.30 l
3.49 -2.22 l
3.49 -0.79 l
3.49 0.27 l
3.49 3.96 l
3.49 0.08 l
3.49 7.03 l
3.49 0.09 l
3.49 -0.24 l
3.49 -1.10 l
3.49 2.59 l
3.50 -2.88 l
3.49 5.13 l
3.49 2.51 l
3.49 -1.26 l
3.49 5.07 l
3.49 -6.76 l
3.49 -1.11 l
3.49 12.35 l
3.49 0.19 l
3.49 -1.41 l
3.49 5.08 l
3.50 0.19 l
3.49 1.38 l
3.49 -1.83 l
3.49 4.13 l
3.49 3.39 l
3.49 0.02 l
3.49 3.15 l
3.49 0.52 l
3.49 4.24 l
3.49 2.28 l
3.49 2.51 l
3.50 3.02 l
3.49 2.44 l
3.49 0.53 l
3.49 3.49 l
3.49 1.43 l
3.49 3.96 l
3.49 1.24 l
3.49 1.64 l
3.49 3.71 l
3.49 4.50 l
3.49 -0.52 l
3.50 5.05 l
3.49 0.63 l
3.49 4.58 l
3.49 3.60 l
3.49 2.31 l
3.49 3.76 l
3.49 1.56 l
3.49 2.99 l
3.49 3.33 l
3.49 4.59 l
3.49 0.11 l
3.50 6.07 l
3.49 1.41 l
3.49 2.38 l
3.49 3.37 l
3.49 5.22 l
3.49 1.58 l
3.49 4.18 l
3.49 1.64 l
3.49 3.38 l
3.49 0.90 l
3.49 5.46 l
3.50 0.71 l
3.49 4.02 l
3.49 -0.07 l
3.49 4.65 l
3.49 2.07 l
3.49 0.89 l
3.49 3.99 l
3.49 -0.69 l
3.49 3.27 l
3.49 5.14 l
3.49 2.03 l
3.50 5.91 l
3.49 -4.85 l
3.49 8.46 l
3.49 -11.89 l
3.49 5.85 l
3.49 -0.23 l
423.49 333.54 lineto
3.49 16.80 l
3.49 15.41 l
3.49 6.43 l
o
1 0.2353 0 srgb
np
74.40 289.69 m
3.49 -60.52 l
3.49 -14.25 l
3.49 -15.27 l
3.49 -12.44 l
3.49 -2.05 l
3.50 -8.09 l
3.49 -2.80 l
3.49 -24.19 l
3.49 16.77 l
3.49 -1.72 l
3.49 8.47 l
3.49 1.09 l
3.49 1.38 l
3.49 -2.16 l
3.49 4.17 l
3.49 6.35 l
3.50 -2.74 l
3.49 10.01 l
3.49 6.23 l
3.49 -11.63 l
3.49 6.78 l
3.49 3.17 l
3.49 -0.70 l
3.49 -3.35 l
3.49 3.59 l
3.49 -0.13 l
3.49 0 l
3.50 2.84 l
3.49 0.49 l
3.49 5.10 l
3.49 3.55 l
3.49 -0.78 l
3.49 3.84 l
3.49 -9.87 l
3.49 9.71 l
3.49 -6.05 l
3.49 9.52 l
3.49 0.95 l
3.50 5.68 l
3.49 0.47 l
3.49 1.62 l
3.49 1.33 l
3.49 -0.01 l
3.49 3.81 l
3.49 4.62 l
3.49 2.06 l
3.49 -1.40 l
3.49 4.17 l
3.49 3.28 l
3.50 -3.69 l
3.49 6.97 l
3.49 1.11 l
3.49 6.33 l
3.49 1.07 l
3.49 0.96 l
3.49 2.89 l
3.49 1.93 l
3.49 1.39 l
3.49 4.39 l
3.49 1.16 l
3.50 4.47 l
3.49 2.32 l
3.49 4.43 l
3.49 1.63 l
3.49 4.16 l
3.49 2.77 l
3.49 3.44 l
3.49 1.18 l
3.49 4.39 l
3.49 4.52 l
3.49 0.94 l
3.50 3.58 l
3.49 2.71 l
3.49 5.40 l
3.49 0.90 l
3.49 2.49 l
3.49 4.23 l
3.49 2.16 l
3.49 4.79 l
3.49 2.27 l
3.49 2.35 l
3.49 2.14 l
3.50 4.54 l
3.49 1.17 l
3.49 3.26 l
3.49 0.07 l
3.49 5.72 l
3.49 0.29 l
3.49 2.49 l
3.49 4.43 l
3.49 1.47 l
3.49 -2.08 l
3.49 6.91 l
3.50 2.40 l
3.49 0.77 l
3.49 4.07 l
3.49 -9.54 l
3.49 7.44 l
3.49 -5.95 l
423.49 370.33 lineto
3.49 5.51 l
3.49 3.18 l
3.49 9.17 l
3.49 43.01 l
o
1 0.3098 0 srgb
np
74.40 284.44 m
3.49 -63.79 l
3.49 -13.76 l
3.49 -15.90 l
3.49 -0.55 l
3.49 -12.47 l
3.50 -2.46 l
3.49 3.84 l
3.49 -13.63 l
3.49 -5.98 l
3.49 10.03 l
3.49 -2.45 l
3.49 -13.41 l
3.49 17.78 l
3.49 6.18 l
3.49 -0.96 l
3.49 0.16 l
3.50 -0.77 l
3.49 8.50 l
3.49 -0.17 l
3.49 2.95 l
3.49 -2.58 l
3.49 9.00 l
3.49 -4.47 l
3.49 0.20 l
3.49 7.90 l
3.49 -5.18 l
3.49 1.20 l
3.50 -1.61 l
3.49 1.40 l
3.49 3.98 l
3.49 5.40 l
3.49 -1.26 l
3.49 5.12 l
3.49 3.58 l
3.49 -3.24 l
3.49 -4.96 l
3.49 2.49 l
3.49 11.88 l
3.50 6.33 l
3.49 -2.80 l
3.49 -1.67 l
3.49 3.98 l
3.49 2.39 l
3.49 1.32 l
3.49 4.12 l
3.49 0.20 l
3.49 5.91 l
3.49 1.03 l
3.49 -0.57 l
3.50 4.89 l
3.49 0.60 l
3.49 0.27 l
3.49 5.68 l
3.49 2.76 l
3.49 1.57 l
3.49 3.14 l
3.49 3.40 l
3.49 1.76 l
3.49 2.56 l
3.49 3.70 l
3.50 2.10 l
3.49 2.75 l
3.49 1.53 l
3.49 4.31 l
3.49 3.02 l
3.49 2.59 l
3.49 4.78 l
3.49 4.86 l
3.49 2.21 l
3.49 2.62 l
3.49 3.14 l
3.50 2.67 l
3.49 2.07 l
3.49 4.73 l
3.49 3.08 l
3.49 1.86 l
3.49 3.65 l
3.49 4.13 l
3.49 2.54 l
3.49 3.36 l
3.49 2.12 l
3.49 2.67 l
3.50 3.70 l
3.49 1.72 l
3.49 2.90 l
3.49 2.50 l
3.49 -0.37 l
3.49 5.12 l
3.49 3.04 l
3.49 0.01 l
3.49 3.23 l
3.49 1.70 l
3.49 0.87 l
3.50 1.31 l
3.49 -0.63 l
3.49 5.11 l
3.49 3.24 l
3.49 -4.90 l
3.49 11.30 l
423.49 365.40 lineto
3.49 -3.12 l
3.49 20.15 l
3.49 14.97 l
3.49 33.80 l
o
1 0.3882 0 srgb
np
74.40 281.71 m
3.49 -64.83 l
3.49 -14.18 l
3.49 -3.93 l
3.49 -17.82 l
3.49 -6.62 l
3.50 4.82 l
3.49 -7.07 l
3.49 -5.95 l
3.49 -12.86 l
3.49 10.21 l
3.49 6.29 l
3.49 6.64 l
3.49 -1.96 l
3.49 -8.57 l
3.49 9.16 l
3.49 -8.67 l
3.50 17.64 l
3.49 -13.54 l
3.49 15.72 l
3.49 -0.20 l
3.49 1.55 l
3.49 -0.63 l
3.49 0.49 l
3.49 0.03 l
3.49 1.83 l
3.49 12.89 l
3.49 -9.67 l
3.50 4.03 l
3.49 -1.55 l
3.49 2.99 l
3.49 7.39 l
3.49 -5.64 l
3.49 3.85 l
3.49 2.93 l
3.49 3.59 l
3.49 -0.37 l
3.49 -0.91 l
3.49 -3.64 l
3.50 8.69 l
3.49 0.39 l
3.49 3.72 l
3.49 0.73 l
3.49 5.92 l
3.49 1.83 l
3.49 0.80 l
3.49 2.02 l
3.49 2.86 l
3.49 1.10 l
3.49 4.24 l
3.50 3.43 l
3.49 3.08 l
3.49 1.60 l
3.49 0.34 l
3.49 4.37 l
3.49 0.02 l
3.49 4.28 l
3.49 1.11 l
3.49 3.89 l
3.49 2.08 l
3.49 3.70 l
3.50 1.79 l
3.49 3.10 l
3.49 1.81 l
3.49 2.94 l
3.49 4.08 l
3.49 3.63 l
3.49 3.54 l
3.49 2.94 l
3.49 3.37 l
3.49 1.31 l
3.49 5.00 l
3.50 2.89 l
3.49 3.09 l
3.49 2.53 l
3.49 3.41 l
3.49 3.08 l
3.49 1.50 l
3.49 4.73 l
3.49 1.23 l
3.49 2.40 l
3.49 3.53 l
3.49 2.65 l
3.50 4.39 l
3.49 -1.23 l
3.49 6.24 l
3.49 2.52 l
3.49 1.89 l
3.49 0.58 l
3.49 3.59 l
3.49 0.16 l
3.49 2.37 l
3.49 0.83 l
3.49 2.95 l
3.50 2.65 l
3.49 1.60 l
3.49 -6.58 l
3.49 19.55 l
3.49 -3.61 l
3.49 -1.68 l
423.49 373.87 lineto
3.49 -23.98 l
3.49 21.00 l
3.49 13.69 l
o
1 0.4667 0 srgb
np
74.40 280.63 m
3.49 -65.22 l
3.49 -17.11 l
3.49 -5.67 l
3.49 -8.87 l
3.49 -2.81 l
3.50 -8.87 l
3.49 -8.33 l
3.49 6.86 l
3.49 -14.14 l
3.49 3.68 l
3.49 4.47 l
3.49 5.15 l
3.49 -5.93 l
3.49 8.69 l
3.49 -0.97 l
3.49 1.42 l
3.50 -2.72 l
3.49 12.11 l
3.49 -0.54 l
3.49 -1.21 l
3.49 3.89 l
3.49 2.40 l
3.49 6.50 l
3.49 -4.36 l
3.49 8.04 l
3.49 -11.06 l
3.49 2.84 l
3.50 1.77 l
3.49 5.12 l
3.49 1.51 l
3.49 0.38 l
3.49 3.06 l
3.49 2.24 l
3.49 -0.15 l
3.49 4.26 l
3.49 3.84 l
3.49 -9.41 l
3.49 13.89 l
3.50 1.32 l
3.49 -3.10 l
3.49 2.85 l
3.49 5.58 l
3.49 2.59 l
3.49 -4.36 l
3.49 5.43 l
3.49 0 l
3.49 4.91 l
3.49 -0.09 l
3.49 7.58 l
3.50 -0.10 l
3.49 3.36 l
3.49 2.23 l
3.49 3.15 l
3.49 3.86 l
3.49 -0.18 l
3.49 5.06 l
3.49 0.30 l
3.49 -0.59 l
3.49 6.37 l
3.49 3.72 l
3.50 1.42 l
3.49 3.97 l
3.49 0.13 l
3.49 5.07 l
3.49 1.88 l
3.49 2.83 l
3.49 4.60 l
3.49 2.81 l
3.49 3.02 l
3.49 2.83 l
3.49 2.79 l
3.50 3.47 l
3.49 4.28 l
3.49 2.04 l
3.49 1.80 l
3.49 4.93 l
3.49 3.07 l
3.49 -0.45 l
3.49 4.40 l
3.49 4.85 l
3.49 2.47 l
3.49 2.81 l
3.50 2.88 l
3.49 2.67 l
3.49 2.42 l
3.49 2.71 l
3.49 1.25 l
3.49 3.84 l
3.49 2.67 l
3.49 1.36 l
3.49 0.99 l
3.49 6.30 l
3.49 2.27 l
3.50 -4.99 l
3.49 3.93 l
3.49 7.12 l
3.49 -10.83 l
3.49 2.51 l
3.49 8.36 l
423.49 379.72 lineto
3.49 -9.56 l
3.49 11.16 l
3.49 5.23 l
3.49 12.35 l
o
1 0.5451 0 srgb
np
74.40 279.21 m
3.49 -61.75 l
3.49 -15.27 l
3.49 -15.66 l
3.49 -1.57 l
3.49 -3.27 l
3.50 -14.92 l
3.49 6.08 l
3.49 -3.44 l
3.49 -2.96 l
3.49 4.57 l
3.49 -4.33 l
3.49 2.14 l
3.49 -2.06 l
3.49 8.04 l
3.49 0.41 l
3.49 1.08 l
3.50 3.89 l
3.49 4.81 l
3.49 -7.13 l
3.49 13.12 l
3.49 -3.52 l
3.49 0.44 l
3.49 5.77 l
3.49 -4.46 l
3.49 1.90 l
3.49 2.26 l
3.49 -2.58 l
3.50 0.13 l
3.49 -3.87 l
3.49 9.14 l
3.49 3.55 l
3.49 -2.38 l
3.49 5.72 l
3.49 -1.20 l
3.49 4.82 l
3.49 1.86 l
3.49 0.85 l
3.49 -6.91 l
3.50 4.90 l
3.49 11.05 l
3.49 2.61 l
3.49 -2.34 l
3.49 2.37 l
3.49 -0.55 l
3.49 4.60 l
3.49 3.39 l
3.49 -2.52 l
3.49 6.64 l
3.49 3.32 l
3.50 2.23 l
3.49 2.52 l
3.49 2.44 l
3.49 3.81 l
3.49 0.30 l
3.49 6.32 l
3.49 0.29 l
3.49 2.63 l
3.49 1.78 l
3.49 2.54 l
3.49 3.31 l
3.50 4.53 l
3.49 2.10 l
3.49 1.41 l
3.49 4.49 l
3.49 4.06 l
3.49 2.40 l
3.49 2.87 l
3.49 2.86 l
3.49 3.45 l
3.49 2.59 l
3.49 3.84 l
3.50 4.07 l
3.49 1.78 l
3.49 3.46 l
3.49 2.30 l
3.49 3.37 l
3.49 3.40 l
3.49 3.56 l
3.49 2.34 l
3.49 3.16 l
3.49 2.90 l
3.49 2.20 l
3.50 4.86 l
3.49 0.26 l
3.49 1.88 l
3.49 3.01 l
3.49 2.85 l
3.49 2.68 l
3.49 1.91 l
3.49 3.34 l
3.49 4.01 l
3.49 -2.08 l
3.49 7.60 l
3.50 -4.09 l
3.49 -2.66 l
3.49 8.88 l
3.49 2.84 l
3.49 6.12 l
3.49 -7.11 l
423.49 395.67 lineto
3.49 -17.70 l
3.49 12.92 l
3.49 8.21 l
3.49 24.51 l
o
1 0.6235 0 srgb
np
74.40 277.04 m
3.49 -61.78 l
3.49 -20.04 l
3.49 -8.23 l
3.49 -15.24 l
3.49 5.26 l
3.50 -8.25 l
3.49 2.33 l
3.49 -17.05 l
3.49 9.71 l
3.49 -5.70 l
3.49 5.16 l
3.49 1.50 l
3.49 5.97 l
3.49 -4.96 l
3.49 4.61 l
3.49 3.09 l
3.50 7.62 l
3.49 6.10 l
3.49 -9.48 l
3.49 -1.87 l
3.49 9.09 l
3.49 -4.36 l
3.49 8.60 l
3.49 -7.20 l
3.49 4.34 l
3.49 4.38 l
3.49 -3.73 l
3.50 -0.23 l
3.49 6.16 l
3.49 -0.27 l
3.49 3.28 l
3.49 -0.33 l
3.49 3.30 l
3.49 -0.82 l
3.49 8.17 l
3.49 0.12 l
3.49 -0.12 l
3.49 5.33 l
3.50 -10.85 l
3.49 9.78 l
3.49 1.07 l
3.49 6.87 l
3.49 1.94 l
3.49 1.31 l
3.49 0.90 l
3.49 4.90 l
3.49 4.03 l
3.49 -0.62 l
3.49 4.47 l
3.50 3.33 l
3.49 1.64 l
3.49 1.93 l
3.49 0.35 l
3.49 2.52 l
3.49 3.69 l
3.49 3.25 l
3.49 1.73 l
3.49 2.86 l
3.49 3.00 l
3.49 0.50 l
3.50 6.03 l
3.49 2.04 l
3.49 3.74 l
3.49 2.54 l
3.49 2.10 l
3.49 4.50 l
3.49 2.43 l
3.49 4.30 l
3.49 3.97 l
3.49 2.23 l
3.49 1.89 l
3.50 4.67 l
3.49 3.36 l
3.49 1.70 l
3.49 4.05 l
3.49 1.85 l
3.49 2.67 l
3.49 4.98 l
3.49 2.61 l
3.49 1.00 l
3.49 4.11 l
3.49 3.42 l
3.50 1.32 l
3.49 4.08 l
3.49 2.24 l
3.49 2.60 l
3.49 0.20 l
3.49 4.45 l
3.49 2.53 l
3.49 2.37 l
3.49 1.04 l
3.49 3.67 l
3.49 -0.23 l
3.50 0.06 l
3.49 2.55 l
3.49 6.77 l
3.49 -1.54 l
3.49 2.67 l
3.49 -5.42 l
423.49 380.73 lineto
3.49 2.58 l
3.49 26.50 l
3.49 11.52 l
o
1 0.7020 0 srgb
np
74.40 273.30 m
3.49 -54.69 l
3.49 -23.01 l
3.49 -5.46 l
3.49 -10.84 l
3.49 -11.98 l
3.50 4.63 l
3.49 -9.01 l
3.49 0.81 l
3.49 1.30 l
3.49 -7.00 l
3.49 -5.44 l
3.49 3.74 l
3.49 12.19 l
3.49 -2.82 l
3.49 3.98 l
3.49 8.12 l
3.50 -0.97 l
3.49 1.07 l
3.49 2.22 l
3.49 -8.78 l
3.49 7.34 l
3.49 0.30 l
3.49 5.51 l
3.49 -14.18 l
3.49 13.09 l
3.49 2.80 l
3.49 8.66 l
3.50 -6.32 l
3.49 4.19 l
3.49 -1.27 l
3.49 -0.26 l
3.49 1.32 l
3.49 3.79 l
3.49 7.42 l
3.49 -3.77 l
3.49 3.16 l
3.49 -3.39 l
3.49 9.17 l
3.50 -0.16 l
3.49 -0.65 l
3.49 5.07 l
3.49 3.04 l
3.49 3.28 l
3.49 4.92 l
3.49 0.71 l
3.49 2.08 l
3.49 -0.39 l
3.49 5.71 l
3.49 2.33 l
3.50 3.88 l
3.49 -0.21 l
3.49 4.57 l
3.49 0.78 l
3.49 4.46 l
3.49 -0.22 l
3.49 3.64 l
3.49 4.11 l
3.49 0.05 l
3.49 5.34 l
3.49 2.38 l
3.50 2.55 l
3.49 2.87 l
3.49 1.24 l
3.49 2.93 l
3.49 5.20 l
3.49 1.44 l
3.49 5.03 l
3.49 2.59 l
3.49 3.30 l
3.49 4.59 l
3.49 2.36 l
3.50 2.49 l
3.49 3.82 l
3.49 1.72 l
3.49 3.41 l
3.49 3.29 l
3.49 2.15 l
3.49 3.98 l
3.49 3.75 l
3.49 3.06 l
3.49 1.00 l
3.49 3.39 l
3.50 2.72 l
3.49 2.02 l
3.49 3.33 l
3.49 4.86 l
3.49 0.26 l
3.49 3.14 l
3.49 2.90 l
3.49 2.60 l
3.49 3.58 l
3.49 0.54 l
3.49 5.09 l
3.50 -5.30 l
3.49 4.16 l
3.49 6.81 l
3.49 -5.64 l
3.49 4.33 l
3.49 -9.71 l
423.49 359.53 lineto
3.49 18.07 l
o
1 0.7804 0 srgb
np
74.40 272.59 m
3.49 -67.91 l
3.49 -19.32 l
3.49 -0.77 l
3.49 -5.44 l
3.49 -7.86 l
3.50 -1.24 l
3.49 -7.48 l
3.49 1.45 l
3.49 -11.68 l
3.49 1.70 l
3.49 -8.95 l
3.49 12.96 l
3.49 3.00 l
3.49 12.37 l
3.49 -19.76 l
3.49 24.73 l
3.50 -3.64 l
3.49 7.30 l
3.49 1.67 l
3.49 -3.63 l
3.49 4.05 l
3.49 -2.82 l
3.49 2.69 l
3.49 1.90 l
3.49 4.33 l
3.49 -1.58 l
3.49 1.11 l
3.50 -5.43 l
3.49 7.70 l
3.49 -1.63 l
3.49 2.04 l
3.49 -0.25 l
3.49 4.10 l
3.49 -0.29 l
3.49 6.37 l
3.49 -3.27 l
3.49 4.07 l
3.49 5.34 l
3.50 0.24 l
3.49 4.30 l
3.49 -5.65 l
3.49 9.03 l
3.49 1.26 l
3.49 -1.95 l
3.49 14.26 l
3.49 -4.28 l
3.49 1.46 l
3.49 2.56 l
3.49 3.18 l
3.50 2.74 l
3.49 4.32 l
3.49 4.53 l
3.49 -1.80 l
3.49 2.06 l
3.49 3.33 l
3.49 3.81 l
3.49 0.17 l
3.49 5.39 l
3.49 3.69 l
3.49 -0.15 l
3.50 3.22 l
3.49 3.17 l
3.49 2.88 l
3.49 0.14 l
3.49 6.36 l
3.49 2.47 l
3.49 4.52 l
3.49 1.30 l
3.49 4.32 l
3.49 2.65 l
3.49 3.05 l
3.50 4.25 l
3.49 1.05 l
3.49 3.43 l
3.49 4.76 l
3.49 1.51 l
3.49 3.91 l
3.49 2.91 l
3.49 1.08 l
3.49 4.79 l
3.49 4.00 l
3.49 1.56 l
3.50 3.03 l
3.49 2.93 l
3.49 1.94 l
3.49 3.69 l
3.49 0.96 l
3.49 3.96 l
3.49 -0.05 l
3.49 0.92 l
3.49 3.79 l
3.49 2.64 l
3.49 4.24 l
3.50 -4.50 l
3.49 6.52 l
3.49 7.83 l
3.49 -12.75 l
3.49 3.04 l
3.49 9.91 l
423.49 381.55 lineto
3.49 -37.93 l
3.49 29.77 l
3.49 28.28 l
o
1 0.8588 0 srgb
np
74.40 271.42 m
3.49 -63.81 l
3.49 -16.20 l
3.49 -14.67 l
3.49 -8.81 l
3.49 7.05 l
3.50 1.65 l
3.49 -4.88 l
3.49 -18.48 l
3.49 8.55 l
3.49 -2.60 l
3.49 -2.29 l
3.49 -8.05 l
3.49 9.17 l
3.49 3.00 l
3.49 2.52 l
3.49 14.87 l
3.50 -0.73 l
3.49 5.41 l
3.49 -10.71 l
3.49 8.54 l
3.49 -0.09 l
3.49 -10.74 l
3.49 6.57 l
3.49 0.27 l
3.49 1.64 l
3.49 -2.81 l
3.49 8.30 l
3.50 3.42 l
3.49 2.09 l
3.49 -1.55 l
3.49 2.91 l
3.49 2.42 l
3.49 3.08 l
3.49 3.84 l
3.49 -5.00 l
3.49 12.71 l
3.49 -2.80 l
3.49 1.40 l
3.50 2.40 l
3.49 -1.13 l
3.49 9.48 l
3.49 -3.87 l
3.49 3.41 l
3.49 4.06 l
3.49 2.33 l
3.49 1.29 l
3.49 2.50 l
3.49 6.81 l
3.49 -0.34 l
3.50 2.12 l
3.49 3.77 l
3.49 0.41 l
3.49 2.59 l
3.49 2.67 l
3.49 2.73 l
3.49 2.93 l
3.49 1.11 l
3.49 3.50 l
3.49 3.93 l
3.49 1.12 l
3.50 3.48 l
3.49 3.53 l
3.49 1.47 l
3.49 2.54 l
3.49 3.15 l
3.49 3.79 l
3.49 5.12 l
3.49 1.19 l
3.49 2.44 l
3.49 2.86 l
3.49 4.92 l
3.50 4.07 l
3.49 1.99 l
3.49 3.00 l
3.49 4.66 l
3.49 1.51 l
3.49 3.44 l
3.49 3.63 l
3.49 1.76 l
3.49 3.53 l
3.49 2.76 l
3.49 4.50 l
3.50 0.90 l
3.49 2.32 l
3.49 5.18 l
3.49 0.23 l
3.49 5.06 l
3.49 1.06 l
3.49 2.07 l
3.49 3.35 l
3.49 2.45 l
3.49 -2.23 l
3.49 3.80 l
3.50 -1.05 l
3.49 4.21 l
3.49 -7.92 l
3.49 10.15 l
3.49 -2.00 l
3.49 3.05 l
423.49 364.94 lineto
3.49 -28.45 l
3.49 27.16 l
3.49 -5.79 l
o
1 0.9333 0 srgb
np
74.40 275.08 m
3.49 -65.53 l
3.49 -19.01 l
3.49 -9.12 l
3.49 -3.13 l
3.49 -3.31 l
3.50 -3.16 l
3.49 -8.25 l
3.49 3.75 l
3.49 -1.60 l
3.49 -1.70 l
3.49 -4.69 l
3.49 1.42 l
3.49 3.09 l
3.49 -1.27 l
3.49 -0.37 l
3.49 12.78 l
3.50 -9.18 l
3.49 14.58 l
3.49 -5.57 l
3.49 0.41 l
3.49 1.85 l
3.49 2.23 l
3.49 5.62 l
3.49 -2.78 l
3.49 1.91 l
3.49 -6.39 l
3.49 2.77 l
3.50 2.29 l
3.49 5.44 l
3.49 -5.04 l
3.49 7.58 l
3.49 8.57 l
3.49 -0.97 l
3.49 5.71 l
3.49 -5.00 l
3.49 9.95 l
3.49 -0.89 l
3.49 -2.54 l
3.50 6.57 l
3.49 1.28 l
3.49 -1.17 l
3.49 6.94 l
3.49 -8.14 l
3.49 5.97 l
3.49 2.87 l
3.49 4.61 l
3.49 0.97 l
3.49 2.62 l
3.49 6.14 l
3.50 2.84 l
3.49 -0.37 l
3.49 3.08 l
3.49 3.59 l
3.49 1.13 l
3.49 4.45 l
3.49 0.02 l
3.49 5.21 l
3.49 -0.09 l
3.49 5.34 l
3.49 4.56 l
3.50 1.70 l
3.49 1.61 l
3.49 3.03 l
3.49 5.00 l
3.49 1.22 l
3.49 3.81 l
3.49 3.21 l
3.49 3.12 l
3.49 2.76 l
3.49 4.26 l
3.49 2.19 l
3.50 4.27 l
3.49 3.09 l
3.49 2.95 l
3.49 3.68 l
3.49 1.91 l
3.49 5.24 l
3.49 1.53 l
3.49 3.45 l
3.49 3.68 l
3.49 2.45 l
3.49 3.02 l
3.50 4.36 l
3.49 1.20 l
3.49 2.22 l
3.49 3.39 l
3.49 2.95 l
3.49 0.76 l
3.49 2.80 l
3.49 6.83 l
3.49 -1.29 l
3.49 2.91 l
3.49 2.24 l
3.50 3.87 l
3.49 -1.44 l
3.49 0.29 l
3.49 8.27 l
3.49 -8.56 l
3.49 16.64 l
423.49 350.51 lineto
3.49 0.62 l
3.49 22.95 l
3.49 4.42 l
3.49 11.49 l
o
0.9882 1 0 srgb
np
74.40 274.37 m
3.49 -70.12 l
3.49 -17.04 l
3.49 -1.26 l
3.49 -5.24 l
3.49 -4.69 l
3.50 -8.01 l
3.49 -2.79 l
3.49 -0.51 l
3.49 -2.70 l
3.49 -5.78 l
3.49 7.79 l
3.49 -7.32 l
3.49 11.31 l
3.49 -14.10 l
3.49 18.94 l
3.49 0.38 l
3.50 6.96 l
3.49 -3.78 l
3.49 4.63 l
3.49 -4.57 l
3.49 -2.99 l
3.49 2.71 l
3.49 -1.32 l
3.49 -3.45 l
3.49 19.15 l
3.49 -8.02 l
3.49 3.40 l
3.50 -0.11 l
3.49 5.25 l
3.49 0.95 l
3.49 1.64 l
3.49 2.03 l
3.49 0.62 l
3.49 -1.51 l
3.49 1.38 l
3.49 6.79 l
3.49 -0.65 l
3.49 -0.96 l
3.50 4.73 l
3.49 4.64 l
3.49 7.69 l
3.49 -2.85 l
3.49 1.92 l
3.49 1.69 l
3.49 -2.89 l
3.49 5.48 l
3.49 1.87 l
3.49 9.03 l
3.49 -1.19 l
3.50 2.82 l
3.49 3.02 l
3.49 1.93 l
3.49 3.68 l
3.49 2.44 l
3.49 -0.36 l
3.49 4.14 l
3.49 2.71 l
3.49 2.11 l
3.49 2.97 l
3.49 3.50 l
3.50 3.83 l
3.49 3.31 l
3.49 2.02 l
3.49 3.02 l
3.49 3.35 l
3.49 4.64 l
3.49 2.16 l
3.49 0.89 l
3.49 4.79 l
3.49 1.60 l
3.49 5.33 l
3.50 1.46 l
3.49 4.23 l
3.49 3.25 l
3.49 2.38 l
3.49 4.00 l
3.49 3.13 l
3.49 2.13 l
3.49 4.01 l
3.49 3.11 l
3.49 2.49 l
3.49 2.88 l
3.50 3.28 l
3.49 3.24 l
3.49 1.16 l
3.49 4.17 l
3.49 2.78 l
3.49 0.27 l
3.49 3.11 l
3.49 0.71 l
3.49 1.90 l
3.49 6.10 l
3.49 0.10 l
3.50 1.74 l
3.49 1.47 l
3.49 6.11 l
3.49 2.61 l
3.49 -2.22 l
3.49 0.41 l
423.49 371.48 lineto
3.49 6.76 l
3.49 1.40 l
3.49 10.05 l
3.49 18.23 l
3.50 23.28 l
o
0.9098 1 0 srgb
np
74.40 272.18 m
3.49 -65.65 l
3.49 -15.34 l
3.49 -15.86 l
3.49 6.63 l
3.49 -7.81 l
3.50 0.24 l
3.49 -11.82 l
3.49 1.53 l
3.49 -2.86 l
3.49 -4.43 l
3.49 5.76 l
3.49 -9.96 l
3.49 -3.58 l
3.49 17.10 l
3.49 4.20 l
3.49 -2.93 l
3.50 9.72 l
3.49 1.93 l
3.49 -1.87 l
3.49 -5.56 l
3.49 5.66 l
3.49 -1.95 l
3.49 4.17 l
3.49 4.38 l
3.49 -3.50 l
3.49 -4.59 l
3.49 9.93 l
3.50 -4.35 l
3.49 -0.85 l
3.49 12.26 l
3.49 -4.51 l
3.49 1.53 l
3.49 8.72 l
3.49 1.60 l
3.49 -7.92 l
3.49 2.82 l
3.49 11.20 l
3.49 -9.55 l
3.50 11.06 l
3.49 3.47 l
3.49 -2.78 l
3.49 8.13 l
3.49 3.97 l
3.49 0.94 l
3.49 -1.09 l
3.49 0.60 l
3.49 3.99 l
3.49 2.89 l
3.49 5.53 l
3.50 1.04 l
3.49 -0.16 l
3.49 5.27 l
3.49 4.43 l
3.49 3.58 l
3.49 -0.02 l
3.49 4.30 l
3.49 0.80 l
3.49 2.55 l
3.49 2.81 l
3.49 3.46 l
3.50 3.68 l
3.49 1.25 l
3.49 3.45 l
3.49 2.73 l
3.49 4.32 l
3.49 2.72 l
3.49 1.69 l
3.49 3.47 l
3.49 3.43 l
3.49 3.29 l
3.49 3.21 l
3.50 3.99 l
3.49 2.57 l
3.49 2.49 l
3.49 2.94 l
3.49 3.31 l
3.49 3.17 l
3.49 3.11 l
3.49 3.01 l
3.49 3.62 l
3.49 3.09 l
3.49 3.03 l
3.50 1.41 l
3.49 3.31 l
3.49 2.29 l
3.49 2.70 l
3.49 1.04 l
3.49 3.87 l
3.49 2.90 l
3.49 0.59 l
3.49 0.03 l
3.49 8.80 l
3.49 -2.44 l
3.50 2.89 l
3.49 0.56 l
3.49 1.32 l
3.49 3.62 l
3.49 -0.38 l
3.49 -2.86 l
423.49 367.29 lineto
3.49 -7.08 l
3.49 4.48 l
3.49 5.69 l
3.49 7.84 l
o
0.8314 1 0 srgb
np
74.40 276.91 m
3.49 -74.49 l
3.49 -13.03 l
3.49 -16.47 l
3.49 7.56 l
3.49 -7.00 l
3.50 1.62 l
3.49 -12.07 l
3.49 10.57 l
3.49 -15.77 l
3.49 9.02 l
3.49 -0.48 l
3.49 -14.72 l
3.49 6.61 l
3.49 14.40 l
3.49 5.16 l
3.49 -0.32 l
3.50 -5.29 l
3.49 8.88 l
3.49 -0.19 l
3.49 1.51 l
3.49 -11.66 l
3.49 5.83 l
3.49 6.36 l
3.49 -5.82 l
3.49 -2.14 l
3.49 5.45 l
3.49 4.20 l
3.50 -15.51 l
3.49 14.72 l
3.49 1.36 l
3.49 3.74 l
3.49 1.13 l
3.49 -4.20 l
3.49 4.57 l
3.49 10.77 l
3.49 1.40 l
3.49 -0.27 l
3.49 -1.09 l
3.50 5.45 l
3.49 0.87 l
3.49 6.28 l
3.49 1.78 l
3.49 4.05 l
3.49 0.60 l
3.49 3.41 l
3.49 0.77 l
3.49 2.91 l
3.49 1.87 l
3.49 2.27 l
3.50 3.32 l
3.49 4.47 l
3.49 1.51 l
3.49 2.58 l
3.49 0.31 l
3.49 2.60 l
3.49 4.11 l
3.49 2.62 l
3.49 2.04 l
3.49 2.93 l
3.49 3.05 l
3.50 2.49 l
3.49 2.78 l
3.49 2.36 l
3.49 2.87 l
3.49 5.15 l
3.49 2.67 l
3.49 2.73 l
3.49 3.36 l
3.49 2.75 l
3.49 3.14 l
3.49 3.62 l
3.50 3.26 l
3.49 1.79 l
3.49 4.88 l
3.49 2.89 l
3.49 3.64 l
3.49 2.48 l
3.49 2.12 l
3.49 2.70 l
3.49 4.14 l
3.49 2.00 l
3.49 3.70 l
3.50 2.92 l
3.49 0.99 l
3.49 4.34 l
3.49 2.76 l
3.49 0.65 l
3.49 2.92 l
3.49 2.31 l
3.49 4.25 l
3.49 0.25 l
3.49 1.08 l
3.49 4.27 l
3.50 1.44 l
3.49 5.00 l
3.49 -0.40 l
3.49 -14.10 l
3.49 20.56 l
3.49 -9.78 l
423.49 365.10 lineto
3.49 2.92 l
3.49 6.82 l
3.49 2.81 l
3.49 13.19 l
3.50 40.36 l
o
0.7529 1 0 srgb
np
74.40 274.55 m
3.49 -77.10 l
3.49 -10.92 l
3.49 -5.39 l
3.49 -11.37 l
3.49 2.70 l
3.50 -11.42 l
3.49 1.71 l
3.49 2.79 l
3.49 -8.28 l
3.49 4.55 l
3.49 1.84 l
3.49 -0.45 l
3.49 0.54 l
3.49 -0.72 l
3.49 1.94 l
3.49 12.85 l
3.50 -0.97 l
3.49 0.70 l
3.49 7.93 l
3.49 -8.25 l
3.49 -8.25 l
3.49 8.89 l
3.49 5.59 l
3.49 -2.51 l
3.49 -2.15 l
3.49 5.17 l
3.49 -5.22 l
3.50 8.76 l
3.49 0.44 l
3.49 -6.49 l
3.49 8.34 l
3.49 -2.04 l
3.49 2.38 l
3.49 2.79 l
3.49 6.46 l
3.49 0.17 l
3.49 7.23 l
3.49 -5.34 l
3.50 4.38 l
3.49 3.67 l
3.49 2.87 l
3.49 0.20 l
3.49 1.88 l
3.49 8.85 l
3.49 -1.74 l
3.49 5.64 l
3.49 -6.23 l
3.49 4.93 l
3.49 5.86 l
3.50 2.10 l
3.49 5.50 l
3.49 1.43 l
3.49 1.12 l
3.49 3.33 l
3.49 0.05 l
3.49 3.19 l
3.49 2.97 l
3.49 3.04 l
3.49 3.96 l
3.49 0.94 l
3.50 2.37 l
3.49 3.90 l
3.49 3.16 l
3.49 4.74 l
3.49 0.37 l
3.49 5.04 l
3.49 2.27 l
3.49 3.30 l
3.49 3.27 l
3.49 2.83 l
3.49 3.30 l
3.50 3.86 l
3.49 2.86 l
3.49 3.97 l
3.49 3.15 l
3.49 1.12 l
3.49 4.08 l
3.49 3.11 l
3.49 3.30 l
3.49 1.73 l
3.49 4.78 l
3.49 0.59 l
3.50 3.91 l
3.49 3.04 l
3.49 2.73 l
3.49 2.30 l
3.49 2.31 l
3.49 2.30 l
3.49 1.32 l
3.49 1.84 l
3.49 2.85 l
3.49 5.92 l
3.49 -2.20 l
3.50 3.24 l
3.49 -2.86 l
3.49 3.15 l
3.49 2.97 l
3.49 4.26 l
3.49 1.62 l
423.49 361.36 lineto
3.49 10.51 l
3.49 -4.59 l
3.49 0.55 l
3.49 -11.35 l
o
0.6745 1 0 srgb
np
74.40 275.36 m
3.49 -73.32 l
3.49 -14.79 l
3.49 -10.84 l
3.49 -4.20 l
3.49 -1.33 l
3.50 6.35 l
3.49 -21.35 l
3.49 -3.41 l
3.49 4.91 l
3.49 4.06 l
3.49 -6.53 l
3.49 3.89 l
3.49 2.05 l
3.49 6.93 l
3.49 -6.93 l
3.49 7.83 l
3.50 9.19 l
3.49 5.85 l
3.49 -1.71 l
3.49 -2.41 l
3.49 4.12 l
3.49 -0.65 l
3.49 -0.08 l
3.49 -7.83 l
3.49 0.35 l
3.49 1.67 l
3.49 -2.14 l
3.50 2.83 l
3.49 8.32 l
3.49 -7.80 l
3.49 7.76 l
3.49 7.08 l
3.49 3.18 l
3.49 -2.59 l
3.49 4.33 l
3.49 6.26 l
3.49 0.70 l
3.49 -3.01 l
3.50 7.11 l
3.49 -3.03 l
3.49 5.89 l
3.49 -2.68 l
3.49 6.81 l
3.49 4.50 l
3.49 4.73 l
3.49 -0.30 l
3.49 3.00 l
3.49 0.49 l
3.49 3.44 l
3.50 -1.19 l
3.49 3.26 l
3.49 7.50 l
3.49 -1.10 l
3.49 2.92 l
3.49 4.13 l
3.49 1.62 l
3.49 2.34 l
3.49 4.80 l
3.49 0.65 l
3.49 3.47 l
3.50 3.21 l
3.49 1.95 l
3.49 3.44 l
3.49 2.46 l
3.49 3.32 l
3.49 3.41 l
3.49 3.37 l
3.49 4.11 l
3.49 2.71 l
3.49 3.35 l
3.49 2.89 l
3.50 3.01 l
3.49 2.65 l
3.49 3.70 l
3.49 2.82 l
3.49 1.82 l
3.49 4.08 l
3.49 3.29 l
3.49 2.33 l
3.49 3.47 l
3.49 3.77 l
3.49 2.07 l
3.50 2.87 l
3.49 2.83 l
3.49 2.43 l
3.49 1.57 l
3.49 4.62 l
3.49 2.74 l
3.49 2.49 l
3.49 -0.30 l
3.49 3.64 l
3.49 3.26 l
3.49 -0.25 l
3.50 -5.07 l
3.49 9.72 l
3.49 3.96 l
3.49 -4.58 l
3.49 5.87 l
3.49 1.13 l
423.49 365.94 lineto
3.49 17.69 l
3.49 9.77 l
3.49 9.43 l
3.49 6.19 l
3.50 -1.01 l
3.49 23.19 l
o
0.5961 1 0 srgb
np
74.40 274.77 m
3.49 -82.54 l
3.49 -10.18 l
3.49 3.63 l
3.49 -13.40 l
3.49 -7.83 l
3.50 -2.44 l
3.49 4.68 l
3.49 -17.35 l
3.49 10.40 l
3.49 -2.36 l
3.49 0 l
3.49 3.27 l
3.49 -7.91 l
3.49 8.21 l
3.49 17.49 l
3.49 4.46 l
3.50 -6.60 l
3.49 8.29 l
3.49 -8.29 l
3.49 5.21 l
3.49 -6.64 l
3.49 7.32 l
3.49 -2.79 l
3.49 1.22 l
3.49 -0.19 l
3.49 8.09 l
3.49 -8.14 l
3.50 6.34 l
3.49 3.69 l
3.49 -0.85 l
3.49 -4.32 l
3.49 5.53 l
3.49 -2.11 l
3.49 8.27 l
3.49 1.81 l
3.49 3.15 l
3.49 1.70 l
3.49 -1.49 l
3.50 3.99 l
3.49 4.64 l
3.49 0.51 l
3.49 0.28 l
3.49 3.20 l
3.49 5.77 l
3.49 5.94 l
3.49 2.78 l
3.49 -4.27 l
3.49 10.61 l
3.49 -5.46 l
3.50 2.96 l
3.49 3.41 l
3.49 2.15 l
3.49 5.15 l
3.49 0.20 l
3.49 3.25 l
3.49 2.09 l
3.49 4.64 l
3.49 1.27 l
3.49 3.92 l
3.49 1.40 l
3.50 3.30 l
3.49 2.22 l
3.49 3.52 l
3.49 4.65 l
3.49 1.12 l
3.49 3.91 l
3.49 1.71 l
3.49 4.61 l
3.49 2.99 l
3.49 3.50 l
3.49 4.40 l
3.50 1.15 l
3.49 2.61 l
3.49 4.38 l
3.49 4.17 l
3.49 2.90 l
3.49 3.30 l
3.49 0.65 l
3.49 5.29 l
3.49 2.33 l
3.49 2.80 l
3.49 4.76 l
3.50 1.29 l
3.49 3.28 l
3.49 3.49 l
3.49 0.03 l
3.49 2.92 l
3.49 3.58 l
3.49 2.61 l
3.49 0.26 l
3.49 2.64 l
3.49 2.86 l
3.49 -1.09 l
3.50 5.54 l
3.49 -0.07 l
3.49 10.70 l
3.49 -5.62 l
3.49 7.90 l
3.49 -3.81 l
423.49 362.24 lineto
3.49 29.33 l
3.49 -24.01 l
3.49 17.22 l
o
0.5176 1 0 srgb
np
74.40 276.10 m
3.49 -70.88 l
3.49 -19.19 l
3.49 -3.26 l
3.49 -6.92 l
3.49 -9.56 l
3.50 -0.57 l
3.49 6.23 l
3.49 -9.38 l
3.49 1.62 l
3.49 -6.03 l
3.49 -2.40 l
3.49 -1.59 l
3.49 2.30 l
3.49 4.97 l
3.49 14.30 l
3.49 -3.59 l
3.50 9.72 l
3.49 2.93 l
3.49 -8.78 l
3.49 5.67 l
3.49 -2.29 l
3.49 1.41 l
3.49 -0.29 l
3.49 3.74 l
3.49 3.54 l
3.49 -0.74 l
3.49 -1.30 l
3.50 -12.16 l
3.49 16.13 l
3.49 -0.44 l
3.49 2.15 l
3.49 -3.97 l
3.49 2.74 l
3.49 2.57 l
3.49 8.02 l
3.49 -4.08 l
3.49 -0.47 l
3.49 10.08 l
3.50 2.73 l
3.49 3.15 l
3.49 1.49 l
3.49 1.25 l
3.49 2.21 l
3.49 4.80 l
3.49 4.03 l
3.49 -1.30 l
3.49 5.77 l
3.49 -0.48 l
3.49 4.85 l
3.50 -3.31 l
3.49 7.50 l
3.49 2.14 l
3.49 3.44 l
3.49 -1.08 l
3.49 5.93 l
3.49 1.90 l
3.49 2.97 l
3.49 1.05 l
3.49 5.02 l
3.49 2.39 l
3.50 2.93 l
3.49 1.47 l
3.49 4.77 l
3.49 2.29 l
3.49 3.20 l
3.49 2.44 l
3.49 4.22 l
3.49 2.32 l
3.49 2.93 l
3.49 3.99 l
3.49 2.41 l
3.50 3.46 l
3.49 4.27 l
3.49 2.64 l
3.49 2.68 l
3.49 2.17 l
3.49 3.24 l
3.49 2.34 l
3.49 3.90 l
3.49 1.91 l
3.49 2.94 l
3.49 3.06 l
3.50 3.48 l
3.49 2.36 l
3.49 2.79 l
3.49 2.58 l
3.49 2.50 l
3.49 1.37 l
3.49 3.30 l
3.49 1.02 l
3.49 1.96 l
3.49 1.41 l
3.49 6.84 l
3.50 -0.42 l
3.49 1.52 l
3.49 3.67 l
3.49 -2.59 l
3.49 4.42 l
3.49 -4.13 l
423.49 365.38 lineto
3.49 13.71 l
3.49 -9.56 l
3.49 9.63 l
3.49 16.83 l
o
0.4431 1 0 srgb
np
74.40 274.25 m
3.49 -76.00 l
3.49 -15.18 l
3.49 -6.77 l
3.49 3.10 l
3.49 -14.10 l
3.50 7.99 l
3.49 -10.08 l
3.49 -6.17 l
3.49 -5.39 l
3.49 2.26 l
3.49 17.38 l
3.49 -15.41 l
3.49 8.14 l
3.49 1.37 l
3.49 1.62 l
3.49 9.46 l
3.50 8.69 l
3.49 -3.79 l
3.49 4.85 l
3.49 -7.02 l
3.49 2.49 l
3.49 -3.40 l
3.49 0.36 l
3.49 -3.26 l
3.49 7.81 l
3.49 2.64 l
3.49 -4.61 l
3.50 2.06 l
3.49 3.20 l
3.49 4.41 l
3.49 3.47 l
3.49 1.93 l
3.49 -2.01 l
3.49 -9.45 l
3.49 11.99 l
3.49 8.05 l
3.49 3.45 l
3.49 -2.18 l
3.50 -2.71 l
3.49 5.20 l
3.49 3.19 l
3.49 -1.67 l
3.49 6.81 l
3.49 6.23 l
3.49 1.11 l
3.49 2.63 l
3.49 1.84 l
3.49 4.17 l
3.49 -0.05 l
3.50 7.99 l
3.49 0.85 l
3.49 0.78 l
3.49 0.02 l
3.49 0.25 l
3.49 9.82 l
3.49 -1.07 l
3.49 1.44 l
3.49 3.45 l
3.49 1.45 l
3.49 5.54 l
3.50 3.44 l
3.49 0.22 l
3.49 4.91 l
3.49 2.27 l
3.49 4.20 l
3.49 0.78 l
3.49 3.21 l
3.49 5.55 l
3.49 1.25 l
3.49 4.26 l
3.49 3.81 l
3.50 2.24 l
3.49 3.12 l
3.49 2.76 l
3.49 4.68 l
3.49 2.83 l
3.49 1.97 l
3.49 3.68 l
3.49 1.32 l
3.49 4.86 l
3.49 1.57 l
3.49 3.16 l
3.50 2.34 l
3.49 1.95 l
3.49 4.41 l
3.49 2.31 l
3.49 2.73 l
3.49 1.60 l
3.49 2.08 l
3.49 2.32 l
3.49 4.97 l
3.49 1.08 l
3.49 0.87 l
3.50 1.15 l
3.49 -0.84 l
3.49 3.14 l
3.49 5.46 l
3.49 9.23 l
3.49 -3.80 l
423.49 370.02 lineto
3.49 -37.19 l
3.49 25.73 l
3.49 3.94 l
o
0.3647 1 0 srgb
np
74.40 273.02 m
3.49 -75.27 l
3.49 -10.28 l
3.49 -9.39 l
3.49 -7.40 l
3.49 5.62 l
3.50 -16.15 l
3.49 13.14 l
3.49 -8.75 l
3.49 0.26 l
3.49 -2.23 l
3.49 -8.53 l
3.49 -3.67 l
3.49 8.64 l
3.49 3.84 l
3.49 8.37 l
3.49 5.74 l
3.50 -1.22 l
3.49 0.11 l
3.49 -2.06 l
3.49 8.53 l
3.49 -3.67 l
3.49 0.20 l
3.49 1.72 l
3.49 -4.27 l
3.49 11.10 l
3.49 -12.18 l
3.49 4.23 l
3.50 4.98 l
3.49 -3.91 l
3.49 1.40 l
3.49 5.59 l
3.49 3.03 l
3.49 3.80 l
3.49 2.57 l
3.49 -2.09 l
3.49 0.64 l
3.49 12.08 l
3.49 -4.49 l
3.50 2.87 l
3.49 0.56 l
3.49 6.73 l
3.49 2.72 l
3.49 1.11 l
3.49 1.97 l
3.49 4.85 l
3.49 2.63 l
3.49 1.96 l
3.49 6.81 l
3.49 -1.81 l
3.50 4.51 l
3.49 3.11 l
3.49 -2.11 l
3.49 1.02 l
3.49 8.29 l
3.49 -0.41 l
3.49 3.81 l
3.49 0.78 l
3.49 4.30 l
3.49 2.29 l
3.49 2.45 l
3.50 3.71 l
3.49 1.45 l
3.49 3.35 l
3.49 2.99 l
3.49 4.73 l
3.49 1.96 l
3.49 3.62 l
3.49 3.36 l
3.49 3.21 l
3.49 1.59 l
3.49 3.79 l
3.50 4.22 l
3.49 2.27 l
3.49 3.09 l
3.49 4.54 l
3.49 1.65 l
3.49 3.77 l
3.49 2.15 l
3.49 2.71 l
3.49 4.22 l
3.49 2.30 l
3.49 1.65 l
3.50 3.78 l
3.49 2.51 l
3.49 1.58 l
3.49 3.17 l
3.49 2.69 l
3.49 0.89 l
3.49 4.18 l
3.49 0.70 l
3.49 3.11 l
3.49 3.68 l
3.49 1.48 l
3.50 0.69 l
3.49 4.14 l
3.49 0.85 l
3.49 -0.81 l
3.49 -4.74 l
3.49 5.13 l
423.49 347.20 lineto
3.49 21.23 l
3.49 13.52 l
3.49 4.84 l
3.49 8.89 l
3.50 26.37 l
o
0.2863 1 0 srgb
np
74.40 273.50 m
3.49 -78.04 l
3.49 -20.42 l
3.49 -1.75 l
3.49 0.50 l
3.49 0.78 l
3.50 -5.74 l
3.49 -4.73 l
3.49 -0.08 l
3.49 -19.65 l
3.49 14.43 l
3.49 -1.08 l
3.49 -3.68 l
3.49 13.89 l
3.49 -8.92 l
3.49 13.14 l
3.49 -3.69 l
3.50 11.09 l
3.49 -1.11 l
3.49 -1.26 l
3.49 -5.69 l
3.49 5.58 l
3.49 -7.87 l
3.49 11.98 l
3.49 -1.68 l
3.49 -4.46 l
3.49 2.51 l
3.49 4.50 l
3.50 2.83 l
3.49 -7.06 l
3.49 4.86 l
3.49 6.71 l
3.49 -4.47 l
3.49 0.48 l
3.49 6.17 l
3.49 0.54 l
3.49 8.78 l
3.49 3.00 l
3.49 -4.10 l
3.50 6.60 l
3.49 -1.32 l
3.49 4.14 l
3.49 7.14 l
3.49 2.28 l
3.49 2.66 l
3.49 0.26 l
3.49 4.69 l
3.49 5.02 l
3.49 2.42 l
3.49 0.47 l
3.50 5.11 l
3.49 -0.12 l
3.49 2.33 l
3.49 0.53 l
3.49 6.56 l
3.49 -2.67 l
3.49 3.25 l
3.49 2.74 l
3.49 2.39 l
3.49 4.18 l
3.49 3.54 l
3.50 1.86 l
3.49 3.87 l
3.49 2.55 l
3.49 3.41 l
3.49 2.09 l
3.49 1.85 l
3.49 4.12 l
3.49 3.40 l
3.49 1.98 l
3.49 5.89 l
3.49 1.04 l
3.50 3.29 l
3.49 3.76 l
3.49 1.94 l
3.49 4.10 l
3.49 2.25 l
3.49 4.33 l
3.49 2.50 l
3.49 3.63 l
3.49 1.17 l
3.49 5.08 l
3.49 2.84 l
3.50 0.84 l
3.49 4.00 l
3.49 2.71 l
3.49 0.40 l
3.49 3.13 l
3.49 4.60 l
3.49 0.54 l
3.49 2.47 l
3.49 0.71 l
3.49 5.50 l
3.49 0.51 l
3.50 0.69 l
3.49 1.10 l
3.49 2.21 l
3.49 3.13 l
3.49 2.52 l
3.49 5.15 l
423.49 341.92 lineto
3.49 22.29 l
3.49 6.97 l
3.49 7.63 l
3.49 12.39 l
3.50 40.00 l
o
0.2078 1 0 srgb
np
74.40 272.01 m
3.49 -79.56 l
3.49 -13.90 l
3.49 -1.05 l
3.49 0.89 l
3.49 -17.54 l
3.50 5.36 l
3.49 -7.84 l
3.49 -4.59 l
3.49 -8.51 l
3.49 -6.75 l
3.49 10.20 l
3.49 12.33 l
3.49 1.71 l
3.49 -4.71 l
3.49 14.80 l
3.49 4.06 l
3.50 -10.46 l
3.49 6.78 l
3.49 8.82 l
3.49 -2.95 l
3.49 1.14 l
3.49 -2.53 l
3.49 -4.48 l
3.49 -2.69 l
3.49 13.64 l
3.49 -7.77 l
3.49 5.46 l
3.50 -0.41 l
3.49 2.34 l
3.49 2.39 l
3.49 -2.82 l
3.49 3.80 l
3.49 4.87 l
3.49 4.84 l
3.49 -0.93 l
3.49 -9.73 l
3.49 14.72 l
3.49 1.14 l
3.50 -3.07 l
3.49 11.67 l
3.49 0.73 l
3.49 2.75 l
3.49 -0.61 l
3.49 7.38 l
3.49 1.22 l
3.49 2.45 l
3.49 5.48 l
3.49 -0.55 l
3.49 2.63 l
3.50 3.85 l
3.49 2.55 l
3.49 -0.10 l
3.49 7.69 l
3.49 -3.37 l
3.49 2.87 l
3.49 3.78 l
3.49 4.53 l
3.49 4.07 l
3.49 -0.23 l
3.49 3.48 l
3.50 3.61 l
3.49 0.60 l
3.49 4.31 l
3.49 3.65 l
3.49 2.10 l
3.49 3.90 l
3.49 2.54 l
3.49 2.53 l
3.49 3.59 l
3.49 4.15 l
3.49 2.97 l
3.50 2.73 l
3.49 2.77 l
3.49 5.24 l
3.49 1.70 l
3.49 2.73 l
3.49 2.73 l
3.49 3.09 l
3.49 4.59 l
3.49 2.97 l
3.49 2.49 l
3.49 3.11 l
3.50 2.89 l
3.49 2.65 l
3.49 0.99 l
3.49 3.23 l
3.49 4.00 l
3.49 1.14 l
3.49 3.03 l
3.49 1.74 l
3.49 0.75 l
3.49 0.73 l
3.49 6.38 l
3.50 1.31 l
3.49 3.57 l
3.49 -3.04 l
3.49 -2.04 l
3.49 6.83 l
3.49 -10.59 l
423.49 363.69 lineto
3.49 4.16 l
3.49 -10.11 l
3.49 4.62 l
3.49 14.10 l
o
0.1294 1 0 srgb
np
74.40 273.44 m
3.49 -82.74 l
3.49 -13.58 l
3.49 -2.43 l
3.49 -2.28 l
3.49 -7.87 l
3.50 1.75 l
3.49 3.34 l
3.49 -11.26 l
3.49 -4.59 l
3.49 -11.09 l
3.49 -7.78 l
3.49 8.35 l
3.49 12.62 l
3.49 16.85 l
3.49 -8.63 l
3.49 10.47 l
3.50 4.48 l
3.49 1.04 l
3.49 -13.16 l
3.49 5.73 l
3.49 -2.19 l
3.49 -2.38 l
3.49 6.95 l
3.49 3.04 l
3.49 0.87 l
3.49 5.27 l
3.49 -3.70 l
3.50 -5.65 l
3.49 7.18 l
3.49 1.24 l
3.49 -1.24 l
3.49 3.27 l
3.49 5.22 l
3.49 3.08 l
3.49 -0.72 l
3.49 4.55 l
3.49 0.02 l
3.49 2.23 l
3.50 5.35 l
3.49 3.23 l
3.49 7.27 l
3.49 1.81 l
3.49 0.45 l
3.49 2.49 l
3.49 0.86 l
3.49 7.95 l
3.49 0.10 l
3.49 -1.26 l
3.49 4.26 l
3.50 4.78 l
3.49 0.40 l
3.49 5.81 l
3.49 -0.93 l
3.49 7.93 l
3.49 -7.34 l
3.49 7.43 l
3.49 2.53 l
3.49 0.19 l
3.49 7.17 l
3.49 0.52 l
3.50 5.44 l
3.49 0.19 l
3.49 1.72 l
3.49 5.40 l
3.49 2.33 l
3.49 2.85 l
3.49 3.46 l
3.49 2.32 l
3.49 4.76 l
3.49 2.86 l
3.49 3.58 l
3.50 2.74 l
3.49 3.09 l
3.49 3.89 l
3.49 2.15 l
3.49 3.42 l
3.49 3.53 l
3.49 2.71 l
3.49 3.16 l
3.49 3.69 l
3.49 1.51 l
3.49 3.78 l
3.50 2.79 l
3.49 3.46 l
3.49 1.32 l
3.49 2.82 l
3.49 4.41 l
3.49 1.46 l
3.49 1.14 l
3.49 0.98 l
3.49 3.42 l
3.49 3.21 l
3.49 1.41 l
3.50 4.55 l
3.49 -1.68 l
3.49 -0.56 l
3.49 4.59 l
3.49 3.99 l
3.49 -9.15 l
423.49 368.07 lineto
3.49 -11.49 l
3.49 15.64 l
3.49 3.41 l
3.49 9.70 l
3.50 37.15 l
o
0.0510 1 0 srgb
np
74.40 272.29 m
3.49 -90.10 l
3.49 -2.05 l
3.49 -7.67 l
3.49 -3.20 l
3.49 1.13 l
3.50 -3.39 l
3.49 -6.16 l
3.49 -6.94 l
3.49 4.46 l
3.49 -10.59 l
3.49 12.37 l
3.49 -4.63 l
3.49 1.52 l
3.49 -10.24 l
3.49 7.24 l
3.49 12.65 l
3.50 6.16 l
3.49 4.81 l
3.49 -1.64 l
3.49 -5.34 l
3.49 2.80 l
3.49 2.99 l
3.49 -5.05 l
3.49 2.91 l
3.49 -1.80 l
3.49 7.61 l
3.49 0.57 l
3.50 3.88 l
3.49 -4.40 l
3.49 1.27 l
3.49 6.12 l
3.49 3.25 l
3.49 4.66 l
3.49 -1.96 l
3.49 2.90 l
3.49 0.99 l
3.49 -1.90 l
3.49 6.84 l
3.50 -0.93 l
3.49 5.68 l
3.49 4.62 l
3.49 3.01 l
3.49 -0.43 l
3.49 -0.03 l
3.49 9.12 l
3.49 -1.03 l
3.49 4.17 l
3.49 1.55 l
3.49 0.45 l
3.50 6.50 l
3.49 1.66 l
3.49 3.81 l
3.49 4.08 l
3.49 0.22 l
3.49 5.46 l
3.49 -0.71 l
3.49 1.37 l
3.49 5.06 l
3.49 -1.66 l
3.49 6.04 l
3.50 2.39 l
3.49 1.57 l
3.49 4.12 l
3.49 2.81 l
3.49 4.05 l
3.49 2.41 l
3.49 3.50 l
3.49 3.26 l
3.49 2.32 l
3.49 5.69 l
3.49 1.60 l
3.50 1.77 l
3.49 5.53 l
3.49 1.77 l
3.49 3.54 l
3.49 3.28 l
3.49 3.64 l
3.49 3.60 l
3.49 2.34 l
3.49 2.55 l
3.49 4.07 l
3.49 2.41 l
3.50 1.45 l
3.49 3.75 l
3.49 2.64 l
3.49 3.15 l
3.49 2.16 l
3.49 1.97 l
3.49 1.69 l
3.49 3.23 l
3.49 3.93 l
3.49 0.36 l
3.49 1.70 l
3.50 3.07 l
3.49 1.34 l
3.49 0.80 l
3.49 2.95 l
3.49 -5.42 l
3.49 3.02 l
423.49 354.98 lineto
3.49 3.83 l
3.49 2.39 l
3.49 1.29 l
3.49 4.68 l
3.50 4.74 l
o
0 1 0.0275 srgb
np
74.40 271.03 m
3.49 -83.05 l
3.49 -7.84 l
3.49 -15.43 l
3.49 0 l
3.49 5.48 l
3.50 -13.96 l
3.49 8.31 l
3.49 -17.08 l
3.49 -5.36 l
3.49 17.85 l
3.49 -12.17 l
3.49 6.00 l
3.49 -2.13 l
3.49 8.80 l
3.49 -4.57 l
3.49 6.88 l
3.50 5.10 l
3.49 6.71 l
3.49 5.76 l
3.49 -11.87 l
3.49 11.04 l
3.49 -8.48 l
3.49 6.74 l
3.49 -1.24 l
3.49 1.82 l
3.49 -5.05 l
3.49 3.83 l
3.50 8.56 l
3.49 -0.56 l
3.49 -2.05 l
3.49 0.77 l
3.49 1.24 l
3.49 2.87 l
3.49 0.36 l
3.49 -1.63 l
3.49 0.94 l
3.49 12.03 l
3.49 -5.68 l
3.50 7.19 l
3.49 10.19 l
3.49 1.08 l
3.49 -2.00 l
3.49 6.14 l
3.49 -4.48 l
3.49 6.95 l
3.49 7.59 l
3.49 -3.41 l
3.49 5.96 l
3.49 2.93 l
3.50 2.27 l
3.49 2.14 l
3.49 2.35 l
3.49 0.68 l
3.49 4.62 l
3.49 1.71 l
3.49 8.55 l
3.49 -2.42 l
3.49 2.51 l
3.49 1.99 l
3.49 0.54 l
3.50 8.42 l
3.49 1.37 l
3.49 2.17 l
3.49 2.40 l
3.49 3.40 l
3.49 2.77 l
3.49 3.05 l
3.49 2.49 l
3.49 5.04 l
3.49 1.60 l
3.49 3.82 l
3.50 2.41 l
3.49 3.08 l
3.49 5.05 l
3.49 1.94 l
3.49 3.39 l
3.49 3.85 l
3.49 2.47 l
3.49 3.80 l
3.49 2.26 l
3.49 3.20 l
3.49 3.55 l
3.50 1.48 l
3.49 3.99 l
3.49 2.94 l
3.49 1.24 l
3.49 4.41 l
3.49 2.18 l
3.49 1.73 l
3.49 2.88 l
3.49 5.00 l
3.49 0.75 l
3.49 0.86 l
3.50 -0.59 l
3.49 6.33 l
3.49 -3.13 l
3.49 4.35 l
3.49 -8.63 l
3.49 3.86 l
423.49 357.22 lineto
3.49 3.29 l
3.49 5.84 l
3.49 1.17 l
3.49 2.08 l
3.50 8.56 l
3.49 14.22 l
o
0 1 0.1020 srgb
np
74.40 269.55 m
3.49 -81.97 l
3.49 -5.21 l
3.49 -8.28 l
3.49 0.18 l
3.49 -8.47 l
3.50 6.28 l
3.49 -7.20 l
3.49 -15.39 l
3.49 4.55 l
3.49 -11.94 l
3.49 20.75 l
3.49 -8.94 l
3.49 -1.98 l
3.49 5.34 l
3.49 -4.00 l
3.49 17.20 l
3.50 0.14 l
3.49 -1.56 l
3.49 12.23 l
3.49 -7.43 l
3.49 -2.63 l
3.49 6.33 l
3.49 -2.62 l
3.49 5.31 l
3.49 0.52 l
3.49 -6.37 l
3.49 3.74 l
3.50 -1.66 l
3.49 6.38 l
3.49 3.64 l
3.49 -2.31 l
3.49 -0.89 l
3.49 3.88 l
3.49 2.80 l
3.49 6.01 l
3.49 0.27 l
3.49 3.57 l
3.49 -4.25 l
3.50 11.50 l
3.49 -4.23 l
3.49 6.50 l
3.49 9.73 l
3.49 -4.68 l
3.49 2.88 l
3.49 3.78 l
3.49 1.75 l
3.49 3.91 l
3.49 1.22 l
3.49 1.11 l
3.50 4.44 l
3.49 1.50 l
3.49 3.71 l
3.49 2.80 l
3.49 3.16 l
3.49 3.19 l
3.49 3.02 l
3.49 4.60 l
3.49 -2.85 l
3.49 5.06 l
3.49 3.83 l
3.50 -1.39 l
3.49 6.62 l
3.49 1.60 l
3.49 1.94 l
3.49 5.37 l
3.49 2.92 l
3.49 1.79 l
3.49 1.08 l
3.49 5.40 l
3.49 4.69 l
3.49 1.47 l
3.50 3.59 l
3.49 3.14 l
3.49 3.92 l
3.49 3.28 l
3.49 1.71 l
3.49 4.62 l
3.49 3.12 l
3.49 1.94 l
3.49 5.22 l
3.49 1.27 l
3.49 3.15 l
3.50 3.75 l
3.49 2.63 l
3.49 1.79 l
3.49 2.68 l
3.49 3.67 l
3.49 1.00 l
3.49 3.38 l
3.49 2.42 l
3.49 1.75 l
3.49 2.57 l
3.49 3.15 l
3.50 -0.66 l
3.49 4.33 l
3.49 1.31 l
3.49 1.43 l
3.49 2.70 l
3.49 -9.12 l
423.49 351.97 lineto
3.49 9.45 l
3.49 -5.64 l
3.49 0.30 l
3.49 0.51 l
3.50 2.47 l
o
0 1 0.1804 srgb
np
74.40 267.59 m
3.49 -81.83 l
3.49 -7.16 l
3.49 -9.70 l
3.49 3.83 l
3.49 -8.02 l
3.50 2.14 l
3.49 -1.97 l
3.49 -12.27 l
3.49 0.92 l
3.49 10.13 l
3.49 -6.06 l
3.49 2.45 l
3.49 -6.14 l
3.49 1.61 l
3.49 18.75 l
3.49 -8.06 l
3.50 20.05 l
3.49 -25.02 l
3.49 7.81 l
3.49 10.15 l
3.49 -3.01 l
3.49 -2.46 l
3.49 5.12 l
3.49 -7.03 l
3.49 10.64 l
3.49 -7.30 l
3.49 1.91 l
3.50 0.43 l
3.49 -1.65 l
3.49 4.43 l
3.49 4.02 l
3.49 -7.18 l
3.49 11.44 l
3.49 -2.88 l
3.49 6.64 l
3.49 2.42 l
3.49 3.21 l
3.49 8.18 l
3.50 -2.10 l
3.49 -8.90 l
3.49 17.09 l
3.49 -1.04 l
3.49 4.16 l
3.49 0.54 l
3.49 3.66 l
3.49 0.88 l
3.49 7.98 l
3.49 0.47 l
3.49 0.78 l
3.50 1.97 l
3.49 5.98 l
3.49 2.32 l
3.49 4.02 l
3.49 3.39 l
3.49 -0.97 l
3.49 3.80 l
3.49 1.27 l
3.49 8.45 l
3.49 -2.32 l
3.49 2.00 l
3.50 6.66 l
3.49 -4.44 l
3.49 8.36 l
3.49 0.60 l
3.49 1.72 l
3.49 6.73 l
3.49 2.09 l
3.49 3.47 l
3.49 3.93 l
3.49 2.42 l
3.49 2.80 l
3.50 3.40 l
3.49 2.79 l
3.49 3.52 l
3.49 2.61 l
3.49 2.87 l
3.49 2.73 l
3.49 3.87 l
3.49 3.98 l
3.49 2.85 l
3.49 2.87 l
3.49 2.55 l
3.50 2.38 l
3.49 3.21 l
3.49 1.94 l
3.49 3.51 l
3.49 2.35 l
3.49 1.37 l
3.49 3.95 l
3.49 1.58 l
3.49 1.06 l
3.49 5.12 l
3.49 1.25 l
3.50 0.45 l
3.49 1.72 l
3.49 3.09 l
3.49 3.21 l
3.49 -3.55 l
3.49 -3.22 l
423.49 366.12 lineto
3.49 -20.23 l
3.49 9.71 l
3.49 -0.65 l
3.49 0.01 l
3.50 0.34 l
3.49 -15.54 l
o
0 1 0.2588 srgb
np
74.40 265.93 m
3.49 -72.85 l
3.49 -24.77 l
3.49 0.15 l
3.49 -6.83 l
3.49 5.61 l
3.50 -3.58 l
3.49 -11.73 l
3.49 1.34 l
3.49 16.07 l
3.49 -19.85 l
3.49 0.44 l
3.49 -5.02 l
3.49 -6.85 l
3.49 12.02 l
3.49 10.17 l
3.49 7.99 l
3.50 6.69 l
3.49 -12.17 l
3.49 7.85 l
3.49 10.85 l
3.49 -10.51 l
3.49 -6.85 l
3.49 9.63 l
3.49 8.14 l
3.49 -2.92 l
3.49 -1.88 l
3.49 -1.22 l
3.50 -0.81 l
3.49 14.28 l
3.49 -8.56 l
3.49 5.46 l
3.49 6.26 l
3.49 -3.92 l
3.49 3.55 l
3.49 4.43 l
3.49 -0.83 l
3.49 2.34 l
3.49 1.86 l
3.50 10.03 l
3.49 -6.23 l
3.49 8.05 l
3.49 -0.94 l
3.49 8.57 l
3.49 -3.73 l
3.49 4.53 l
3.49 3.52 l
3.49 1.65 l
3.49 3.51 l
3.49 2.26 l
3.50 4.59 l
3.49 1.95 l
3.49 1.53 l
3.49 4.12 l
3.49 0.53 l
3.49 4.69 l
3.49 -0.72 l
3.49 5.75 l
3.49 2.16 l
3.49 5.15 l
3.49 -0.52 l
3.50 4.11 l
3.49 0.38 l
3.49 3.88 l
3.49 5.02 l
3.49 -0.21 l
3.49 5.28 l
3.49 2.31 l
3.49 0.92 l
3.49 5.61 l
3.49 1.96 l
3.49 4.11 l
3.50 3.58 l
3.49 2.11 l
3.49 3.71 l
3.49 3.02 l
3.49 3.62 l
3.49 3.31 l
3.49 2.33 l
3.49 3.45 l
3.49 3.06 l
3.49 2.30 l
3.49 3.55 l
3.50 2.63 l
3.49 3.67 l
3.49 1.72 l
3.49 3.23 l
3.49 1.97 l
3.49 3.09 l
3.49 1.30 l
3.49 2.43 l
3.49 3.57 l
3.49 0.96 l
3.49 2.78 l
3.50 3.79 l
3.49 -1.70 l
3.49 5.88 l
3.49 -3.95 l
3.49 5.03 l
3.49 -6.98 l
423.49 355.24 lineto
3.49 18.63 l
3.49 11.81 l
3.49 3.14 l
3.49 2.98 l
3.50 7.62 l
3.49 9.84 l
3.49 -2.45 l
3.49 14.08 l
o
0 1 0.3373 srgb
np
74.40 265.96 m
3.49 -76.12 l
3.49 -16.18 l
3.49 2.58 l
3.49 -7.78 l
3.49 -1.14 l
3.50 3.22 l
3.49 -2.83 l
3.49 -14.05 l
3.49 2.92 l
3.49 4.27 l
3.49 0.97 l
3.49 -0.97 l
3.49 2.72 l
3.49 -8.53 l
3.49 5.21 l
3.49 5.22 l
3.50 5.95 l
3.49 -14.26 l
3.49 13.38 l
3.49 0.07 l
3.49 5.35 l
3.49 1.00 l
3.49 -18.05 l
3.49 9.55 l
3.49 6.93 l
3.49 4.16 l
3.49 -4.51 l
3.50 8.89 l
3.49 -11.78 l
3.49 15.02 l
3.49 -12.72 l
3.49 8.01 l
3.49 6.73 l
3.49 0.27 l
3.49 3.92 l
3.49 3.92 l
3.49 -2.34 l
3.49 0.28 l
3.50 7.52 l
3.49 7.77 l
3.49 -0.59 l
3.49 5.56 l
3.49 0.26 l
3.49 1.94 l
3.49 2.41 l
3.49 -3.62 l
3.49 9.69 l
3.49 4.61 l
3.49 2.49 l
3.50 2.02 l
3.49 3.32 l
3.49 -0.46 l
3.49 3.67 l
3.49 4.55 l
3.49 1.17 l
3.49 1.29 l
3.49 4.23 l
3.49 5.98 l
3.49 2.05 l
3.49 4.02 l
3.50 -1.46 l
3.49 4.92 l
3.49 2.00 l
3.49 -0.26 l
3.49 6.35 l
3.49 2.16 l
3.49 3.03 l
3.49 4.33 l
3.49 2.51 l
3.49 2.48 l
3.49 4.99 l
3.50 2.63 l
3.49 4.38 l
3.49 -0.08 l
3.49 5.15 l
3.49 3.43 l
3.49 1.69 l
3.49 4.31 l
3.49 2.74 l
3.49 2.99 l
3.49 3.04 l
3.49 4.14 l
3.50 1.71 l
3.49 2.54 l
3.49 2.95 l
3.49 2.52 l
3.49 2.69 l
3.49 3.33 l
3.49 1.39 l
3.49 2.87 l
3.49 2.45 l
3.49 0.92 l
3.49 3.82 l
3.50 3.31 l
3.49 0.20 l
3.49 2.52 l
3.49 2.76 l
3.49 -3.66 l
3.49 3.17 l
423.49 364.87 lineto
3.49 -0.30 l
3.49 4.74 l
3.49 2.83 l
3.49 3.56 l
3.50 6.50 l
3.49 11.50 l
o
0 1 0.4157 srgb
np
74.40 264.19 m
3.49 -73.72 l
3.49 -4.99 l
3.49 -26.57 l
3.49 3.76 l
3.49 -6.32 l
3.50 6.32 l
3.49 3.70 l
3.49 -16.44 l
3.49 0.15 l
3.49 3.19 l
3.49 1.15 l
3.49 -9.87 l
3.49 7.51 l
3.49 3.82 l
3.49 8.31 l
3.49 3.52 l
3.50 -7.46 l
3.49 14.02 l
3.49 -8.06 l
3.49 0.72 l
3.49 13.06 l
3.49 -3.19 l
3.49 2.45 l
3.49 -0.91 l
3.49 0.41 l
3.49 1.34 l
3.49 -0.54 l
3.50 1.82 l
3.49 -11.53 l
3.49 1.52 l
3.49 13.48 l
3.49 6.95 l
3.49 -0.25 l
3.49 -0.42 l
3.49 -1.22 l
3.49 5.81 l
3.49 -1.28 l
3.49 -0.29 l
3.50 1.98 l
3.49 9.54 l
3.49 0.62 l
3.49 3.69 l
3.49 5.60 l
3.49 -6.48 l
3.49 12.87 l
3.49 4.84 l
3.49 -4.02 l
3.49 7.15 l
3.49 2.27 l
3.50 1.19 l
3.49 3.46 l
3.49 3.45 l
3.49 1.35 l
3.49 4.65 l
3.49 0.39 l
3.49 4.57 l
3.49 2.50 l
3.49 1.10 l
3.49 4.53 l
3.49 2.79 l
3.50 5.64 l
3.49 -1.40 l
3.49 2.87 l
3.49 1.89 l
3.49 1.96 l
3.49 6.10 l
3.49 0.95 l
3.49 2.82 l
3.49 4.40 l
3.49 3.31 l
3.49 1.68 l
3.50 4.52 l
3.49 3.43 l
3.49 3.09 l
3.49 3.06 l
3.49 2.39 l
3.49 5.40 l
3.49 2.20 l
3.49 2.24 l
3.49 3.87 l
3.49 2.88 l
3.49 2.77 l
3.50 2.61 l
3.49 2.83 l
3.49 4.00 l
3.49 0.64 l
3.49 1.48 l
3.49 3.91 l
3.49 1.72 l
3.49 3.70 l
3.49 1.46 l
3.49 0.39 l
3.49 4.66 l
3.50 0.28 l
3.49 1.63 l
3.49 0.94 l
3.49 1.68 l
3.49 2.79 l
3.49 -0.78 l
423.49 371.88 lineto
3.49 -5.87 l
3.49 7.69 l
3.49 3.33 l
3.49 6.71 l
3.50 10.17 l
3.49 26.80 l
o
0 1 0.4941 srgb
np
74.40 263.02 m
3.49 -88.21 l
3.49 -5.69 l
3.49 6.10 l
3.49 -10.77 l
3.49 -1.78 l
3.50 -2.72 l
3.49 5.60 l
3.49 -10.15 l
3.49 -2.13 l
3.49 -1.34 l
3.49 -0.56 l
3.49 8.06 l
3.49 3.87 l
3.49 -15.68 l
3.49 17.35 l
3.49 -2.12 l
3.50 10.69 l
3.49 3.31 l
3.49 0 l
3.49 -4.83 l
3.49 1.64 l
3.49 -9.38 l
3.49 8.95 l
3.49 0.50 l
3.49 0.90 l
3.49 -2.55 l
3.49 4.77 l
3.50 3.96 l
3.49 -7.96 l
3.49 9.07 l
3.49 0.45 l
3.49 7.43 l
3.49 -7.30 l
3.49 7.20 l
3.49 6.50 l
3.49 -2.35 l
3.49 3.01 l
3.49 6.42 l
3.50 -2.50 l
3.49 6.20 l
3.49 -1.26 l
3.49 6.46 l
3.49 1.63 l
3.49 2.30 l
3.49 5.34 l
3.49 4.57 l
3.49 1.95 l
3.49 1.66 l
3.49 4.99 l
3.50 -0.85 l
3.49 3.71 l
3.49 0.13 l
3.49 4.37 l
3.49 0.22 l
3.49 5.30 l
3.49 -0.13 l
3.49 3.62 l
3.49 3.18 l
3.49 2.84 l
3.49 4.49 l
3.50 2.48 l
3.49 7.44 l
3.49 -1.18 l
3.49 -0.16 l
3.49 6.33 l
3.49 0.02 l
3.49 5.95 l
3.49 2.27 l
3.49 1.17 l
3.49 4.59 l
3.49 3.74 l
3.50 2.47 l
3.49 4.10 l
3.49 1.90 l
3.49 3.90 l
3.49 2.41 l
3.49 4.69 l
3.49 2.77 l
3.49 2.90 l
3.49 2.78 l
3.49 3.33 l
3.49 3.15 l
3.50 1.70 l
3.49 3.06 l
3.49 2.54 l
3.49 2.66 l
3.49 3.14 l
3.49 1.18 l
3.49 4.72 l
3.49 -0.08 l
3.49 4.58 l
3.49 1.30 l
3.49 1.88 l
3.50 2.75 l
3.49 4.01 l
3.49 -5.53 l
3.49 -4.17 l
3.49 11.77 l
3.49 -6.89 l
423.49 376.25 lineto
3.49 -20.62 l
3.49 17.32 l
3.49 0.42 l
3.49 4.16 l
3.50 14.35 l
3.49 39.32 l
o
0 1 0.5725 srgb
np
74.40 262.31 m
3.49 -70.61 l
3.49 -21.30 l
3.49 1.42 l
3.49 -10.87 l
3.49 12.03 l
3.50 -27.02 l
3.49 15.09 l
3.49 -1.51 l
3.49 -2.84 l
3.49 -1.91 l
3.49 6.26 l
3.49 -13.75 l
3.49 5.31 l
3.49 -0.96 l
3.49 15.82 l
3.49 -0.07 l
3.50 3.62 l
3.49 -6.74 l
3.49 15.47 l
3.49 -20.84 l
3.49 9.77 l
3.49 2.94 l
3.49 5.01 l
3.49 -11.16 l
3.49 8.32 l
3.49 4.55 l
3.49 1.11 l
3.50 3.05 l
3.49 -2.85 l
3.49 -4.49 l
3.49 9.35 l
3.49 -3.75 l
3.49 6.04 l
3.49 4.32 l
3.49 3.93 l
3.49 -0.11 l
3.49 3.01 l
3.49 4.64 l
3.50 0.17 l
3.49 3.88 l
3.49 -4.15 l
3.49 11.74 l
3.49 -0.29 l
3.49 3.03 l
3.49 1.29 l
3.49 6.66 l
3.49 1.36 l
3.49 1.48 l
3.49 7.14 l
3.50 0.69 l
3.49 1.11 l
3.49 1.98 l
3.49 4.07 l
3.49 1.86 l
3.49 0.96 l
3.49 4.86 l
3.49 4.03 l
3.49 0.53 l
3.49 2.75 l
3.49 2.44 l
3.50 5.72 l
3.49 1.23 l
3.49 6.93 l
3.49 -2.82 l
3.49 3.62 l
3.49 3.49 l
3.49 0.84 l
3.49 7.32 l
3.49 1.46 l
3.49 3.58 l
3.49 2.47 l
3.50 3.03 l
3.49 2.72 l
3.49 4.91 l
3.49 2.66 l
3.49 2.34 l
3.49 3.56 l
3.49 4.08 l
3.49 3.02 l
3.49 2.31 l
3.49 2.71 l
3.49 2.73 l
3.50 4.19 l
3.49 2.79 l
3.49 1.87 l
3.49 3.31 l
3.49 2.18 l
3.49 3.32 l
3.49 0.22 l
3.49 3.40 l
3.49 2.31 l
3.49 2.79 l
3.49 1.37 l
3.50 2.36 l
3.49 1.62 l
3.49 -0.43 l
3.49 6.76 l
3.49 3.82 l
3.49 -7.39 l
423.49 371.08 lineto
3.49 -0.57 l
3.49 1.14 l
3.49 0.85 l
3.49 0.03 l
3.50 8.12 l
3.49 50.55 l
o
0 1 0.6510 srgb
np
74.40 263.02 m
3.49 -78.55 l
3.49 -8.45 l
3.49 -19.09 l
3.49 9.28 l
3.49 -1.93 l
3.50 -10.75 l
3.49 -2.30 l
3.49 -2.20 l
3.49 -0.46 l
3.49 -9.38 l
3.49 12.46 l
3.49 0.28 l
3.49 14.12 l
3.49 -15.39 l
3.49 4.86 l
3.49 16.37 l
3.50 -4.49 l
3.49 1.50 l
3.49 7.17 l
3.49 -6.30 l
3.49 -16.11 l
3.49 16.18 l
3.49 -0.50 l
3.49 7.29 l
3.49 2.72 l
3.49 -1.48 l
3.49 -6.65 l
3.50 10.74 l
3.49 4.72 l
3.49 -9.56 l
3.49 2.03 l
3.49 6.84 l
3.49 3.44 l
3.49 2.80 l
3.49 -2.22 l
3.49 4.45 l
3.49 4.11 l
3.49 3.79 l
3.50 0.32 l
3.49 -1.34 l
3.49 8.53 l
3.49 -1.45 l
3.49 7.38 l
3.49 1.31 l
3.49 -0.54 l
3.49 7.58 l
3.49 1.37 l
3.49 1.34 l
3.49 3.50 l
3.50 1.71 l
3.49 4.37 l
3.49 3.11 l
3.49 2.13 l
3.49 2.99 l
3.49 2.65 l
3.49 3.06 l
3.49 2.56 l
3.49 1.45 l
3.49 4.51 l
3.49 4.01 l
3.50 1.68 l
3.49 3.91 l
3.49 2.16 l
3.49 5.90 l
3.49 -3.38 l
3.49 2.88 l
3.49 5.69 l
3.49 0.84 l
3.49 6.99 l
3.49 0.98 l
3.49 1.11 l
3.50 4.41 l
3.49 3.51 l
3.49 2.50 l
3.49 4.00 l
3.49 3.70 l
3.49 2.77 l
3.49 3.67 l
3.49 3.90 l
3.49 2.23 l
3.49 3.09 l
3.49 1.64 l
3.50 4.19 l
3.49 2.94 l
3.49 2.14 l
3.49 2.92 l
3.49 2.91 l
3.49 0.77 l
3.49 3.38 l
3.49 3.23 l
3.49 2.38 l
3.49 0.03 l
3.49 4.89 l
3.50 -3.47 l
3.49 6.92 l
3.49 1.54 l
3.49 -1.67 l
3.49 4.65 l
3.49 6.81 l
423.49 372.96 lineto
3.49 0.99 l
3.49 -0.37 l
3.49 1.28 l
3.49 0.76 l
3.50 -0.67 l
3.49 1.80 l
o
0 1 0.7255 srgb
np
74.40 260.73 m
3.49 -77.66 l
3.49 -10.79 l
3.49 -4.88 l
3.49 -8.92 l
3.49 1.97 l
3.50 3.83 l
3.49 -1.89 l
3.49 -1.74 l
3.49 -8.45 l
3.49 -3.63 l
3.49 -17.83 l
3.49 10.76 l
3.49 6.60 l
3.49 5.30 l
3.49 -2.74 l
3.49 6.61 l
3.50 15.58 l
3.49 2.66 l
3.49 -10.04 l
3.49 0.08 l
3.49 -0.08 l
3.49 2.77 l
3.49 4.80 l
3.49 -3.70 l
3.49 5.41 l
3.49 -9.20 l
3.49 9.96 l
3.50 -0.12 l
3.49 4.11 l
3.49 -2.54 l
3.49 -2.63 l
3.49 13.69 l
3.49 -7.12 l
3.49 5.05 l
3.49 6.31 l
3.49 -6.11 l
3.49 5.92 l
3.49 11.88 l
3.50 2.66 l
3.49 -5.03 l
3.49 2.39 l
3.49 9.02 l
3.49 1.20 l
3.49 3.69 l
3.49 -0.69 l
3.49 3.66 l
3.49 3.20 l
3.49 2.89 l
3.49 2.97 l
3.50 4.10 l
3.49 5.23 l
3.49 -1.56 l
3.49 3.22 l
3.49 3.21 l
3.49 0.07 l
3.49 4.91 l
3.49 3.24 l
3.49 3.28 l
3.49 2.47 l
3.49 2.18 l
3.50 3.04 l
3.49 1.76 l
3.49 6.54 l
3.49 1.00 l
3.49 6.69 l
3.49 -2.16 l
3.49 1.80 l
3.49 3.20 l
3.49 3.05 l
3.49 5.92 l
3.49 2.36 l
3.50 1.85 l
3.49 4.66 l
3.49 2.42 l
3.49 3.94 l
3.49 3.49 l
3.49 3.06 l
3.49 3.18 l
3.49 1.92 l
3.49 4.30 l
3.49 1.05 l
3.49 4.59 l
3.50 2.34 l
3.49 3.52 l
3.49 3.29 l
3.49 1.79 l
3.49 2.32 l
3.49 4.48 l
3.49 0.93 l
3.49 0.67 l
3.49 4.47 l
3.49 0.90 l
3.49 3.24 l
3.50 1.28 l
3.49 1.09 l
3.49 2.05 l
3.49 0.08 l
3.49 4.01 l
3.49 6.04 l
423.49 377.22 lineto
3.49 13.05 l
3.49 3.37 l
3.49 6.54 l
3.49 4.71 l
3.50 4.28 l
3.49 -1.81 l
3.49 23.84 l
o
0 1 0.8039 srgb
np
74.40 259.32 m
3.49 -74.85 l
3.49 -10.74 l
3.49 -13.38 l
3.49 3.49 l
3.49 -12.05 l
3.50 6.04 l
3.49 3.22 l
3.49 -0.90 l
3.49 -20.53 l
3.49 7.68 l
3.49 2.93 l
3.49 -10.82 l
3.49 2.09 l
3.49 13.78 l
3.49 7.20 l
3.49 -0.09 l
3.50 10.08 l
3.49 -11.52 l
3.49 -1.73 l
3.49 11.80 l
3.49 -7.90 l
3.49 1.16 l
3.49 13.38 l
3.49 -4.55 l
3.49 1.52 l
3.49 3.71 l
3.49 -10.25 l
3.50 9.03 l
3.49 1.22 l
3.49 1.21 l
3.49 1.87 l
3.49 11.66 l
3.49 -3.72 l
3.49 4.37 l
3.49 -5.93 l
3.49 9.29 l
3.49 -1.19 l
3.49 4.81 l
3.50 2.80 l
3.49 5.35 l
3.49 2.24 l
3.49 4.69 l
3.49 2.17 l
3.49 -0.30 l
3.49 1.07 l
3.49 4.18 l
3.49 -0.65 l
3.49 5.60 l
3.49 3.88 l
3.50 1.85 l
3.49 0.05 l
3.49 6.10 l
3.49 1.45 l
3.49 0.70 l
3.49 5.63 l
3.49 3.53 l
3.49 1.28 l
3.49 2.48 l
3.49 2.50 l
3.49 3.22 l
3.50 3.93 l
3.49 1.73 l
3.49 1.96 l
3.49 4.77 l
3.49 2.42 l
3.49 6.73 l
3.49 0.02 l
3.49 -0.18 l
3.49 6.22 l
3.49 0.67 l
3.49 6.03 l
3.50 1.44 l
3.49 3.88 l
3.49 3.03 l
3.49 1.92 l
3.49 3.47 l
3.49 3.60 l
3.49 4.17 l
3.49 2.81 l
3.49 1.98 l
3.49 3.52 l
3.49 3.62 l
3.50 2.02 l
3.49 3.21 l
3.49 2.49 l
3.49 4.19 l
3.49 2.27 l
3.49 2.05 l
3.49 2.08 l
3.49 0.76 l
3.49 3.12 l
3.49 3.53 l
3.49 3.13 l
3.50 1.10 l
3.49 4.31 l
3.49 -0.92 l
3.49 5.26 l
3.49 -4.87 l
3.49 6.20 l
423.49 368.45 lineto
3.49 12.61 l
3.49 -6.98 l
3.49 5.38 l
3.49 23.52 l
o
0 1 0.8824 srgb
np
74.40 258.88 m
3.49 -76.69 l
3.49 -18.35 l
3.49 -2.99 l
3.49 3.69 l
3.49 -18.24 l
3.50 15.14 l
3.49 -10.07 l
3.49 3.05 l
3.49 -4.05 l
3.49 5.39 l
3.49 -14.46 l
3.49 -5.38 l
3.49 3.49 l
3.49 16.82 l
3.49 -2.57 l
3.49 1.50 l
3.50 12.16 l
3.49 13.44 l
3.49 -8.87 l
3.49 -2.19 l
3.49 -4.23 l
3.49 2.39 l
3.49 -4.92 l
3.49 2.94 l
3.49 2.88 l
3.49 -1.91 l
3.49 11.49 l
3.50 -5.87 l
3.49 3.09 l
3.49 -0.17 l
3.49 9.45 l
3.49 -1.68 l
3.49 0.13 l
3.49 4.40 l
3.49 2.72 l
3.49 1.48 l
3.49 6.76 l
3.49 -5.45 l
3.50 7.01 l
3.49 -1.01 l
3.49 7.75 l
3.49 2.06 l
3.49 7.02 l
3.49 -1.94 l
3.49 4.56 l
3.49 5.90 l
3.49 -1.55 l
3.49 5.92 l
3.49 0.42 l
3.50 3.59 l
3.49 1.79 l
3.49 0.98 l
3.49 6.93 l
3.49 1.48 l
3.49 0.77 l
3.49 4.70 l
3.49 2.62 l
3.49 3.87 l
3.49 0.22 l
3.49 3.09 l
3.50 1.91 l
3.49 1.72 l
3.49 5.24 l
3.49 2.95 l
3.49 4.32 l
3.49 2.85 l
3.49 5.43 l
3.49 -2.16 l
3.49 3.56 l
3.49 4.42 l
3.49 -1.20 l
3.50 8.82 l
3.49 0.46 l
3.49 2.39 l
3.49 5.37 l
3.49 1.70 l
3.49 3.43 l
3.49 3.60 l
3.49 1.85 l
3.49 5.09 l
3.49 1.76 l
3.49 4.10 l
3.50 2.25 l
3.49 3.28 l
3.49 3.31 l
3.49 1.44 l
3.49 3.18 l
3.49 1.11 l
3.49 3.67 l
3.49 2.79 l
3.49 1.42 l
3.49 1.47 l
3.49 4.16 l
3.50 1.66 l
3.49 2.11 l
3.49 -2.52 l
3.49 3.85 l
3.49 6.48 l
3.49 -8.40 l
423.49 365.06 lineto
3.49 30.46 l
3.49 -25.85 l
3.49 7.22 l
3.49 15.71 l
o
0 1 0.9608 srgb
np
74.40 258.57 m
3.49 -72.62 l
3.49 -27.79 l
3.49 5.68 l
3.49 5.93 l
3.49 -18.26 l
3.50 1.36 l
3.49 8.57 l
3.49 -16.00 l
3.49 7.43 l
3.49 -12.61 l
3.49 3.93 l
3.49 1.25 l
3.49 -0.53 l
3.49 -3.21 l
3.49 19.64 l
3.49 -5.94 l
3.50 13.94 l
3.49 5.82 l
3.49 -5.68 l
3.49 2.41 l
3.49 1.84 l
3.49 -4.83 l
3.49 1.01 l
3.49 -5.63 l
3.49 2.81 l
3.49 -13.82 l
3.49 22.29 l
3.50 -5.02 l
3.49 12.58 l
3.49 -3.03 l
3.49 -3.90 l
3.49 5.27 l
3.49 5.83 l
3.49 -0.42 l
3.49 -0.07 l
3.49 4.84 l
3.49 4.77 l
3.49 1.97 l
3.50 5.25 l
3.49 2.63 l
3.49 6.57 l
3.49 -0.86 l
3.49 2.46 l
3.49 4.50 l
3.49 -0.89 l
3.49 4.42 l
3.49 -0.53 l
3.49 5.98 l
3.49 -2.18 l
3.50 4.16 l
3.49 6.77 l
3.49 -0.49 l
3.49 5.43 l
3.49 0.99 l
3.49 1.66 l
3.49 3.57 l
3.49 5.85 l
3.49 -0.97 l
3.49 4.19 l
3.49 2.19 l
3.50 4.71 l
3.49 1.01 l
3.49 3.79 l
3.49 1.25 l
3.49 3.70 l
3.49 3.62 l
3.49 3.97 l
3.49 4.59 l
3.49 -2.84 l
3.49 4.61 l
3.49 3.58 l
3.50 1.64 l
3.49 5.54 l
3.49 2.50 l
3.49 3.06 l
3.49 2.28 l
3.49 4.02 l
3.49 3.79 l
3.49 2.68 l
3.49 3.20 l
3.49 3.48 l
3.49 1.47 l
3.50 4.00 l
3.49 3.05 l
3.49 2.43 l
3.49 1.40 l
3.49 4.07 l
3.49 2.40 l
3.49 2.22 l
3.49 1.91 l
3.49 1.82 l
3.49 3.83 l
3.49 0.39 l
3.50 2.47 l
3.49 0.91 l
3.49 2.81 l
3.49 3.52 l
3.49 1.35 l
3.49 -0.08 l
423.49 365.96 lineto
3.49 24.76 l
3.49 -18.61 l
3.49 10.09 l
3.49 17.71 l
3.50 31.29 l
o
0 0.9608 1 srgb
np
74.40 252.37 m
3.49 -68.91 l
3.49 -28.42 l
3.49 9.15 l
3.49 -4.65 l
3.49 -11.92 l
3.50 14.20 l
3.49 -3.66 l
3.49 -15.47 l
3.49 6.95 l
3.49 -8.54 l
3.49 12.56 l
3.49 4.82 l
3.49 -19.51 l
3.49 11.26 l
3.49 5.29 l
3.49 0.71 l
3.50 8.48 l
3.49 -13.06 l
3.49 19.91 l
3.49 -9.45 l
3.49 7.73 l
3.49 -4.87 l
3.49 9.78 l
3.49 -0.24 l
3.49 -6.80 l
3.49 2.69 l
3.49 -5.43 l
3.50 11.50 l
3.49 -0.79 l
3.49 3.87 l
3.49 -3.14 l
3.49 7.56 l
3.49 4.37 l
3.49 1.70 l
3.49 -3.13 l
3.49 5.41 l
3.49 5.15 l
3.49 -0.69 l
3.50 5.02 l
3.49 4.68 l
3.49 3.44 l
3.49 1.04 l
3.49 0.11 l
3.49 6.95 l
3.49 -0.99 l
3.49 5.67 l
3.49 3.68 l
3.49 2.97 l
3.49 3.23 l
3.50 -1.66 l
3.49 1.35 l
3.49 6.09 l
3.49 1.70 l
3.49 6.04 l
3.49 -0.20 l
3.49 2.66 l
3.49 2.22 l
3.49 2.88 l
3.49 2.88 l
3.49 0.15 l
3.50 5.42 l
3.49 2.70 l
3.49 3.83 l
3.49 0.73 l
3.49 5.52 l
3.49 1.73 l
3.49 3.15 l
3.49 3.33 l
3.49 6.20 l
3.49 -2.68 l
3.49 4.51 l
3.50 3.26 l
3.49 2.76 l
3.49 5.48 l
3.49 1.92 l
3.49 2.81 l
3.49 3.17 l
3.49 2.34 l
3.49 3.80 l
3.49 3.41 l
3.49 3.08 l
3.49 3.21 l
3.50 2.42 l
3.49 2.44 l
3.49 4.03 l
3.49 1.89 l
3.49 2.45 l
3.49 2.74 l
3.49 2.58 l
3.49 3.10 l
3.49 3.42 l
3.49 2.39 l
3.49 1.47 l
3.50 1.45 l
3.49 1.81 l
3.49 1.05 l
3.49 2.48 l
3.49 2.38 l
3.49 0.80 l
423.49 359.06 lineto
3.49 31.01 l
3.49 -31.20 l
3.49 5.13 l
3.49 20.62 l
o
0 0.8824 1 srgb
np
74.40 256.01 m
3.49 -74.41 l
3.49 -11.83 l
3.49 -2.53 l
3.49 -16.87 l
3.49 5.86 l
3.50 -6.30 l
3.49 -8.23 l
3.49 13.09 l
3.49 -7.17 l
3.49 3.89 l
3.49 -10.41 l
3.49 3.81 l
3.49 3.19 l
3.49 0.93 l
3.49 11.62 l
3.49 6.75 l
3.50 -0.71 l
3.49 8.24 l
3.49 8.87 l
3.49 -9.47 l
3.49 -0.79 l
3.49 -9.70 l
3.49 10.79 l
3.49 -14.58 l
3.49 -4.29 l
3.49 9.71 l
3.49 2.77 l
3.50 11.90 l
3.49 -0.29 l
3.49 -4.17 l
3.49 7.52 l
3.49 0.81 l
3.49 4.58 l
3.49 7.82 l
3.49 -5.94 l
3.49 4.97 l
3.49 0.51 l
3.49 3.06 l
3.50 3.20 l
3.49 -0.09 l
3.49 3.77 l
3.49 3.53 l
3.49 7.37 l
3.49 2.42 l
3.49 0.97 l
3.49 3.13 l
3.49 2.36 l
3.49 -0.20 l
3.49 4.00 l
3.50 5.52 l
3.49 -4.11 l
3.49 6.58 l
3.49 1.24 l
3.49 0.78 l
3.49 9.98 l
3.49 -0.78 l
3.49 0.74 l
3.49 3.73 l
3.49 2.92 l
3.49 2.39 l
3.50 1.69 l
3.49 5.63 l
3.49 1.87 l
3.49 3.58 l
3.49 1.70 l
3.49 5.35 l
3.49 0.68 l
3.49 5.07 l
3.49 1.88 l
3.49 6.33 l
3.49 -2.94 l
3.50 4.35 l
3.49 4.37 l
3.49 1.62 l
3.49 5.63 l
3.49 1.49 l
3.49 2.76 l
3.49 3.33 l
3.49 2.88 l
3.49 3.46 l
3.49 2.61 l
3.49 3.44 l
3.50 2.77 l
3.49 2.53 l
3.49 3.16 l
3.49 3.15 l
3.49 3.08 l
3.49 2.99 l
3.49 0.70 l
3.49 4.63 l
3.49 0.10 l
3.49 2.76 l
3.49 4.35 l
3.50 -0.13 l
3.49 4.55 l
3.49 -0.04 l
3.49 2.83 l
3.49 3.53 l
3.49 -16.67 l
423.49 364.49 lineto
3.49 6.85 l
3.49 -7.36 l
3.49 2.56 l
3.49 6.69 l
3.50 23.05 l
o
0 0.8039 1 srgb
np
74.40 255.77 m
3.49 -77.02 l
3.49 -13.70 l
3.49 -4.60 l
3.49 4.26 l
3.49 -8.24 l
3.50 -0.24 l
3.49 -6.30 l
3.49 -8.23 l
3.49 2.12 l
3.49 3.80 l
3.49 0 l
3.49 3.61 l
3.49 -13.40 l
3.49 10.27 l
3.49 14.01 l
3.49 13.85 l
3.50 -8.56 l
3.49 5.33 l
3.49 -1.92 l
3.49 2.36 l
3.49 -0.64 l
3.49 -4.07 l
3.49 -0.83 l
3.49 11.17 l
3.49 -0.77 l
3.49 -8.05 l
3.49 7.57 l
3.50 -4.19 l
3.49 -9.79 l
3.49 12.84 l
3.49 -4.79 l
3.49 13.58 l
3.49 4.26 l
3.49 3.53 l
3.49 0.89 l
3.49 -3.38 l
3.49 4.99 l
3.49 -0.53 l
3.50 10.07 l
3.49 3.22 l
3.49 0.61 l
3.49 0.10 l
3.49 8.29 l
3.49 -3.31 l
3.49 6.75 l
3.49 0.17 l
3.49 6.98 l
3.49 1.81 l
3.49 -0.35 l
3.50 5.62 l
3.49 0.17 l
3.49 -0.87 l
3.49 4.68 l
3.49 2.14 l
3.49 4.31 l
3.49 1.19 l
3.49 2.60 l
3.49 3.16 l
3.49 5.90 l
3.49 -2.52 l
3.50 5.13 l
3.49 2.71 l
3.49 3.11 l
3.49 2.43 l
3.49 4.32 l
3.49 2.74 l
3.49 1.89 l
3.49 4.41 l
3.49 1.19 l
3.49 4.99 l
3.49 3.69 l
3.50 -0.99 l
3.49 3.64 l
3.49 4.69 l
3.49 0.93 l
3.49 5.89 l
3.49 1.12 l
3.49 4.04 l
3.49 2.71 l
3.49 2.82 l
3.49 4.37 l
3.49 3.60 l
3.50 2.56 l
3.49 1.76 l
3.49 2.95 l
3.49 3.63 l
3.49 2.79 l
3.49 3.29 l
3.49 2.84 l
3.49 3.57 l
3.49 1.42 l
3.49 1.26 l
3.49 2.18 l
3.50 1.72 l
3.49 3.93 l
3.49 1.28 l
3.49 3.04 l
3.49 -2.23 l
3.49 2.09 l
423.49 362.06 lineto
3.49 12.09 l
3.49 -13.63 l
3.49 3.02 l
3.49 4.12 l
3.50 13.71 l
o
0 0.7255 1 srgb
np
74.40 253.50 m
3.49 -67.63 l
3.49 -16.89 l
3.49 -3.93 l
3.49 -9.89 l
3.49 -4.35 l
3.50 5.66 l
3.49 4.68 l
3.49 -9.09 l
3.49 -7.51 l
3.49 8.32 l
3.49 -13.03 l
3.49 17.99 l
3.49 -19.31 l
3.49 13.54 l
3.49 -14.93 l
3.49 24.98 l
3.50 6.05 l
3.49 3.33 l
3.49 -1.16 l
3.49 6.85 l
3.49 -6.78 l
3.49 0.21 l
3.49 -3.37 l
3.49 5.68 l
3.49 6.63 l
3.49 -4.80 l
3.49 1.44 l
3.50 2.81 l
3.49 -4.73 l
3.49 6.59 l
3.49 -0.29 l
3.49 5.73 l
3.49 -5.16 l
3.49 5.73 l
3.49 -1.23 l
3.49 5.45 l
3.49 4.78 l
3.49 4.69 l
3.50 5.16 l
3.49 -4.67 l
3.49 1.48 l
3.49 6.56 l
3.49 1.67 l
3.49 6.95 l
3.49 1.53 l
3.49 1.09 l
3.49 1.04 l
3.49 6.08 l
3.49 2.63 l
3.50 0.76 l
3.49 3.12 l
3.49 0.10 l
3.49 5.17 l
3.49 2.25 l
3.49 2.39 l
3.49 0.50 l
3.49 6.77 l
3.49 1.02 l
3.49 3.53 l
3.49 2.77 l
3.50 1.05 l
3.49 4.49 l
3.49 2.29 l
3.49 0.23 l
3.49 4.71 l
3.49 3.31 l
3.49 2.26 l
3.49 2.81 l
3.49 3.92 l
3.49 2.75 l
3.49 2.20 l
3.50 6.26 l
3.49 -1.83 l
3.49 3.18 l
3.49 5.35 l
3.49 1.95 l
3.49 5.38 l
3.49 0.95 l
3.49 3.67 l
3.49 3.64 l
3.49 2.35 l
3.49 3.09 l
3.50 3.35 l
3.49 3.01 l
3.49 2.37 l
3.49 3.72 l
3.49 2.77 l
3.49 2.92 l
3.49 1.08 l
3.49 3.83 l
3.49 2.16 l
3.49 3.49 l
3.49 2.11 l
3.50 -0.49 l
3.49 3.68 l
3.49 0.09 l
3.49 2.69 l
3.49 -3.93 l
3.49 11.95 l
423.49 353.91 lineto
3.49 11.95 l
3.49 5.75 l
3.49 2.34 l
3.49 5.00 l
3.50 7.94 l
3.49 12.94 l
o
0 0.6510 1 srgb
np
74.40 249.47 m
3.49 -71.60 l
3.49 -10.16 l
3.49 -8.59 l
3.49 -3.72 l
3.49 -6.83 l
3.50 0 l
3.49 -0.47 l
3.49 4.24 l
3.49 -21.30 l
3.49 26.12 l
3.49 -8.44 l
3.49 -19.85 l
3.49 22.64 l
3.49 -2.02 l
3.49 12.99 l
3.49 -6.48 l
3.50 10.93 l
3.49 1.31 l
3.49 0.07 l
3.49 2.84 l
3.49 -5.27 l
3.49 8.99 l
3.49 -8.58 l
3.49 15.26 l
3.49 -7.70 l
3.49 6.43 l
3.49 -4.66 l
3.50 -9.98 l
3.49 12.60 l
3.49 -3.08 l
3.49 5.70 l
3.49 5.29 l
3.49 0.76 l
3.49 -6.53 l
3.49 9.08 l
3.49 4.74 l
3.49 3.60 l
3.49 1.97 l
3.50 3.01 l
3.49 -0.78 l
3.49 4.44 l
3.49 3.85 l
3.49 -2.41 l
3.49 6.31 l
3.49 3.41 l
3.49 2.47 l
3.49 3.36 l
3.49 2.70 l
3.49 3.53 l
3.50 1.06 l
3.49 -0.38 l
3.49 2.49 l
3.49 3.44 l
3.49 4.28 l
3.49 0.38 l
3.49 2.25 l
3.49 6.26 l
3.49 1.00 l
3.49 4.02 l
3.49 1.26 l
3.50 4.30 l
3.49 1.83 l
3.49 4.62 l
3.49 0.71 l
3.49 4.94 l
3.49 1.08 l
3.49 3.13 l
3.49 2.15 l
3.49 5.14 l
3.49 1.61 l
3.49 4.82 l
3.50 1.95 l
3.49 5.27 l
3.49 -2.60 l
3.49 4.60 l
3.49 4.69 l
3.49 3.13 l
3.49 4.65 l
3.49 2.67 l
3.49 1.43 l
3.49 3.47 l
3.49 3.94 l
3.50 2.80 l
3.49 2.02 l
3.49 3.26 l
3.49 4.12 l
3.49 2.93 l
3.49 1.44 l
3.49 3.46 l
3.49 3.05 l
3.49 3.06 l
3.49 1.33 l
3.49 1.75 l
3.50 2.38 l
3.49 2.16 l
3.49 4.97 l
3.49 -3.34 l
3.49 0.93 l
3.49 2.98 l
423.49 368.56 lineto
3.49 1.94 l
3.49 0.98 l
3.49 2.49 l
3.49 4.09 l
3.50 11.80 l
3.49 31.29 l
o
0 0.5725 1 srgb
np
74.40 246.73 m
3.49 -63.23 l
3.49 -14.89 l
3.49 4.68 l
3.49 -14.17 l
3.49 -5.72 l
3.50 6.95 l
3.49 -5.31 l
3.49 -12.35 l
3.49 9.65 l
3.49 -2.41 l
3.49 -8.43 l
3.49 16.55 l
3.49 -18.21 l
3.49 17.99 l
3.49 0.76 l
3.49 0.42 l
3.50 7.92 l
3.49 1.68 l
3.49 -1.21 l
3.49 -2.69 l
3.49 9.56 l
3.49 -2.58 l
3.49 0.59 l
3.49 4.57 l
3.49 -7.37 l
3.49 4.37 l
3.49 -5.31 l
3.50 7.87 l
3.49 -4.52 l
3.49 -0.20 l
3.49 10.32 l
3.49 -5.21 l
3.49 9.35 l
3.49 -1.15 l
3.49 2.58 l
3.49 0.87 l
3.49 8.33 l
3.49 -6.54 l
3.50 11.56 l
3.49 1.52 l
3.49 2.68 l
3.49 4.00 l
3.49 0.70 l
3.49 4.14 l
3.49 3.73 l
3.49 1.53 l
3.49 0.66 l
3.49 4.44 l
3.49 0.62 l
3.50 5.59 l
3.49 -2.19 l
3.49 2.51 l
3.49 5.72 l
3.49 2.72 l
3.49 1.47 l
3.49 3.87 l
3.49 0.52 l
3.49 2.92 l
3.49 2.53 l
3.49 5.53 l
3.50 1.47 l
3.49 2.28 l
3.49 3.22 l
3.49 3.95 l
3.49 2.71 l
3.49 1.59 l
3.49 3.72 l
3.49 2.79 l
3.49 3.31 l
3.49 2.95 l
3.49 2.00 l
3.50 5.52 l
3.49 2.05 l
3.49 5.07 l
3.49 -3.64 l
3.49 6.17 l
3.49 4.32 l
3.49 2.87 l
3.49 5.65 l
3.49 1.81 l
3.49 2.98 l
3.49 3.10 l
3.50 2.98 l
3.49 3.28 l
3.49 2.68 l
3.49 3.15 l
3.49 3.21 l
3.49 2.12 l
3.49 3.10 l
3.49 2.66 l
3.49 3.24 l
3.49 -0.53 l
3.49 4.00 l
3.50 4.06 l
3.49 -0.72 l
3.49 6.13 l
3.49 -2.71 l
3.49 1.05 l
3.49 3.71 l
423.49 364.98 lineto
3.49 -2.26 l
3.49 2.74 l
3.49 1.90 l
3.49 2.54 l
3.50 6.38 l
3.49 19.46 l
o
0 0.4941 1 srgb
np
74.40 244.94 m
3.49 -57.65 l
3.49 -23.27 l
3.49 -14.09 l
3.49 -3.46 l
3.49 14.28 l
3.50 -17.30 l
3.49 19.94 l
3.49 -8.35 l
3.49 -0.50 l
3.49 -9.27 l
3.49 10.61 l
3.49 -4.37 l
3.49 -2.94 l
3.49 8.47 l
3.49 4.78 l
3.49 7.23 l
3.50 4.80 l
3.49 -2.76 l
3.49 -4.16 l
3.49 0.47 l
3.49 0.91 l
3.49 -5.74 l
3.49 9.12 l
3.49 0.59 l
3.49 -3.74 l
3.49 3.02 l
3.49 -6.43 l
3.50 11.99 l
3.49 -8.22 l
3.49 7.29 l
3.49 5.50 l
3.49 0.99 l
3.49 0.31 l
3.49 1.85 l
3.49 -4.94 l
3.49 10.44 l
3.49 6.41 l
3.49 4.26 l
3.50 -0.39 l
3.49 1.74 l
3.49 2.24 l
3.49 8.16 l
3.49 -1.95 l
3.49 1.92 l
3.49 3.12 l
3.49 3.33 l
3.49 4.84 l
3.49 0.11 l
3.49 1.72 l
3.50 1.74 l
3.49 7.94 l
3.49 -1.03 l
3.49 6.85 l
3.49 -2.08 l
3.49 0.94 l
3.49 5.90 l
3.49 1.78 l
3.49 3.36 l
3.49 2.92 l
3.49 3.18 l
3.50 0.62 l
3.49 3.71 l
3.49 -0.97 l
3.49 7.52 l
3.49 3.14 l
3.49 1.68 l
3.49 2.36 l
3.49 3.21 l
3.49 2.47 l
3.49 3.21 l
3.49 3.36 l
3.50 3.59 l
3.49 2.73 l
3.49 3.29 l
3.49 5.97 l
3.49 -1.35 l
3.49 3.65 l
3.49 4.94 l
3.49 0.51 l
3.49 6.67 l
3.49 1.16 l
3.49 3.45 l
3.50 2.55 l
3.49 4.49 l
3.49 2.12 l
3.49 3.50 l
3.49 2.39 l
3.49 3.10 l
3.49 3.81 l
3.49 1.01 l
3.49 3.24 l
3.49 3.16 l
3.49 2.10 l
3.50 0.58 l
3.49 4.64 l
3.49 -3.21 l
3.49 9.09 l
3.49 1.92 l
3.49 -1.92 l
423.49 364.40 lineto
3.49 4.35 l
3.49 -2.62 l
3.49 2.14 l
3.49 3.19 l
3.50 4.54 l
3.49 15.01 l
o
0 0.4157 1 srgb
np
74.40 242.92 m
3.49 -65.26 l
3.49 -2.04 l
3.49 -20.46 l
3.49 -5.23 l
3.49 -3.46 l
3.50 -0.17 l
3.49 0 l
3.49 6.84 l
3.49 -10.07 l
3.49 -29.91 l
3.49 18.17 l
3.49 20.73 l
3.49 -7.69 l
3.49 4.20 l
3.49 -3.30 l
3.49 11.08 l
3.50 5.85 l
3.49 -3.19 l
3.49 8.77 l
3.49 -1.73 l
3.49 2.19 l
3.49 -0.77 l
3.49 4.55 l
3.49 -3.04 l
3.49 -1.66 l
3.49 7.01 l
3.49 -15.32 l
3.50 6.04 l
3.49 1.08 l
3.49 8.56 l
3.49 2.27 l
3.49 4.08 l
3.49 -1.14 l
3.49 3.77 l
3.49 -2.35 l
3.49 10.06 l
3.49 -1.04 l
3.49 7.86 l
3.50 -1.40 l
3.49 6.66 l
3.49 2.98 l
3.49 -2.81 l
3.49 5.49 l
3.49 -1.50 l
3.49 10.42 l
3.49 -0.75 l
3.49 3.83 l
3.49 2.39 l
3.49 0.79 l
3.50 4.36 l
3.49 3.34 l
3.49 1.83 l
3.49 1.26 l
3.49 2.56 l
3.49 2.74 l
3.49 3.61 l
3.49 0.20 l
3.49 3.31 l
3.49 3.01 l
3.49 2.57 l
3.50 4.19 l
3.49 2.80 l
3.49 4.13 l
3.49 -1.60 l
3.49 6.07 l
3.49 3.12 l
3.49 2.72 l
3.49 1.00 l
3.49 4.05 l
3.49 3.31 l
3.49 3.84 l
3.50 2.80 l
3.49 4.17 l
3.49 3.71 l
3.49 2.00 l
3.49 5.71 l
3.49 -2.45 l
3.49 6.38 l
3.49 2.99 l
3.49 1.82 l
3.49 5.81 l
3.49 1.30 l
3.50 2.82 l
3.49 2.64 l
3.49 3.13 l
3.49 3.42 l
3.49 1.76 l
3.49 3.88 l
3.49 2.45 l
3.49 3.81 l
3.49 1.46 l
3.49 4.24 l
3.49 1.56 l
3.50 1.31 l
3.49 1.05 l
3.49 4.55 l
3.49 0.92 l
3.49 4.28 l
3.49 1.14 l
423.49 357.29 lineto
3.49 7.99 l
3.49 9.58 l
3.49 2.33 l
3.49 3.19 l
3.50 6.33 l
3.49 11.89 l
3.49 32.60 l
o
0 0.3373 1 srgb
np
74.40 241.64 m
3.49 -70.62 l
3.49 0.60 l
3.49 0.72 l
3.49 -21.68 l
3.49 3.76 l
3.50 -5.39 l
3.49 -0.15 l
3.49 -8.83 l
3.49 13.09 l
3.49 -21.23 l
3.49 -0.29 l
3.49 7.57 l
3.49 14.85 l
3.49 -9.67 l
3.49 15.17 l
3.49 -4.26 l
3.50 9.94 l
3.49 2.02 l
3.49 -8.23 l
3.49 6.04 l
3.49 0.08 l
3.49 0.59 l
3.49 2.59 l
3.49 -3.60 l
3.49 1.17 l
3.49 2.51 l
3.49 -7.34 l
3.50 6.11 l
3.49 6.63 l
3.49 4.13 l
3.49 2.98 l
3.49 -1.70 l
3.49 2.49 l
3.49 7.39 l
3.49 2.20 l
3.49 9.16 l
3.49 -6.10 l
3.49 -4.00 l
3.50 8.23 l
3.49 0.27 l
3.49 6.71 l
3.49 1.61 l
3.49 5.59 l
3.49 0.43 l
3.49 3.47 l
3.49 0.70 l
3.49 1.89 l
3.49 5.37 l
3.49 1.59 l
3.50 1.98 l
3.49 1.97 l
3.49 2.03 l
3.49 5.41 l
3.49 -0.47 l
3.49 5.35 l
3.49 -1.07 l
3.49 5.45 l
3.49 -0.97 l
3.49 5.97 l
3.49 3.39 l
3.50 -1.06 l
3.49 5.57 l
3.49 1.26 l
3.49 3.61 l
3.49 3.22 l
3.49 3.63 l
3.49 1.70 l
3.49 3.71 l
3.49 0.11 l
3.49 5.83 l
3.49 4.79 l
3.50 1.53 l
3.49 3.83 l
3.49 2.56 l
3.49 3.67 l
3.49 2.07 l
3.49 5.72 l
3.49 -1.81 l
3.49 3.92 l
3.49 4.75 l
3.49 2.56 l
3.49 4.87 l
3.50 1.74 l
3.49 3.94 l
3.49 3.04 l
3.49 3.37 l
3.49 2.43 l
3.49 2.77 l
3.49 2.14 l
3.49 4.56 l
3.49 1.33 l
3.49 2.08 l
3.49 4.39 l
3.50 3.78 l
3.49 0.45 l
3.49 -0.18 l
3.49 -0.65 l
3.49 7.07 l
3.49 -0.94 l
423.49 363.03 lineto
3.49 8.86 l
3.49 1.88 l
3.49 2.77 l
3.49 3.64 l
3.50 6.78 l
3.49 20.58 l
o
0 0.2588 1 srgb
np
74.40 237.35 m
3.49 -65.46 l
3.49 -0.87 l
3.49 -24.22 l
3.49 -29.39 l
3.49 21.11 l
3.50 13.68 l
3.49 -30.69 l
3.49 29.72 l
3.49 -23.68 l
3.49 23.40 l
3.49 -5.16 l
3.49 4.58 l
3.49 -5.28 l
3.49 4.84 l
3.49 -8.43 l
3.49 23.38 l
3.50 5.59 l
3.49 -4.18 l
3.49 0.95 l
3.49 -1.69 l
3.49 3.86 l
3.49 -9.36 l
3.49 9.86 l
3.49 -9.36 l
3.49 4.25 l
3.49 -10.89 l
3.49 7.33 l
3.50 2.51 l
3.49 6.72 l
3.49 -1.79 l
3.49 3.01 l
3.49 -5.08 l
3.49 0.16 l
3.49 13.56 l
3.49 6.58 l
3.49 4.34 l
3.49 -2.73 l
3.49 -0.47 l
3.50 5.68 l
3.49 -1.01 l
3.49 8.62 l
3.49 -1.57 l
3.49 12.23 l
3.49 2.57 l
3.49 -0.81 l
3.49 3.54 l
3.49 0.24 l
3.49 3.12 l
3.49 3.77 l
3.50 0.33 l
3.49 3.20 l
3.49 3.34 l
3.49 3.36 l
3.49 5.00 l
3.49 1.28 l
3.49 1.20 l
3.49 5.81 l
3.49 -1.22 l
3.49 2.04 l
3.49 6.71 l
3.50 -2.07 l
3.49 4.07 l
3.49 1.65 l
3.49 4.36 l
3.49 1.40 l
3.49 3.13 l
3.49 3.85 l
3.49 3.54 l
3.49 4.42 l
3.49 2.24 l
3.49 2.24 l
3.50 3.19 l
3.49 3.64 l
3.49 3.08 l
3.49 2.59 l
3.49 4.80 l
3.49 2.25 l
3.49 4.80 l
3.49 -1.56 l
3.49 5.09 l
3.49 3.54 l
3.49 2.04 l
3.50 6.30 l
3.49 1.31 l
3.49 4.01 l
3.49 3.61 l
3.49 1.91 l
3.49 3.14 l
3.49 2.80 l
3.49 2.23 l
3.49 3.44 l
3.49 1.25 l
3.49 2.59 l
3.50 2.73 l
3.49 4.58 l
3.49 0.33 l
3.49 1.40 l
3.49 3.35 l
3.49 -1.31 l
423.49 357.98 lineto
3.49 6.17 l
3.49 7.49 l
3.49 2.11 l
3.49 3.23 l
3.50 5.72 l
3.49 19.97 l
o
0 0.1804 1 srgb
np
74.40 235.98 m
3.49 -65.58 l
3.49 -17.26 l
3.49 -4.11 l
3.49 -21.14 l
3.49 15.93 l
3.50 -5.30 l
3.49 15.90 l
3.49 9.33 l
3.49 -20.30 l
3.49 11.83 l
3.49 -34.19 l
3.49 15.07 l
3.49 9.28 l
3.49 -6.25 l
3.49 -4.03 l
3.49 18.24 l
3.50 16.01 l
3.49 -3.12 l
3.49 -5.84 l
3.49 3.83 l
3.49 -2.84 l
3.49 10.38 l
3.49 -7.63 l
3.49 -1.34 l
3.49 -4.69 l
3.49 7.64 l
3.49 3.18 l
3.50 2.38 l
3.49 -6.39 l
3.49 11.16 l
3.49 -3.28 l
3.49 -3.29 l
3.49 3.29 l
3.49 4.11 l
3.49 9.95 l
3.49 1.11 l
3.49 -7.98 l
3.49 12.74 l
3.50 1.56 l
3.49 -1.53 l
3.49 8.13 l
3.49 4.55 l
3.49 -1.70 l
3.49 6.24 l
3.49 1.09 l
3.49 6.12 l
3.49 0.84 l
3.49 3.11 l
3.49 4.75 l
3.50 -1.33 l
3.49 6.67 l
3.49 -0.82 l
3.49 5.63 l
3.49 1.12 l
3.49 3.75 l
3.49 -0.11 l
3.49 4.10 l
3.49 0.85 l
3.49 2.62 l
3.49 2.33 l
3.50 3.90 l
3.49 2.56 l
3.49 2.27 l
3.49 4.52 l
3.49 4.21 l
3.49 0.70 l
3.49 2.04 l
3.49 3.33 l
3.49 3.50 l
3.49 3.00 l
3.49 3.51 l
3.50 4.28 l
3.49 1.97 l
3.49 2.57 l
3.49 4.00 l
3.49 2.98 l
3.49 4.06 l
3.49 2.98 l
3.49 3.92 l
3.49 0.86 l
3.49 2.39 l
3.49 4.93 l
3.50 2.60 l
3.49 5.58 l
3.49 1.62 l
3.49 2.21 l
3.49 3.82 l
3.49 3.90 l
3.49 2.58 l
3.49 1.94 l
3.49 2.83 l
3.49 4.76 l
3.49 0.60 l
3.50 3.76 l
3.49 1.71 l
3.49 1.16 l
3.49 1.68 l
3.49 4.05 l
3.49 2.06 l
423.49 371.46 lineto
3.49 2.85 l
3.49 -2.01 l
3.49 3.11 l
3.49 4.62 l
3.50 8.02 l
3.49 19.20 l
o
0 0.1020 1 srgb
np
74.40 230.42 m
3.49 -63.26 l
3.49 -17.08 l
3.49 13.13 l
3.49 -8.05 l
3.49 -21.04 l
3.50 15.67 l
3.49 -4.52 l
3.49 -16.72 l
3.49 14.90 l
3.49 2.68 l
3.49 -6.08 l
3.49 3.02 l
3.49 2.72 l
3.49 15.45 l
3.49 8.67 l
3.49 -17.85 l
3.50 14.79 l
3.49 0.39 l
3.49 -4.57 l
3.49 5.57 l
3.49 -5.03 l
3.49 5.99 l
3.49 -12.04 l
3.49 16.01 l
3.49 -4.86 l
3.49 -5.64 l
3.49 -4.95 l
3.50 14.03 l
3.49 -4.43 l
3.49 -2.35 l
3.49 4.44 l
3.49 2.41 l
3.49 7.63 l
3.49 2.10 l
3.49 2.21 l
3.49 5.70 l
3.49 -8.18 l
3.49 7.84 l
3.50 3.66 l
3.49 7.41 l
3.49 0.05 l
3.49 7.01 l
3.49 -3.06 l
3.49 4.24 l
3.49 6.87 l
3.49 0.68 l
3.49 5.95 l
3.49 1.59 l
3.49 0.32 l
3.50 3.46 l
3.49 5.09 l
3.49 -0.09 l
3.49 3.12 l
3.49 -1.30 l
3.49 4.27 l
3.49 3.06 l
3.49 4.10 l
3.49 -0.59 l
3.49 4.57 l
3.49 0.85 l
3.50 2.77 l
3.49 2.11 l
3.49 2.50 l
3.49 4.84 l
3.49 1.65 l
3.49 3.88 l
3.49 2.82 l
3.49 3.60 l
3.49 1.57 l
3.49 3.37 l
3.49 2.87 l
3.50 3.87 l
3.49 2.27 l
3.49 4.78 l
3.49 4.46 l
3.49 1.12 l
3.49 3.27 l
3.49 4.44 l
3.49 2.07 l
3.49 6.17 l
3.49 -2.21 l
3.49 6.61 l
3.50 2.64 l
3.49 2.24 l
3.49 6.97 l
3.49 0.27 l
3.49 3.80 l
3.49 2.04 l
3.49 2.91 l
3.49 2.81 l
3.49 4.57 l
3.49 1.54 l
3.49 0.96 l
3.50 2.34 l
3.49 2.25 l
3.49 1.94 l
3.49 6.27 l
3.49 3.88 l
3.49 -7.23 l
423.49 365.20 lineto
3.49 -0.64 l
3.49 3.90 l
3.49 2.29 l
3.49 3.72 l
3.50 7.72 l
3.49 23.71 l
o
0 0.0275 1 srgb
np
74.40 229.04 m
3.49 -65.56 l
3.49 -4.68 l
3.49 -8.72 l
3.49 -3.61 l
3.49 2.56 l
3.50 -5.96 l
3.49 6.72 l
3.49 -20.28 l
3.49 -25.91 l
3.49 42.70 l
3.49 -6.25 l
3.49 0 l
3.49 -3.89 l
3.49 12.25 l
3.49 6.01 l
3.49 5.01 l
3.50 2.77 l
3.49 -0.57 l
3.49 7.71 l
3.49 -8.10 l
3.49 7.88 l
3.49 -9.38 l
3.49 4.80 l
3.49 4.00 l
3.49 -2.49 l
3.49 7.43 l
3.49 -9.82 l
3.50 4.05 l
3.49 -0.70 l
3.49 8.61 l
3.49 -3.21 l
3.49 -0.99 l
3.49 8.18 l
3.49 -7.98 l
3.49 14.87 l
3.49 -5.26 l
3.49 4.01 l
3.49 7.24 l
3.50 2.98 l
3.49 7.78 l
3.49 -2.68 l
3.49 10.05 l
3.49 -5.21 l
3.49 3.94 l
3.49 -2.27 l
3.49 7.75 l
3.49 3.12 l
3.49 4.17 l
3.49 5.66 l
3.50 -1.27 l
3.49 2.12 l
3.49 3.59 l
3.49 3.86 l
3.49 -1.30 l
3.49 4.61 l
3.49 1.89 l
3.49 4.05 l
3.49 1.24 l
3.49 1.80 l
3.49 3.35 l
3.50 1.73 l
3.49 -0.43 l
3.49 5.42 l
3.49 2.05 l
3.49 2.78 l
3.49 5.61 l
3.49 -0.22 l
3.49 4.00 l
3.49 3.69 l
3.49 3.32 l
3.49 2.19 l
3.50 3.13 l
3.49 4.66 l
3.49 2.14 l
3.49 3.69 l
3.49 3.30 l
3.49 3.99 l
3.49 3.00 l
3.49 4.66 l
3.49 1.29 l
3.49 6.35 l
3.49 -2.14 l
3.50 4.60 l
3.49 4.31 l
3.49 2.64 l
3.49 4.66 l
3.49 1.40 l
3.49 3.63 l
3.49 2.42 l
3.49 3.23 l
3.49 1.68 l
3.49 3.28 l
3.49 2.82 l
3.50 3.66 l
3.49 0.87 l
3.49 3.13 l
3.49 2.99 l
3.49 -6.68 l
3.49 5.48 l
423.49 363.70 lineto
3.49 -0.65 l
3.49 -0.25 l
3.49 1.79 l
3.49 2.54 l
3.50 5.50 l
3.49 17.41 l
o
0.0510 0 1 srgb
np
74.40 232.04 m
3.49 -58.50 l
3.49 -10.06 l
3.49 -32.15 l
3.49 0 l
3.49 14.97 l
3.50 -5.00 l
3.49 -13.41 l
3.49 12.16 l
3.49 -1.76 l
3.49 -15.94 l
3.49 14.30 l
3.49 -4.45 l
3.49 4.21 l
3.49 16.46 l
3.49 14.06 l
3.49 -21.84 l
3.50 21.12 l
3.49 -1.41 l
3.49 5.11 l
3.49 -12.19 l
3.49 6.03 l
3.49 1.30 l
3.49 4.72 l
3.49 -7.38 l
3.49 8.49 l
3.49 -13.28 l
3.49 -0.33 l
3.50 14.15 l
3.49 -1.09 l
3.49 0.48 l
3.49 3.88 l
3.49 4.96 l
3.49 -2.85 l
3.49 4.24 l
3.49 -0.18 l
3.49 3.23 l
3.49 4.00 l
3.49 6.93 l
3.50 -3.99 l
3.49 2.62 l
3.49 7.47 l
3.49 2.89 l
3.49 -0.08 l
3.49 5.04 l
3.49 2.71 l
3.49 3.31 l
3.49 1.39 l
3.49 3.37 l
3.49 2.01 l
3.50 4.38 l
3.49 2.97 l
3.49 1.72 l
3.49 -0.83 l
3.49 4.96 l
3.49 3.48 l
3.49 2.26 l
3.49 4.50 l
3.49 1.18 l
3.49 -0.55 l
3.49 5.54 l
3.50 1.52 l
3.49 1.70 l
3.49 2.53 l
3.49 0.84 l
3.49 6.69 l
3.49 0.36 l
3.49 4.97 l
3.49 2.01 l
3.49 2.43 l
3.49 4.01 l
3.49 4.62 l
3.50 1.60 l
3.49 4.83 l
3.49 1.47 l
3.49 4.44 l
3.49 2.06 l
3.49 3.13 l
3.49 4.63 l
3.49 2.77 l
3.49 4.69 l
3.49 2.43 l
3.49 6.69 l
3.50 -1.64 l
3.49 2.63 l
3.49 4.66 l
3.49 0.81 l
3.49 6.60 l
3.49 1.54 l
3.49 4.61 l
3.49 1.05 l
3.49 2.08 l
3.49 3.01 l
3.49 3.50 l
3.50 3.33 l
3.49 2.46 l
3.49 2.16 l
3.49 1.85 l
3.49 3.70 l
3.49 -3.79 l
423.49 364.61 lineto
3.49 -0.42 l
3.49 3.00 l
3.49 2.04 l
3.49 2.97 l
3.50 4.50 l
3.49 12.34 l
3.49 42.16 l
o
0.1294 0 1 srgb
np
74.40 229.71 m
3.49 -63.18 l
3.49 -16.45 l
3.49 8.83 l
3.49 -16.61 l
3.49 -29.72 l
3.50 10.97 l
3.49 12.61 l
3.49 2.81 l
3.49 7.83 l
3.49 -31.43 l
3.49 29.00 l
3.49 -4.32 l
3.49 8.52 l
3.49 -12.41 l
3.49 9.46 l
3.49 2.48 l
3.50 12.85 l
3.49 -5.31 l
3.49 16.77 l
3.49 -8.39 l
3.49 -3.47 l
3.49 0.50 l
3.49 4.91 l
3.49 1.05 l
3.49 -9.41 l
3.49 8.12 l
3.49 2.82 l
3.50 -6.81 l
3.49 0.84 l
3.49 3.07 l
3.49 0.16 l
3.49 5.35 l
3.49 11.79 l
3.49 5.62 l
3.49 -7.56 l
3.49 7.23 l
3.49 4.64 l
3.49 -9.84 l
3.50 12.32 l
3.49 -2.51 l
3.49 4.66 l
3.49 7.61 l
3.49 1.98 l
3.49 1.17 l
3.49 3.86 l
3.49 0.19 l
3.49 7.20 l
3.49 1.97 l
3.49 0.91 l
3.50 5.59 l
3.49 0.52 l
3.49 2.67 l
3.49 -2.09 l
3.49 8.48 l
3.49 1.35 l
3.49 2.68 l
3.49 0.98 l
3.49 6.33 l
3.49 1.35 l
3.49 0.47 l
3.50 2.88 l
3.49 0.57 l
3.49 5.56 l
3.49 1.79 l
3.49 0.47 l
3.49 4.04 l
3.49 2.57 l
3.49 3.66 l
3.49 2.95 l
3.49 1.53 l
3.49 5.11 l
3.50 2.61 l
3.49 3.13 l
3.49 3.70 l
3.49 3.74 l
3.49 3.33 l
3.49 2.77 l
3.49 4.69 l
3.49 1.66 l
3.49 4.71 l
3.49 3.73 l
3.49 2.86 l
3.50 5.34 l
3.49 -2.46 l
3.49 7.24 l
3.49 2.87 l
3.49 2.69 l
3.49 4.39 l
3.49 3.09 l
3.49 1.71 l
3.49 1.78 l
3.49 4.43 l
3.49 1.64 l
3.50 1.84 l
3.49 3.15 l
3.49 2.17 l
3.49 2.47 l
3.49 -1.31 l
3.49 1.91 l
423.49 360.87 lineto
3.49 2.36 l
3.49 7.34 l
3.49 1.64 l
3.49 2.55 l
3.50 4.58 l
3.49 10.01 l
3.49 41.85 l
o
0.2078 0 1 srgb
np
74.40 228.67 m
3.49 -52.32 l
3.49 -34.65 l
3.49 -10.37 l
3.49 -7.78 l
3.49 7.78 l
3.50 10.97 l
3.49 7.63 l
3.49 -38.55 l
3.49 27.59 l
3.49 13.23 l
3.49 -23.01 l
3.49 -6.84 l
3.49 23.78 l
3.49 -9.97 l
3.49 12.10 l
3.49 8.09 l
3.50 0 l
3.49 8.62 l
3.49 0.91 l
3.49 -0.16 l
3.49 -7.56 l
3.49 3.66 l
3.49 -8.68 l
3.49 1.28 l
3.49 -5.24 l
3.49 11.97 l
3.49 3.56 l
3.50 0.26 l
3.49 -2.30 l
3.49 -4.73 l
3.49 10.52 l
3.49 1.31 l
3.49 4.80 l
3.49 2.71 l
3.49 11.20 l
3.49 -7.53 l
3.49 8.82 l
3.49 4.37 l
3.50 -10.59 l
3.49 17.32 l
3.49 -3.14 l
3.49 3.14 l
3.49 5.42 l
3.49 -2.60 l
3.49 5.08 l
3.49 9.61 l
3.49 -2.50 l
3.49 3.81 l
3.49 1.83 l
3.50 0.13 l
3.49 7.41 l
3.49 -2.67 l
3.49 5.66 l
3.49 1.10 l
3.49 4.07 l
3.49 0.78 l
3.49 2.98 l
3.49 4.53 l
3.49 1.39 l
3.49 1.84 l
3.50 3.65 l
3.49 2.25 l
3.49 3.46 l
3.49 0.08 l
3.49 3.10 l
3.49 3.19 l
3.49 2.79 l
3.49 3.71 l
3.49 4.42 l
3.49 0.96 l
3.49 2.97 l
3.50 3.62 l
3.49 3.36 l
3.49 3.08 l
3.49 3.89 l
3.49 3.48 l
3.49 3.10 l
3.49 3.91 l
3.49 2.31 l
3.49 3.87 l
3.49 3.92 l
3.49 4.14 l
3.50 3.00 l
3.49 4.55 l
3.49 -1.50 l
3.49 7.56 l
3.49 1.90 l
3.49 1.19 l
3.49 4.84 l
3.49 2.67 l
3.49 2.19 l
3.49 2.04 l
3.49 2.84 l
3.50 3.67 l
3.49 2.37 l
3.49 1.57 l
3.49 2.17 l
3.49 -0.09 l
3.49 -1.25 l
423.49 362.20 lineto
3.49 0 l
3.49 1.62 l
3.49 1.04 l
3.49 1.73 l
3.50 3.40 l
3.49 8.97 l
3.49 14.05 l
o
0.2863 0 1 srgb
np
74.40 223.76 m
3.49 -64.43 l
3.49 -10.30 l
3.49 9.02 l
3.49 -26.72 l
3.49 15.31 l
3.50 -9.27 l
3.49 4.73 l
3.49 -11.06 l
3.49 -8.69 l
3.49 20.72 l
3.49 13.63 l
3.49 -22.58 l
3.49 22.00 l
3.49 -7.55 l
3.49 6.34 l
3.49 -9.29 l
3.50 8.80 l
3.49 20.51 l
3.49 -14.28 l
3.49 5.07 l
3.49 -21.53 l
3.49 13.86 l
3.49 2.30 l
3.49 1.85 l
3.49 -3.50 l
3.49 13.25 l
3.49 -6.73 l
3.50 -0.60 l
3.49 -3.77 l
3.49 5.52 l
3.49 13.18 l
3.49 -6.95 l
3.49 -4.89 l
3.49 13.94 l
3.49 -5.24 l
3.49 8.63 l
3.49 -0.12 l
3.49 3.24 l
3.50 5.52 l
3.49 4.37 l
3.49 -3.59 l
3.49 1.68 l
3.49 6.77 l
3.49 4.80 l
3.49 3.18 l
3.49 3.12 l
3.49 4.37 l
3.49 4.02 l
3.49 -1.25 l
3.50 3.62 l
3.49 1.26 l
3.49 1.75 l
3.49 5.44 l
3.49 1.03 l
3.49 1.85 l
3.49 2.93 l
3.49 3.47 l
3.49 0.90 l
3.49 5.59 l
3.49 -0.50 l
3.50 5.19 l
3.49 -0.49 l
3.49 3.57 l
3.49 1.92 l
3.49 2.22 l
3.49 3.23 l
3.49 3.77 l
3.49 3.57 l
3.49 1.17 l
3.49 3.45 l
3.49 2.72 l
3.50 3.41 l
3.49 3.70 l
3.49 2.95 l
3.49 2.93 l
3.49 5.12 l
3.49 2.52 l
3.49 4.01 l
3.49 3.13 l
3.49 3.75 l
3.49 2.95 l
3.49 2.88 l
3.50 5.48 l
3.49 1.77 l
3.49 5.12 l
3.49 -0.51 l
3.49 3.64 l
3.49 4.91 l
3.49 1.60 l
3.49 5.90 l
3.49 1.73 l
3.49 2.24 l
3.49 3.09 l
3.50 1.89 l
3.49 1.40 l
3.49 3.19 l
3.49 2.55 l
3.49 1.70 l
3.49 -2.42 l
423.49 364.42 lineto
3.49 1.61 l
3.49 2.62 l
3.49 0.83 l
3.49 1.61 l
3.50 3.00 l
3.49 6.90 l
3.49 24.99 l
o
0.3647 0 1 srgb
np
74.40 223.06 m
3.49 -65.01 l
3.49 5.34 l
3.49 -41.04 l
3.49 14.30 l
3.49 -13.10 l
3.50 0 l
3.49 18.75 l
3.49 -18.75 l
3.49 13.58 l
3.49 -7.00 l
3.49 -2.24 l
3.49 -40.69 l
3.49 35.95 l
3.49 5.07 l
3.49 11.62 l
3.49 -0.22 l
3.50 10.75 l
3.49 9.17 l
3.49 -5.37 l
3.49 9.13 l
3.49 -6.37 l
3.49 -5.84 l
3.49 14.96 l
3.49 0.48 l
3.49 -11.74 l
3.49 -12.30 l
3.49 16.84 l
3.50 4.77 l
3.49 1.37 l
3.49 6.68 l
3.49 -3.39 l
3.49 -4.39 l
3.49 6.58 l
3.49 9.33 l
3.49 1.27 l
3.49 1.13 l
3.49 1.08 l
3.49 4.00 l
3.50 7.04 l
3.49 -0.31 l
3.49 3.16 l
3.49 5.81 l
3.49 1.42 l
3.49 3.64 l
3.49 -2.88 l
3.49 5.49 l
3.49 5.94 l
3.49 0.81 l
3.49 1.81 l
3.50 0.64 l
3.49 2.75 l
3.49 6.93 l
3.49 0.73 l
3.49 1.62 l
3.49 3.65 l
3.49 4.09 l
3.49 -0.60 l
3.49 4.61 l
3.49 2.11 l
3.49 1.43 l
3.50 4.15 l
3.49 3.76 l
3.49 1.20 l
3.49 2.11 l
3.49 1.82 l
3.49 3.01 l
3.49 1.28 l
3.49 3.88 l
3.49 2.09 l
3.49 2.47 l
3.49 2.51 l
3.50 6.04 l
3.49 1.60 l
3.49 3.09 l
3.49 4.12 l
3.49 3.13 l
3.49 4.12 l
3.49 2.56 l
3.49 4.32 l
3.49 3.09 l
3.49 3.51 l
3.49 3.79 l
3.50 2.83 l
3.49 3.99 l
3.49 2.39 l
3.49 6.63 l
3.49 -0.91 l
3.49 4.99 l
3.49 1.69 l
3.49 2.29 l
3.49 5.79 l
3.49 1.30 l
3.49 3.54 l
3.50 2.78 l
3.49 1.80 l
3.49 2.24 l
3.49 -0.42 l
3.49 2.32 l
3.49 -1.74 l
423.49 363.53 lineto
3.49 4.06 l
3.49 -3.98 l
3.49 0.42 l
3.49 0.23 l
3.50 1.84 l
3.49 4.82 l
3.49 14.83 l
o
0.4431 0 1 srgb
np
74.40 222.12 m
3.49 -61.07 l
3.49 -7.91 l
3.49 -23.63 l
3.49 11.59 l
3.49 -4.45 l
3.50 9.65 l
3.49 -33.72 l
3.49 0 l
3.49 10.97 l
3.49 26.24 l
3.49 -19.66 l
3.49 -2.24 l
3.49 -10.97 l
3.49 24.78 l
3.49 5.27 l
3.49 3.84 l
3.50 5.77 l
3.49 3.06 l
3.49 2.75 l
3.49 -6.51 l
3.49 4.47 l
3.49 -16.34 l
3.49 8.99 l
3.49 -2.48 l
3.49 17.03 l
3.49 -16.60 l
3.49 -11.11 l
3.50 16.74 l
3.49 14.51 l
3.49 -1.39 l
3.49 -3.17 l
3.49 -1.23 l
3.49 1.71 l
3.49 -4.72 l
3.49 17.26 l
3.49 -2.86 l
3.49 9.46 l
3.49 4.68 l
3.50 -0.96 l
3.49 10.59 l
3.49 -3.24 l
3.49 4.95 l
3.49 2.10 l
3.49 3.05 l
3.49 1.70 l
3.49 1.08 l
3.49 -1.58 l
3.49 8.74 l
3.49 1.16 l
3.50 4.87 l
3.49 -0.04 l
3.49 4.38 l
3.49 4.55 l
3.49 -0.25 l
3.49 2.70 l
3.49 3.47 l
3.49 0.40 l
3.49 2.64 l
3.49 7.89 l
3.49 -0.49 l
3.50 3.04 l
3.49 0.39 l
3.49 4.38 l
3.49 0.94 l
3.49 1.69 l
3.49 2.73 l
3.49 4.16 l
3.49 1.97 l
3.49 2.44 l
3.49 6.06 l
3.49 0.14 l
3.50 2.26 l
3.49 2.98 l
3.49 3.94 l
3.49 4.94 l
3.49 3.93 l
3.49 2.48 l
3.49 3.63 l
3.49 2.42 l
3.49 3.81 l
3.49 4.17 l
3.49 3.52 l
3.50 4.10 l
3.49 2.20 l
3.49 4.09 l
3.49 3.17 l
3.49 5.81 l
3.49 -1.68 l
3.49 3.89 l
3.49 2.88 l
3.49 4.04 l
3.49 4.85 l
3.49 1.50 l
3.50 1.85 l
3.49 2.37 l
3.49 1.63 l
3.49 3.21 l
3.49 0.95 l
3.49 -0.38 l
423.49 359.71 lineto
3.49 4.17 l
3.49 -1.99 l
3.49 1.29 l
3.49 0.92 l
3.50 0.58 l
3.49 3.50 l
3.49 9.38 l
3.49 15.40 l
o
0.5176 0 1 srgb
np
74.40 219.59 m
3.49 -60.37 l
3.49 -7.43 l
3.49 -17.40 l
3.49 -12.88 l
3.49 -10.13 l
3.50 0.61 l
3.49 37.80 l
3.49 -37.21 l
3.49 -18.75 l
3.49 48.27 l
3.49 -18.95 l
3.49 6.98 l
3.49 -9.91 l
3.49 26.42 l
3.49 10.17 l
3.49 1.02 l
3.50 -7.02 l
3.49 7.45 l
3.49 -8.18 l
3.49 5.80 l
3.49 7.69 l
3.49 -8.29 l
3.49 2.98 l
3.49 1.38 l
3.49 10.41 l
3.49 -13.01 l
3.49 6.08 l
3.50 -0.92 l
3.49 2.42 l
3.49 7.13 l
3.49 -9.36 l
3.49 14.79 l
3.49 -1.56 l
3.49 3.73 l
3.49 -9.37 l
3.49 4.59 l
3.49 9.82 l
3.49 6.25 l
3.50 -2.91 l
3.49 7.23 l
3.49 6.16 l
3.49 -0.41 l
3.49 -1.75 l
3.49 6.34 l
3.49 -1.07 l
3.49 4.76 l
3.49 3.55 l
3.49 1.69 l
3.49 8.10 l
3.50 3.97 l
3.49 0.18 l
3.49 1.02 l
3.49 -0.03 l
3.49 4.69 l
3.49 2.69 l
3.49 2.26 l
3.49 4.26 l
3.49 2.26 l
3.49 2.87 l
3.49 3.33 l
3.50 -0.84 l
3.49 2.36 l
3.49 2.71 l
3.49 3.57 l
3.49 2.95 l
3.49 1.49 l
3.49 2.58 l
3.49 1.94 l
3.49 2.20 l
3.49 2.00 l
3.49 3.67 l
3.50 3.25 l
3.49 6.21 l
3.49 2.58 l
3.49 2.84 l
3.49 1.91 l
3.49 4.28 l
3.49 2.04 l
3.49 5.33 l
3.49 5.16 l
3.49 2.04 l
3.49 3.31 l
3.50 3.67 l
3.49 4.07 l
3.49 3.74 l
3.49 3.21 l
3.49 1.99 l
3.49 5.53 l
3.49 -2.42 l
3.49 5.74 l
3.49 3.27 l
3.49 0.51 l
3.49 6.53 l
3.50 3.95 l
3.49 0.12 l
3.49 3.56 l
3.49 0.64 l
3.49 1.46 l
3.49 3.69 l
423.49 360.64 lineto
3.49 0.80 l
3.49 2.87 l
3.49 1.48 l
3.49 2.04 l
3.50 1.54 l
3.49 1.26 l
3.49 6.75 l
3.49 24.10 l
o
0.5961 0 1 srgb
np
74.40 222.43 m
3.49 -56.71 l
3.49 -25.46 l
3.49 -13.39 l
3.49 7.52 l
3.49 -12.88 l
3.50 30.55 l
3.49 -21.63 l
3.49 11.47 l
3.49 -29.32 l
3.49 18.75 l
3.49 5.80 l
3.49 -0.24 l
3.49 -14.54 l
3.49 20.53 l
3.49 9.18 l
3.49 2.73 l
3.50 -5.45 l
3.49 -17.43 l
3.49 33.64 l
3.49 3.21 l
3.49 -0.37 l
3.49 -3.68 l
3.49 0.76 l
3.49 -7.42 l
3.49 -5.44 l
3.49 7.84 l
3.49 -1.97 l
3.50 6.91 l
3.49 -13.05 l
3.49 15.06 l
3.49 0.23 l
3.49 1.93 l
3.49 12.85 l
3.49 -7.48 l
3.49 5.97 l
3.49 1.15 l
3.49 -0.18 l
3.49 0.09 l
3.50 11.27 l
3.49 -8.39 l
3.49 11.33 l
3.49 2.84 l
3.49 2.00 l
3.49 6.77 l
3.49 0.96 l
3.49 -1.47 l
3.49 7.38 l
3.49 2.22 l
3.49 1.70 l
3.50 2.13 l
3.49 2.98 l
3.49 2.85 l
3.49 2.53 l
3.49 1.98 l
3.49 0.83 l
3.49 4.96 l
3.49 2.45 l
3.49 2.09 l
3.49 3.85 l
3.49 0.01 l
3.50 5.88 l
3.49 -0.01 l
3.49 2.85 l
3.49 4.24 l
3.49 2.75 l
3.49 0.18 l
3.49 2.50 l
3.49 2.66 l
3.49 5.55 l
3.49 0.33 l
3.49 3.08 l
3.50 2.97 l
3.49 2.32 l
3.49 5.37 l
3.49 3.10 l
3.49 2.94 l
3.49 3.81 l
3.49 4.31 l
3.49 2.34 l
3.49 3.72 l
3.49 4.05 l
3.49 3.88 l
3.50 3.73 l
3.49 3.04 l
3.49 3.56 l
3.49 3.65 l
3.49 3.63 l
3.49 1.33 l
3.49 5.88 l
3.49 -0.72 l
3.49 5.74 l
3.49 3.81 l
3.49 2.12 l
3.50 3.04 l
3.49 1.26 l
3.49 3.32 l
3.49 -0.46 l
3.49 2.75 l
3.49 1.03 l
423.49 364.74 lineto
3.49 -1.54 l
3.49 2.46 l
3.49 1.93 l
3.49 2.30 l
3.50 3.57 l
3.49 2.81 l
3.49 2.71 l
3.49 16.40 l
o
0.6745 0 1 srgb
np
74.40 219.82 m
3.49 -65.03 l
3.49 -6.69 l
3.49 -12.18 l
3.49 9.70 l
3.49 4.46 l
3.50 -9.61 l
3.49 -4.31 l
3.49 -24.17 l
3.49 11.16 l
3.49 14.22 l
3.49 -0.24 l
3.49 0 l
3.49 9.00 l
3.49 -23.78 l
3.49 30.26 l
3.49 -6.14 l
3.50 10.23 l
3.49 -19.57 l
3.49 33.34 l
3.49 -3.70 l
3.49 -14.71 l
3.49 -2.57 l
3.49 16.39 l
3.49 -7.62 l
3.49 4.03 l
3.49 -21.82 l
3.49 18.33 l
3.50 8.44 l
3.49 -8.23 l
3.49 6.29 l
3.49 -1.82 l
3.49 3.21 l
3.49 -1.47 l
3.49 14.08 l
3.49 -5.09 l
3.49 3.87 l
3.49 1.67 l
3.49 4.34 l
3.50 -0.97 l
3.49 9.17 l
3.49 2.02 l
3.49 0.18 l
3.49 8.50 l
3.49 -1.69 l
3.49 6.45 l
3.49 1.88 l
3.49 0.83 l
3.49 8.32 l
3.49 -1.73 l
3.50 3.74 l
3.49 0.26 l
3.49 4.53 l
3.49 5.38 l
3.49 -1.22 l
3.49 2.79 l
3.49 2.17 l
3.49 3.85 l
3.49 -0.21 l
3.49 7.07 l
3.49 0.91 l
3.50 3.56 l
3.49 0.21 l
3.49 2.43 l
3.49 3.11 l
3.49 3.45 l
3.49 2.53 l
3.49 2.48 l
3.49 3.97 l
3.49 2.01 l
3.49 3.85 l
3.49 0.67 l
3.50 2.50 l
3.49 4.75 l
3.49 1.21 l
3.49 4.90 l
3.49 2.47 l
3.49 3.48 l
3.49 3.53 l
3.49 3.90 l
3.49 3.50 l
3.49 3.91 l
3.49 3.16 l
3.50 5.10 l
3.49 3.21 l
3.49 3.07 l
3.49 4.53 l
3.49 2.14 l
3.49 4.28 l
3.49 1.34 l
3.49 5.92 l
3.49 -0.13 l
3.49 4.57 l
3.49 0.14 l
3.50 4.27 l
3.49 5.08 l
3.49 -0.88 l
3.49 0.40 l
3.49 6.75 l
3.49 -0.17 l
423.49 365.11 lineto
3.49 -1.64 l
3.49 -1.06 l
3.49 2.38 l
3.49 2.91 l
3.50 3.81 l
3.49 6.83 l
3.49 6.25 l
3.49 6.65 l
3.49 39.96 l
o
0.7529 0 1 srgb
np
74.40 217.64 m
3.49 -64.77 l
3.49 -24.00 l
3.49 13.03 l
3.49 -35.95 l
3.49 39.67 l
3.50 -25.40 l
3.49 9.29 l
3.49 -7.16 l
o
np
109.31 111.99 m
3.49 19.34 l
3.49 14.97 l
3.49 -9.17 l
3.49 21.13 l
3.49 -3.47 l
3.49 2.70 l
3.50 4.52 l
3.49 -5.43 l
3.49 -0.82 l
3.49 -5.24 l
3.49 -0.29 l
3.49 18.23 l
3.49 4.77 l
3.49 -14.43 l
3.49 -4.01 l
3.49 2.93 l
3.49 2.93 l
3.50 -3.49 l
3.49 -0.46 l
3.49 11.69 l
3.49 -4.20 l
3.49 10.20 l
3.49 -5.19 l
3.49 5.96 l
3.49 2.97 l
3.49 0.77 l
3.49 5.77 l
3.49 -0.62 l
3.50 3.53 l
3.49 6.07 l
3.49 -0.96 l
3.49 5.16 l
3.49 -0.12 l
3.49 11.61 l
3.49 -8.36 l
3.49 9.31 l
3.49 1.93 l
3.49 -2.46 l
3.49 5.94 l
3.50 -0.48 l
3.49 8.61 l
3.49 -0.21 l
3.49 3.80 l
3.49 0.85 l
3.49 3.91 l
3.49 2.14 l
3.49 3.58 l
3.49 4.70 l
3.49 1.05 l
3.49 1.52 l
3.50 3.82 l
3.49 1.41 l
3.49 2.33 l
3.49 3.13 l
3.49 4.00 l
3.49 1.46 l
3.49 1.98 l
3.49 2.69 l
3.49 4.51 l
3.49 2.57 l
3.49 1.22 l
3.50 2.65 l
3.49 2.88 l
3.49 2.97 l
3.49 4.48 l
3.49 2.68 l
3.49 2.57 l
3.49 3.12 l
3.49 5.21 l
3.49 3.52 l
3.49 4.15 l
3.49 3.82 l
3.50 3.83 l
3.49 3.07 l
3.49 3.07 l
3.49 3.76 l
3.49 3.24 l
3.49 3.25 l
3.49 3.46 l
3.49 2.77 l
3.49 4.78 l
3.49 -1.75 l
3.49 7.29 l
3.50 0.06 l
3.49 3.46 l
3.49 4.56 l
3.49 -0.76 l
3.49 1.33 l
3.49 -0.29 l
3.49 1.88 l
3.49 2.29 l
3.49 -2.30 l
3.49 2.68 l
3.49 2.49 l
3.50 3.68 l
3.49 5.66 l
3.49 13.92 l
3.49 19.69 l
3.49 23.74 l
o
ep
%%Trailer
%%Pages: 1
%%EOF
