%!PS-Adobe-3.0 EPSF-3.0
%%DocumentNeededResources: font Helvetica
%%+ font Helvetica-Bold
%%+ font Helvetica-Oblique
%%+ font Helvetica-BoldOblique
%%+ font Symbol
%%Title: R Graphics Output
%%Creator: R Software
%%Pages: (atend)
%%BoundingBox: 0 0 504 504
%%EndComments
%%BeginProlog
/bp  { gs sRGB gs } def
% begin .ps.prolog
/gs  { gsave } bind def
/gr  { grestore } bind def
/ep  { showpage gr gr } bind def
/m   { moveto } bind def
/l  { rlineto } bind def
/np  { newpath } bind def
/cp  { closepath } bind def
/f   { fill } bind def
/o   { stroke } bind def
/c   { newpath 0 360 arc } bind def
/r   { 4 2 roll moveto 1 copy 3 -1 roll exch 0 exch rlineto 0 rlineto -1 mul 0 exch rlineto closepath } bind def
/p1  { stroke } bind def
/p2  { gsave bg fill grestore newpath } bind def
/p3  { gsave bg fill grestore stroke } bind def
/p6  { gsave bg eofill grestore newpath } bind def
/p7  { gsave bg eofill grestore stroke } bind def
/t   { 5 -2 roll moveto gsave rotate
       1 index stringwidth pop
       mul neg 0 rmoveto show grestore } bind def
/ta  { 4 -2 roll moveto gsave rotate show } bind def
/tb  { 2 -1 roll 0 rmoveto show } bind def
/cl  { grestore gsave newpath 3 index 3 index moveto 1 index
       4 -1 roll lineto  exch 1 index lineto lineto
       closepath clip newpath } bind def
/rgb { setrgbcolor } bind def
/s   { scalefont setfont } bind def
% end   .ps.prolog
/sRGB { [ /CIEBasedABC
          << /DecodeLMN
               [ { dup 0.03928 le
                        {12.92321 div}
                        {0.055 add 1.055 div 2.4 exp }
                     ifelse
                 } bind dup dup
               ]
             /MatrixLMN [0.412457 0.212673 0.019334
                         0.357576 0.715152 0.119192
                         0.180437 0.072175 0.950301]
             /WhitePoint [0.9505 1.0 1.0890]
           >>
         ] setcolorspace } bind def
/srgb { setcolor } bind def
%%IncludeResource: font Helvetica
/Helvetica findfont
dup length dict begin
  {1 index /FID ne {def} {pop pop} ifelse} forall
  /Encoding ISOLatin1Encoding def
  currentdict
  end
/Font1 exch definefont pop
%%IncludeResource: font Helvetica-Bold
/Helvetica-Bold findfont
dup length dict begin
  {1 index /FID ne {def} {pop pop} ifelse} forall
  /Encoding ISOLatin1Encoding def
  currentdict
  end
/Font2 exch definefont pop
%%IncludeResource: font Helvetica-Oblique
/Helvetica-Oblique findfont
dup length dict begin
  {1 index /FID ne {def} {pop pop} ifelse} forall
  /Encoding ISOLatin1Encoding def
  currentdict
  end
/Font3 exch definefont pop
%%IncludeResource: font Helvetica-BoldOblique
/Helvetica-BoldOblique findfont
dup length dict begin
  {1 index /FID ne {def} {pop pop} ifelse} forall
  /Encoding ISOLatin1Encoding def
  currentdict
  end
/Font4 exch definefont pop
%%IncludeResource: font Symbol
/Symbol findfont
dup length dict begin
  {1 index /FID ne {def} {pop pop} ifelse} forall
  currentdict
  end
/Font5 exch definefont pop
%%EndProlog
%%Page: 1 1
bp
59.04 73.44 473.76 444.96 cl
/bg { 1 0 0 srgb } def
np
 404.00 259.20 m
-0.03 2.88 l
-137.57 -2.88 l
cp p2
/bg { 1 0.0196 0 srgb } def
np
 403.97 262.08 m
-0.09 2.88 l
-137.48 -5.76 l
cp p2
/bg { 1 0.0392 0 srgb } def
np
 403.88 264.96 m
-0.15 2.88 l
-137.33 -8.64 l
cp p2
/bg { 1 0.0588 0 srgb } def
np
 403.73 267.84 m
-0.21 2.87 l
-137.12 -11.51 l
cp p2
/bg { 1 0.0784 0 srgb } def
np
 403.52 270.71 m
-0.27 2.87 l
-136.85 -14.38 l
cp p2
/bg { 1 0.0980 0 srgb } def
np
 403.25 273.58 m
-0.34 2.87 l
-136.51 -17.25 l
cp p2
/bg { 1 0.1216 0 srgb } def
np
 402.91 276.45 m
-0.39 2.85 l
-136.12 -20.10 l
cp p2
/bg { 1 0.1412 0 srgb } def
np
 402.52 279.30 m
-0.45 2.85 l
-135.67 -22.95 l
cp p2
/bg { 1 0.1608 0 srgb } def
np
 402.07 282.15 m
-0.51 2.83 l
-135.16 -25.78 l
cp p2
/bg { 1 0.1804 0 srgb } def
np
 401.56 284.98 m
-0.57 2.83 l
-134.59 -28.61 l
cp p2
/bg { 1 0.2000 0 srgb } def
np
 400.99 287.81 m
-0.63 2.81 l
-133.96 -31.42 l
cp p2
/bg { 1 0.2196 0 srgb } def
np
 400.36 290.62 m
-0.68 2.80 l
-133.28 -34.22 l
cp p2
/bg { 1 0.2392 0 srgb } def
np
 399.68 293.42 m
-0.75 2.78 l
-132.53 -37.00 l
cp p2
/bg { 1 0.2588 0 srgb } def
np
 398.93 296.20 m
-0.80 2.77 l
-131.73 -39.77 l
cp p2
/bg { 1 0.2784 0 srgb } def
np
 398.13 298.97 m
-0.86 2.75 l
-130.87 -42.52 l
cp p2
/bg { 1 0.3020 0 srgb } def
np
 397.27 301.72 m
-0.92 2.73 l
-129.95 -45.25 l
cp p2
/bg { 1 0.3216 0 srgb } def
np
 396.35 304.45 m
-0.98 2.71 l
-128.97 -47.96 l
cp p2
/bg { 1 0.3412 0 srgb } def
np
 395.37 307.16 m
-1.03 2.69 l
-127.94 -50.65 l
cp p2
/bg { 1 0.3608 0 srgb } def
np
 394.34 309.85 m
-1.09 2.67 l
-126.85 -53.32 l
cp p2
/bg { 1 0.3804 0 srgb } def
np
 393.25 312.52 m
-1.15 2.65 l
-125.70 -55.97 l
cp p2
/bg { 1 0.4000 0 srgb } def
np
 392.10 315.17 m
-1.20 2.62 l
-124.50 -58.59 l
cp p2
/bg { 1 0.4196 0 srgb } def
np
 390.90 317.79 m
-1.25 2.59 l
-123.25 -61.18 l
cp p2
/bg { 1 0.4392 0 srgb } def
np
 389.65 320.38 m
-1.31 2.57 l
-121.94 -63.75 l
cp p2
/bg { 1 0.4588 0 srgb } def
np
 388.34 322.95 m
-1.36 2.54 l
-120.58 -66.29 l
cp p2
/bg { 1 0.4784 0 srgb } def
np
 386.98 325.49 m
-1.41 2.51 l
-119.17 -68.80 l
cp p2
/bg { 1 0.5020 0 srgb } def
np
 385.57 328.00 m
-1.47 2.48 l
-117.70 -71.28 l
cp p2
/bg { 1 0.5216 0 srgb } def
np
 384.10 330.48 m
-1.52 2.45 l
-116.18 -73.73 l
cp p2
/bg { 1 0.5412 0 srgb } def
np
 382.58 332.93 m
-1.57 2.42 l
-114.61 -76.15 l
cp p2
/bg { 1 0.5608 0 srgb } def
np
 381.01 335.35 m
-1.62 2.38 l
-112.99 -78.53 l
cp p2
/bg { 1 0.5804 0 srgb } def
np
 379.39 337.73 m
-1.67 2.35 l
-111.32 -80.88 l
cp p2
/bg { 1 0.6000 0 srgb } def
np
 377.72 340.08 m
-1.72 2.31 l
-109.60 -83.19 l
cp p2
/bg { 1 0.6196 0 srgb } def
np
 376.00 342.39 m
-1.76 2.28 l
-107.84 -85.47 l
cp p2
/bg { 1 0.6392 0 srgb } def
np
 374.24 344.67 m
-1.82 2.24 l
-106.02 -87.71 l
cp p2
/bg { 1 0.6588 0 srgb } def
np
 372.42 346.91 m
-1.86 2.20 l
-104.16 -89.91 l
cp p2
/bg { 1 0.6784 0 srgb } def
np
 370.56 349.11 m
-1.90 2.16 l
-102.26 -92.07 l
cp p2
/bg { 1 0.7020 0 srgb } def
np
 368.66 351.27 m
-1.95 2.12 l
-100.31 -94.19 l
cp p2
/bg { 1 0.7216 0 srgb } def
np
 366.71 353.39 m
-2.00 2.08 l
-98.31 -96.27 l
cp p2
/bg { 1 0.7412 0 srgb } def
np
 364.71 355.47 m
-2.04 2.04 l
-96.27 -98.31 l
cp p2
/bg { 1 0.7608 0 srgb } def
np
 362.67 357.51 m
-2.08 2.00 l
-94.19 -100.31 l
cp p2
/bg { 1 0.7804 0 srgb } def
np
 360.59 359.51 m
-2.12 1.95 l
-92.07 -102.26 l
cp p2
/bg { 1 0.8000 0 srgb } def
np
 358.47 361.46 m
-2.16 1.90 l
-89.91 -104.16 l
cp p2
/bg { 1 0.8196 0 srgb } def
np
 356.31 363.36 m
-2.20 1.86 l
-87.71 -106.02 l
cp p2
/bg { 1 0.8392 0 srgb } def
np
 354.11 365.22 m
-2.24 1.82 l
-85.47 -107.84 l
cp p2
/bg { 1 0.8588 0 srgb } def
np
 351.87 367.04 m
-2.28 1.76 l
-83.19 -109.60 l
cp p2
/bg { 1 0.8784 0 srgb } def
np
 349.59 368.80 m
-2.31 1.72 l
-80.88 -111.32 l
cp p2
/bg { 1 0.9020 0 srgb } def
np
 347.28 370.52 m
-2.35 1.67 l
-78.53 -112.99 l
cp p2
/bg { 1 0.9216 0 srgb } def
np
 344.93 372.19 m
-2.38 1.62 l
-76.15 -114.61 l
cp p2
/bg { 1 0.9412 0 srgb } def
np
 342.55 373.81 m
-2.42 1.57 l
-73.73 -116.18 l
cp p2
/bg { 1 0.9608 0 srgb } def
np
 340.13 375.38 m
-2.45 1.52 l
-71.28 -117.70 l
cp p2
/bg { 1 0.9804 0 srgb } def
np
 337.68 376.90 m
-2.48 1.47 l
-68.80 -119.17 l
cp p2
/bg { 1 1 0 srgb } def
np
 335.20 378.37 m
-2.51 1.41 l
-66.29 -120.58 l
cp p2
/bg { 0.9804 1 0 srgb } def
np
 332.69 379.78 m
-2.54 1.36 l
-63.75 -121.94 l
cp p2
/bg { 0.9608 1 0 srgb } def
np
 330.15 381.14 m
-2.57 1.31 l
-61.18 -123.25 l
cp p2
/bg { 0.9412 1 0 srgb } def
np
 327.58 382.45 m
-2.59 1.25 l
-58.59 -124.50 l
cp p2
/bg { 0.9216 1 0 srgb } def
np
 324.99 383.70 m
-2.62 1.20 l
-55.97 -125.70 l
cp p2
/bg { 0.8980 1 0 srgb } def
np
 322.37 384.90 m
-2.65 1.15 l
-53.32 -126.85 l
cp p2
/bg { 0.8784 1 0 srgb } def
np
 319.72 386.05 m
-2.67 1.09 l
-50.65 -127.94 l
cp p2
/bg { 0.8588 1 0 srgb } def
np
 317.05 387.14 m
-2.69 1.03 l
-47.96 -128.97 l
cp p2
/bg { 0.8392 1 0 srgb } def
np
 314.36 388.17 m
-2.71 0.98 l
-45.25 -129.95 l
cp p2
/bg { 0.8196 1 0 srgb } def
np
 311.65 389.15 m
-2.73 0.92 l
-42.52 -130.87 l
cp p2
/bg { 0.8000 1 0 srgb } def
np
 308.92 390.07 m
-2.75 0.86 l
-39.77 -131.73 l
cp p2
/bg { 0.7804 1 0 srgb } def
np
 306.17 390.93 m
-2.77 0.80 l
-37.00 -132.53 l
cp p2
/bg { 0.7608 1 0 srgb } def
np
 303.40 391.73 m
-2.78 0.75 l
-34.22 -133.28 l
cp p2
/bg { 0.7412 1 0 srgb } def
np
 300.62 392.48 m
-2.80 0.68 l
-31.42 -133.96 l
cp p2
/bg { 0.7216 1 0 srgb } def
np
 297.82 393.16 m
-2.81 0.63 l
-28.61 -134.59 l
cp p2
/bg { 0.7020 1 0 srgb } def
np
 295.01 393.79 m
-2.83 0.57 l
-25.78 -135.16 l
cp p2
/bg { 0.6784 1 0 srgb } def
np
 292.18 394.36 m
-2.83 0.51 l
-22.95 -135.67 l
cp p2
/bg { 0.6588 1 0 srgb } def
np
 289.35 394.87 m
-2.85 0.45 l
-20.10 -136.12 l
cp p2
/bg { 0.6392 1 0 srgb } def
np
 286.50 395.32 m
-2.85 0.39 l
-17.25 -136.51 l
cp p2
/bg { 0.6196 1 0 srgb } def
np
 283.65 395.71 m
-2.87 0.34 l
-14.38 -136.85 l
cp p2
/bg { 0.6000 1 0 srgb } def
np
 280.78 396.05 m
-2.87 0.27 l
-11.51 -137.12 l
cp p2
/bg { 0.5804 1 0 srgb } def
np
 277.91 396.32 m
-2.87 0.21 l
-8.64 -137.33 l
cp p2
/bg { 0.5608 1 0 srgb } def
np
 275.04 396.53 m
-2.88 0.15 l
-5.76 -137.48 l
cp p2
/bg { 0.5412 1 0 srgb } def
np
 272.16 396.68 m
-2.88 0.09 l
-2.88 -137.57 l
cp p2
/bg { 0.5216 1 0 srgb } def
np
 269.28 396.77 m
-2.88 0.03 l
0 -137.60 l
cp p2
/bg { 0.5020 1 0 srgb } def
np
 266.40 396.80 m
-2.88 -0.03 l
2.88 -137.57 l
cp p2
/bg { 0.4784 1 0 srgb } def
np
 263.52 396.77 m
-2.88 -0.09 l
5.76 -137.48 l
cp p2
/bg { 0.4588 1 0 srgb } def
np
 260.64 396.68 m
-2.88 -0.15 l
8.64 -137.33 l
cp p2
/bg { 0.4392 1 0 srgb } def
np
 257.76 396.53 m
-2.87 -0.21 l
11.51 -137.12 l
cp p2
/bg { 0.4196 1 0 srgb } def
np
 254.89 396.32 m
-2.87 -0.27 l
14.38 -136.85 l
cp p2
/bg { 0.4000 1 0 srgb } def
np
 252.02 396.05 m
-2.87 -0.34 l
17.25 -136.51 l
cp p2
/bg { 0.3804 1 0 srgb } def
np
 249.15 395.71 m
-2.85 -0.39 l
20.10 -136.12 l
cp p2
/bg { 0.3608 1 0 srgb } def
np
 246.30 395.32 m
-2.85 -0.45 l
22.95 -135.67 l
cp p2
/bg { 0.3412 1 0 srgb } def
np
 243.45 394.87 m
-2.83 -0.51 l
25.78 -135.16 l
cp p2
/bg { 0.3216 1 0 srgb } def
np
 240.62 394.36 m
-2.83 -0.57 l
28.61 -134.59 l
cp p2
/bg { 0.3020 1 0 srgb } def
np
 237.79 393.79 m
-2.81 -0.63 l
31.42 -133.96 l
cp p2
/bg { 0.2784 1 0 srgb } def
np
 234.98 393.16 m
-2.80 -0.68 l
34.22 -133.28 l
cp p2
/bg { 0.2588 1 0 srgb } def
np
 232.18 392.48 m
-2.78 -0.75 l
37.00 -132.53 l
cp p2
/bg { 0.2392 1 0 srgb } def
np
 229.40 391.73 m
-2.77 -0.80 l
39.77 -131.73 l
cp p2
/bg { 0.2196 1 0 srgb } def
np
 226.63 390.93 m
-2.75 -0.86 l
42.52 -130.87 l
cp p2
/bg { 0.2000 1 0 srgb } def
np
 223.88 390.07 m
-2.73 -0.92 l
45.25 -129.95 l
cp p2
/bg { 0.1804 1 0 srgb } def
np
 221.15 389.15 m
-2.71 -0.98 l
47.96 -128.97 l
cp p2
/bg { 0.1608 1 0 srgb } def
np
 218.44 388.17 m
-2.69 -1.03 l
50.65 -127.94 l
cp p2
/bg { 0.1412 1 0 srgb } def
np
 215.75 387.14 m
-2.67 -1.09 l
53.32 -126.85 l
cp p2
/bg { 0.1216 1 0 srgb } def
np
 213.08 386.05 m
-2.65 -1.15 l
55.97 -125.70 l
cp p2
/bg { 0.0980 1 0 srgb } def
np
 210.43 384.90 m
-2.62 -1.20 l
58.59 -124.50 l
cp p2
/bg { 0.0784 1 0 srgb } def
np
 207.81 383.70 m
-2.59 -1.25 l
61.18 -123.25 l
cp p2
/bg { 0.0588 1 0 srgb } def
np
 205.22 382.45 m
-2.57 -1.31 l
63.75 -121.94 l
cp p2
/bg { 0.0392 1 0 srgb } def
np
 202.65 381.14 m
-2.54 -1.36 l
66.29 -120.58 l
cp p2
/bg { 0.0196 1 0 srgb } def
np
 200.11 379.78 m
-2.51 -1.41 l
68.80 -119.17 l
cp p2
/bg { 0 1 0 srgb } def
np
 197.60 378.37 m
-2.48 -1.47 l
71.28 -117.70 l
cp p2
/bg { 0 1 0.0196 srgb } def
np
 195.12 376.90 m
-2.45 -1.52 l
73.73 -116.18 l
cp p2
/bg { 0 1 0.0392 srgb } def
np
 192.67 375.38 m
-2.42 -1.57 l
76.15 -114.61 l
cp p2
/bg { 0 1 0.0588 srgb } def
np
 190.25 373.81 m
-2.38 -1.62 l
78.53 -112.99 l
cp p2
/bg { 0 1 0.0784 srgb } def
np
 187.87 372.19 m
-2.35 -1.67 l
80.88 -111.32 l
cp p2
/bg { 0 1 0.1020 srgb } def
np
 185.52 370.52 m
-2.31 -1.72 l
83.19 -109.60 l
cp p2
/bg { 0 1 0.1216 srgb } def
np
 183.21 368.80 m
-2.28 -1.76 l
85.47 -107.84 l
cp p2
/bg { 0 1 0.1412 srgb } def
np
 180.93 367.04 m
-2.24 -1.82 l
87.71 -106.02 l
cp p2
/bg { 0 1 0.1608 srgb } def
np
 178.69 365.22 m
-2.20 -1.86 l
89.91 -104.16 l
cp p2
/bg { 0 1 0.1804 srgb } def
np
 176.49 363.36 m
-2.16 -1.90 l
92.07 -102.26 l
cp p2
/bg { 0 1 0.2000 srgb } def
np
 174.33 361.46 m
-2.12 -1.95 l
94.19 -100.31 l
cp p2
/bg { 0 1 0.2196 srgb } def
np
 172.21 359.51 m
-2.08 -2.00 l
96.27 -98.31 l
cp p2
/bg { 0 1 0.2392 srgb } def
np
 170.13 357.51 m
-2.04 -2.04 l
98.31 -96.27 l
cp p2
/bg { 0 1 0.2588 srgb } def
np
 168.09 355.47 m
-2.00 -2.08 l
100.31 -94.19 l
cp p2
/bg { 0 1 0.2784 srgb } def
np
 166.09 353.39 m
-1.95 -2.12 l
102.26 -92.07 l
cp p2
/bg { 0 1 0.3020 srgb } def
np
 164.14 351.27 m
-1.90 -2.16 l
104.16 -89.91 l
cp p2
/bg { 0 1 0.3216 srgb } def
np
 162.24 349.11 m
-1.86 -2.20 l
106.02 -87.71 l
cp p2
/bg { 0 1 0.3412 srgb } def
np
 160.38 346.91 m
-1.82 -2.24 l
107.84 -85.47 l
cp p2
/bg { 0 1 0.3608 srgb } def
np
 158.56 344.67 m
-1.76 -2.28 l
109.60 -83.19 l
cp p2
/bg { 0 1 0.3804 srgb } def
np
 156.80 342.39 m
-1.72 -2.31 l
111.32 -80.88 l
cp p2
/bg { 0 1 0.4000 srgb } def
np
 155.08 340.08 m
-1.67 -2.35 l
112.99 -78.53 l
cp p2
/bg { 0 1 0.4196 srgb } def
np
 153.41 337.73 m
-1.62 -2.38 l
114.61 -76.15 l
cp p2
/bg { 0 1 0.4392 srgb } def
np
 151.79 335.35 m
-1.57 -2.42 l
116.18 -73.73 l
cp p2
/bg { 0 1 0.4588 srgb } def
np
 150.22 332.93 m
-1.52 -2.45 l
117.70 -71.28 l
cp p2
/bg { 0 1 0.4784 srgb } def
np
 148.70 330.48 m
-1.47 -2.48 l
119.17 -68.80 l
cp p2
/bg { 0 1 0.5020 srgb } def
np
 147.23 328.00 m
-1.41 -2.51 l
120.58 -66.29 l
cp p2
/bg { 0 1 0.5216 srgb } def
np
 145.82 325.49 m
-1.36 -2.54 l
121.94 -63.75 l
cp p2
/bg { 0 1 0.5412 srgb } def
np
 144.46 322.95 m
-1.31 -2.57 l
123.25 -61.18 l
cp p2
/bg { 0 1 0.5608 srgb } def
np
 143.15 320.38 m
-1.25 -2.59 l
124.50 -58.59 l
cp p2
/bg { 0 1 0.5804 srgb } def
np
 141.90 317.79 m
-1.20 -2.62 l
125.70 -55.97 l
cp p2
/bg { 0 1 0.6000 srgb } def
np
 140.70 315.17 m
-1.15 -2.65 l
126.85 -53.32 l
cp p2
/bg { 0 1 0.6196 srgb } def
np
 139.55 312.52 m
-1.09 -2.67 l
127.94 -50.65 l
cp p2
/bg { 0 1 0.6392 srgb } def
np
 138.46 309.85 m
-1.03 -2.69 l
128.97 -47.96 l
cp p2
/bg { 0 1 0.6588 srgb } def
np
 137.43 307.16 m
-0.98 -2.71 l
129.95 -45.25 l
cp p2
/bg { 0 1 0.6784 srgb } def
np
 136.45 304.45 m
-0.92 -2.73 l
130.87 -42.52 l
cp p2
/bg { 0 1 0.7020 srgb } def
np
 135.53 301.72 m
-0.86 -2.75 l
131.73 -39.77 l
cp p2
/bg { 0 1 0.7216 srgb } def
np
 134.67 298.97 m
-0.80 -2.77 l
132.53 -37.00 l
cp p2
/bg { 0 1 0.7412 srgb } def
np
 133.87 296.20 m
-0.75 -2.78 l
133.28 -34.22 l
cp p2
/bg { 0 1 0.7608 srgb } def
np
 133.12 293.42 m
-0.68 -2.80 l
133.96 -31.42 l
cp p2
/bg { 0 1 0.7804 srgb } def
np
 132.44 290.62 m
-0.63 -2.81 l
134.59 -28.61 l
cp p2
/bg { 0 1 0.8000 srgb } def
np
 131.81 287.81 m
-0.57 -2.83 l
135.16 -25.78 l
cp p2
/bg { 0 1 0.8196 srgb } def
np
 131.24 284.98 m
-0.51 -2.83 l
135.67 -22.95 l
cp p2
/bg { 0 1 0.8392 srgb } def
np
 130.73 282.15 m
-0.45 -2.85 l
136.12 -20.10 l
cp p2
/bg { 0 1 0.8588 srgb } def
np
 130.28 279.30 m
-0.39 -2.85 l
136.51 -17.25 l
cp p2
/bg { 0 1 0.8784 srgb } def
np
 129.89 276.45 m
-0.34 -2.87 l
136.85 -14.38 l
cp p2
/bg { 0 1 0.8980 srgb } def
np
 129.55 273.58 m
-0.27 -2.87 l
137.12 -11.51 l
cp p2
/bg { 0 1 0.9216 srgb } def
np
 129.28 270.71 m
-0.21 -2.87 l
137.33 -8.64 l
cp p2
/bg { 0 1 0.9412 srgb } def
np
 129.07 267.84 m
-0.15 -2.88 l
137.48 -5.76 l
cp p2
/bg { 0 1 0.9608 srgb } def
np
 128.92 264.96 m
-0.09 -2.88 l
137.57 -2.88 l
cp p2
/bg { 0 1 0.9804 srgb } def
np
 128.83 262.08 m
-0.03 -2.88 l
137.60 0 l
cp p2
/bg { 0 1 1 srgb } def
np
 128.80 259.20 m
0.03 -2.88 l
137.57 2.88 l
cp p2
/bg { 0 0.9804 1 srgb } def
np
 128.83 256.32 m
0.09 -2.88 l
137.48 5.76 l
cp p2
/bg { 0 0.9608 1 srgb } def
np
 128.92 253.44 m
0.15 -2.88 l
137.33 8.64 l
cp p2
/bg { 0 0.9412 1 srgb } def
np
 129.07 250.56 m
0.21 -2.87 l
137.12 11.51 l
cp p2
/bg { 0 0.9216 1 srgb } def
np
 129.28 247.69 m
0.27 -2.87 l
136.85 14.38 l
cp p2
/bg { 0 0.8980 1 srgb } def
np
 129.55 244.82 m
0.34 -2.87 l
136.51 17.25 l
cp p2
/bg { 0 0.8784 1 srgb } def
np
 129.89 241.95 m
0.39 -2.85 l
136.12 20.10 l
cp p2
/bg { 0 0.8588 1 srgb } def
np
 130.28 239.10 m
0.45 -2.85 l
135.67 22.95 l
cp p2
/bg { 0 0.8392 1 srgb } def
np
 130.73 236.25 m
0.51 -2.83 l
135.16 25.78 l
cp p2
/bg { 0 0.8196 1 srgb } def
np
 131.24 233.42 m
0.57 -2.83 l
134.59 28.61 l
cp p2
/bg { 0 0.8000 1 srgb } def
np
 131.81 230.59 m
0.63 -2.81 l
133.96 31.42 l
cp p2
/bg { 0 0.7804 1 srgb } def
np
 132.44 227.78 m
0.68 -2.80 l
133.28 34.22 l
cp p2
/bg { 0 0.7608 1 srgb } def
np
 133.12 224.98 m
0.75 -2.78 l
132.53 37.00 l
cp p2
/bg { 0 0.7412 1 srgb } def
np
 133.87 222.20 m
0.80 -2.77 l
131.73 39.77 l
cp p2
/bg { 0 0.7216 1 srgb } def
np
 134.67 219.43 m
0.86 -2.75 l
130.87 42.52 l
cp p2
/bg { 0 0.6980 1 srgb } def
np
 135.53 216.68 m
0.92 -2.73 l
129.95 45.25 l
cp p2
/bg { 0 0.6784 1 srgb } def
np
 136.45 213.95 m
0.98 -2.71 l
128.97 47.96 l
cp p2
/bg { 0 0.6588 1 srgb } def
np
 137.43 211.24 m
1.03 -2.69 l
127.94 50.65 l
cp p2
/bg { 0 0.6392 1 srgb } def
np
 138.46 208.55 m
1.09 -2.67 l
126.85 53.32 l
cp p2
/bg { 0 0.6196 1 srgb } def
np
 139.55 205.88 m
1.15 -2.65 l
125.70 55.97 l
cp p2
/bg { 0 0.6000 1 srgb } def
np
 140.70 203.23 m
1.20 -2.62 l
124.50 58.59 l
cp p2
/bg { 0 0.5804 1 srgb } def
np
 141.90 200.61 m
1.25 -2.59 l
123.25 61.18 l
cp p2
/bg { 0 0.5608 1 srgb } def
np
 143.15 198.02 m
1.31 -2.57 l
121.94 63.75 l
cp p2
/bg { 0 0.5412 1 srgb } def
np
 144.46 195.45 m
1.36 -2.54 l
120.58 66.29 l
cp p2
/bg { 0 0.5216 1 srgb } def
np
 145.82 192.91 m
1.41 -2.51 l
119.17 68.80 l
cp p2
/bg { 0 0.5020 1 srgb } def
np
 147.23 190.40 m
1.47 -2.48 l
117.70 71.28 l
cp p2
/bg { 0 0.4784 1 srgb } def
np
 148.70 187.92 m
1.52 -2.45 l
116.18 73.73 l
cp p2
/bg { 0 0.4588 1 srgb } def
np
 150.22 185.47 m
1.57 -2.42 l
114.61 76.15 l
cp p2
/bg { 0 0.4392 1 srgb } def
np
 151.79 183.05 m
1.62 -2.38 l
112.99 78.53 l
cp p2
/bg { 0 0.4196 1 srgb } def
np
 153.41 180.67 m
1.67 -2.35 l
111.32 80.88 l
cp p2
/bg { 0 0.4000 1 srgb } def
np
 155.08 178.32 m
1.72 -2.31 l
109.60 83.19 l
cp p2
/bg { 0 0.3804 1 srgb } def
np
 156.80 176.01 m
1.76 -2.28 l
107.84 85.47 l
cp p2
/bg { 0 0.3608 1 srgb } def
np
 158.56 173.73 m
1.82 -2.24 l
106.02 87.71 l
cp p2
/bg { 0 0.3412 1 srgb } def
np
 160.38 171.49 m
1.86 -2.20 l
104.16 89.91 l
cp p2
/bg { 0 0.3216 1 srgb } def
np
 162.24 169.29 m
1.90 -2.16 l
102.26 92.07 l
cp p2
/bg { 0 0.2980 1 srgb } def
np
 164.14 167.13 m
1.95 -2.12 l
100.31 94.19 l
cp p2
/bg { 0 0.2784 1 srgb } def
np
 166.09 165.01 m
2.00 -2.08 l
98.31 96.27 l
cp p2
/bg { 0 0.2588 1 srgb } def
np
 168.09 162.93 m
2.04 -2.04 l
96.27 98.31 l
cp p2
/bg { 0 0.2392 1 srgb } def
np
 170.13 160.89 m
2.08 -2.00 l
94.19 100.31 l
cp p2
/bg { 0 0.2196 1 srgb } def
np
 172.21 158.89 m
2.12 -1.95 l
92.07 102.26 l
cp p2
/bg { 0 0.2000 1 srgb } def
np
 174.33 156.94 m
2.16 -1.90 l
89.91 104.16 l
cp p2
/bg { 0 0.1804 1 srgb } def
np
 176.49 155.04 m
2.20 -1.86 l
87.71 106.02 l
cp p2
/bg { 0 0.1608 1 srgb } def
np
 178.69 153.18 m
2.24 -1.82 l
85.47 107.84 l
cp p2
/bg { 0 0.1412 1 srgb } def
np
 180.93 151.36 m
2.28 -1.76 l
83.19 109.60 l
cp p2
/bg { 0 0.1216 1 srgb } def
np
 183.21 149.60 m
2.31 -1.72 l
80.88 111.32 l
cp p2
/bg { 0 0.0980 1 srgb } def
np
 185.52 147.88 m
2.35 -1.67 l
78.53 112.99 l
cp p2
/bg { 0 0.0784 1 srgb } def
np
 187.87 146.21 m
2.38 -1.62 l
76.15 114.61 l
cp p2
/bg { 0 0.0588 1 srgb } def
np
 190.25 144.59 m
2.42 -1.57 l
73.73 116.18 l
cp p2
/bg { 0 0.0392 1 srgb } def
np
 192.67 143.02 m
2.45 -1.52 l
71.28 117.70 l
cp p2
/bg { 0 0.0196 1 srgb } def
np
 195.12 141.50 m
2.48 -1.47 l
68.80 119.17 l
cp p2
/bg { 0 0 1 srgb } def
np
 197.60 140.03 m
2.51 -1.41 l
66.29 120.58 l
cp p2
/bg { 0.0196 0 1 srgb } def
np
 200.11 138.62 m
2.54 -1.36 l
63.75 121.94 l
cp p2
/bg { 0.0392 0 1 srgb } def
np
 202.65 137.26 m
2.57 -1.31 l
61.18 123.25 l
cp p2
/bg { 0.0588 0 1 srgb } def
np
 205.22 135.95 m
2.59 -1.25 l
58.59 124.50 l
cp p2
/bg { 0.0784 0 1 srgb } def
np
 207.81 134.70 m
2.62 -1.20 l
55.97 125.70 l
cp p2
/bg { 0.0980 0 1 srgb } def
np
 210.43 133.50 m
2.65 -1.15 l
53.32 126.85 l
cp p2
/bg { 0.1216 0 1 srgb } def
np
 213.08 132.35 m
2.67 -1.09 l
50.65 127.94 l
cp p2
/bg { 0.1412 0 1 srgb } def
np
 215.75 131.26 m
2.69 -1.03 l
47.96 128.97 l
cp p2
/bg { 0.1608 0 1 srgb } def
np
 218.44 130.23 m
2.71 -0.98 l
45.25 129.95 l
cp p2
/bg { 0.1804 0 1 srgb } def
np
 221.15 129.25 m
2.73 -0.92 l
42.52 130.87 l
cp p2
/bg { 0.2000 0 1 srgb } def
np
 223.88 128.33 m
2.75 -0.86 l
39.77 131.73 l
cp p2
/bg { 0.2196 0 1 srgb } def
np
 226.63 127.47 m
2.77 -0.80 l
37.00 132.53 l
cp p2
/bg { 0.2392 0 1 srgb } def
np
 229.40 126.67 m
2.78 -0.75 l
34.22 133.28 l
cp p2
/bg { 0.2588 0 1 srgb } def
np
 232.18 125.92 m
2.80 -0.68 l
31.42 133.96 l
cp p2
/bg { 0.2784 0 1 srgb } def
np
 234.98 125.24 m
2.81 -0.63 l
28.61 134.59 l
cp p2
/bg { 0.2980 0 1 srgb } def
np
 237.79 124.61 m
2.83 -0.57 l
25.78 135.16 l
cp p2
/bg { 0.3216 0 1 srgb } def
np
 240.62 124.04 m
2.83 -0.51 l
22.95 135.67 l
cp p2
/bg { 0.3412 0 1 srgb } def
np
 243.45 123.53 m
2.85 -0.45 l
20.10 136.12 l
cp p2
/bg { 0.3608 0 1 srgb } def
np
 246.30 123.08 m
2.85 -0.39 l
17.25 136.51 l
cp p2
/bg { 0.3804 0 1 srgb } def
np
 249.15 122.69 m
2.87 -0.34 l
14.38 136.85 l
cp p2
/bg { 0.4000 0 1 srgb } def
np
 252.02 122.35 m
2.87 -0.27 l
11.51 137.12 l
cp p2
/bg { 0.4196 0 1 srgb } def
np
 254.89 122.08 m
2.87 -0.21 l
8.64 137.33 l
cp p2
/bg { 0.4392 0 1 srgb } def
np
 257.76 121.87 m
2.88 -0.15 l
5.76 137.48 l
cp p2
/bg { 0.4588 0 1 srgb } def
np
 260.64 121.72 m
2.88 -0.09 l
2.88 137.57 l
cp p2
/bg { 0.4784 0 1 srgb } def
np
 263.52 121.63 m
2.88 -0.03 l
0 137.60 l
cp p2
/bg { 0.5020 0 1 srgb } def
np
 266.40 121.60 m
2.88 0.03 l
-2.88 137.57 l
cp p2
/bg { 0.5216 0 1 srgb } def
np
 269.28 121.63 m
2.88 0.09 l
-5.76 137.48 l
cp p2
/bg { 0.5412 0 1 srgb } def
np
 272.16 121.72 m
2.88 0.15 l
-8.64 137.33 l
cp p2
/bg { 0.5608 0 1 srgb } def
np
 275.04 121.87 m
2.87 0.21 l
-11.51 137.12 l
cp p2
/bg { 0.5804 0 1 srgb } def
np
 277.91 122.08 m
2.87 0.27 l
-14.38 136.85 l
cp p2
/bg { 0.6000 0 1 srgb } def
np
 280.78 122.35 m
2.87 0.34 l
-17.25 136.51 l
cp p2
/bg { 0.6196 0 1 srgb } def
np
 283.65 122.69 m
2.85 0.39 l
-20.10 136.12 l
cp p2
/bg { 0.6392 0 1 srgb } def
np
 286.50 123.08 m
2.85 0.45 l
-22.95 135.67 l
cp p2
/bg { 0.6588 0 1 srgb } def
np
 289.35 123.53 m
2.83 0.51 l
-25.78 135.16 l
cp p2
/bg { 0.6784 0 1 srgb } def
np
 292.18 124.04 m
2.83 0.57 l
-28.61 134.59 l
cp p2
/bg { 0.7020 0 1 srgb } def
np
 295.01 124.61 m
2.81 0.63 l
-31.42 133.96 l
cp p2
/bg { 0.7216 0 1 srgb } def
np
 297.82 125.24 m
2.80 0.68 l
-34.22 133.28 l
cp p2
/bg { 0.7412 0 1 srgb } def
np
 300.62 125.92 m
2.78 0.75 l
-37.00 132.53 l
cp p2
/bg { 0.7608 0 1 srgb } def
np
 303.40 126.67 m
2.77 0.80 l
-39.77 131.73 l
cp p2
/bg { 0.7804 0 1 srgb } def
np
 306.17 127.47 m
2.75 0.86 l
-42.52 130.87 l
cp p2
/bg { 0.8000 0 1 srgb } def
np
 308.92 128.33 m
2.73 0.92 l
-45.25 129.95 l
cp p2
/bg { 0.8196 0 1 srgb } def
np
 311.65 129.25 m
2.71 0.98 l
-47.96 128.97 l
cp p2
/bg { 0.8392 0 1 srgb } def
np
 314.36 130.23 m
2.69 1.03 l
-50.65 127.94 l
cp p2
/bg { 0.8588 0 1 srgb } def
np
 317.05 131.26 m
2.67 1.09 l
-53.32 126.85 l
cp p2
/bg { 0.8784 0 1 srgb } def
np
 319.72 132.35 m
2.65 1.15 l
-55.97 125.70 l
cp p2
/bg { 0.9020 0 1 srgb } def
np
 322.37 133.50 m
2.62 1.20 l
-58.59 124.50 l
cp p2
/bg { 0.9216 0 1 srgb } def
np
 324.99 134.70 m
2.59 1.25 l
-61.18 123.25 l
cp p2
/bg { 0.9412 0 1 srgb } def
np
 327.58 135.95 m
2.57 1.31 l
-63.75 121.94 l
cp p2
/bg { 0.9608 0 1 srgb } def
np
 330.15 137.26 m
2.54 1.36 l
-66.29 120.58 l
cp p2
/bg { 0.9804 0 1 srgb } def
np
 332.69 138.62 m
2.51 1.41 l
-68.80 119.17 l
cp p2
/bg { 1 0 1 srgb } def
np
 335.20 140.03 m
2.48 1.47 l
-71.28 117.70 l
cp p2
/bg { 1 0 0.9804 srgb } def
np
 337.68 141.50 m
2.45 1.52 l
-73.73 116.18 l
cp p2
/bg { 1 0 0.9608 srgb } def
np
 340.13 143.02 m
2.42 1.57 l
-76.15 114.61 l
cp p2
/bg { 1 0 0.9412 srgb } def
np
 342.55 144.59 m
2.38 1.62 l
-78.53 112.99 l
cp p2
/bg { 1 0 0.9216 srgb } def
np
 344.93 146.21 m
2.35 1.67 l
-80.88 111.32 l
cp p2
/bg { 1 0 0.8980 srgb } def
np
 347.28 147.88 m
2.31 1.72 l
-83.19 109.60 l
cp p2
/bg { 1 0 0.8784 srgb } def
np
 349.59 149.60 m
2.28 1.76 l
-85.47 107.84 l
cp p2
/bg { 1 0 0.8588 srgb } def
np
 351.87 151.36 m
2.24 1.82 l
-87.71 106.02 l
cp p2
/bg { 1 0 0.8392 srgb } def
np
 354.11 153.18 m
2.20 1.86 l
-89.91 104.16 l
cp p2
/bg { 1 0 0.8196 srgb } def
np
 356.31 155.04 m
2.16 1.90 l
-92.07 102.26 l
cp p2
/bg { 1 0 0.8000 srgb } def
np
 358.47 156.94 m
2.12 1.95 l
-94.19 100.31 l
cp p2
/bg { 1 0 0.7804 srgb } def
np
 360.59 158.89 m
2.08 2.00 l
-96.27 98.31 l
cp p2
/bg { 1 0 0.7608 srgb } def
np
 362.67 160.89 m
2.04 2.04 l
-98.31 96.27 l
cp p2
/bg { 1 0 0.7412 srgb } def
np
 364.71 162.93 m
2.00 2.08 l
-100.31 94.19 l
cp p2
/bg { 1 0 0.7216 srgb } def
np
 366.71 165.01 m
1.95 2.12 l
-102.26 92.07 l
cp p2
/bg { 1 0 0.6980 srgb } def
np
 368.66 167.13 m
1.90 2.16 l
-104.16 89.91 l
cp p2
/bg { 1 0 0.6784 srgb } def
np
 370.56 169.29 m
1.86 2.20 l
-106.02 87.71 l
cp p2
/bg { 1 0 0.6588 srgb } def
np
 372.42 171.49 m
1.82 2.24 l
-107.84 85.47 l
cp p2
/bg { 1 0 0.6392 srgb } def
np
 374.24 173.73 m
1.76 2.28 l
-109.60 83.19 l
cp p2
/bg { 1 0 0.6196 srgb } def
np
 376.00 176.01 m
1.72 2.31 l
-111.32 80.88 l
cp p2
/bg { 1 0 0.6000 srgb } def
np
 377.72 178.32 m
1.67 2.35 l
-112.99 78.53 l
cp p2
/bg { 1 0 0.5804 srgb } def
np
 379.39 180.67 m
1.62 2.38 l
-114.61 76.15 l
cp p2
/bg { 1 0 0.5608 srgb } def
np
 381.01 183.05 m
1.57 2.42 l
-116.18 73.73 l
cp p2
/bg { 1 0 0.5412 srgb } def
np
 382.58 185.47 m
1.52 2.45 l
-117.70 71.28 l
cp p2
/bg { 1 0 0.5216 srgb } def
np
 384.10 187.92 m
1.47 2.48 l
-119.17 68.80 l
cp p2
/bg { 1 0 0.5020 srgb } def
np
 385.57 190.40 m
1.41 2.51 l
-120.58 66.29 l
cp p2
/bg { 1 0 0.4784 srgb } def
np
 386.98 192.91 m
1.36 2.54 l
-121.94 63.75 l
cp p2
/bg { 1 0 0.4588 srgb } def
np
 388.34 195.45 m
1.31 2.57 l
-123.25 61.18 l
cp p2
/bg { 1 0 0.4392 srgb } def
np
 389.65 198.02 m
1.25 2.59 l
-124.50 58.59 l
cp p2
/bg { 1 0 0.4196 srgb } def
np
 390.90 200.61 m
1.20 2.62 l
-125.70 55.97 l
cp p2
/bg { 1 0 0.4000 srgb } def
np
 392.10 203.23 m
1.15 2.65 l
-126.85 53.32 l
cp p2
/bg { 1 0 0.3804 srgb } def
np
 393.25 205.88 m
1.09 2.67 l
-127.94 50.65 l
cp p2
/bg { 1 0 0.3608 srgb } def
np
 394.34 208.55 m
1.03 2.69 l
-128.97 47.96 l
cp p2
/bg { 1 0 0.3412 srgb } def
np
 395.37 211.24 m
0.98 2.71 l
-129.95 45.25 l
cp p2
/bg { 1 0 0.3216 srgb } def
np
 396.35 213.95 m
0.92 2.73 l
-130.87 42.52 l
cp p2
/bg { 1 0 0.2980 srgb } def
np
 397.27 216.68 m
0.86 2.75 l
-131.73 39.77 l
cp p2
/bg { 1 0 0.2784 srgb } def
np
 398.13 219.43 m
0.80 2.77 l
-132.53 37.00 l
cp p2
/bg { 1 0 0.2588 srgb } def
np
 398.93 222.20 m
0.75 2.78 l
-133.28 34.22 l
cp p2
/bg { 1 0 0.2392 srgb } def
np
 399.68 224.98 m
0.68 2.80 l
-133.96 31.42 l
cp p2
/bg { 1 0 0.2196 srgb } def
np
 400.36 227.78 m
0.63 2.81 l
-134.59 28.61 l
cp p2
/bg { 1 0 0.2000 srgb } def
np
 400.99 230.59 m
0.57 2.83 l
-135.16 25.78 l
cp p2
/bg { 1 0 0.1804 srgb } def
np
 401.56 233.42 m
0.51 2.83 l
-135.67 22.95 l
cp p2
/bg { 1 0 0.1608 srgb } def
np
 402.07 236.25 m
0.45 2.85 l
-136.12 20.10 l
cp p2
/bg { 1 0 0.1412 srgb } def
np
 402.52 239.10 m
0.39 2.85 l
-136.51 17.25 l
cp p2
/bg { 1 0 0.1216 srgb } def
np
 402.91 241.95 m
0.34 2.87 l
-136.85 14.38 l
cp p2
/bg { 1 0 0.0980 srgb } def
np
 403.25 244.82 m
0.27 2.87 l
-137.12 11.51 l
cp p2
/bg { 1 0 0.0784 srgb } def
np
 403.52 247.69 m
0.21 2.87 l
-137.33 8.64 l
cp p2
/bg { 1 0 0.0588 srgb } def
np
 403.73 250.56 m
0.15 2.88 l
-137.48 5.76 l
cp p2
/bg { 1 0 0.0392 srgb } def
np
 403.88 253.44 m
0.09 2.88 l
-137.57 2.88 l
cp p2
/bg { 1 0 0.0196 srgb } def
np
 403.97 256.32 m
0.03 2.88 l
-137.60 0 l
cp p2
ep
%%Trailer
%%Pages: 1
%%EOF
