%!PS-Adobe-3.0 EPSF-3.0
%%DocumentNeededResources: font Helvetica
%%+ font Helvetica-Bold
%%+ font Helvetica-Oblique
%%+ font Helvetica-BoldOblique
%%+ font Symbol
%%Title: R Graphics Output
%%Creator: R Software
%%Pages: (atend)
%%BoundingBox: 0 0 504 504
%%EndComments
%%BeginProlog
/bp  { gs sRGB gs } def
% begin .ps.prolog
/gs  { gsave } bind def
/gr  { grestore } bind def
/ep  { showpage gr gr } bind def
/m   { moveto } bind def
/l  { rlineto } bind def
/np  { newpath } bind def
/cp  { closepath } bind def
/f   { fill } bind def
/o   { stroke } bind def
/c   { newpath 0 360 arc } bind def
/r   { 4 2 roll moveto 1 copy 3 -1 roll exch 0 exch rlineto 0 rlineto -1 mul 0 exch rlineto closepath } bind def
/p1  { stroke } bind def
/p2  { gsave bg fill grestore newpath } bind def
/p3  { gsave bg fill grestore stroke } bind def
/p6  { gsave bg eofill grestore newpath } bind def
/p7  { gsave bg eofill grestore stroke } bind def
/t   { 5 -2 roll moveto gsave rotate
       1 index stringwidth pop
       mul neg 0 rmoveto show grestore } bind def
/ta  { 4 -2 roll moveto gsave rotate show } bind def
/tb  { 2 -1 roll 0 rmoveto show } bind def
/cl  { grestore gsave newpath 3 index 3 index moveto 1 index
       4 -1 roll lineto  exch 1 index lineto lineto
       closepath clip newpath } bind def
/rgb { setrgbcolor } bind def
/s   { scalefont setfont } bind def
% end   .ps.prolog
/sRGB { [ /CIEBasedABC
          << /DecodeLMN
               [ { dup 0.03928 le
                        {12.92321 div}
                        {0.055 add 1.055 div 2.4 exp }
                     ifelse
                 } bind dup dup
               ]
             /MatrixLMN [0.412457 0.212673 0.019334
                         0.357576 0.715152 0.119192
                         0.180437 0.072175 0.950301]
             /WhitePoint [0.9505 1.0 1.0890]
           >>
         ] setcolorspace } bind def
/srgb { setcolor } bind def
%%IncludeResource: font Helvetica
/Helvetica findfont
dup length dict begin
  {1 index /FID ne {def} {pop pop} ifelse} forall
  /Encoding ISOLatin1Encoding def
  currentdict
  end
/Font1 exch definefont pop
%%IncludeResource: font Helvetica-Bold
/Helvetica-Bold findfont
dup length dict begin
  {1 index /FID ne {def} {pop pop} ifelse} forall
  /Encoding ISOLatin1Encoding def
  currentdict
  end
/Font2 exch definefont pop
%%IncludeResource: font Helvetica-Oblique
/Helvetica-Oblique findfont
dup length dict begin
  {1 index /FID ne {def} {pop pop} ifelse} forall
  /Encoding ISOLatin1Encoding def
  currentdict
  end
/Font3 exch definefont pop
%%IncludeResource: font Helvetica-BoldOblique
/Helvetica-BoldOblique findfont
dup length dict begin
  {1 index /FID ne {def} {pop pop} ifelse} forall
  /Encoding ISOLatin1Encoding def
  currentdict
  end
/Font4 exch definefont pop
%%IncludeResource: font Symbol
/Symbol findfont
dup length dict begin
  {1 index /FID ne {def} {pop pop} ifelse} forall
  currentdict
  end
/Font5 exch definefont pop
%%EndProlog
%%Page: 1 1
bp
0.00 0.00 504.00 504.00 cl
0 0 0 srgb
0.75 setlinewidth
[] 0 setdash
1 setlinecap
1 setlinejoin
10.00 setmiterlimit
np
109.31 73.44 m
349.09 0 l
o
np
109.31 73.44 m
0 -7.20 l
o
np
179.13 73.44 m
0 -7.20 l
o
np
248.95 73.44 m
0 -7.20 l
o
np
318.76 73.44 m
0 -7.20 l
o
np
388.58 73.44 m
0 -7.20 l
o
np
458.40 73.44 m
0 -7.20 l
o
/Font1 findfont 12 s
109.31 47.52 (2) .5 0 t
179.13 47.52 (4) .5 0 t
248.95 47.52 (6) .5 0 t
318.76 47.52 (8) .5 0 t
388.58 47.52 (10) .5 0 t
458.40 47.52 (12) .5 0 t
np
59.04 78.48 m
0 317.77 l
o
np
59.04 78.48 m
-7.20 0 l
o
np
59.04 131.44 m
-7.20 0 l
o
np
59.04 184.40 m
-7.20 0 l
o
np
59.04 237.36 m
-7.20 0 l
o
np
59.04 290.32 m
-7.20 0 l
o
np
59.04 343.29 m
-7.20 0 l
o
np
59.04 396.25 m
-7.20 0 l
o
41.76 78.48 (0) .5 90 t
41.76 131.44 (10000) .5 90 t
41.76 184.40 (20000) .5 90 t
41.76 237.36 (30000) .5 90 t
41.76 290.32 (40000) .5 90 t
41.76 343.29 (50000) .5 90 t
41.76 396.25 (60000) .5 90 t
np
59.04 73.44 m
414.72 0 l
0 371.52 l
-414.72 0 l
0 -371.52 l
o
0.00 0.00 504.00 504.00 cl
/Font1 findfont 12 s
0 0 0 srgb
266.40 18.72 (bounds$x) .5 0 t
12.96 259.20 (bounds$y) .5 90 t
59.04 73.44 473.76 444.96 cl
1 0 0 srgb
0.75 setlinewidth
[] 0 setdash
1 setlinecap
1 setlinejoin
10.00 setmiterlimit
np
74.40 87.53 m
34.91 -0.33 l
34.91 0.78 l
34.91 0.45 l
34.91 1.56 l
34.91 0.78 l
34.90 0.78 l
34.91 -0.27 l
34.91 -1.23 l
34.91 -0.33 l
34.91 -0.85 l
34.91 -0.72 l
o
1 0.1490 0 srgb
np
74.40 87.76 m
34.91 -0.34 l
34.91 1.23 l
34.91 0.11 l
34.91 1.96 l
34.91 -0.17 l
34.90 1.90 l
34.91 -1.00 l
34.91 -0.90 l
34.91 -0.61 l
34.91 -1.18 l
34.91 -0.33 l
o
1 0.3020 0 srgb
np
74.40 87.87 m
34.91 -0.45 l
34.91 0.51 l
34.91 1.06 l
34.91 1.62 l
34.91 1.17 l
34.90 1.07 l
34.91 -1.01 l
34.91 -0.95 l
34.91 -0.78 l
34.91 -1.40 l
34.91 -0.11 l
o
1 0.4510 0 srgb
np
74.40 87.64 m
34.91 -0.22 l
34.91 1.12 l
34.91 0.50 l
34.91 1.85 l
34.91 1.11 l
34.90 0.85 l
34.91 -0.45 l
34.91 -1.40 l
34.91 -0.28 l
34.91 -1.51 l
34.91 -0.61 l
o
1 0.6000 0 srgb
np
74.40 87.81 m
34.91 0.29 l
34.91 1.00 l
34.91 0.45 l
34.91 2.79 l
34.91 1.12 l
34.90 0.73 l
34.91 -0.40 l
34.91 -1.90 l
34.91 -0.89 l
34.91 -0.78 l
34.91 -1.01 l
o
1 0.7490 0 srgb
np
74.40 88.04 m
34.91 -0.17 l
34.91 1.28 l
34.91 0.40 l
34.91 2.85 l
34.91 0.45 l
34.90 1.56 l
34.91 -0.67 l
34.91 -2.07 l
34.91 -1.34 l
34.91 -0.17 l
34.91 -1.17 l
o
1 0.8980 0 srgb
np
74.40 88.38 m
34.91 -0.28 l
34.91 1.22 l
34.91 0.51 l
34.91 3.18 l
34.91 0.17 l
34.90 1.34 l
34.91 -0.33 l
34.91 -2.46 l
34.91 0 l
34.91 -1.96 l
34.91 -0.62 l
o
0.9490 1 0 srgb
np
74.40 88.60 m
34.91 -0.22 l
34.91 1.34 l
34.91 0.77 l
34.91 2.24 l
34.91 1.29 l
34.90 1.51 l
34.91 -1.01 l
34.91 -1.96 l
34.91 -1.33 l
34.91 -0.79 l
34.91 -1.06 l
o
0.8000 1 0 srgb
np
74.40 88.49 m
34.91 0.50 l
34.91 0.67 l
34.91 1.06 l
34.91 2.51 l
34.91 1.35 l
34.90 1.00 l
34.91 -0.84 l
34.91 -2.18 l
34.91 -0.61 l
34.91 -1.62 l
34.91 -0.50 l
o
0.6510 1 0 srgb
np
74.40 88.87 m
34.91 -0.27 l
34.91 1.62 l
34.91 1.17 l
34.91 2.01 l
34.91 1.62 l
34.90 1.18 l
34.91 -1.24 l
34.91 -2.40 l
34.91 -1.00 l
34.91 -0.73 l
34.91 -1.17 l
o
0.5020 1 0 srgb
np
74.40 88.60 m
34.91 0.16 l
34.91 1.46 l
34.91 0.67 l
34.91 3.07 l
34.91 1.62 l
34.90 1.51 l
34.91 -0.84 l
34.91 -2.68 l
34.91 -0.89 l
34.91 -1.51 l
34.91 -1.01 l
o
0.3490 1 0 srgb
np
74.40 89.04 m
34.91 -0.22 l
34.91 1.79 l
34.91 0.56 l
34.91 3.02 l
34.91 1.45 l
34.90 1.95 l
34.91 -0.44 l
34.91 -2.68 l
34.91 -1.96 l
34.91 -1.51 l
34.91 -0.62 l
o
0.2000 1 0 srgb
np
74.40 89.04 m
34.91 -0.28 l
34.91 1.68 l
34.91 0.39 l
34.91 5.25 l
34.91 1.51 l
34.90 1.85 l
34.91 -1.51 l
34.91 -2.74 l
34.91 -1.17 l
34.91 -1.85 l
34.91 -1.06 l
o
0.0510 1 0 srgb
np
74.40 89.38 m
34.91 0.22 l
34.91 1.90 l
34.91 0.95 l
34.91 3.47 l
34.91 2.29 l
34.90 4.91 l
34.91 -1.45 l
34.91 -0.78 l
34.91 -2.52 l
34.91 -1.73 l
34.91 0.17 l
o
0 1 0.0980 srgb
np
74.40 96.20 m
34.91 4.63 l
34.91 3.47 l
34.91 1.00 l
34.91 4.70 l
34.91 4.36 l
34.90 6.48 l
34.91 -2.52 l
34.91 -0.45 l
34.91 -2.96 l
34.91 -2.06 l
34.91 -1.07 l
o
0 1 0.2510 srgb
np
74.40 109.83 m
34.91 1.40 l
34.91 2.17 l
34.91 -0.55 l
34.91 8.21 l
34.91 8.87 l
34.90 0 l
34.91 0.22 l
34.91 -6.15 l
34.91 -3.89 l
34.91 -0.57 l
34.91 2.13 l
o
0 1 0.4000 srgb
np
74.40 119.68 m
34.91 -2.00 l
34.91 7.95 l
34.91 4.45 l
34.91 8.63 l
34.91 7.25 l
34.90 5.25 l
34.91 -0.22 l
34.91 -7.69 l
34.91 1.39 l
34.91 -6.67 l
34.91 -2.19 l
o
0 1 0.5490 srgb
np
74.40 139.75 m
34.91 -6.20 l
34.91 11.10 l
34.91 -2.82 l
34.91 10.66 l
34.91 5.14 l
34.90 9.85 l
34.91 -1.15 l
34.91 -12.51 l
34.91 -0.36 l
34.91 -6.04 l
34.91 -4.04 l
o
0 1 0.6980 srgb
np
74.40 140.47 m
34.91 3.02 l
34.91 7.52 l
34.91 2.05 l
34.91 13.10 l
34.91 4.15 l
34.90 2.32 l
34.91 -0.98 l
34.91 -7.40 l
34.91 -4.55 l
34.91 -5.97 l
34.91 -5.78 l
o
0 1 0.8510 srgb
np
74.40 143.91 m
34.91 1.74 l
34.91 7.72 l
34.91 4.50 l
34.91 6.19 l
34.91 11.21 l
34.90 4.67 l
34.91 -2.23 l
34.91 -8.62 l
34.91 -0.08 l
34.91 -8.87 l
34.91 -5.86 l
o
0 1 1 srgb
np
74.40 148.71 m
34.91 9.16 l
34.91 5.22 l
34.91 4.21 l
34.91 16.15 l
34.91 6.16 l
34.90 5.39 l
34.91 1.78 l
34.91 -8.40 l
34.91 -4.14 l
34.91 -14.17 l
34.91 -4.21 l
o
0 0.8510 1 srgb
np
74.40 158.54 m
34.91 4.99 l
34.91 11.01 l
34.91 1.77 l
34.91 15.50 l
34.91 13.00 l
34.90 11.50 l
34.91 -2.89 l
34.91 -14.17 l
34.91 -16.86 l
34.91 0.04 l
34.91 -6.03 l
o
0 0.7020 1 srgb
np
74.40 169.80 m
34.91 5.52 l
34.91 10.28 l
34.91 3.59 l
34.91 15.17 l
34.91 13.53 l
34.90 9.08 l
34.91 -6.68 l
34.91 -20.60 l
34.91 -0.39 l
34.91 -2.16 l
34.91 -13.82 l
o
0 0.5490 1 srgb
np
74.40 178.26 m
34.91 0.28 l
34.91 10.22 l
34.91 7.36 l
34.91 15.17 l
34.91 9.57 l
34.90 19.74 l
34.91 -2.03 l
34.91 -18.35 l
34.91 -4.65 l
34.91 -13.54 l
34.91 -7.40 l
o
0 0.4000 1 srgb
np
74.40 191.99 m
34.91 4.96 l
34.91 11.30 l
34.91 7.43 l
34.91 24.89 l
34.91 23.19 l
34.90 10.99 l
34.91 -13.54 l
34.91 -14.35 l
34.91 -13.34 l
34.91 -5.13 l
34.91 -16.19 l
o
0 0.2510 1 srgb
np
74.40 225.34 m
34.91 -1.62 l
34.91 27.86 l
34.91 -6.98 l
34.91 32.27 l
34.91 19.07 l
34.90 13.23 l
34.91 -6.15 l
34.91 -45.39 l
34.91 6.01 l
34.91 -7.85 l
34.91 -5.48 l
o
0 0.1020 1 srgb
np
74.40 241.15 m
34.91 -1.67 l
34.91 5.57 l
34.91 -0.77 l
34.91 49.18 l
34.91 18.75 l
34.90 17.24 l
34.91 -32.19 l
34.91 -17.99 l
34.91 -18.84 l
34.91 1.33 l
34.91 -31.13 l
o
0.0510 0 1 srgb
np
74.40 216.91 m
34.91 24.40 l
34.91 22.63 l
34.91 -2.48 l
34.91 34.06 l
34.91 10.00 l
34.90 11.40 l
34.91 -24.55 l
34.91 -11.68 l
34.91 2.26 l
34.91 -17.47 l
34.91 -26.88 l
o
0.2000 0 1 srgb
np
74.40 231.01 m
34.91 22.42 l
34.91 11.97 l
34.91 -11.19 l
34.91 40.34 l
34.91 8.25 l
34.90 19.82 l
34.91 -19.43 l
34.91 -3.06 l
34.91 -13.35 l
34.91 -10.61 l
34.91 -14.90 l
o
0.3490 0 1 srgb
np
74.40 250.57 m
34.91 4.31 l
34.91 18.52 l
34.91 -13.68 l
34.91 36.01 l
34.91 17.63 l
34.90 9.66 l
34.91 -9.21 l
34.91 -18.49 l
34.91 -8.87 l
34.91 -17.83 l
34.91 -19.91 l
o
0.4980 0 1 srgb
np
74.40 243.93 m
34.91 5.41 l
34.91 14.25 l
34.91 16.72 l
34.91 26.79 l
34.91 12.60 l
34.90 21.30 l
34.91 -22.15 l
34.91 -18.97 l
34.91 -2.77 l
34.91 -27.61 l
34.91 -6.30 l
o
0.6510 0 1 srgb
np
74.40 252.15 m
34.91 7.49 l
34.91 26.07 l
34.91 5.93 l
34.91 17.32 l
34.91 13.87 l
34.90 55.99 l
34.91 -23.32 l
34.91 -15.41 l
34.91 -20.64 l
34.91 -29.88 l
34.91 -10.06 l
o
0.8000 0 1 srgb
np
74.40 266.85 m
34.91 11.27 l
34.91 24.49 l
34.91 -16.86 l
34.91 41.98 l
34.91 18.79 l
34.90 20.37 l
34.91 -0.12 l
34.91 -31.34 l
34.91 -28.03 l
34.91 -5.66 l
34.91 -11.44 l
o
0.9490 0 1 srgb
np
74.40 277.30 m
34.91 -1.40 l
34.91 23.84 l
34.91 -0.59 l
34.91 42.10 l
34.91 43.31 l
34.90 21.66 l
34.91 2.74 l
34.91 -61.33 l
34.91 1.57 l
34.91 -28.52 l
34.91 -16.97 l
o
1 0 0.9020 srgb
np
74.40 292.76 m
34.91 -0.87 l
34.91 20.40 l
34.91 -7.68 l
34.91 52.24 l
34.91 21.24 l
34.90 1.52 l
34.91 7.97 l
34.91 -67.45 l
34.91 -0.03 l
34.91 -22.87 l
34.91 -28.00 l
o
1 0 0.7490 srgb
np
74.40 266.98 m
34.91 0.45 l
34.91 22.17 l
34.91 10.05 l
34.91 45.65 l
34.91 -6.63 l
34.90 31.45 l
34.91 3.20 l
34.91 -35.02 l
34.91 -24.13 l
34.91 -12.49 l
34.91 -18.25 l
o
1 0 0.6000 srgb
np
74.40 284.83 m
34.91 -1.44 l
34.91 5.83 l
34.91 14.58 l
34.91 40.25 l
34.91 42.47 l
34.90 4.62 l
34.91 1.97 l
34.91 -18.11 l
34.91 -45.90 l
34.91 -26.76 l
34.91 -14.10 l
o
1 0 0.4510 srgb
np
74.40 274.75 m
34.91 4.79 l
34.91 -36.65 l
34.91 56.50 l
34.91 45.83 l
34.91 35.02 l
34.90 -0.90 l
34.91 -11.51 l
34.91 -17.30 l
34.91 -17.45 l
34.91 -9.65 l
34.91 -13.32 l
o
1 0 0.3020 srgb
np
74.40 290.19 m
34.91 2.67 l
34.91 33.98 l
34.91 -3.96 l
34.91 46.94 l
34.91 14.77 l
34.90 24.63 l
34.91 7.66 l
34.91 -32.37 l
34.91 -24.11 l
34.91 -15.24 l
34.91 -63.26 l
o
1 0 0.1490 srgb
np
74.40 298.80 m
34.91 -0.68 l
34.91 25.50 l
34.91 14.44 l
34.91 40.31 l
34.91 27.09 l
34.90 25.74 l
34.91 -34.67 l
o
0 0 0 srgb
398.47 444.96 75.29 -72.00 r p1
1 0 0 srgb
np
409.27 430.56 m
21.60 0 l
o
0.5020 1 0 srgb
np
409.27 416.16 m
21.60 0 l
o
0 1 1 srgb
np
409.27 401.76 m
21.60 0 l
o
0.5020 0 1 srgb
np
409.27 387.36 m
21.60 0 l
o
/Font1 findfont 12 s
0 0 0 srgb
441.67 426.25 (1956) 0 0 t
441.67 411.85 (1969) 0 0 t
441.67 397.45 (1982) 0 0 t
441.67 383.05 (1995) 0 0 t
ep
%%Trailer
%%Pages: 1
%%EOF
