%!PS-Adobe-3.0 EPSF-3.0
%%DocumentNeededResources: font Helvetica
%%+ font Helvetica-Bold
%%+ font Helvetica-Oblique
%%+ font Helvetica-BoldOblique
%%+ font Symbol
%%Title: R Graphics Output
%%Creator: R Software
%%Pages: (atend)
%%BoundingBox: 0 0 504 504
%%EndComments
%%BeginProlog
/bp  { gs sRGB gs } def
% begin .ps.prolog
/gs  { gsave } bind def
/gr  { grestore } bind def
/ep  { showpage gr gr } bind def
/m   { moveto } bind def
/l  { rlineto } bind def
/np  { newpath } bind def
/cp  { closepath } bind def
/f   { fill } bind def
/o   { stroke } bind def
/c   { newpath 0 360 arc } bind def
/r   { 4 2 roll moveto 1 copy 3 -1 roll exch 0 exch rlineto 0 rlineto -1 mul 0 exch rlineto closepath } bind def
/p1  { stroke } bind def
/p2  { gsave bg fill grestore newpath } bind def
/p3  { gsave bg fill grestore stroke } bind def
/p6  { gsave bg eofill grestore newpath } bind def
/p7  { gsave bg eofill grestore stroke } bind def
/t   { 5 -2 roll moveto gsave rotate
       1 index stringwidth pop
       mul neg 0 rmoveto show grestore } bind def
/ta  { 4 -2 roll moveto gsave rotate show } bind def
/tb  { 2 -1 roll 0 rmoveto show } bind def
/cl  { grestore gsave newpath 3 index 3 index moveto 1 index
       4 -1 roll lineto  exch 1 index lineto lineto
       closepath clip newpath } bind def
/rgb { setrgbcolor } bind def
/s   { scalefont setfont } bind def
% end   .ps.prolog
/sRGB { [ /CIEBasedABC
          << /DecodeLMN
               [ { dup 0.03928 le
                        {12.92321 div}
                        {0.055 add 1.055 div 2.4 exp }
                     ifelse
                 } bind dup dup
               ]
             /MatrixLMN [0.412457 0.212673 0.019334
                         0.357576 0.715152 0.119192
                         0.180437 0.072175 0.950301]
             /WhitePoint [0.9505 1.0 1.0890]
           >>
         ] setcolorspace } bind def
/srgb { setcolor } bind def
%%IncludeResource: font Helvetica
/Helvetica findfont
dup length dict begin
  {1 index /FID ne {def} {pop pop} ifelse} forall
  /Encoding ISOLatin1Encoding def
  currentdict
  end
/Font1 exch definefont pop
%%IncludeResource: font Helvetica-Bold
/Helvetica-Bold findfont
dup length dict begin
  {1 index /FID ne {def} {pop pop} ifelse} forall
  /Encoding ISOLatin1Encoding def
  currentdict
  end
/Font2 exch definefont pop
%%IncludeResource: font Helvetica-Oblique
/Helvetica-Oblique findfont
dup length dict begin
  {1 index /FID ne {def} {pop pop} ifelse} forall
  /Encoding ISOLatin1Encoding def
  currentdict
  end
/Font3 exch definefont pop
%%IncludeResource: font Helvetica-BoldOblique
/Helvetica-BoldOblique findfont
dup length dict begin
  {1 index /FID ne {def} {pop pop} ifelse} forall
  /Encoding ISOLatin1Encoding def
  currentdict
  end
/Font4 exch definefont pop
%%IncludeResource: font Symbol
/Symbol findfont
dup length dict begin
  {1 index /FID ne {def} {pop pop} ifelse} forall
  currentdict
  end
/Font5 exch definefont pop
%%EndProlog
%%Page: 1 1
bp
0.00 0.00 504.00 504.00 cl
0 0 0 srgb
0.75 setlinewidth
[] 0 setdash
1 setlinecap
1 setlinejoin
10.00 setmiterlimit
np
74.40 73.44 m
384.00 0 l
o
np
74.40 73.44 m
0 -7.20 l
o
np
138.40 73.44 m
0 -7.20 l
o
np
202.40 73.44 m
0 -7.20 l
o
np
266.40 73.44 m
0 -7.20 l
o
np
330.40 73.44 m
0 -7.20 l
o
np
394.40 73.44 m
0 -7.20 l
o
np
458.40 73.44 m
0 -7.20 l
o
/Font1 findfont 12 s
74.40 47.52 (0) .5 0 t
138.40 47.52 (1) .5 0 t
202.40 47.52 (2) .5 0 t
266.40 47.52 (3) .5 0 t
330.40 47.52 (4) .5 0 t
394.40 47.52 (5) .5 0 t
458.40 47.52 (6) .5 0 t
np
59.04 97.24 m
0 285.84 l
o
np
59.04 97.24 m
-7.20 0 l
o
np
59.04 192.52 m
-7.20 0 l
o
np
59.04 287.80 m
-7.20 0 l
o
np
59.04 383.08 m
-7.20 0 l
o
41.76 97.24 (5) .5 90 t
41.76 192.52 (10) .5 90 t
41.76 287.80 (15) .5 90 t
41.76 383.08 (20) .5 90 t
np
59.04 73.44 m
414.72 0 l
0 371.52 l
-414.72 0 l
0 -371.52 l
o
0.00 0.00 504.00 504.00 cl
/Font1 findfont 12 s
0 0 0 srgb
251.72 18.72 (Inde) 0 ta
-0.360 (x) tb gr
12.96 259.20 (Spotreba) .5 90 t
59.04 73.44 473.76 444.96 cl
/bg { 0 0 0 srgb } def
113.18 106.28 20.74 292.33 r p2
/bg { 0.1216 0.1216 0.1216 srgb } def
108.70 119.22 20.74 255.79 r p2
/bg { 0.2471 0.2471 0.2471 srgb } def
104.22 128.36 20.74 194.89 r p2
/bg { 0.3725 0.3725 0.3725 srgb } def
99.74 136.73 20.74 158.34 r p2
/bg { 0.4980 0.4980 0.4980 srgb } def
95.26 145.10 20.74 134.74 r p2
/bg { 0.6235 0.6235 0.6235 srgb } def
90.78 154.24 20.74 114.19 r p2
/bg { 0.7490 0.7490 0.7490 srgb } def
86.30 164.14 20.74 94.40 r p2
/bg { 0.8745 0.8745 0.8745 srgb } def
81.82 176.32 20.74 72.32 r p2
/bg { 1 1 1 srgb } def
0.8745 0.8745 0.8745 srgb
0.75 setlinewidth
[] 0 setdash
1 setlinecap
1 setlinejoin
10.00 setmiterlimit
77.34 190.78 20.74 47.20 r p3
/bg { 0 0 0 srgb } def
177.18 93.40 20.74 252.08 r p2
/bg { 0.1216 0.1216 0.1216 srgb } def
172.70 123.10 20.74 207.14 r p2
/bg { 0.2471 0.2471 0.2471 srgb } def
168.22 144.43 20.74 174.40 r p2
/bg { 0.3725 0.3725 0.3725 srgb } def
163.74 156.61 20.74 148.50 r p2
/bg { 0.4980 0.4980 0.4980 srgb } def
159.26 166.51 20.74 122.61 r p2
/bg { 0.6235 0.6235 0.6235 srgb } def
154.78 174.13 20.74 102.81 r p2
/bg { 0.7490 0.7490 0.7490 srgb } def
150.30 181.74 20.74 85.29 r p2
/bg { 0.8745 0.8745 0.8745 srgb } def
145.82 189.36 20.74 67.02 r p2
/bg { 1 1 1 srgb } def
141.34 197.73 20.74 46.46 r p3
/bg { 0 0 0 srgb } def
241.18 109.29 20.74 241.63 r p2
/bg { 0.1216 0.1216 0.1216 srgb } def
236.70 120.42 20.74 215.06 r p2
/bg { 0.2471 0.2471 0.2471 srgb } def
232.22 128.14 20.74 191.93 r p2
/bg { 0.3725 0.3725 0.3725 srgb } def
227.74 134.99 20.74 157.66 r p2
/bg { 0.4980 0.4980 0.4980 srgb } def
223.26 141.84 20.74 134.52 r p2
/bg { 0.6235 0.6235 0.6235 srgb } def
218.78 149.56 20.74 116.53 r p2
/bg { 0.7490 0.7490 0.7490 srgb } def
214.30 159.84 20.74 96.82 r p2
/bg { 0.8745 0.8745 0.8745 srgb } def
209.82 171.83 20.74 76.26 r p2
/bg { 1 1 1 srgb } def
205.34 185.54 20.74 52.27 r p3
/bg { 0 0 0 srgb } def
305.18 125.82 20.74 226.00 r p2
/bg { 0.1216 0.1216 0.1216 srgb } def
300.70 136.54 20.74 191.53 r p2
/bg { 0.2471 0.2471 0.2471 srgb } def
296.22 146.50 20.74 127.17 r p2
/bg { 0.3725 0.3725 0.3725 srgb } def
291.74 159.52 20.74 103.42 r p2
/bg { 0.4980 0.4980 0.4980 srgb } def
287.26 171.78 20.74 81.97 r p2
/bg { 0.6235 0.6235 0.6235 srgb } def
282.78 180.97 20.74 63.59 r p2
/bg { 0.7490 0.7490 0.7490 srgb } def
278.30 188.64 20.74 48.26 r p2
/bg { 0.8745 0.8745 0.8745 srgb } def
273.82 195.53 20.74 35.24 r p2
/bg { 1 1 1 srgb } def
269.34 202.43 20.74 22.22 r p3
/bg { 0 0 0 srgb } def
369.18 117.32 20.74 242.16 r p2
/bg { 0.1216 0.1216 0.1216 srgb } def
364.70 128.13 20.74 208.04 r p2
/bg { 0.2471 0.2471 0.2471 srgb } def
360.22 136.46 20.74 139.80 r p2
360.22 308.71 20.74 9.99 r p2
/bg { 0.3725 0.3725 0.3725 srgb } def
355.74 143.11 20.74 121.50 r p2
/bg { 0.4980 0.4980 0.4980 srgb } def
351.26 151.44 20.74 104.85 r p2
/bg { 0.6235 0.6235 0.6235 srgb } def
346.78 162.25 20.74 86.54 r p2
/bg { 0.7490 0.7490 0.7490 srgb } def
342.30 173.90 20.74 66.57 r p2
/bg { 0.8745 0.8745 0.8745 srgb } def
337.82 187.22 20.74 45.77 r p2
/bg { 1 1 1 srgb } def
333.34 197.20 20.74 28.29 r p3
/bg { 0 0 0 srgb } def
433.18 122.41 20.74 221.93 r p2
/bg { 0.1216 0.1216 0.1216 srgb } def
428.70 132.90 20.74 195.30 r p2
/bg { 0.2471 0.2471 0.2471 srgb } def
424.22 140.97 20.74 139.61 r p2
/bg { 0.3725 0.3725 0.3725 srgb } def
419.74 149.04 20.74 117.02 r p2
/bg { 0.4980 0.4980 0.4980 srgb } def
415.26 159.53 20.74 96.03 r p2
/bg { 0.6235 0.6235 0.6235 srgb } def
410.78 169.22 20.74 77.47 r p2
/bg { 0.7490 0.7490 0.7490 srgb } def
406.30 178.90 20.74 58.91 r p2
/bg { 0.8745 0.8745 0.8745 srgb } def
401.82 191.01 20.74 38.74 r p2
/bg { 1 1 1 srgb } def
397.34 199.88 20.74 23.40 r p3
/Font1 findfont 12 s
0 0 0 srgb
106.40 417.09 (n =  30) .5 0 t
170.40 417.09 (n =  50) .5 0 t
234.40 417.09 (n =  100) .5 0 t
298.40 417.09 (n =  300) .5 0 t
362.40 417.09 (n =  500) .5 0 t
426.40 417.09 (n =  1108) .5 0 t
ep
%%Trailer
%%Pages: 1
%%EOF
