%!PS-Adobe-3.0 EPSF-3.0
%%DocumentNeededResources: font Helvetica
%%+ font Helvetica-Bold
%%+ font Helvetica-Oblique
%%+ font Helvetica-BoldOblique
%%+ font Symbol
%%Title: R Graphics Output
%%Creator: R Software
%%Pages: (atend)
%%BoundingBox: 0 0 504 504
%%EndComments
%%BeginProlog
/bp  { gs sRGB gs } def
% begin .ps.prolog
/gs  { gsave } bind def
/gr  { grestore } bind def
/ep  { showpage gr gr } bind def
/m   { moveto } bind def
/l  { rlineto } bind def
/np  { newpath } bind def
/cp  { closepath } bind def
/f   { fill } bind def
/o   { stroke } bind def
/c   { newpath 0 360 arc } bind def
/r   { 4 2 roll moveto 1 copy 3 -1 roll exch 0 exch rlineto 0 rlineto -1 mul 0 exch rlineto closepath } bind def
/p1  { stroke } bind def
/p2  { gsave bg fill grestore newpath } bind def
/p3  { gsave bg fill grestore stroke } bind def
/p6  { gsave bg eofill grestore newpath } bind def
/p7  { gsave bg eofill grestore stroke } bind def
/t   { 5 -2 roll moveto gsave rotate
       1 index stringwidth pop
       mul neg 0 rmoveto show grestore } bind def
/ta  { 4 -2 roll moveto gsave rotate show } bind def
/tb  { 2 -1 roll 0 rmoveto show } bind def
/cl  { grestore gsave newpath 3 index 3 index moveto 1 index
       4 -1 roll lineto  exch 1 index lineto lineto
       closepath clip newpath } bind def
/rgb { setrgbcolor } bind def
/s   { scalefont setfont } bind def
% end   .ps.prolog
/sRGB { [ /CIEBasedABC
          << /DecodeLMN
               [ { dup 0.03928 le
                        {12.92321 div}
                        {0.055 add 1.055 div 2.4 exp }
                     ifelse
                 } bind dup dup
               ]
             /MatrixLMN [0.412457 0.212673 0.019334
                         0.357576 0.715152 0.119192
                         0.180437 0.072175 0.950301]
             /WhitePoint [0.9505 1.0 1.0890]
           >>
         ] setcolorspace } bind def
/srgb { setcolor } bind def
%%IncludeResource: font Helvetica
/Helvetica findfont
dup length dict begin
  {1 index /FID ne {def} {pop pop} ifelse} forall
  /Encoding ISOLatin1Encoding def
  currentdict
  end
/Font1 exch definefont pop
%%IncludeResource: font Helvetica-Bold
/Helvetica-Bold findfont
dup length dict begin
  {1 index /FID ne {def} {pop pop} ifelse} forall
  /Encoding ISOLatin1Encoding def
  currentdict
  end
/Font2 exch definefont pop
%%IncludeResource: font Helvetica-Oblique
/Helvetica-Oblique findfont
dup length dict begin
  {1 index /FID ne {def} {pop pop} ifelse} forall
  /Encoding ISOLatin1Encoding def
  currentdict
  end
/Font3 exch definefont pop
%%IncludeResource: font Helvetica-BoldOblique
/Helvetica-BoldOblique findfont
dup length dict begin
  {1 index /FID ne {def} {pop pop} ifelse} forall
  /Encoding ISOLatin1Encoding def
  currentdict
  end
/Font4 exch definefont pop
%%IncludeResource: font Symbol
/Symbol findfont
dup length dict begin
  {1 index /FID ne {def} {pop pop} ifelse} forall
  currentdict
  end
/Font5 exch definefont pop
%%EndProlog
%%Page: 1 1
bp
0.00 0.00 504.00 504.00 cl
/Font2 findfont 14 s
0 0 0 srgb
266.40 469.45 (Histogram of data) .5 0 t
/Font1 findfont 12 s
266.40 18.72 (data) .5 0 t
12.96 259.20 (Frequency) .5 90 t
0.00 0.00 504.00 504.00 cl
0 0 0 srgb
0.75 setlinewidth
[] 0 setdash
1 setlinecap
1 setlinejoin
10.00 setmiterlimit
np
112.80 73.44 m
307.20 0 l
o
np
112.80 73.44 m
0 -7.20 l
o
np
189.60 73.44 m
0 -7.20 l
o
np
266.40 73.44 m
0 -7.20 l
o
np
343.20 73.44 m
0 -7.20 l
o
np
420.00 73.44 m
0 -7.20 l
o
/Font1 findfont 12 s
112.80 47.52 (-2) .5 0 t
189.60 47.52 (-1) .5 0 t
266.40 47.52 (0) .5 0 t
343.20 47.52 (1) .5 0 t
420.00 47.52 (2) .5 0 t
np
59.04 87.20 m
0 334.44 l
o
np
59.04 87.20 m
-7.20 0 l
o
np
59.04 134.98 m
-7.20 0 l
o
np
59.04 182.76 m
-7.20 0 l
o
np
59.04 230.53 m
-7.20 0 l
o
np
59.04 278.31 m
-7.20 0 l
o
np
59.04 326.09 m
-7.20 0 l
o
np
59.04 373.87 m
-7.20 0 l
o
np
59.04 421.64 m
-7.20 0 l
o
41.76 87.20 (0) .5 90 t
41.76 134.98 (5) .5 90 t
41.76 182.76 (10) .5 90 t
41.76 230.53 (15) .5 90 t
41.76 278.31 (20) .5 90 t
41.76 326.09 (25) .5 90 t
41.76 373.87 (30) .5 90 t
41.76 421.64 (35) .5 90 t
59.04 73.44 473.76 444.96 cl
0 0 0 srgb
0.75 setlinewidth
[] 0 setdash
1 setlinecap
1 setlinejoin
10.00 setmiterlimit
74.40 87.20 38.40 9.56 r p1
112.80 87.20 38.40 76.44 r p1
151.20 87.20 38.40 86.00 r p1
189.60 87.20 38.40 238.89 r p1
228.00 87.20 38.40 344.00 r p1
266.40 87.20 38.40 258.00 r p1
304.80 87.20 38.40 219.78 r p1
343.20 87.20 38.40 114.67 r p1
381.60 87.20 38.40 57.33 r p1
420.00 87.20 38.40 28.67 r p1
/bg { 0 0 0 srgb } def
107.73 94.35 323.10 18.58 r p2
/bg { 0.1216 0.1216 0.1216 srgb } def
134.49 100.54 264.79 18.58 r p2
/bg { 0.2471 0.2471 0.2471 srgb } def
165.08 106.73 212.21 18.58 r p2
/bg { 0.3725 0.3725 0.3725 srgb } def
184.20 112.92 172.07 18.58 r p2
/bg { 0.4980 0.4980 0.4980 srgb } def
193.76 119.12 148.17 18.58 r p2
/bg { 0.6235 0.6235 0.6235 srgb } def
202.36 125.31 128.09 18.58 r p2
/bg { 0.7490 0.7490 0.7490 srgb } def
209.05 131.50 110.89 18.58 r p2
/bg { 0.8745 0.8745 0.8745 srgb } def
216.70 137.69 87.94 18.58 r p2
/bg { 1 1 1 srgb } def
0.8745 0.8745 0.8745 srgb
226.26 143.88 53.53 18.58 r p3
ep
%%Trailer
%%Pages: 1
%%EOF
