%!PS-Adobe-3.0 EPSF-3.0
%%DocumentNeededResources: font Helvetica
%%+ font Helvetica-Bold
%%+ font Helvetica-Oblique
%%+ font Helvetica-BoldOblique
%%+ font Symbol
%%Title: R Graphics Output
%%Creator: R Software
%%Pages: (atend)
%%BoundingBox: 0 0 288 360
%%EndComments
%%BeginProlog
/bp  { gs sRGB gs } def
% begin .ps.prolog
/gs  { gsave } bind def
/gr  { grestore } bind def
/ep  { showpage gr gr } bind def
/m   { moveto } bind def
/l  { rlineto } bind def
/np  { newpath } bind def
/cp  { closepath } bind def
/f   { fill } bind def
/o   { stroke } bind def
/c   { newpath 0 360 arc } bind def
/r   { 4 2 roll moveto 1 copy 3 -1 roll exch 0 exch rlineto 0 rlineto -1 mul 0 exch rlineto closepath } bind def
/p1  { stroke } bind def
/p2  { gsave bg fill grestore newpath } bind def
/p3  { gsave bg fill grestore stroke } bind def
/p6  { gsave bg eofill grestore newpath } bind def
/p7  { gsave bg eofill grestore stroke } bind def
/t   { 5 -2 roll moveto gsave rotate
       1 index stringwidth pop
       mul neg 0 rmoveto show grestore } bind def
/ta  { 4 -2 roll moveto gsave rotate show } bind def
/tb  { 2 -1 roll 0 rmoveto show } bind def
/cl  { grestore gsave newpath 3 index 3 index moveto 1 index
       4 -1 roll lineto  exch 1 index lineto lineto
       closepath clip newpath } bind def
/rgb { setrgbcolor } bind def
/s   { scalefont setfont } bind def
% end   .ps.prolog
/sRGB { [ /CIEBasedABC
          << /DecodeLMN
               [ { dup 0.03928 le
                        {12.92321 div}
                        {0.055 add 1.055 div 2.4 exp }
                     ifelse
                 } bind dup dup
               ]
             /MatrixLMN [0.412457 0.212673 0.019334
                         0.357576 0.715152 0.119192
                         0.180437 0.072175 0.950301]
             /WhitePoint [0.9505 1.0 1.0890]
           >>
         ] setcolorspace } bind def
/srgb { setcolor } bind def
%%IncludeResource: font Helvetica
/Helvetica findfont
dup length dict begin
  {1 index /FID ne {def} {pop pop} ifelse} forall
  /Encoding ISOLatin1Encoding def
  currentdict
  end
/Font1 exch definefont pop
%%IncludeResource: font Helvetica-Bold
/Helvetica-Bold findfont
dup length dict begin
  {1 index /FID ne {def} {pop pop} ifelse} forall
  /Encoding ISOLatin1Encoding def
  currentdict
  end
/Font2 exch definefont pop
%%IncludeResource: font Helvetica-Oblique
/Helvetica-Oblique findfont
dup length dict begin
  {1 index /FID ne {def} {pop pop} ifelse} forall
  /Encoding ISOLatin1Encoding def
  currentdict
  end
/Font3 exch definefont pop
%%IncludeResource: font Helvetica-BoldOblique
/Helvetica-BoldOblique findfont
dup length dict begin
  {1 index /FID ne {def} {pop pop} ifelse} forall
  /Encoding ISOLatin1Encoding def
  currentdict
  end
/Font4 exch definefont pop
%%IncludeResource: font Symbol
/Symbol findfont
dup length dict begin
  {1 index /FID ne {def} {pop pop} ifelse} forall
  currentdict
  end
/Font5 exch definefont pop
%%EndProlog
%%Page: 1 1
bp
0.00 0.00 288.00 360.00 cl
0 0 0 srgb
0.75 setlinewidth
[] 0 setdash
2 setlinecap
1 setlinejoin
10.00 setmiterlimit
np
37.07 298.51 m
213.86 0 l
o
np
37.07 298.51 m
0 -4.75 l
o
np
72.71 298.51 m
0 -4.75 l
o
np
108.36 298.51 m
0 -4.75 l
o
np
144.00 298.51 m
0 -4.75 l
o
np
179.64 298.51 m
0 -4.75 l
o
np
215.29 298.51 m
0 -4.75 l
o
np
250.93 298.51 m
0 -4.75 l
o
/Font1 findfont 8 s
37.07 281.40 (-3) .5 0 t
72.71 281.40 (-2) .5 0 t
108.36 281.40 (-1) .5 0 t
144.00 281.40 (0) .5 0 t
179.64 281.40 (1) .5 0 t
215.29 281.40 (2) .5 0 t
250.93 281.40 (3) .5 0 t
np
28.51 300.44 m
0 48.13 l
o
np
28.51 300.44 m
-4.75 0 l
o
np
28.51 308.46 m
-4.75 0 l
o
np
28.51 316.48 m
-4.75 0 l
o
np
28.51 324.50 m
-4.75 0 l
o
np
28.51 332.53 m
-4.75 0 l
o
np
28.51 340.55 m
-4.75 0 l
o
np
28.51 348.57 m
-4.75 0 l
o
17.11 300.44 (0.0) .5 90 t
17.11 324.50 (0.3) .5 90 t
17.11 348.57 (0.6) .5 90 t
28.51 298.51 259.49 350.50 cl
0 0 0 srgb
0.75 setlinewidth
[] 0 setdash
2 setlinecap
1 setlinejoin
10.00 setmiterlimit
np
37.07 300.79 m
2.14 0.07 l
2.13 0.08 l
2.14 0.10 l
2.14 0.11 l
2.14 0.12 l
2.14 0.15 l
2.14 0.16 l
2.14 0.19 l
2.13 0.22 l
2.14 0.24 l
2.14 0.28 l
2.14 0.31 l
2.14 0.34 l
2.14 0.38 l
2.14 0.43 l
2.14 0.46 l
2.13 0.51 l
2.14 0.56 l
2.14 0.61 l
2.14 0.66 l
2.14 0.71 l
2.14 0.76 l
2.14 0.81 l
2.13 0.87 l
2.14 0.91 l
2.14 0.96 l
2.14 1.00 l
2.14 1.04 l
2.14 1.08 l
2.14 1.11 l
2.14 1.13 l
2.13 1.15 l
2.14 1.16 l
2.14 1.16 l
2.14 1.16 l
2.14 1.15 l
2.14 1.12 l
2.14 1.08 l
2.13 1.05 l
2.14 0.99 l
2.14 0.93 l
2.14 0.86 l
2.14 0.78 l
2.14 0.69 l
2.14 0.60 l
2.14 0.50 l
2.13 0.40 l
2.14 0.28 l
2.14 0.17 l
2.14 0.06 l
2.14 -0.06 l
2.14 -0.17 l
2.14 -0.28 l
2.13 -0.40 l
2.14 -0.50 l
2.14 -0.60 l
2.14 -0.69 l
2.14 -0.78 l
2.14 -0.86 l
2.14 -0.93 l
2.14 -0.99 l
2.13 -1.05 l
2.14 -1.08 l
2.14 -1.12 l
2.14 -1.15 l
2.14 -1.16 l
2.14 -1.16 l
2.14 -1.16 l
2.13 -1.15 l
2.14 -1.13 l
2.14 -1.11 l
2.14 -1.08 l
2.14 -1.04 l
2.14 -1.00 l
2.14 -0.96 l
2.14 -0.91 l
2.13 -0.87 l
2.14 -0.81 l
2.14 -0.76 l
2.14 -0.71 l
2.14 -0.66 l
2.14 -0.61 l
2.14 -0.56 l
2.13 -0.51 l
2.14 -0.46 l
2.14 -0.43 l
2.14 -0.38 l
2.14 -0.34 l
2.14 -0.31 l
2.14 -0.28 l
2.14 -0.24 l
2.13 -0.22 l
2.14 -0.19 l
2.14 -0.16 l
2.14 -0.15 l
2.14 -0.12 l
2.14 -0.11 l
2.14 -0.10 l
2.13 -0.08 l
250.93 300.79 lineto
o
28.51 208.51 259.49 260.50 cl
0.00 0.00 288.00 360.00 cl
0 0 0 srgb
0.75 setlinewidth
[] 0 setdash
2 setlinecap
1 setlinejoin
10.00 setmiterlimit
np
37.07 208.51 m
213.86 0 l
o
np
37.07 208.51 m
0 -4.75 l
o
np
72.71 208.51 m
0 -4.75 l
o
np
108.36 208.51 m
0 -4.75 l
o
np
144.00 208.51 m
0 -4.75 l
o
np
179.64 208.51 m
0 -4.75 l
o
np
215.29 208.51 m
0 -4.75 l
o
np
250.93 208.51 m
0 -4.75 l
o
/Font1 findfont 8 s
37.07 191.40 (-3) .5 0 t
72.71 191.40 (-2) .5 0 t
108.36 191.40 (-1) .5 0 t
144.00 191.40 (0) .5 0 t
179.64 191.40 (1) .5 0 t
215.29 191.40 (2) .5 0 t
250.93 191.40 (3) .5 0 t
28.51 208.51 259.49 260.50 cl
0 0 0 srgb
2.25 setlinewidth
[] 0 setdash
2 setlinecap
1 setlinejoin
10.00 setmiterlimit
np
52.04 211.58 m
183.92 0 l
o
0.2000 0.2000 0.2000 srgb
np
67.01 213.54 m
153.98 0 l
o
0.4000 0.4000 0.4000 srgb
np
81.98 217.48 m
124.04 0 l
o
0.6000 0.6000 0.6000 srgb
np
96.95 223.83 m
94.10 0 l
o
0.8000 0.8000 0.8000 srgb
np
111.92 231.78 m
64.16 0 l
o
1 1 1 srgb
np
126.89 238.96 m
34.22 0 l
o
28.51 118.51 259.49 170.50 cl
0.00 0.00 288.00 360.00 cl
0 0 0 srgb
0.75 setlinewidth
[] 0 setdash
2 setlinecap
1 setlinejoin
10.00 setmiterlimit
np
37.07 118.51 m
213.86 0 l
o
np
37.07 118.51 m
0 -4.75 l
o
np
72.71 118.51 m
0 -4.75 l
o
np
108.36 118.51 m
0 -4.75 l
o
np
144.00 118.51 m
0 -4.75 l
o
np
179.64 118.51 m
0 -4.75 l
o
np
215.29 118.51 m
0 -4.75 l
o
np
250.93 118.51 m
0 -4.75 l
o
/Font1 findfont 8 s
37.07 101.40 (-3) .5 0 t
72.71 101.40 (-2) .5 0 t
108.36 101.40 (-1) .5 0 t
144.00 101.40 (0) .5 0 t
179.64 101.40 (1) .5 0 t
215.29 101.40 (2) .5 0 t
250.93 101.40 (3) .5 0 t
28.51 118.51 259.49 170.50 cl
0 0 0 srgb
22.50 setlinewidth
[] 0 setdash
2 setlinecap
1 setlinejoin
10.00 setmiterlimit
np
52.04 144.50 m
183.92 0 l
o
0.2000 0.2000 0.2000 srgb
np
67.01 144.50 m
153.98 0 l
o
0.4000 0.4000 0.4000 srgb
np
81.98 144.50 m
124.04 0 l
o
0.6000 0.6000 0.6000 srgb
np
96.95 144.50 m
94.10 0 l
o
0.8000 0.8000 0.8000 srgb
np
111.92 144.50 m
64.16 0 l
o
1 1 1 srgb
np
126.89 144.50 m
34.22 0 l
o
28.51 28.51 259.49 80.50 cl
0.00 0.00 288.00 360.00 cl
0 0 0 srgb
0.75 setlinewidth
[] 0 setdash
2 setlinecap
1 setlinejoin
10.00 setmiterlimit
np
37.07 28.51 m
213.86 0 l
o
np
37.07 28.51 m
0 -4.75 l
o
np
72.71 28.51 m
0 -4.75 l
o
np
108.36 28.51 m
0 -4.75 l
o
np
144.00 28.51 m
0 -4.75 l
o
np
179.64 28.51 m
0 -4.75 l
o
np
215.29 28.51 m
0 -4.75 l
o
np
250.93 28.51 m
0 -4.75 l
o
/Font1 findfont 8 s
37.07 11.40 (-3) .5 0 t
72.71 11.40 (-2) .5 0 t
108.36 11.40 (-1) .5 0 t
144.00 11.40 (0) .5 0 t
179.64 11.40 (1) .5 0 t
215.29 11.40 (2) .5 0 t
250.93 11.40 (3) .5 0 t
28.51 28.51 259.49 80.50 cl
0 0 0 srgb
22.50 setlinewidth
[] 0 setdash
2 setlinecap
1 setlinejoin
10.00 setmiterlimit
np
52.04 42.47 m
183.92 0 l
o
0.2000 0.2000 0.2000 srgb
np
67.01 48.09 m
153.98 0 l
o
0.4000 0.4000 0.4000 srgb
np
81.98 53.70 m
124.04 0 l
o
0.6000 0.6000 0.6000 srgb
np
96.95 59.32 m
94.10 0 l
o
0.8000 0.8000 0.8000 srgb
np
111.92 64.93 m
64.16 0 l
o
1 1 1 srgb
np
126.89 70.55 m
34.22 0 l
o
ep
%%Trailer
%%Pages: 1
%%EOF
