%!PS-Adobe-3.0 EPSF-3.0
%%DocumentNeededResources: font Helvetica
%%+ font Helvetica-Bold
%%+ font Helvetica-Oblique
%%+ font Helvetica-BoldOblique
%%+ font Symbol
%%Title: R Graphics Output
%%Creator: R Software
%%Pages: (atend)
%%BoundingBox: 0 0 720 1008
%%EndComments
%%BeginProlog
/bp  { gs sRGB gs } def
% begin .ps.prolog
/gs  { gsave } bind def
/gr  { grestore } bind def
/ep  { showpage gr gr } bind def
/m   { moveto } bind def
/l  { rlineto } bind def
/np  { newpath } bind def
/cp  { closepath } bind def
/f   { fill } bind def
/o   { stroke } bind def
/c   { newpath 0 360 arc } bind def
/r   { 4 2 roll moveto 1 copy 3 -1 roll exch 0 exch rlineto 0 rlineto -1 mul 0 exch rlineto closepath } bind def
/p1  { stroke } bind def
/p2  { gsave bg fill grestore newpath } bind def
/p3  { gsave bg fill grestore stroke } bind def
/p6  { gsave bg eofill grestore newpath } bind def
/p7  { gsave bg eofill grestore stroke } bind def
/t   { 5 -2 roll moveto gsave rotate
       1 index stringwidth pop
       mul neg 0 rmoveto show grestore } bind def
/ta  { 4 -2 roll moveto gsave rotate show } bind def
/tb  { 2 -1 roll 0 rmoveto show } bind def
/cl  { grestore gsave newpath 3 index 3 index moveto 1 index
       4 -1 roll lineto  exch 1 index lineto lineto
       closepath clip newpath } bind def
/rgb { setrgbcolor } bind def
/s   { scalefont setfont } bind def
% end   .ps.prolog
/sRGB { [ /CIEBasedABC
          << /DecodeLMN
               [ { dup 0.03928 le
                        {12.92321 div}
                        {0.055 add 1.055 div 2.4 exp }
                     ifelse
                 } bind dup dup
               ]
             /MatrixLMN [0.412457 0.212673 0.019334
                         0.357576 0.715152 0.119192
                         0.180437 0.072175 0.950301]
             /WhitePoint [0.9505 1.0 1.0890]
           >>
         ] setcolorspace } bind def
/srgb { setcolor } bind def
%%IncludeResource: font Helvetica
/Helvetica findfont
dup length dict begin
  {1 index /FID ne {def} {pop pop} ifelse} forall
  /Encoding ISOLatin1Encoding def
  currentdict
  end
/Font1 exch definefont pop
%%IncludeResource: font Helvetica-Bold
/Helvetica-Bold findfont
dup length dict begin
  {1 index /FID ne {def} {pop pop} ifelse} forall
  /Encoding ISOLatin1Encoding def
  currentdict
  end
/Font2 exch definefont pop
%%IncludeResource: font Helvetica-Oblique
/Helvetica-Oblique findfont
dup length dict begin
  {1 index /FID ne {def} {pop pop} ifelse} forall
  /Encoding ISOLatin1Encoding def
  currentdict
  end
/Font3 exch definefont pop
%%IncludeResource: font Helvetica-BoldOblique
/Helvetica-BoldOblique findfont
dup length dict begin
  {1 index /FID ne {def} {pop pop} ifelse} forall
  /Encoding ISOLatin1Encoding def
  currentdict
  end
/Font4 exch definefont pop
%%IncludeResource: font Symbol
/Symbol findfont
dup length dict begin
  {1 index /FID ne {def} {pop pop} ifelse} forall
  currentdict
  end
/Font5 exch definefont pop
%%EndProlog
%%Page: 1 1
bp
0.00 630.00 720.00 1008.00 cl
/Font1 findfont 8 s
0 0 0 srgb
360.00 622.40 (x) .5 0 t
9.50 658.51 710.50 998.50 cl
0 0 0 srgb
0.75 setlinewidth
[] 0 setdash
1 setlinecap
1 setlinejoin
10.00 setmiterlimit
13.57 671.10 62.55 17.02 r p1
76.11 671.10 62.55 136.13 r p1
138.66 671.10 62.55 314.80 r p1
201.21 671.10 62.55 293.53 r p1
263.75 671.10 62.55 85.08 r p1
326.30 671.10 62.55 25.52 r p1
388.84 671.10 62.55 131.88 r p1
451.39 671.10 62.55 276.51 r p1
513.93 671.10 62.55 280.77 r p1
576.48 671.10 62.55 119.11 r p1
639.03 671.10 62.55 21.27 r p1
9.50 532.51 710.50 620.50 cl
0.00 0.00 720.00 1008.00 cl
0 0 0 srgb
0.75 setlinewidth
[] 0 setdash
1 setlinecap
1 setlinejoin
10.00 setmiterlimit
np
76.11 532.51 m
625.46 0 l
o
np
76.11 532.51 m
0 -4.75 l
o
np
201.21 532.51 m
0 -4.75 l
o
np
326.30 532.51 m
0 -4.75 l
o
np
451.39 532.51 m
0 -4.75 l
o
np
576.48 532.51 m
0 -4.75 l
o
np
701.57 532.51 m
0 -4.75 l
o
/Font1 findfont 8 s
76.11 515.40 (-2) .5 0 t
201.21 515.40 (0) .5 0 t
326.30 515.40 (2) .5 0 t
451.39 515.40 (4) .5 0 t
576.48 515.40 (6) .5 0 t
701.57 515.40 (8) .5 0 t
np
9.50 576.50 m
0 0 l
o
np
9.50 576.50 m
-4.75 0 l
o
-1.90 576.50 (1) .5 90 t
np
9.50 532.51 m
701.00 0 l
0 87.99 l
-701.00 0 l
0 -87.99 l
o
9.50 532.51 710.50 620.50 cl
/bg { 1 0 1 srgb } def
0 0 0 srgb
0.75 setlinewidth
[] 0 setdash
1 setlinecap
1 setlinejoin
10.00 setmiterlimit
np
 35.47 572.39 m
6.55 -0.78 l
6.56 -0.89 l
6.56 -0.98 l
6.55 -1.10 l
6.56 -1.19 l
6.55 -1.30 l
6.56 -1.39 l
6.56 -1.48 l
6.55 -1.54 l
6.56 -1.60 l
6.56 -1.64 l
6.55 -1.65 l
6.56 -1.65 l
6.55 -1.62 l
6.56 -1.57 l
6.56 -1.49 l
6.55 -1.39 l
6.56 -1.27 l
6.56 -1.12 l
6.55 -0.95 l
6.56 -0.77 l
6.55 -0.58 l
6.56 -0.37 l
6.56 -0.15 l
6.55 0.06 l
6.56 0.28 l
6.55 0.49 l
6.56 0.68 l
6.56 0.88 l
6.55 1.04 l
6.56 1.19 l
6.56 1.31 l
6.55 1.42 l
6.56 1.48 l
6.55 1.53 l
6.56 1.55 l
6.56 1.53 l
6.55 1.49 l
6.56 1.43 l
6.56 1.35 l
6.55 1.23 l
6.56 1.11 l
6.55 0.97 l
6.56 0.81 l
6.56 0.65 l
6.55 0.47 l
6.56 0.30 l
6.56 0.12 l
6.55 -0.06 l
6.56 -0.23 l
6.55 -0.39 l
6.56 -0.55 l
6.56 -0.70 l
6.55 -0.83 l
6.56 -0.96 l
6.56 -1.06 l
6.55 -1.14 l
6.56 -1.22 l
6.55 -1.28 l
6.56 -1.30 l
6.56 -1.32 l
6.55 -1.32 l
6.56 -1.29 l
6.56 -1.24 l
6.55 -1.18 l
6.56 -1.10 l
6.55 -1.00 l
6.56 -0.89 l
6.56 -0.75 l
6.55 -0.61 l
6.56 -0.46 l
6.56 -0.29 l
6.55 -0.12 l
6.56 0.05 l
6.55 0.23 l
6.56 0.40 l
6.56 0.58 l
6.55 0.74 l
6.56 0.89 l
6.55 1.03 l
6.56 1.16 l
6.56 1.27 l
6.55 1.36 l
6.56 1.42 l
6.56 1.47 l
6.55 1.50 l
6.56 1.50 l
6.55 1.48 l
6.56 1.44 l
6.56 1.40 l
6.55 1.33 l
6.56 1.25 l
6.56 1.17 l
6.55 1.09 l
6.56 0.99 l
6.55 0.90 l
6.56 0.81 l
6.56 0.72 l
6.55 0.64 l
684.53 580.19 lineto
-6.55 0.64 l
-6.56 0.72 l
-6.56 0.81 l
-6.55 0.90 l
-6.56 0.99 l
-6.55 1.08 l
-6.56 1.18 l
-6.56 1.25 l
-6.55 1.33 l
-6.56 1.40 l
-6.56 1.44 l
-6.55 1.48 l
-6.56 1.50 l
-6.55 1.49 l
-6.56 1.47 l
-6.56 1.43 l
-6.55 1.36 l
-6.56 1.26 l
-6.56 1.16 l
-6.55 1.04 l
-6.56 0.89 l
-6.55 0.74 l
-6.56 0.58 l
-6.56 0.40 l
-6.55 0.23 l
-6.56 0.05 l
-6.55 -0.12 l
-6.56 -0.29 l
-6.56 -0.46 l
-6.55 -0.61 l
-6.56 -0.75 l
-6.56 -0.89 l
-6.55 -1.00 l
-6.56 -1.10 l
-6.55 -1.18 l
-6.56 -1.25 l
-6.56 -1.29 l
-6.55 -1.31 l
-6.56 -1.32 l
-6.56 -1.31 l
-6.55 -1.27 l
-6.56 -1.22 l
-6.55 -1.15 l
-6.56 -1.05 l
-6.56 -0.96 l
-6.55 -0.83 l
-6.56 -0.70 l
-6.56 -0.55 l
-6.55 -0.40 l
-6.56 -0.22 l
-6.55 -0.06 l
-6.56 0.12 l
-6.56 0.30 l
-6.55 0.47 l
-6.56 0.65 l
-6.56 0.81 l
-6.55 0.97 l
-6.56 1.11 l
-6.55 1.23 l
-6.56 1.34 l
-6.56 1.44 l
-6.55 1.49 l
-6.56 1.53 l
-6.56 1.55 l
-6.55 1.53 l
-6.56 1.48 l
-6.55 1.41 l
-6.56 1.32 l
-6.56 1.19 l
-6.55 1.04 l
-6.56 0.88 l
-6.56 0.68 l
-6.55 0.49 l
-6.56 0.28 l
-6.55 0.06 l
-6.56 -0.15 l
-6.56 -0.37 l
-6.55 -0.58 l
-6.56 -0.77 l
-6.55 -0.96 l
-6.56 -1.12 l
-6.56 -1.26 l
-6.55 -1.39 l
-6.56 -1.49 l
-6.56 -1.57 l
-6.55 -1.62 l
-6.56 -1.65 l
-6.55 -1.65 l
-6.56 -1.64 l
-6.56 -1.60 l
-6.55 -1.54 l
-6.56 -1.48 l
-6.56 -1.39 l
-6.55 -1.30 l
-6.56 -1.20 l
-6.55 -1.09 l
-6.56 -0.99 l
-6.56 -0.88 l
-6.55 -0.78 l
cp p3
np
35.47 576.50 m
649.06 0 l
o
/bg { 0 0 0 srgb } def
193.38 574.47 319.87 4.07 r p3
/bg { 1 1 1 srgb } def
1 1 1 srgb
360.35 576.50 1.78 c p3
9.50 154.51 710.50 494.50 cl
0.00 126.00 720.00 504.00 cl
/Font1 findfont 8 s
0 0 0 srgb
360.00 118.40 (x) .5 0 t
9.50 154.51 710.50 494.50 cl
0 0 0 srgb
0.75 setlinewidth
[] 0 setdash
1 setlinecap
1 setlinejoin
10.00 setmiterlimit
34.65 167.10 65.02 277.45 r p1
99.67 167.10 65.02 245.44 r p1
164.69 167.10 65.02 277.45 r p1
229.71 167.10 65.02 261.44 r p1
294.72 167.10 65.02 264.11 r p1
359.74 167.10 65.02 290.79 r p1
424.76 167.10 65.02 266.78 r p1
489.78 167.10 65.02 242.77 r p1
554.79 167.10 65.02 314.80 r p1
619.81 167.10 65.02 226.76 r p1
9.50 28.51 710.50 116.50 cl
0.00 0.00 720.00 1008.00 cl
0 0 0 srgb
0.75 setlinewidth
[] 0 setdash
1 setlinecap
1 setlinejoin
10.00 setmiterlimit
np
34.65 28.51 m
650.18 0 l
o
np
34.65 28.51 m
0 -4.75 l
o
np
164.69 28.51 m
0 -4.75 l
o
np
294.72 28.51 m
0 -4.75 l
o
np
424.76 28.51 m
0 -4.75 l
o
np
554.79 28.51 m
0 -4.75 l
o
np
684.83 28.51 m
0 -4.75 l
o
/Font1 findfont 8 s
34.65 11.40 (0.0) .5 0 t
164.69 11.40 (0.2) .5 0 t
294.72 11.40 (0.4) .5 0 t
424.76 11.40 (0.6) .5 0 t
554.79 11.40 (0.8) .5 0 t
684.83 11.40 (1.0) .5 0 t
np
9.50 72.50 m
0 0 l
o
np
9.50 72.50 m
-4.75 0 l
o
-1.90 72.50 (1) .5 90 t
np
9.50 28.51 m
701.00 0 l
0 87.99 l
-701.00 0 l
0 -87.99 l
o
9.50 28.51 710.50 116.50 cl
/bg { 1 0 1 srgb } def
0 0 0 srgb
0.75 setlinewidth
[] 0 setdash
1 setlinecap
1 setlinejoin
10.00 setmiterlimit
np
 35.47 56.42 m
6.55 -0.91 l
6.56 -0.90 l
6.56 -0.89 l
6.55 -0.87 l
6.56 -0.85 l
6.55 -0.82 l
6.56 -0.80 l
6.56 -0.77 l
6.55 -0.74 l
6.56 -0.70 l
6.56 -0.66 l
6.55 -0.62 l
6.56 -0.59 l
6.55 -0.55 l
6.56 -0.51 l
6.56 -0.47 l
6.55 -0.43 l
6.56 -0.40 l
6.56 -0.36 l
6.55 -0.34 l
6.56 -0.30 l
6.55 -0.27 l
6.56 -0.25 l
6.56 -0.22 l
6.55 -0.20 l
6.56 -0.18 l
6.55 -0.16 l
6.56 -0.15 l
6.56 -0.13 l
6.55 -0.12 l
6.56 -0.11 l
6.56 -0.10 l
6.55 -0.09 l
6.56 -0.09 l
6.55 -0.08 l
6.56 -0.08 l
6.56 -0.08 l
6.55 -0.07 l
6.56 -0.07 l
6.56 -0.06 l
6.55 -0.07 l
6.56 -0.06 l
6.55 -0.06 l
6.56 -0.05 l
6.56 -0.06 l
6.55 -0.04 l
6.56 -0.05 l
6.56 -0.04 l
6.55 -0.03 l
6.56 -0.02 l
6.55 -0.02 l
6.56 -0.01 l
6.56 0 l
6.55 0 l
6.56 0.02 l
6.56 0.02 l
6.55 0.03 l
6.56 0.04 l
6.55 0.05 l
6.56 0.05 l
6.56 0.06 l
6.55 0.07 l
6.56 0.07 l
6.56 0.08 l
6.55 0.09 l
6.56 0.10 l
6.55 0.10 l
6.56 0.11 l
6.56 0.11 l
6.55 0.13 l
6.56 0.14 l
6.56 0.15 l
6.55 0.16 l
6.56 0.18 l
6.55 0.20 l
6.56 0.22 l
6.56 0.25 l
6.55 0.27 l
6.56 0.30 l
6.55 0.34 l
6.56 0.37 l
6.56 0.40 l
6.55 0.45 l
6.56 0.49 l
6.56 0.53 l
6.55 0.57 l
6.56 0.62 l
6.55 0.66 l
6.56 0.70 l
6.56 0.74 l
6.55 0.78 l
6.56 0.82 l
6.56 0.85 l
6.55 0.87 l
6.56 0.91 l
6.55 0.92 l
6.56 0.93 l
6.56 0.95 l
6.55 0.95 l
684.53 88.24 lineto
-6.55 0.95 l
-6.56 0.95 l
-6.56 0.93 l
-6.55 0.92 l
-6.56 0.90 l
-6.55 0.88 l
-6.56 0.85 l
-6.56 0.82 l
-6.55 0.78 l
-6.56 0.74 l
-6.56 0.70 l
-6.55 0.66 l
-6.56 0.62 l
-6.55 0.57 l
-6.56 0.53 l
-6.56 0.49 l
-6.55 0.44 l
-6.56 0.41 l
-6.56 0.37 l
-6.55 0.34 l
-6.56 0.30 l
-6.55 0.27 l
-6.56 0.25 l
-6.56 0.22 l
-6.55 0.20 l
-6.56 0.18 l
-6.55 0.16 l
-6.56 0.15 l
-6.56 0.14 l
-6.55 0.13 l
-6.56 0.11 l
-6.56 0.11 l
-6.55 0.10 l
-6.56 0.10 l
-6.55 0.08 l
-6.56 0.09 l
-6.56 0.07 l
-6.55 0.07 l
-6.56 0.06 l
-6.56 0.05 l
-6.55 0.05 l
-6.56 0.04 l
-6.55 0.03 l
-6.56 0.02 l
-6.56 0.01 l
-6.55 0.01 l
-6.56 0 l
-6.56 -0.01 l
-6.55 -0.02 l
-6.56 -0.02 l
-6.55 -0.04 l
-6.56 -0.03 l
-6.56 -0.05 l
-6.55 -0.04 l
-6.56 -0.06 l
-6.56 -0.05 l
-6.55 -0.06 l
-6.56 -0.06 l
-6.55 -0.07 l
-6.56 -0.06 l
-6.56 -0.07 l
-6.55 -0.08 l
-6.56 -0.07 l
-6.56 -0.08 l
-6.55 -0.08 l
-6.56 -0.09 l
-6.55 -0.09 l
-6.56 -0.10 l
-6.56 -0.11 l
-6.55 -0.12 l
-6.56 -0.14 l
-6.56 -0.14 l
-6.55 -0.16 l
-6.56 -0.18 l
-6.55 -0.20 l
-6.56 -0.23 l
-6.56 -0.24 l
-6.55 -0.27 l
-6.56 -0.31 l
-6.55 -0.33 l
-6.56 -0.36 l
-6.56 -0.40 l
-6.55 -0.43 l
-6.56 -0.48 l
-6.56 -0.50 l
-6.55 -0.55 l
-6.56 -0.59 l
-6.55 -0.62 l
-6.56 -0.67 l
-6.56 -0.70 l
-6.55 -0.73 l
-6.56 -0.77 l
-6.56 -0.80 l
-6.55 -0.82 l
-6.56 -0.85 l
-6.55 -0.88 l
-6.56 -0.88 l
-6.56 -0.90 l
-6.55 -0.91 l
cp p3
np
35.47 72.50 m
649.06 0 l
o
/bg { 0 0 0 srgb } def
201.79 70.47 320.73 4.07 r p3
/bg { 1 1 1 srgb } def
1 1 1 srgb
362.46 72.50 1.78 c p3
ep
%%Trailer
%%Pages: 1
%%EOF
