%!PS-Adobe-3.0 EPSF-3.0
%%DocumentNeededResources: font Helvetica
%%+ font Helvetica-Bold
%%+ font Helvetica-Oblique
%%+ font Helvetica-BoldOblique
%%+ font Symbol
%%Title: R Graphics Output
%%Creator: R Software
%%Pages: (atend)
%%BoundingBox: 0 0 504 504
%%EndComments
%%BeginProlog
/bp  { gs sRGB gs } def
% begin .ps.prolog
/gs  { gsave } bind def
/gr  { grestore } bind def
/ep  { showpage gr gr } bind def
/m   { moveto } bind def
/l  { rlineto } bind def
/np  { newpath } bind def
/cp  { closepath } bind def
/f   { fill } bind def
/o   { stroke } bind def
/c   { newpath 0 360 arc } bind def
/r   { 4 2 roll moveto 1 copy 3 -1 roll exch 0 exch rlineto 0 rlineto -1 mul 0 exch rlineto closepath } bind def
/p1  { stroke } bind def
/p2  { gsave bg fill grestore newpath } bind def
/p3  { gsave bg fill grestore stroke } bind def
/p6  { gsave bg eofill grestore newpath } bind def
/p7  { gsave bg eofill grestore stroke } bind def
/t   { 5 -2 roll moveto gsave rotate
       1 index stringwidth pop
       mul neg 0 rmoveto show grestore } bind def
/ta  { 4 -2 roll moveto gsave rotate show } bind def
/tb  { 2 -1 roll 0 rmoveto show } bind def
/cl  { grestore gsave newpath 3 index 3 index moveto 1 index
       4 -1 roll lineto  exch 1 index lineto lineto
       closepath clip newpath } bind def
/rgb { setrgbcolor } bind def
/s   { scalefont setfont } bind def
% end   .ps.prolog
/sRGB { [ /CIEBasedABC
          << /DecodeLMN
               [ { dup 0.03928 le
                        {12.92321 div}
                        {0.055 add 1.055 div 2.4 exp }
                     ifelse
                 } bind dup dup
               ]
             /MatrixLMN [0.412457 0.212673 0.019334
                         0.357576 0.715152 0.119192
                         0.180437 0.072175 0.950301]
             /WhitePoint [0.9505 1.0 1.0890]
           >>
         ] setcolorspace } bind def
/srgb { setcolor } bind def
%%IncludeResource: font Helvetica
/Helvetica findfont
dup length dict begin
  {1 index /FID ne {def} {pop pop} ifelse} forall
  /Encoding ISOLatin1Encoding def
  currentdict
  end
/Font1 exch definefont pop
%%IncludeResource: font Helvetica-Bold
/Helvetica-Bold findfont
dup length dict begin
  {1 index /FID ne {def} {pop pop} ifelse} forall
  /Encoding ISOLatin1Encoding def
  currentdict
  end
/Font2 exch definefont pop
%%IncludeResource: font Helvetica-Oblique
/Helvetica-Oblique findfont
dup length dict begin
  {1 index /FID ne {def} {pop pop} ifelse} forall
  /Encoding ISOLatin1Encoding def
  currentdict
  end
/Font3 exch definefont pop
%%IncludeResource: font Helvetica-BoldOblique
/Helvetica-BoldOblique findfont
dup length dict begin
  {1 index /FID ne {def} {pop pop} ifelse} forall
  /Encoding ISOLatin1Encoding def
  currentdict
  end
/Font4 exch definefont pop
%%IncludeResource: font Symbol
/Symbol findfont
dup length dict begin
  {1 index /FID ne {def} {pop pop} ifelse} forall
  currentdict
  end
/Font5 exch definefont pop
%%EndProlog
%%Page: 1 1
bp
0.00 0.00 504.00 504.00 cl
0 0 0 srgb
0.75 setlinewidth
[] 0 setdash
1 setlinecap
1 setlinejoin
10.00 setmiterlimit
np
59.04 103.20 m
0 298.07 l
o
np
59.04 103.20 m
-7.20 0 l
o
np
59.04 177.72 m
-7.20 0 l
o
np
59.04 252.24 m
-7.20 0 l
o
np
59.04 326.75 m
-7.20 0 l
o
np
59.04 401.27 m
-7.20 0 l
o
/Font1 findfont 12 s
41.76 103.20 (-2) .5 90 t
41.76 177.72 (-1) .5 90 t
41.76 252.24 (0) .5 90 t
41.76 326.75 (1) .5 90 t
41.76 401.27 (2) .5 90 t
np
266.40 73.44 m
0 0 l
o
np
266.40 73.44 m
0 -7.20 l
o
266.40 47.52 (1) .5 0 t
np
59.04 73.44 m
414.72 0 l
0 371.52 l
-414.72 0 l
0 -371.52 l
o
59.04 73.44 473.76 444.96 cl
/bg { 1 0 1 srgb } def
0 0 0 srgb
0.75 setlinewidth
[] 0 setdash
1 setlinecap
1 setlinejoin
10.00 setmiterlimit
np
 254.79 87.20 m
-1.55 3.47 l
-1.64 3.48 l
-1.73 3.47 l
-1.82 3.48 l
-1.88 3.47 l
-1.94 3.48 l
-1.98 3.47 l
-2.01 3.48 l
-2.03 3.47 l
-2.04 3.48 l
-2.03 3.47 l
-2.02 3.48 l
-2.02 3.47 l
-2.01 3.48 l
-2.03 3.47 l
-2.09 3.48 l
-2.17 3.47 l
-2.30 3.48 l
-2.50 3.47 l
-2.75 3.47 l
-3.07 3.48 l
-3.45 3.47 l
-3.86 3.48 l
-4.31 3.47 l
-4.78 3.48 l
-5.23 3.47 l
-5.64 3.48 l
-6.00 3.47 l
-6.26 3.48 l
-6.42 3.47 l
-6.47 3.48 l
-6.40 3.47 l
-6.19 3.48 l
-5.88 3.47 l
-5.45 3.48 l
-4.94 3.47 l
-4.37 3.48 l
-3.74 3.47 l
-3.08 3.48 l
-2.43 3.47 l
-1.77 3.47 l
-1.14 3.48 l
-0.56 3.47 l
-0.01 3.48 l
0.48 3.47 l
0.89 3.48 l
1.27 3.47 l
1.55 3.48 l
1.80 3.47 l
1.97 3.48 l
2.12 3.47 l
2.23 3.48 l
2.34 3.47 l
2.42 3.48 l
2.55 3.47 l
2.67 3.48 l
2.84 3.47 l
3.03 3.48 l
3.25 3.47 l
3.48 3.47 l
3.72 3.48 l
3.95 3.47 l
4.14 3.48 l
4.31 3.47 l
4.42 3.48 l
4.47 3.47 l
4.46 3.48 l
4.41 3.47 l
4.28 3.48 l
4.14 3.47 l
3.95 3.48 l
3.76 3.47 l
3.56 3.48 l
3.38 3.47 l
3.20 3.48 l
3.04 3.47 l
2.93 3.48 l
2.82 3.47 l
2.73 3.48 l
2.67 3.47 l
2.60 3.47 l
2.54 3.48 l
2.47 3.47 l
2.41 3.48 l
2.32 3.47 l
2.23 3.48 l
2.12 3.47 l
2.02 3.48 l
1.90 3.47 l
1.80 3.48 l
1.68 3.47 l
1.59 3.48 l
1.49 3.47 l
1.41 3.48 l
1.34 3.47 l
1.28 3.48 l
1.23 3.47 l
1.17 3.48 l
1.12 3.47 l
276.05 431.20 lineto
1.12 -3.47 l
1.17 -3.48 l
1.23 -3.47 l
1.28 -3.48 l
1.34 -3.47 l
1.41 -3.48 l
1.49 -3.47 l
1.59 -3.48 l
1.68 -3.47 l
1.80 -3.48 l
1.90 -3.47 l
2.02 -3.48 l
2.12 -3.47 l
2.23 -3.48 l
2.32 -3.47 l
2.41 -3.48 l
2.47 -3.47 l
2.54 -3.48 l
2.60 -3.47 l
2.67 -3.47 l
2.73 -3.48 l
2.82 -3.47 l
2.93 -3.48 l
3.04 -3.47 l
3.20 -3.48 l
3.38 -3.47 l
3.56 -3.48 l
3.76 -3.47 l
3.95 -3.48 l
4.14 -3.47 l
4.28 -3.48 l
4.41 -3.47 l
4.46 -3.48 l
4.47 -3.47 l
4.42 -3.48 l
4.31 -3.47 l
4.14 -3.48 l
3.95 -3.47 l
3.72 -3.48 l
3.48 -3.47 l
3.25 -3.47 l
3.03 -3.48 l
2.84 -3.47 l
2.67 -3.48 l
2.55 -3.47 l
2.42 -3.48 l
2.34 -3.47 l
2.23 -3.48 l
2.12 -3.47 l
1.97 -3.48 l
1.80 -3.47 l
1.55 -3.48 l
1.27 -3.47 l
0.89 -3.48 l
0.48 -3.47 l
-0.01 -3.48 l
-0.56 -3.47 l
-1.14 -3.48 l
-1.77 -3.47 l
-2.43 -3.47 l
-3.08 -3.48 l
-3.74 -3.47 l
-4.37 -3.48 l
-4.94 -3.47 l
-5.45 -3.48 l
-5.88 -3.47 l
-6.19 -3.48 l
-6.40 -3.47 l
-6.47 -3.48 l
-6.42 -3.47 l
-6.26 -3.48 l
-6.00 -3.47 l
-5.64 -3.48 l
-5.23 -3.47 l
-4.78 -3.48 l
-4.31 -3.47 l
-3.86 -3.48 l
-3.45 -3.47 l
-3.07 -3.48 l
-2.75 -3.47 l
-2.50 -3.47 l
-2.30 -3.48 l
-2.17 -3.47 l
-2.09 -3.48 l
-2.03 -3.47 l
-2.01 -3.48 l
-2.02 -3.47 l
-2.02 -3.48 l
-2.03 -3.47 l
-2.04 -3.48 l
-2.03 -3.47 l
-2.01 -3.48 l
-1.98 -3.47 l
-1.94 -3.48 l
-1.88 -3.47 l
-1.82 -3.48 l
-1.73 -3.47 l
-1.64 -3.48 l
-1.55 -3.47 l
cp p3
np
266.40 87.20 m
0 341.07 l
o
/bg { 0 0 0 srgb } def
256.80 208.64 19.20 87.85 r p3
/bg { 1 1 1 srgb } def
1 1 1 srgb
266.40 248.56 2.70 c p3
ep
%%Trailer
%%Pages: 1
%%EOF
