%!PS-Adobe-3.0 EPSF-3.0
%%DocumentNeededResources: font Helvetica
%%+ font Helvetica-Bold
%%+ font Helvetica-Oblique
%%+ font Helvetica-BoldOblique
%%+ font Symbol
%%Title: R Graphics Output
%%Creator: R Software
%%Pages: (atend)
%%BoundingBox: 0 0 432 576
%%EndComments
%%BeginProlog
/bp  { gs sRGB gs } def
% begin .ps.prolog
/gs  { gsave } bind def
/gr  { grestore } bind def
/ep  { showpage gr gr } bind def
/m   { moveto } bind def
/l  { rlineto } bind def
/np  { newpath } bind def
/cp  { closepath } bind def
/f   { fill } bind def
/o   { stroke } bind def
/c   { newpath 0 360 arc } bind def
/r   { 4 2 roll moveto 1 copy 3 -1 roll exch 0 exch rlineto 0 rlineto -1 mul 0 exch rlineto closepath } bind def
/p1  { stroke } bind def
/p2  { gsave bg fill grestore newpath } bind def
/p3  { gsave bg fill grestore stroke } bind def
/p6  { gsave bg eofill grestore newpath } bind def
/p7  { gsave bg eofill grestore stroke } bind def
/t   { 5 -2 roll moveto gsave rotate
       1 index stringwidth pop
       mul neg 0 rmoveto show grestore } bind def
/ta  { 4 -2 roll moveto gsave rotate show } bind def
/tb  { 2 -1 roll 0 rmoveto show } bind def
/cl  { grestore gsave newpath 3 index 3 index moveto 1 index
       4 -1 roll lineto  exch 1 index lineto lineto
       closepath clip newpath } bind def
/rgb { setrgbcolor } bind def
/s   { scalefont setfont } bind def
% end   .ps.prolog
/sRGB { [ /CIEBasedABC
          << /DecodeLMN
               [ { dup 0.03928 le
                        {12.92321 div}
                        {0.055 add 1.055 div 2.4 exp }
                     ifelse
                 } bind dup dup
               ]
             /MatrixLMN [0.412457 0.212673 0.019334
                         0.357576 0.715152 0.119192
                         0.180437 0.072175 0.950301]
             /WhitePoint [0.9505 1.0 1.0890]
           >>
         ] setcolorspace } bind def
/srgb { setcolor } bind def
%%IncludeResource: font Helvetica
/Helvetica findfont
dup length dict begin
  {1 index /FID ne {def} {pop pop} ifelse} forall
  /Encoding ISOLatin1Encoding def
  currentdict
  end
/Font1 exch definefont pop
%%IncludeResource: font Helvetica-Bold
/Helvetica-Bold findfont
dup length dict begin
  {1 index /FID ne {def} {pop pop} ifelse} forall
  /Encoding ISOLatin1Encoding def
  currentdict
  end
/Font2 exch definefont pop
%%IncludeResource: font Helvetica-Oblique
/Helvetica-Oblique findfont
dup length dict begin
  {1 index /FID ne {def} {pop pop} ifelse} forall
  /Encoding ISOLatin1Encoding def
  currentdict
  end
/Font3 exch definefont pop
%%IncludeResource: font Helvetica-BoldOblique
/Helvetica-BoldOblique findfont
dup length dict begin
  {1 index /FID ne {def} {pop pop} ifelse} forall
  /Encoding ISOLatin1Encoding def
  currentdict
  end
/Font4 exch definefont pop
%%IncludeResource: font Symbol
/Symbol findfont
dup length dict begin
  {1 index /FID ne {def} {pop pop} ifelse} forall
  currentdict
  end
/Font5 exch definefont pop
%%EndProlog
%%Page: 1 1
bp
43.20 331.20 388.80 561.60 cl
0 0 0 srgb
2.25 setlinewidth
[] 0 setdash
0 setlinecap
1 setlinejoin
10.00 setmiterlimit
np
66.67 435.47 m
85.33 0 l
o
0.75 setlinewidth
[ 2.25 3.75] 0 setdash
1 setlinecap
np
109.33 381.58 m
0 26.18 l
o
np
109.33 489.25 m
0 -28.41 l
o
0.75 setlinewidth
[] 0 setdash
np
88.00 381.58 m
42.67 0 l
o
np
88.00 489.25 m
42.67 0 l
o
np
66.67 407.76 m
85.33 0 l
0 53.08 l
-85.33 0 l
0 -53.08 l
o
2.25 setlinewidth
[] 0 setdash
0 setlinecap
np
173.33 433.42 m
85.34 0 l
o
0.75 setlinewidth
[ 2.25 3.75] 0 setdash
1 setlinecap
np
216.00 381.34 m
0 27.74 l
o
np
216.00 484.46 m
0 -24.60 l
o
0.75 setlinewidth
[] 0 setdash
np
194.67 381.34 m
42.66 0 l
o
np
194.67 484.46 m
42.66 0 l
o
np
173.33 409.08 m
85.34 0 l
0 50.78 l
-85.34 0 l
0 -50.78 l
o
2.25 setlinewidth
[] 0 setdash
0 setlinecap
np
280.00 435.24 m
85.33 0 l
o
0.75 setlinewidth
[ 2.25 3.75] 0 setdash
1 setlinecap
np
322.67 339.73 m
0 69.75 l
o
np
322.67 531.03 m
0 -71.14 l
o
0.75 setlinewidth
[] 0 setdash
np
301.33 339.73 m
42.67 0 l
o
np
301.33 531.03 m
42.67 0 l
o
np
280.00 409.48 m
85.33 0 l
0 50.41 l
-85.33 0 l
0 -50.41 l
o
322.67 553.07 2.70 c p1
0.00 0.00 432.00 576.00 cl
0 0 0 srgb
0.75 setlinewidth
[] 0 setdash
1 setlinecap
1 setlinejoin
10.00 setmiterlimit
np
109.33 331.20 m
213.34 0 l
o
np
109.33 331.20 m
0 -7.20 l
o
np
216.00 331.20 m
0 -7.20 l
o
np
322.67 331.20 m
0 -7.20 l
o
/Font1 findfont 12 s
109.33 305.28 (bimodalni) .5 0 t
183.99 305.28 (ro) 0 ta
-0.180 (vnomer) tb
0.300 (ne) tb gr
299.66 305.28 (nor) 0 ta
0.300 (malni) tb gr
np
43.20 357.19 m
0 155.64 l
o
np
43.20 357.19 m
-7.20 0 l
o
np
43.20 409.07 m
-7.20 0 l
o
np
43.20 460.95 m
-7.20 0 l
o
np
43.20 512.83 m
-7.20 0 l
o
25.92 357.19 (-5) .5 90 t
25.92 409.07 (0) .5 90 t
25.92 460.95 (5) .5 90 t
25.92 512.83 (10) .5 90 t
np
43.20 331.20 m
345.60 0 l
0 230.40 l
-345.60 0 l
0 -230.40 l
o
43.20 43.20 388.80 273.60 cl
0.00 0.00 432.00 576.00 cl
0 0 0 srgb
0.75 setlinewidth
[] 0 setdash
1 setlinecap
1 setlinejoin
10.00 setmiterlimit
np
43.20 69.19 m
0 155.64 l
o
np
43.20 69.19 m
-7.20 0 l
o
np
43.20 121.07 m
-7.20 0 l
o
np
43.20 172.95 m
-7.20 0 l
o
np
43.20 224.83 m
-7.20 0 l
o
/Font1 findfont 12 s
25.92 69.19 (-5) .5 90 t
25.92 121.07 (0) .5 90 t
25.92 172.95 (5) .5 90 t
25.92 224.83 (10) .5 90 t
np
109.33 43.20 m
213.34 0 l
o
np
109.33 43.20 m
0 -7.20 l
o
np
216.00 43.20 m
0 -7.20 l
o
np
322.67 43.20 m
0 -7.20 l
o
109.33 17.28 (bimodalni) .5 0 t
183.99 17.28 (ro) 0 ta
-0.180 (vnomer) tb
0.300 (ne) tb gr
299.66 17.28 (nor) 0 ta
0.300 (malni) tb gr
np
43.20 43.20 m
345.60 0 l
0 230.40 l
-345.60 0 l
0 -230.40 l
o
43.20 43.20 388.80 273.60 cl
/bg { 1 0 1 srgb } def
0 0 0 srgb
0.75 setlinewidth
[] 0 setdash
1 setlinecap
1 setlinejoin
10.00 setmiterlimit
np
 103.95 93.58 m
-1.03 1.09 l
-1.15 1.08 l
-1.30 1.09 l
-1.43 1.09 l
-1.57 1.09 l
-1.70 1.08 l
-1.82 1.09 l
-1.93 1.09 l
-2.02 1.09 l
-2.10 1.08 l
-2.14 1.09 l
-2.16 1.09 l
-2.16 1.09 l
-2.12 1.08 l
-2.06 1.09 l
-1.95 1.09 l
-1.82 1.09 l
-1.65 1.09 l
-1.47 1.08 l
-1.25 1.09 l
-1.01 1.09 l
-0.76 1.09 l
-0.48 1.08 l
-0.20 1.09 l
0.08 1.09 l
0.36 1.09 l
0.64 1.08 l
0.90 1.09 l
1.15 1.09 l
1.36 1.09 l
1.56 1.08 l
1.72 1.09 l
1.85 1.09 l
1.94 1.09 l
2.01 1.08 l
2.02 1.09 l
2.01 1.09 l
1.95 1.09 l
1.88 1.08 l
1.75 1.09 l
1.62 1.09 l
1.45 1.09 l
1.27 1.08 l
1.06 1.09 l
0.85 1.09 l
0.62 1.09 l
0.39 1.09 l
0.16 1.08 l
-0.08 1.09 l
-0.30 1.09 l
-0.51 1.09 l
-0.72 1.08 l
-0.92 1.09 l
-1.09 1.09 l
-1.25 1.09 l
-1.38 1.08 l
-1.51 1.09 l
-1.59 1.09 l
-1.67 1.09 l
-1.71 1.08 l
-1.73 1.09 l
-1.72 1.09 l
-1.69 1.09 l
-1.63 1.08 l
-1.55 1.09 l
-1.44 1.09 l
-1.31 1.09 l
-1.15 1.08 l
-0.99 1.09 l
-0.80 1.09 l
-0.60 1.09 l
-0.38 1.08 l
-0.16 1.09 l
0.07 1.09 l
0.30 1.09 l
0.53 1.09 l
0.75 1.08 l
0.97 1.09 l
1.17 1.09 l
1.35 1.09 l
1.52 1.08 l
1.66 1.09 l
1.78 1.09 l
1.86 1.09 l
1.93 1.08 l
1.95 1.09 l
1.96 1.09 l
1.94 1.09 l
1.90 1.08 l
1.82 1.09 l
1.74 1.09 l
1.65 1.09 l
1.53 1.08 l
1.42 1.09 l
1.30 1.09 l
1.17 1.09 l
1.06 1.08 l
0.95 1.09 l
0.84 1.09 l
114.16 201.25 lineto
0.84 -1.09 l
0.94 -1.09 l
1.06 -1.08 l
1.18 -1.09 l
1.30 -1.09 l
1.42 -1.09 l
1.53 -1.08 l
1.64 -1.09 l
1.74 -1.09 l
1.83 -1.09 l
1.89 -1.08 l
1.94 -1.09 l
1.96 -1.09 l
1.96 -1.09 l
1.92 -1.08 l
1.87 -1.09 l
1.78 -1.09 l
1.66 -1.09 l
1.51 -1.08 l
1.36 -1.09 l
1.17 -1.09 l
0.97 -1.09 l
0.75 -1.08 l
0.53 -1.09 l
0.30 -1.09 l
0.07 -1.09 l
-0.16 -1.09 l
-0.38 -1.08 l
-0.60 -1.09 l
-0.80 -1.09 l
-0.99 -1.09 l
-1.16 -1.08 l
-1.31 -1.09 l
-1.44 -1.09 l
-1.54 -1.09 l
-1.64 -1.08 l
-1.68 -1.09 l
-1.73 -1.09 l
-1.72 -1.09 l
-1.71 -1.08 l
-1.67 -1.09 l
-1.60 -1.09 l
-1.50 -1.09 l
-1.39 -1.08 l
-1.24 -1.09 l
-1.09 -1.09 l
-0.92 -1.09 l
-0.72 -1.08 l
-0.52 -1.09 l
-0.30 -1.09 l
-0.07 -1.09 l
0.16 -1.08 l
0.39 -1.09 l
0.62 -1.09 l
0.84 -1.09 l
1.07 -1.09 l
1.26 -1.08 l
1.45 -1.09 l
1.62 -1.09 l
1.76 -1.09 l
1.87 -1.08 l
1.96 -1.09 l
2.01 -1.09 l
2.02 -1.09 l
2.00 -1.08 l
1.95 -1.09 l
1.85 -1.09 l
1.72 -1.09 l
1.56 -1.08 l
1.36 -1.09 l
1.15 -1.09 l
0.90 -1.09 l
0.63 -1.08 l
0.37 -1.09 l
0.08 -1.09 l
-0.20 -1.09 l
-0.49 -1.08 l
-0.75 -1.09 l
-1.01 -1.09 l
-1.25 -1.09 l
-1.47 -1.08 l
-1.66 -1.09 l
-1.82 -1.09 l
-1.95 -1.09 l
-2.05 -1.09 l
-2.12 -1.08 l
-2.16 -1.09 l
-2.16 -1.09 l
-2.15 -1.09 l
-2.09 -1.08 l
-2.03 -1.09 l
-1.93 -1.09 l
-1.82 -1.09 l
-1.70 -1.08 l
-1.56 -1.09 l
-1.44 -1.09 l
-1.29 -1.09 l
-1.16 -1.08 l
-1.02 -1.09 l
cp p3
np
109.33 93.58 m
0 107.67 l
o
/bg { 0 0 0 srgb } def
106.67 119.77 5.33 53.06 r p3
/bg { 1 1 1 srgb } def
1 1 1 srgb
109.33 147.47 2.70 c p3
/bg { 1 0 1 srgb } def
0 0 0 srgb
np
 197.41 93.34 m
-1.59 1.05 l
-1.55 1.04 l
-1.51 1.04 l
-1.44 1.04 l
-1.38 1.04 l
-1.29 1.04 l
-1.20 1.05 l
-1.11 1.04 l
-1.03 1.04 l
-0.94 1.04 l
-0.87 1.04 l
-0.80 1.04 l
-0.74 1.05 l
-0.70 1.04 l
-0.67 1.04 l
-0.64 1.04 l
-0.63 1.04 l
-0.61 1.04 l
-0.60 1.04 l
-0.59 1.05 l
-0.58 1.04 l
-0.55 1.04 l
-0.54 1.04 l
-0.50 1.04 l
-0.46 1.04 l
-0.42 1.05 l
-0.36 1.04 l
-0.29 1.04 l
-0.23 1.04 l
-0.16 1.04 l
-0.08 1.04 l
-0.02 1.04 l
0.06 1.05 l
0.11 1.04 l
0.17 1.04 l
0.21 1.04 l
0.25 1.04 l
0.27 1.04 l
0.28 1.05 l
0.28 1.04 l
0.28 1.04 l
0.26 1.04 l
0.25 1.04 l
0.21 1.04 l
0.19 1.04 l
0.15 1.05 l
0.13 1.04 l
0.09 1.04 l
0.07 1.04 l
0.04 1.04 l
0.02 1.04 l
0.01 1.05 l
-0.01 1.04 l
-0.02 1.04 l
-0.02 1.04 l
-0.03 1.04 l
-0.02 1.04 l
-0.02 1.05 l
0 1.04 l
0 1.04 l
0.01 1.04 l
0.02 1.04 l
0.03 1.04 l
0.03 1.04 l
0.04 1.05 l
0.03 1.04 l
0.03 1.04 l
0.01 1.04 l
-0.02 1.04 l
-0.04 1.04 l
-0.07 1.05 l
-0.11 1.04 l
-0.15 1.04 l
-0.19 1.04 l
-0.22 1.04 l
-0.26 1.04 l
-0.27 1.04 l
-0.27 1.05 l
-0.27 1.04 l
-0.22 1.04 l
-0.17 1.04 l
-0.09 1.04 l
0.02 1.04 l
0.15 1.05 l
0.31 1.04 l
0.48 1.04 l
0.67 1.04 l
0.87 1.04 l
1.07 1.04 l
1.28 1.05 l
1.46 1.04 l
1.64 1.04 l
1.79 1.04 l
1.93 1.04 l
2.02 1.04 l
2.10 1.04 l
2.13 1.05 l
2.13 1.04 l
2.11 1.04 l
235.45 196.46 lineto
2.11 -1.04 l
2.13 -1.04 l
2.13 -1.05 l
2.10 -1.04 l
2.02 -1.04 l
1.93 -1.04 l
1.79 -1.04 l
1.64 -1.04 l
1.46 -1.04 l
1.28 -1.05 l
1.07 -1.04 l
0.87 -1.04 l
0.67 -1.04 l
0.48 -1.04 l
0.31 -1.04 l
0.15 -1.05 l
0.02 -1.04 l
-0.09 -1.04 l
-0.17 -1.04 l
-0.22 -1.04 l
-0.27 -1.04 l
-0.27 -1.05 l
-0.27 -1.04 l
-0.26 -1.04 l
-0.22 -1.04 l
-0.19 -1.04 l
-0.15 -1.04 l
-0.11 -1.04 l
-0.07 -1.05 l
-0.04 -1.04 l
-0.02 -1.04 l
0.01 -1.04 l
0.03 -1.04 l
0.03 -1.04 l
0.04 -1.05 l
0.03 -1.04 l
0.03 -1.04 l
0.02 -1.04 l
0.01 -1.04 l
0 -1.04 l
0 -1.04 l
-0.02 -1.05 l
-0.02 -1.04 l
-0.03 -1.04 l
-0.02 -1.04 l
-0.02 -1.04 l
-0.01 -1.04 l
0.01 -1.05 l
0.02 -1.04 l
0.04 -1.04 l
0.07 -1.04 l
0.09 -1.04 l
0.13 -1.04 l
0.15 -1.05 l
0.19 -1.04 l
0.21 -1.04 l
0.25 -1.04 l
0.26 -1.04 l
0.28 -1.04 l
0.28 -1.04 l
0.28 -1.05 l
0.27 -1.04 l
0.25 -1.04 l
0.21 -1.04 l
0.17 -1.04 l
0.11 -1.04 l
0.06 -1.05 l
-0.02 -1.04 l
-0.08 -1.04 l
-0.16 -1.04 l
-0.23 -1.04 l
-0.29 -1.04 l
-0.36 -1.04 l
-0.42 -1.05 l
-0.46 -1.04 l
-0.50 -1.04 l
-0.54 -1.04 l
-0.55 -1.04 l
-0.58 -1.04 l
-0.59 -1.05 l
-0.60 -1.04 l
-0.61 -1.04 l
-0.63 -1.04 l
-0.64 -1.04 l
-0.67 -1.04 l
-0.70 -1.04 l
-0.74 -1.05 l
-0.80 -1.04 l
-0.87 -1.04 l
-0.94 -1.04 l
-1.03 -1.04 l
-1.11 -1.04 l
-1.20 -1.05 l
-1.29 -1.04 l
-1.38 -1.04 l
-1.44 -1.04 l
-1.51 -1.04 l
-1.55 -1.04 l
-1.59 -1.05 l
cp p3
np
216.00 93.34 m
0 103.12 l
o
/bg { 0 0 0 srgb } def
213.33 121.11 5.33 50.71 r p3
/bg { 1 1 1 srgb } def
1 1 1 srgb
216.00 145.42 2.70 c p3
/bg { 1 0 1 srgb } def
0 0 0 srgb
np
 320.81 51.73 m
-0.32 2.16 l
-0.33 2.15 l
-0.34 2.16 l
-0.35 2.15 l
-0.36 2.16 l
-0.38 2.15 l
-0.42 2.16 l
-0.47 2.15 l
-0.52 2.16 l
-0.61 2.15 l
-0.70 2.16 l
-0.81 2.15 l
-0.91 2.16 l
-1.03 2.15 l
-1.14 2.16 l
-1.25 2.15 l
-1.35 2.16 l
-1.45 2.15 l
-1.54 2.16 l
-1.64 2.15 l
-1.73 2.16 l
-1.82 2.15 l
-1.91 2.16 l
-1.98 2.15 l
-2.02 2.16 l
-2.04 2.15 l
-2.00 2.16 l
-1.90 2.15 l
-1.76 2.15 l
-1.55 2.16 l
-1.30 2.15 l
-1.04 2.16 l
-0.77 2.15 l
-0.53 2.16 l
-0.33 2.15 l
-0.20 2.16 l
-0.11 2.15 l
-0.10 2.16 l
-0.12 2.15 l
-0.18 2.16 l
-0.24 2.15 l
-0.28 2.16 l
-0.31 2.15 l
-0.29 2.16 l
-0.23 2.15 l
-0.14 2.16 l
-0.01 2.15 l
0.15 2.16 l
0.32 2.15 l
0.49 2.16 l
0.67 2.15 l
0.82 2.16 l
0.95 2.15 l
1.05 2.16 l
1.12 2.15 l
1.17 2.16 l
1.20 2.15 l
1.23 2.16 l
1.26 2.15 l
1.30 2.16 l
1.34 2.15 l
1.41 2.16 l
1.47 2.15 l
1.53 2.16 l
1.58 2.15 l
1.60 2.16 l
1.59 2.15 l
1.55 2.16 l
1.49 2.15 l
1.42 2.16 l
1.32 2.15 l
1.24 2.15 l
1.15 2.16 l
1.08 2.15 l
1.01 2.16 l
0.95 2.15 l
0.90 2.16 l
0.85 2.15 l
0.80 2.16 l
0.75 2.15 l
0.68 2.16 l
0.62 2.15 l
0.56 2.16 l
0.49 2.15 l
0.43 2.16 l
0.37 2.15 l
0.33 2.16 l
0.30 2.15 l
0.26 2.16 l
0.24 2.15 l
0.21 2.16 l
0.18 2.15 l
0.17 2.16 l
0.14 2.15 l
0.12 2.16 l
0.09 2.15 l
0.08 2.16 l
0.07 2.15 l
0.05 2.16 l
323.18 265.07 lineto
0.06 -2.16 l
0.06 -2.15 l
0.08 -2.16 l
0.10 -2.15 l
0.11 -2.16 l
0.14 -2.15 l
0.17 -2.16 l
0.19 -2.15 l
0.21 -2.16 l
0.23 -2.15 l
0.27 -2.16 l
0.29 -2.15 l
0.33 -2.16 l
0.38 -2.15 l
0.43 -2.16 l
0.49 -2.15 l
0.55 -2.16 l
0.62 -2.15 l
0.69 -2.16 l
0.74 -2.15 l
0.80 -2.16 l
0.85 -2.15 l
0.91 -2.16 l
0.95 -2.15 l
1.01 -2.16 l
1.07 -2.15 l
1.16 -2.16 l
1.23 -2.15 l
1.33 -2.15 l
1.41 -2.16 l
1.49 -2.15 l
1.56 -2.16 l
1.59 -2.15 l
1.59 -2.16 l
1.58 -2.15 l
1.53 -2.16 l
1.47 -2.15 l
1.41 -2.16 l
1.35 -2.15 l
1.29 -2.16 l
1.26 -2.15 l
1.23 -2.16 l
1.20 -2.15 l
1.17 -2.16 l
1.13 -2.15 l
1.05 -2.16 l
0.95 -2.15 l
0.81 -2.16 l
0.67 -2.15 l
0.50 -2.16 l
0.32 -2.15 l
0.14 -2.16 l
0 -2.15 l
-0.14 -2.16 l
-0.24 -2.15 l
-0.29 -2.16 l
-0.30 -2.15 l
-0.29 -2.16 l
-0.24 -2.15 l
-0.17 -2.16 l
-0.13 -2.15 l
-0.09 -2.16 l
-0.12 -2.15 l
-0.19 -2.16 l
-0.33 -2.15 l
-0.53 -2.16 l
-0.77 -2.15 l
-1.04 -2.16 l
-1.31 -2.15 l
-1.55 -2.16 l
-1.75 -2.15 l
-1.91 -2.15 l
-2.00 -2.16 l
-2.04 -2.15 l
-2.02 -2.16 l
-1.98 -2.15 l
-1.91 -2.16 l
-1.82 -2.15 l
-1.73 -2.16 l
-1.63 -2.15 l
-1.55 -2.16 l
-1.44 -2.15 l
-1.35 -2.16 l
-1.25 -2.15 l
-1.15 -2.16 l
-1.02 -2.15 l
-0.92 -2.16 l
-0.81 -2.15 l
-0.70 -2.16 l
-0.60 -2.15 l
-0.53 -2.16 l
-0.47 -2.15 l
-0.41 -2.16 l
-0.39 -2.15 l
-0.36 -2.16 l
-0.35 -2.15 l
-0.34 -2.16 l
-0.33 -2.15 l
-0.31 -2.16 l
cp p3
np
322.67 51.73 m
0 195.75 l
o
/bg { 0 0 0 srgb } def
320.00 121.48 5.33 50.40 r p3
/bg { 1 1 1 srgb } def
1 1 1 srgb
322.67 147.24 2.70 c p3
ep
%%Trailer
%%Pages: 1
%%EOF
