%!PS-Adobe-3.0 EPSF-3.0
%%DocumentNeededResources: font Helvetica
%%+ font Helvetica-Bold
%%+ font Helvetica-Oblique
%%+ font Helvetica-BoldOblique
%%+ font Symbol
%%Title: R Graphics Output
%%Creator: R Software
%%Pages: (atend)
%%BoundingBox: 0 0 504 504
%%EndComments
%%BeginProlog
/bp  { gs sRGB gs } def
% begin .ps.prolog
/gs  { gsave } bind def
/gr  { grestore } bind def
/ep  { showpage gr gr } bind def
/m   { moveto } bind def
/l  { rlineto } bind def
/np  { newpath } bind def
/cp  { closepath } bind def
/f   { fill } bind def
/o   { stroke } bind def
/c   { newpath 0 360 arc } bind def
/r   { 4 2 roll moveto 1 copy 3 -1 roll exch 0 exch rlineto 0 rlineto -1 mul 0 exch rlineto closepath } bind def
/p1  { stroke } bind def
/p2  { gsave bg fill grestore newpath } bind def
/p3  { gsave bg fill grestore stroke } bind def
/p6  { gsave bg eofill grestore newpath } bind def
/p7  { gsave bg eofill grestore stroke } bind def
/t   { 5 -2 roll moveto gsave rotate
       1 index stringwidth pop
       mul neg 0 rmoveto show grestore } bind def
/ta  { 4 -2 roll moveto gsave rotate show } bind def
/tb  { 2 -1 roll 0 rmoveto show } bind def
/cl  { grestore gsave newpath 3 index 3 index moveto 1 index
       4 -1 roll lineto  exch 1 index lineto lineto
       closepath clip newpath } bind def
/rgb { setrgbcolor } bind def
/s   { scalefont setfont } bind def
% end   .ps.prolog
/sRGB { [ /CIEBasedABC
          << /DecodeLMN
               [ { dup 0.03928 le
                        {12.92321 div}
                        {0.055 add 1.055 div 2.4 exp }
                     ifelse
                 } bind dup dup
               ]
             /MatrixLMN [0.412457 0.212673 0.019334
                         0.357576 0.715152 0.119192
                         0.180437 0.072175 0.950301]
             /WhitePoint [0.9505 1.0 1.0890]
           >>
         ] setcolorspace } bind def
/srgb { setcolor } bind def
%%IncludeResource: font Helvetica
/Helvetica findfont
dup length dict begin
  {1 index /FID ne {def} {pop pop} ifelse} forall
  /Encoding ISOLatin1Encoding def
  currentdict
  end
/Font1 exch definefont pop
%%IncludeResource: font Helvetica-Bold
/Helvetica-Bold findfont
dup length dict begin
  {1 index /FID ne {def} {pop pop} ifelse} forall
  /Encoding ISOLatin1Encoding def
  currentdict
  end
/Font2 exch definefont pop
%%IncludeResource: font Helvetica-Oblique
/Helvetica-Oblique findfont
dup length dict begin
  {1 index /FID ne {def} {pop pop} ifelse} forall
  /Encoding ISOLatin1Encoding def
  currentdict
  end
/Font3 exch definefont pop
%%IncludeResource: font Helvetica-BoldOblique
/Helvetica-BoldOblique findfont
dup length dict begin
  {1 index /FID ne {def} {pop pop} ifelse} forall
  /Encoding ISOLatin1Encoding def
  currentdict
  end
/Font4 exch definefont pop
%%IncludeResource: font Symbol
/Symbol findfont
dup length dict begin
  {1 index /FID ne {def} {pop pop} ifelse} forall
  currentdict
  end
/Font5 exch definefont pop
%%EndProlog
%%Page: 1 1
bp
0.00 0.00 504.00 504.00 cl
/Font1 findfont 60 s
0.7020 0 0.1255 srgb
45.27 230.46 (Gener) 0 ta
-0.600 (al Motors) tb gr
/Font1 findfont 40 s
0 0.3804 0.7020 srgb
227.88 201.50 (BMW) .5 0 t
/Font1 findfont 33 s
0 0.7020 0.3804 srgb
92.17 279.17 (F) 0 ta
-0.990 (ord Motor Compan) tb
-0.495 (y) tb gr
/Font1 findfont 32 s
0 0.7020 0.2549 srgb
189.41 177.75 (T) 0 ta
-3.840 (o) tb
-0.960 (y) tb
-0.640 (ota) tb gr
/Font1 findfont 31 s
0 0.7020 0.1255 srgb
295.42 306.77 (Nissan) .5 0 t
/Font1 findfont 30 s
97.63 148.77 (Chr) 0 ta
0.900 (ysler Group LLC) tb gr
/Font1 findfont 29 s
0 0.7020 0 srgb
286.00 332.97 (Mercedes-Benz) .5 0 t
/Font1 findfont 28 s
285.66 194.08 (P) 0 ta
-1.400 (orsche) tb gr
/Font1 findfont 23 s
0.5098 0.7020 0 srgb
198.26 302.86 (A) 0 ta
-0.690 (udi) tb gr
/Font1 findfont 22 s
0.6353 0.7020 0 srgb
326.87 172.64 (Honda) .5 0 t
/Font1 findfont 21 s
177.02 311.75 (Kia) .5 0 t
/Font1 findfont 20 s
0.7020 0.6353 0 srgb
254.65 390.50 (Hyundai) .5 90 t
189.94 128.84 (V) 0 ta
-1.600 (olksw) tb
-0.300 (agen) tb gr
/Font1 findfont 18 s
0.7020 0.3804 0 srgb
129.07 185.86 (MAZD) 0 ta
-0.720 (A) tb gr
/Font1 findfont 17 s
301.04 218.14 (Subar) 0 ta
0.255 (u) tb gr
/Font1 findfont 16 s
0.7020 0.2549 0 srgb
207.35 112.39 (Mitsubishi Motors Co) .5 0 t
137.56 217.12 (Suzuki) .5 0 t
137.92 200.35 (V) 0 ta
-1.280 (olv) tb
-0.400 (o) tb gr
/Font1 findfont 15 s
139.75 100.13 (Saab Cars Nor) 0 ta
0.600 (th Amer) tb
0.225 (ica) tb gr
0.7020 0.1255 0 srgb
286.33 359.24 (aston mar) 0 ta
0.600 (tin) tb gr
/Font1 findfont 14 s
262.95 372.34 (J) 0 ta
-0.280 (aguar Cars) tb gr
198.00 320.42 (F) 0 ta
-0.420 (err) tb
-0.140 (ar) tb
0.210 (i) tb gr
163.81 365.39 (Land Ro) 0 ta
-0.210 (v) tb
-0.350 (er) tb gr
/Font1 findfont 13 s
0.7020 0 0 srgb
135.99 173.44 (Bentle) 0 ta
-0.260 (y) tb gr
333.13 382.81 (Mitsubishi Motors NA) .5 0 t
356.51 216.36 (Rolls-Ro) 0 ta
-0.390 (yce) tb gr
363.64 304.00 (Lotus) .5 0 t
174.94 353.80 (Maser) 0 ta
-0.130 (ati) tb gr
ep
%%Trailer
%%Pages: 1
%%EOF
