%!PS-Adobe-3.0 EPSF-3.0
%%DocumentNeededResources: font Helvetica
%%+ font Helvetica-Bold
%%+ font Helvetica-Oblique
%%+ font Helvetica-BoldOblique
%%+ font Symbol
%%Title: R Graphics Output
%%Creator: R Software
%%Pages: (atend)
%%BoundingBox: 0 0 504 504
%%EndComments
%%BeginProlog
/bp  { gs sRGB gs } def
% begin .ps.prolog
/gs  { gsave } bind def
/gr  { grestore } bind def
/ep  { showpage gr gr } bind def
/m   { moveto } bind def
/l  { rlineto } bind def
/np  { newpath } bind def
/cp  { closepath } bind def
/f   { fill } bind def
/o   { stroke } bind def
/c   { newpath 0 360 arc } bind def
/r   { 4 2 roll moveto 1 copy 3 -1 roll exch 0 exch rlineto 0 rlineto -1 mul 0 exch rlineto closepath } bind def
/p1  { stroke } bind def
/p2  { gsave bg fill grestore newpath } bind def
/p3  { gsave bg fill grestore stroke } bind def
/p6  { gsave bg eofill grestore newpath } bind def
/p7  { gsave bg eofill grestore stroke } bind def
/t   { 5 -2 roll moveto gsave rotate
       1 index stringwidth pop
       mul neg 0 rmoveto show grestore } bind def
/ta  { 4 -2 roll moveto gsave rotate show } bind def
/tb  { 2 -1 roll 0 rmoveto show } bind def
/cl  { grestore gsave newpath 3 index 3 index moveto 1 index
       4 -1 roll lineto  exch 1 index lineto lineto
       closepath clip newpath } bind def
/rgb { setrgbcolor } bind def
/s   { scalefont setfont } bind def
% end   .ps.prolog
/sRGB { [ /CIEBasedABC
          << /DecodeLMN
               [ { dup 0.03928 le
                        {12.92321 div}
                        {0.055 add 1.055 div 2.4 exp }
                     ifelse
                 } bind dup dup
               ]
             /MatrixLMN [0.412457 0.212673 0.019334
                         0.357576 0.715152 0.119192
                         0.180437 0.072175 0.950301]
             /WhitePoint [0.9505 1.0 1.0890]
           >>
         ] setcolorspace } bind def
/srgb { setcolor } bind def
%%IncludeResource: font Helvetica
/Helvetica findfont
dup length dict begin
  {1 index /FID ne {def} {pop pop} ifelse} forall
  /Encoding ISOLatin1Encoding def
  currentdict
  end
/Font1 exch definefont pop
%%IncludeResource: font Helvetica-Bold
/Helvetica-Bold findfont
dup length dict begin
  {1 index /FID ne {def} {pop pop} ifelse} forall
  /Encoding ISOLatin1Encoding def
  currentdict
  end
/Font2 exch definefont pop
%%IncludeResource: font Helvetica-Oblique
/Helvetica-Oblique findfont
dup length dict begin
  {1 index /FID ne {def} {pop pop} ifelse} forall
  /Encoding ISOLatin1Encoding def
  currentdict
  end
/Font3 exch definefont pop
%%IncludeResource: font Helvetica-BoldOblique
/Helvetica-BoldOblique findfont
dup length dict begin
  {1 index /FID ne {def} {pop pop} ifelse} forall
  /Encoding ISOLatin1Encoding def
  currentdict
  end
/Font4 exch definefont pop
%%IncludeResource: font Symbol
/Symbol findfont
dup length dict begin
  {1 index /FID ne {def} {pop pop} ifelse} forall
  currentdict
  end
/Font5 exch definefont pop
%%EndProlog
%%Page: 1 1
bp
57.60 57.60 475.20 475.20 cl
0 0 0 srgb
0.75 setlinewidth
[] 0 setdash
1 setlinecap
1 setlinejoin
10.00 setmiterlimit
358.23 360.92 2.70 c p1
300.23 292.50 2.70 c p1
300.23 291.32 2.70 c p1
300.23 308.78 2.70 c p1
300.23 291.32 2.70 c p1
276.07 293.88 2.70 c p1
276.07 332.92 2.70 c p1
324.40 308.94 2.70 c p1
324.40 334.00 2.70 c p1
276.07 293.88 2.70 c p1
276.07 332.92 2.70 c p1
324.40 308.94 2.70 c p1
324.40 334.00 2.70 c p1
169.73 172.67 2.70 c p1
363.07 333.84 2.70 c p1
169.73 173.41 2.70 c p1
169.73 166.06 2.70 c p1
218.07 237.25 2.70 c p1
218.07 213.21 2.70 c p1
218.07 237.25 2.70 c p1
459.73 459.73 2.70 c p1
372.73 257.53 2.70 c p1
372.73 236.62 2.70 c p1
372.73 281.38 2.70 c p1
411.40 259.29 2.70 c p1
290.57 344.34 2.70 c p1
290.57 338.72 2.70 c p1
290.57 344.34 2.70 c p1
290.57 338.72 2.70 c p1
280.90 308.10 2.70 c p1
280.90 304.92 2.70 c p1
145.57 114.85 2.70 c p1
145.57 127.56 2.70 c p1
387.23 373.57 2.70 c p1
324.40 297.79 2.70 c p1
324.40 319.94 2.70 c p1
324.40 298.77 2.70 c p1
324.40 333.40 2.70 c p1
305.07 381.00 2.70 c p1
169.73 193.87 2.70 c p1
169.73 182.87 2.70 c p1
169.73 189.29 2.70 c p1
256.73 263.59 2.70 c p1
338.90 278.24 2.70 c p1
372.73 332.45 2.70 c p1
160.07 168.79 2.70 c p1
160.07 170.78 2.70 c p1
242.23 193.98 2.70 c p1
338.90 204.53 2.70 c p1
372.73 292.65 2.70 c p1
372.73 292.65 2.70 c p1
121.40 117.07 2.70 c p1
121.40 117.07 2.70 c p1
150.40 140.33 2.70 c p1
150.40 132.86 2.70 c p1
150.40 145.53 2.70 c p1
150.40 143.45 2.70 c p1
150.40 152.44 2.70 c p1
150.40 145.46 2.70 c p1
150.40 152.44 2.70 c p1
150.40 145.46 2.70 c p1
150.40 157.38 2.70 c p1
150.40 157.38 2.70 c p1
251.90 210.54 2.70 c p1
251.90 218.92 2.70 c p1
251.90 222.68 2.70 c p1
251.90 224.23 2.70 c p1
256.73 212.09 2.70 c p1
213.23 191.43 2.70 c p1
213.23 211.05 2.70 c p1
237.40 196.84 2.70 c p1
237.40 211.20 2.70 c p1
237.40 193.65 2.70 c p1
237.40 207.43 2.70 c p1
213.23 191.43 2.70 c p1
213.23 211.05 2.70 c p1
237.40 193.65 2.70 c p1
237.40 207.43 2.70 c p1
237.40 196.84 2.70 c p1
237.40 211.20 2.70 c p1
358.23 304.31 2.70 c p1
358.23 355.99 2.70 c p1
358.23 340.02 2.70 c p1
358.23 360.92 2.70 c p1
358.23 320.56 2.70 c p1
140.73 141.00 2.70 c p1
140.73 150.33 2.70 c p1
314.73 248.25 2.70 c p1
314.73 266.65 2.70 c p1
314.73 266.65 2.70 c p1
314.73 256.83 2.70 c p1
242.23 199.80 2.70 c p1
242.23 207.29 2.70 c p1
242.23 217.02 2.70 c p1
242.23 225.69 2.70 c p1
150.40 140.33 2.70 c p1
150.40 132.86 2.70 c p1
150.40 145.53 2.70 c p1
150.40 143.45 2.70 c p1
150.40 152.44 2.70 c p1
150.40 145.46 2.70 c p1
150.40 152.44 2.70 c p1
150.40 145.46 2.70 c p1
150.40 157.38 2.70 c p1
150.40 157.38 2.70 c p1
189.07 199.10 2.70 c p1
256.73 243.79 2.70 c p1
256.73 216.44 2.70 c p1
256.73 221.88 2.70 c p1
256.73 212.70 2.70 c p1
256.73 227.78 2.70 c p1
247.07 209.16 2.70 c p1
247.07 217.88 2.70 c p1
247.07 214.59 2.70 c p1
247.07 221.78 2.70 c p1
247.07 216.75 2.70 c p1
247.07 218.74 2.70 c p1
247.07 216.75 2.70 c p1
247.07 218.74 2.70 c p1
256.73 216.44 2.70 c p1
256.73 221.88 2.70 c p1
256.73 212.70 2.70 c p1
256.73 227.78 2.70 c p1
256.73 212.70 2.70 c p1
256.73 227.78 2.70 c p1
247.07 209.16 2.70 c p1
247.07 216.29 2.70 c p1
256.73 210.98 2.70 c p1
256.73 222.27 2.70 c p1
256.73 212.09 2.70 c p1
256.73 217.68 2.70 c p1
256.73 210.98 2.70 c p1
256.73 222.27 2.70 c p1
256.73 212.09 2.70 c p1
256.73 217.68 2.70 c p1
256.73 245.24 2.70 c p1
256.73 245.20 2.70 c p1
256.73 237.21 2.70 c p1
256.73 240.93 2.70 c p1
256.73 245.24 2.70 c p1
256.73 237.21 2.70 c p1
237.40 194.42 2.70 c p1
237.40 207.35 2.70 c p1
237.40 194.42 2.70 c p1
237.40 206.62 2.70 c p1
256.73 203.18 2.70 c p1
256.73 208.53 2.70 c p1
256.73 207.31 2.70 c p1
256.73 211.27 2.70 c p1
135.90 114.85 2.70 c p1
358.23 313.22 2.70 c p1
169.73 179.13 2.70 c p1
169.73 188.13 2.70 c p1
169.73 188.13 2.70 c p1
169.73 180.53 2.70 c p1
276.07 239.49 2.70 c p1
276.07 274.53 2.70 c p1
218.07 230.14 2.70 c p1
169.73 172.67 2.70 c p1
193.90 223.32 2.70 c p1
363.07 344.65 2.70 c p1
363.07 338.23 2.70 c p1
218.07 217.18 2.70 c p1
218.07 209.88 2.70 c p1
218.07 211.74 2.70 c p1
218.07 209.88 2.70 c p1
218.07 222.65 2.70 c p1
218.07 196.11 2.70 c p1
218.07 223.51 2.70 c p1
218.07 206.66 2.70 c p1
218.07 217.18 2.70 c p1
218.07 226.78 2.70 c p1
218.07 211.74 2.70 c p1
218.07 209.88 2.70 c p1
218.07 225.34 2.70 c p1
218.07 234.20 2.70 c p1
218.07 209.37 2.70 c p1
218.07 206.66 2.70 c p1
218.07 209.37 2.70 c p1
218.07 206.66 2.70 c p1
218.07 212.86 2.70 c p1
218.07 209.28 2.70 c p1
218.07 237.25 2.70 c p1
218.07 220.05 2.70 c p1
218.07 237.25 2.70 c p1
218.07 220.05 2.70 c p1
266.40 297.17 2.70 c p1
266.40 298.30 2.70 c p1
266.40 291.14 2.70 c p1
266.40 288.20 2.70 c p1
150.40 130.87 2.70 c p1
150.40 131.80 2.70 c p1
150.40 129.45 2.70 c p1
251.90 194.51 2.70 c p1
251.90 204.55 2.70 c p1
314.73 224.04 2.70 c p1
314.73 225.89 2.70 c p1
334.07 265.37 2.70 c p1
251.90 198.41 2.70 c p1
169.73 194.28 2.70 c p1
169.73 187.08 2.70 c p1
256.73 223.44 2.70 c p1
256.73 224.02 2.70 c p1
251.90 227.22 2.70 c p1
251.90 244.14 2.70 c p1
251.90 209.53 2.70 c p1
251.90 236.30 2.70 c p1
251.90 223.37 2.70 c p1
193.90 203.45 2.70 c p1
193.90 182.88 2.70 c p1
193.90 206.77 2.70 c p1
242.23 216.42 2.70 c p1
242.23 203.62 2.70 c p1
314.73 251.26 2.70 c p1
300.23 303.01 2.70 c p1
300.23 305.20 2.70 c p1
160.07 180.85 2.70 c p1
242.23 203.48 2.70 c p1
242.23 203.72 2.70 c p1
372.73 305.04 2.70 c p1
372.73 302.66 2.70 c p1
242.23 203.48 2.70 c p1
242.23 203.48 2.70 c p1
242.23 202.12 2.70 c p1
242.23 199.09 2.70 c p1
242.23 206.55 2.70 c p1
242.23 207.23 2.70 c p1
300.23 237.05 2.70 c p1
300.23 222.33 2.70 c p1
150.40 145.53 2.70 c p1
150.40 143.45 2.70 c p1
150.40 152.44 2.70 c p1
150.40 145.46 2.70 c p1
150.40 157.38 2.70 c p1
189.07 194.72 2.70 c p1
189.07 198.61 2.70 c p1
256.73 230.41 2.70 c p1
193.90 168.84 2.70 c p1
193.90 171.91 2.70 c p1
242.23 196.92 2.70 c p1
242.23 212.41 2.70 c p1
256.73 246.96 2.70 c p1
314.73 260.12 2.70 c p1
314.73 284.19 2.70 c p1
160.07 148.90 2.70 c p1
160.07 148.77 2.70 c p1
169.73 180.45 2.70 c p1
169.73 187.64 2.70 c p1
193.90 180.95 2.70 c p1
193.90 178.74 2.70 c p1
169.73 179.87 2.70 c p1
193.90 212.79 2.70 c p1
189.07 174.73 2.70 c p1
189.07 187.49 2.70 c p1
242.23 200.21 2.70 c p1
169.73 179.13 2.70 c p1
169.73 188.13 2.70 c p1
169.73 180.53 2.70 c p1
218.07 214.96 2.70 c p1
218.07 218.33 2.70 c p1
363.07 338.23 2.70 c p1
169.73 167.69 2.70 c p1
169.73 166.06 2.70 c p1
218.07 169.31 2.70 c p1
218.07 194.16 2.70 c p1
218.07 190.90 2.70 c p1
218.07 169.31 2.70 c p1
285.73 259.24 2.70 c p1
285.73 266.61 2.70 c p1
285.73 280.53 2.70 c p1
285.73 259.24 2.70 c p1
285.73 266.61 2.70 c p1
285.73 275.70 2.70 c p1
285.73 293.23 2.70 c p1
189.07 182.39 2.70 c p1
247.07 202.06 2.70 c p1
247.07 207.20 2.70 c p1
247.07 223.46 2.70 c p1
372.73 334.28 2.70 c p1
372.73 251.58 2.70 c p1
372.73 223.04 2.70 c p1
372.73 295.29 2.70 c p1
140.73 140.31 2.70 c p1
140.73 131.33 2.70 c p1
160.07 154.31 2.70 c p1
160.07 148.49 2.70 c p1
189.07 207.52 2.70 c p1
247.07 202.81 2.70 c p1
169.73 137.63 2.70 c p1
169.73 141.22 2.70 c p1
169.73 147.74 2.70 c p1
169.73 137.63 2.70 c p1
169.73 138.29 2.70 c p1
169.73 147.80 2.70 c p1
169.73 132.27 2.70 c p1
169.73 132.27 2.70 c p1
189.07 170.43 2.70 c p1
189.07 169.81 2.70 c p1
242.23 197.02 2.70 c p1
242.23 222.19 2.70 c p1
160.07 140.36 2.70 c p1
160.07 134.53 2.70 c p1
160.07 138.86 2.70 c p1
189.07 179.15 2.70 c p1
160.07 130.14 2.70 c p1
145.57 91.28 2.70 c p1
135.90 96.52 2.70 c p1
135.90 96.27 2.70 c p1
150.40 139.78 2.70 c p1
150.40 134.70 2.70 c p1
150.40 145.19 2.70 c p1
150.40 139.78 2.70 c p1
169.73 152.44 2.70 c p1
169.73 159.66 2.70 c p1
189.07 171.83 2.70 c p1
189.07 172.33 2.70 c p1
150.40 139.78 2.70 c p1
150.40 134.70 2.70 c p1
160.07 98.39 2.70 c p1
189.07 123.05 2.70 c p1
145.57 142.52 2.70 c p1
145.57 136.59 2.70 c p1
169.73 163.10 2.70 c p1
169.73 155.46 2.70 c p1
193.90 180.49 2.70 c p1
193.90 194.62 2.70 c p1
169.73 131.84 2.70 c p1
169.73 140.26 2.70 c p1
160.07 180.62 2.70 c p1
218.07 229.98 2.70 c p1
218.07 224.66 2.70 c p1
242.23 194.66 2.70 c p1
242.23 200.43 2.70 c p1
372.73 305.04 2.70 c p1
300.23 260.56 2.70 c p1
338.90 339.45 2.70 c p1
338.90 264.91 2.70 c p1
363.07 327.74 2.70 c p1
300.23 235.00 2.70 c p1
300.23 237.53 2.70 c p1
338.90 242.75 2.70 c p1
150.40 164.00 2.70 c p1
150.40 143.45 2.70 c p1
150.40 157.76 2.70 c p1
150.40 153.00 2.70 c p1
150.40 169.77 2.70 c p1
150.40 159.30 2.70 c p1
169.73 226.06 2.70 c p1
169.73 152.19 2.70 c p1
169.73 156.56 2.70 c p1
189.07 173.01 2.70 c p1
189.07 173.64 2.70 c p1
189.07 180.74 2.70 c p1
169.73 245.53 2.70 c p1
169.73 241.00 2.70 c p1
150.40 128.24 2.70 c p1
150.40 143.50 2.70 c p1
160.07 163.61 2.70 c p1
160.07 142.99 2.70 c p1
160.07 157.30 2.70 c p1
396.90 349.32 2.70 c p1
396.90 349.32 2.70 c p1
169.73 211.51 2.70 c p1
169.73 182.28 2.70 c p1
169.73 200.56 2.70 c p1
169.73 182.28 2.70 c p1
193.90 173.87 2.70 c p1
193.90 173.76 2.70 c p1
169.73 144.24 2.70 c p1
169.73 157.79 2.70 c p1
193.90 217.48 2.70 c p1
193.90 243.80 2.70 c p1
189.07 173.14 2.70 c p1
189.07 189.70 2.70 c p1
189.07 180.69 2.70 c p1
189.07 168.18 2.70 c p1
189.07 182.87 2.70 c p1
189.07 176.77 2.70 c p1
169.73 157.56 2.70 c p1
169.73 167.57 2.70 c p1
169.73 173.98 2.70 c p1
169.73 171.11 2.70 c p1
160.07 149.87 2.70 c p1
160.07 146.04 2.70 c p1
145.57 79.00 2.70 c p1
145.57 134.98 2.70 c p1
145.57 129.01 2.70 c p1
169.73 177.00 2.70 c p1
169.73 185.03 2.70 c p1
247.07 230.72 2.70 c p1
169.73 124.76 2.70 c p1
169.73 124.68 2.70 c p1
193.90 167.55 2.70 c p1
193.90 168.39 2.70 c p1
169.73 205.31 2.70 c p1
169.73 161.38 2.70 c p1
169.73 180.98 2.70 c p1
169.73 165.52 2.70 c p1
169.73 124.76 2.70 c p1
169.73 174.97 2.70 c p1
169.73 158.26 2.70 c p1
169.73 173.34 2.70 c p1
169.73 124.68 2.70 c p1
193.90 167.55 2.70 c p1
193.90 168.39 2.70 c p1
193.90 184.66 2.70 c p1
193.90 185.34 2.70 c p1
218.07 216.37 2.70 c p1
193.90 191.88 2.70 c p1
251.90 232.42 2.70 c p1
242.23 194.74 2.70 c p1
251.90 215.27 2.70 c p1
251.90 227.52 2.70 c p1
169.73 159.98 2.70 c p1
218.07 207.18 2.70 c p1
218.07 207.96 2.70 c p1
276.07 215.98 2.70 c p1
363.07 344.65 2.70 c p1
401.73 361.41 2.70 c p1
169.73 163.26 2.70 c p1
169.73 171.84 2.70 c p1
218.07 190.90 2.70 c p1
218.07 194.16 2.70 c p1
218.07 184.39 2.70 c p1
285.73 259.24 2.70 c p1
285.73 266.61 2.70 c p1
285.73 275.70 2.70 c p1
218.07 173.66 2.70 c p1
285.73 232.71 2.70 c p1
189.07 153.53 2.70 c p1
247.07 221.16 2.70 c p1
247.07 220.45 2.70 c p1
247.07 233.79 2.70 c p1
169.73 205.05 2.70 c p1
169.73 209.06 2.70 c p1
169.73 206.40 2.70 c p1
169.73 188.86 2.70 c p1
169.73 210.23 2.70 c p1
189.07 153.53 2.70 c p1
189.07 192.95 2.70 c p1
189.07 192.95 2.70 c p1
218.07 210.73 2.70 c p1
247.07 217.17 2.70 c p1
247.07 238.62 2.70 c p1
372.73 332.61 2.70 c p1
372.73 296.82 2.70 c p1
218.07 222.20 2.70 c p1
247.07 219.05 2.70 c p1
140.73 144.81 2.70 c p1
140.73 143.54 2.70 c p1
160.07 166.36 2.70 c p1
160.07 151.03 2.70 c p1
140.73 141.49 2.70 c p1
140.73 129.74 2.70 c p1
189.07 172.31 2.70 c p1
189.07 172.10 2.70 c p1
247.07 231.72 2.70 c p1
140.73 140.31 2.70 c p1
140.73 131.33 2.70 c p1
160.07 154.31 2.70 c p1
160.07 148.49 2.70 c p1
189.07 186.41 2.70 c p1
189.07 191.49 2.70 c p1
247.07 202.81 2.70 c p1
189.07 186.41 2.70 c p1
189.07 191.49 2.70 c p1
247.07 202.81 2.70 c p1
247.07 218.17 2.70 c p1
348.57 247.39 2.70 c p1
348.57 257.98 2.70 c p1
382.40 273.41 2.70 c p1
382.40 275.72 2.70 c p1
377.57 377.03 2.70 c p1
377.57 371.80 2.70 c p1
242.23 236.89 2.70 c p1
218.07 224.02 2.70 c p1
193.90 168.14 2.70 c p1
193.90 181.51 2.70 c p1
193.90 183.02 2.70 c p1
242.23 216.64 2.70 c p1
218.07 198.74 2.70 c p1
193.90 106.47 2.70 c p1
193.90 177.12 2.70 c p1
160.07 134.70 2.70 c p1
160.07 134.70 2.70 c p1
189.07 117.20 2.70 c p1
193.90 192.95 2.70 c p1
193.90 203.26 2.70 c p1
251.90 209.53 2.70 c p1
251.90 236.30 2.70 c p1
251.90 223.37 2.70 c p1
242.23 151.07 2.70 c p1
251.90 214.85 2.70 c p1
251.90 230.18 2.70 c p1
343.73 248.62 2.70 c p1
343.73 251.39 2.70 c p1
314.73 268.68 2.70 c p1
314.73 247.15 2.70 c p1
169.73 149.73 2.70 c p1
169.73 153.68 2.70 c p1
189.07 169.92 2.70 c p1
189.07 172.33 2.70 c p1
169.73 142.79 2.70 c p1
169.73 168.86 2.70 c p1
189.07 159.31 2.70 c p1
189.07 160.28 2.70 c p1
189.07 117.20 2.70 c p1
242.23 204.19 2.70 c p1
295.40 241.01 2.70 c p1
295.40 252.12 2.70 c p1
295.40 241.01 2.70 c p1
295.40 252.12 2.70 c p1
314.73 223.77 2.70 c p1
242.23 236.89 2.70 c p1
242.23 161.26 2.70 c p1
193.90 106.47 2.70 c p1
169.73 134.89 2.70 c p1
169.73 141.26 2.70 c p1
193.90 179.47 2.70 c p1
193.90 183.01 2.70 c p1
251.90 215.54 2.70 c p1
184.23 220.86 2.70 c p1
242.23 194.69 2.70 c p1
242.23 201.07 2.70 c p1
218.07 176.31 2.70 c p1
300.23 235.20 2.70 c p1
338.90 247.58 2.70 c p1
189.07 184.54 2.70 c p1
193.90 166.42 2.70 c p1
242.23 201.06 2.70 c p1
242.23 208.10 2.70 c p1
169.73 147.66 2.70 c p1
169.73 166.28 2.70 c p1
193.90 169.58 2.70 c p1
193.90 189.02 2.70 c p1
169.73 211.51 2.70 c p1
169.73 182.28 2.70 c p1
208.40 227.43 2.70 c p1
193.90 174.44 2.70 c p1
193.90 205.53 2.70 c p1
193.90 221.11 2.70 c p1
247.07 227.25 2.70 c p1
193.90 154.71 2.70 c p1
242.23 182.40 2.70 c p1
193.90 99.65 2.70 c p1
193.90 104.78 2.70 c p1
160.07 78.91 2.70 c p1
169.73 124.61 2.70 c p1
169.73 120.41 2.70 c p1
193.90 176.62 2.70 c p1
193.90 174.35 2.70 c p1
247.07 199.33 2.70 c p1
218.07 216.37 2.70 c p1
227.73 194.97 2.70 c p1
276.07 215.98 2.70 c p1
377.57 288.64 2.70 c p1
218.07 206.70 2.70 c p1
218.07 215.84 2.70 c p1
285.73 261.81 2.70 c p1
285.73 280.53 2.70 c p1
218.07 229.34 2.70 c p1
218.07 229.34 2.70 c p1
363.07 311.90 2.70 c p1
285.73 232.71 2.70 c p1
247.07 209.48 2.70 c p1
247.07 209.48 2.70 c p1
247.07 218.17 2.70 c p1
247.07 196.54 2.70 c p1
348.57 247.39 2.70 c p1
247.07 211.76 2.70 c p1
348.57 263.26 2.70 c p1
382.40 273.41 2.70 c p1
247.07 218.17 2.70 c p1
247.07 196.54 2.70 c p1
348.57 247.39 2.70 c p1
247.07 211.76 2.70 c p1
348.57 263.26 2.70 c p1
382.40 273.41 2.70 c p1
242.23 227.78 2.70 c p1
242.23 233.71 2.70 c p1
242.23 210.38 2.70 c p1
242.23 216.64 2.70 c p1
189.07 167.32 2.70 c p1
189.07 164.48 2.70 c p1
242.23 190.37 2.70 c p1
232.57 192.42 2.70 c p1
314.73 255.49 2.70 c p1
256.73 204.74 2.70 c p1
295.40 242.42 2.70 c p1
314.73 228.02 2.70 c p1
314.73 257.16 2.70 c p1
169.73 168.86 2.70 c p1
189.07 159.89 2.70 c p1
189.07 160.15 2.70 c p1
314.73 247.44 2.70 c p1
314.73 268.68 2.70 c p1
314.73 268.68 2.70 c p1
314.73 259.74 2.70 c p1
242.23 233.71 2.70 c p1
251.90 246.07 2.70 c p1
242.23 231.27 2.70 c p1
300.23 321.17 2.70 c p1
338.90 395.75 2.70 c p1
338.90 389.79 2.70 c p1
338.90 395.75 2.70 c p1
338.90 389.79 2.70 c p1
338.90 389.79 2.70 c p1
218.07 181.93 2.70 c p1
300.23 249.24 2.70 c p1
300.23 261.69 2.70 c p1
338.90 332.35 2.70 c p1
338.90 261.76 2.70 c p1
363.07 325.59 2.70 c p1
242.23 216.14 2.70 c p1
247.07 216.00 2.70 c p1
247.07 220.40 2.70 c p1
305.07 243.30 2.70 c p1
305.07 243.30 2.70 c p1
218.07 176.16 2.70 c p1
305.07 261.27 2.70 c p1
305.07 261.27 2.70 c p1
392.07 304.42 2.70 c p1
392.07 304.42 2.70 c p1
396.90 349.32 2.70 c p1
396.90 349.32 2.70 c p1
242.23 201.15 2.70 c p1
189.07 181.48 2.70 c p1
169.73 185.80 2.70 c p1
169.73 124.76 2.70 c p1
169.73 186.57 2.70 c p1
169.73 190.57 2.70 c p1
169.73 188.13 2.70 c p1
218.07 217.18 2.70 c p1
218.07 226.78 2.70 c p1
218.07 225.34 2.70 c p1
218.07 234.20 2.70 c p1
218.07 210.73 2.70 c p1
247.07 220.01 2.70 c p1
372.73 332.61 2.70 c p1
372.73 296.82 2.70 c p1
218.07 222.20 2.70 c p1
247.07 219.05 2.70 c p1
169.73 182.96 2.70 c p1
169.73 164.15 2.70 c p1
189.07 187.86 2.70 c p1
145.57 139.78 2.70 c p1
145.57 145.04 2.70 c p1
145.57 150.98 2.70 c p1
169.73 170.47 2.70 c p1
169.73 171.18 2.70 c p1
242.23 230.64 2.70 c p1
242.23 236.73 2.70 c p1
150.40 163.85 2.70 c p1
150.40 163.85 2.70 c p1
169.73 178.78 2.70 c p1
169.73 171.03 2.70 c p1
150.40 157.19 2.70 c p1
169.73 171.03 2.70 c p1
73.07 73.07 2.70 c p1
169.73 160.85 2.70 c p1
189.07 180.74 2.70 c p1
160.07 154.55 2.70 c p1
160.07 164.38 2.70 c p1
150.40 149.44 2.70 c p1
150.40 163.09 2.70 c p1
150.40 161.97 2.70 c p1
169.73 211.51 2.70 c p1
169.73 182.28 2.70 c p1
189.07 187.68 2.70 c p1
189.07 186.71 2.70 c p1
169.73 144.12 2.70 c p1
169.73 158.45 2.70 c p1
193.90 217.48 2.70 c p1
193.90 243.80 2.70 c p1
169.73 173.22 2.70 c p1
169.73 177.93 2.70 c p1
169.73 176.46 2.70 c p1
169.73 179.01 2.70 c p1
160.07 160.42 2.70 c p1
160.07 151.73 2.70 c p1
189.07 202.23 2.70 c p1
189.07 185.01 2.70 c p1
189.07 187.25 2.70 c p1
169.73 130.73 2.70 c p1
169.73 124.68 2.70 c p1
193.90 167.55 2.70 c p1
193.90 168.39 2.70 c p1
189.07 204.13 2.70 c p1
203.57 217.92 2.70 c p1
242.23 210.63 2.70 c p1
338.90 254.23 2.70 c p1
160.07 97.29 2.70 c p1
251.90 239.05 2.70 c p1
251.90 271.79 2.70 c p1
251.90 243.29 2.70 c p1
251.90 236.75 2.70 c p1
251.90 271.79 2.70 c p1
251.90 243.29 2.70 c p1
193.90 245.75 2.70 c p1
193.90 218.82 2.70 c p1
266.40 277.78 2.70 c p1
266.40 268.51 2.70 c p1
193.90 245.69 2.70 c p1
193.90 218.93 2.70 c p1
266.40 277.24 2.70 c p1
203.57 216.18 2.70 c p1
203.57 203.85 2.70 c p1
266.40 245.30 2.70 c p1
266.40 256.99 2.70 c p1
251.90 244.39 2.70 c p1
251.90 258.89 2.70 c p1
251.90 258.89 2.70 c p1
251.90 242.52 2.70 c p1
251.90 258.89 2.70 c p1
251.90 258.89 2.70 c p1
266.40 286.88 2.70 c p1
266.40 272.36 2.70 c p1
266.40 284.37 2.70 c p1
203.57 238.87 2.70 c p1
203.57 241.44 2.70 c p1
266.40 260.16 2.70 c p1
266.40 276.37 2.70 c p1
280.90 275.11 2.70 c p1
305.07 297.50 2.70 c p1
329.23 275.03 2.70 c p1
372.73 327.80 2.70 c p1
363.07 216.28 2.70 c p1
329.23 261.10 2.70 c p1
251.90 288.19 2.70 c p1
300.23 290.48 2.70 c p1
348.57 294.48 2.70 c p1
242.23 249.60 2.70 c p1
242.23 249.89 2.70 c p1
372.73 326.72 2.70 c p1
251.90 244.54 2.70 c p1
251.90 244.54 2.70 c p1
314.73 271.62 2.70 c p1
314.73 272.12 2.70 c p1
280.90 274.08 2.70 c p1
305.07 296.68 2.70 c p1
329.23 275.03 2.70 c p1
372.73 327.80 2.70 c p1
363.07 216.28 2.70 c p1
329.23 261.10 2.70 c p1
343.73 317.51 2.70 c p1
343.73 320.14 2.70 c p1
266.40 262.28 2.70 c p1
295.40 277.09 2.70 c p1
348.57 304.24 2.70 c p1
280.90 303.56 2.70 c p1
305.07 317.47 2.70 c p1
329.23 275.10 2.70 c p1
372.73 333.73 2.70 c p1
363.07 217.80 2.70 c p1
300.23 296.79 2.70 c p1
348.57 306.92 2.70 c p1
242.23 269.51 2.70 c p1
242.23 269.74 2.70 c p1
372.73 360.40 2.70 c p1
251.90 262.94 2.70 c p1
251.90 262.93 2.70 c p1
314.73 291.87 2.70 c p1
314.73 292.10 2.70 c p1
372.73 362.75 2.70 c p1
280.90 303.56 2.70 c p1
305.07 318.05 2.70 c p1
329.23 275.11 2.70 c p1
372.73 334.05 2.70 c p1
363.07 217.80 2.70 c p1
372.73 333.47 2.70 c p1
242.23 265.79 2.70 c p1
343.73 340.16 2.70 c p1
343.73 337.73 2.70 c p1
295.40 292.61 2.70 c p1
348.57 325.10 2.70 c p1
348.57 314.88 2.70 c p1
280.90 277.24 2.70 c p1
329.23 318.22 2.70 c p1
329.23 330.13 2.70 c p1
363.07 400.70 2.70 c p1
363.07 400.70 2.70 c p1
363.07 417.77 2.70 c p1
329.23 329.76 2.70 c p1
329.23 329.76 2.70 c p1
295.40 324.65 2.70 c p1
334.07 344.19 2.70 c p1
295.40 324.65 2.70 c p1
334.07 345.45 2.70 c p1
401.73 409.38 2.70 c p1
334.07 357.67 2.70 c p1
280.90 277.24 2.70 c p1
329.23 318.22 2.70 c p1
329.23 330.13 2.70 c p1
363.07 400.70 2.70 c p1
363.07 400.70 2.70 c p1
363.07 417.77 2.70 c p1
329.23 329.76 2.70 c p1
329.23 329.76 2.70 c p1
329.23 330.13 2.70 c p1
305.07 362.08 2.70 c p1
363.07 379.81 2.70 c p1
305.07 362.08 2.70 c p1
363.07 393.96 2.70 c p1
329.23 329.76 2.70 c p1
295.40 336.62 2.70 c p1
334.07 357.67 2.70 c p1
401.73 431.87 2.70 c p1
334.07 374.40 2.70 c p1
329.23 330.13 2.70 c p1
305.07 362.08 2.70 c p1
363.07 379.81 2.70 c p1
305.07 362.08 2.70 c p1
363.07 391.96 2.70 c p1
329.23 329.76 2.70 c p1
169.73 194.73 2.70 c p1
169.73 190.94 2.70 c p1
295.40 323.39 2.70 c p1
295.40 364.81 2.70 c p1
247.07 229.49 2.70 c p1
247.07 229.49 2.70 c p1
247.07 229.49 2.70 c p1
242.23 215.81 2.70 c p1
242.23 204.39 2.70 c p1
242.23 222.26 2.70 c p1
193.90 160.84 2.70 c p1
193.90 159.71 2.70 c p1
242.23 218.89 2.70 c p1
203.57 217.96 2.70 c p1
242.23 221.48 2.70 c p1
247.07 229.49 2.70 c p1
242.23 241.78 2.70 c p1
184.23 216.76 2.70 c p1
247.07 240.71 2.70 c p1
372.73 300.72 2.70 c p1
363.07 216.28 2.70 c p1
372.73 300.72 2.70 c p1
247.07 239.69 2.70 c p1
329.23 272.00 2.70 c p1
329.23 272.00 2.70 c p1
329.23 272.00 2.70 c p1
363.07 216.28 2.70 c p1
363.07 387.67 2.70 c p1
189.07 196.31 2.70 c p1
218.07 236.89 2.70 c p1
189.07 172.22 2.70 c p1
189.07 172.22 2.70 c p1
218.07 234.76 2.70 c p1
218.07 234.76 2.70 c p1
247.07 240.71 2.70 c p1
247.07 245.36 2.70 c p1
348.57 294.48 2.70 c p1
189.07 206.98 2.70 c p1
247.07 232.67 2.70 c p1
169.73 185.71 2.70 c p1
242.23 207.11 2.70 c p1
251.90 211.57 2.70 c p1
193.90 193.37 2.70 c p1
193.90 180.87 2.70 c p1
218.07 213.43 2.70 c p1
193.90 132.94 2.70 c p1
334.07 293.74 2.70 c p1
169.73 198.75 2.70 c p1
242.23 229.16 2.70 c p1
242.23 236.47 2.70 c p1
247.07 240.71 2.70 c p1
329.23 272.00 2.70 c p1
372.73 300.72 2.70 c p1
363.07 216.28 2.70 c p1
329.23 272.00 2.70 c p1
372.73 300.72 2.70 c p1
363.07 387.67 2.70 c p1
189.07 172.22 2.70 c p1
189.07 172.22 2.70 c p1
218.07 234.76 2.70 c p1
218.07 234.76 2.70 c p1
189.07 186.29 2.70 c p1
242.23 213.22 2.70 c p1
189.07 172.08 2.70 c p1
242.23 222.90 2.70 c p1
189.07 198.31 2.70 c p1
189.07 212.23 2.70 c p1
242.23 201.06 2.70 c p1
169.73 178.78 2.70 c p1
169.73 206.26 2.70 c p1
189.07 175.80 2.70 c p1
189.07 196.31 2.70 c p1
256.73 248.90 2.70 c p1
242.23 248.82 2.70 c p1
343.73 294.67 2.70 c p1
169.73 182.96 2.70 c p1
169.73 178.00 2.70 c p1
189.07 191.08 2.70 c p1
189.07 178.33 2.70 c p1
247.07 240.32 2.70 c p1
348.57 294.48 2.70 c p1
251.90 255.04 2.70 c p1
169.73 182.96 2.70 c p1
169.73 178.00 2.70 c p1
189.07 191.08 2.70 c p1
189.07 178.33 2.70 c p1
189.07 186.77 2.70 c p1
189.07 187.18 2.70 c p1
189.07 203.69 2.70 c p1
242.23 203.98 2.70 c p1
169.73 183.49 2.70 c p1
189.07 175.53 2.70 c p1
189.07 196.31 2.70 c p1
242.23 220.80 2.70 c p1
242.23 146.42 2.70 c p1
242.23 234.35 2.70 c p1
251.90 211.57 2.70 c p1
334.07 293.11 2.70 c p1
184.23 227.68 2.70 c p1
193.90 202.25 2.70 c p1
251.90 236.54 2.70 c p1
242.23 251.43 2.70 c p1
189.07 180.76 2.70 c p1
218.07 207.24 2.70 c p1
169.73 162.67 2.70 c p1
169.73 168.39 2.70 c p1
343.73 319.47 2.70 c p1
343.73 322.00 2.70 c p1
242.23 224.26 2.70 c p1
266.40 267.38 2.70 c p1
193.90 178.53 2.70 c p1
266.40 254.65 2.70 c p1
218.07 226.17 2.70 c p1
189.07 214.38 2.70 c p1
189.07 210.29 2.70 c p1
266.40 238.08 2.70 c p1
266.40 249.03 2.70 c p1
203.57 209.68 2.70 c p1
242.23 226.30 2.70 c p1
193.90 186.13 2.70 c p1
242.23 205.22 2.70 c p1
295.40 285.24 2.70 c p1
348.57 316.19 2.70 c p1
203.57 194.79 2.70 c p1
242.23 211.53 2.70 c p1
169.73 190.42 2.70 c p1
169.73 216.00 2.70 c p1
227.73 216.04 2.70 c p1
227.73 216.04 2.70 c p1
227.73 246.25 2.70 c p1
251.90 260.99 2.70 c p1
184.23 242.42 2.70 c p1
251.90 244.81 2.70 c p1
169.73 201.56 2.70 c p1
227.73 231.86 2.70 c p1
218.07 226.83 2.70 c p1
218.07 261.00 2.70 c p1
218.07 213.13 2.70 c p1
218.07 212.85 2.70 c p1
218.07 211.16 2.70 c p1
218.07 249.39 2.70 c p1
285.73 287.78 2.70 c p1
285.73 336.73 2.70 c p1
218.07 249.39 2.70 c p1
285.73 287.78 2.70 c p1
285.73 336.73 2.70 c p1
247.07 257.16 2.70 c p1
363.07 213.44 2.70 c p1
372.73 306.88 2.70 c p1
372.73 327.98 2.70 c p1
372.73 327.98 2.70 c p1
247.07 251.65 2.70 c p1
218.07 250.26 2.70 c p1
189.07 191.92 2.70 c p1
189.07 191.92 2.70 c p1
218.07 245.07 2.70 c p1
218.07 242.42 2.70 c p1
329.23 275.77 2.70 c p1
329.23 275.77 2.70 c p1
329.23 275.77 2.70 c p1
363.07 217.80 2.70 c p1
363.07 393.10 2.70 c p1
247.07 249.58 2.70 c p1
247.07 249.07 2.70 c p1
348.57 308.38 2.70 c p1
247.07 244.95 2.70 c p1
242.23 222.75 2.70 c p1
251.90 237.32 2.70 c p1
193.90 198.47 2.70 c p1
218.07 229.28 2.70 c p1
193.90 151.63 2.70 c p1
334.07 323.40 2.70 c p1
242.23 243.15 2.70 c p1
242.23 250.02 2.70 c p1
242.23 257.22 2.70 c p1
247.07 249.58 2.70 c p1
329.23 275.77 2.70 c p1
363.07 217.80 2.70 c p1
372.73 306.88 2.70 c p1
363.07 213.44 2.70 c p1
329.23 275.77 2.70 c p1
372.73 327.98 2.70 c p1
363.07 393.10 2.70 c p1
189.07 191.92 2.70 c p1
189.07 191.92 2.70 c p1
218.07 245.07 2.70 c p1
218.07 242.42 2.70 c p1
242.23 222.19 2.70 c p1
189.07 178.61 2.70 c p1
242.23 230.62 2.70 c p1
189.07 210.33 2.70 c p1
242.23 207.12 2.70 c p1
189.07 192.34 2.70 c p1
189.07 217.17 2.70 c p1
256.73 257.34 2.70 c p1
242.23 259.20 2.70 c p1
314.73 285.79 2.70 c p1
343.73 297.69 2.70 c p1
189.07 198.83 2.70 c p1
189.07 214.41 2.70 c p1
189.07 183.07 2.70 c p1
247.07 249.07 2.70 c p1
348.57 313.11 2.70 c p1
382.40 330.07 2.70 c p1
251.90 271.46 2.70 c p1
189.07 198.83 2.70 c p1
189.07 214.41 2.70 c p1
189.07 183.07 2.70 c p1
247.07 251.23 2.70 c p1
247.07 250.65 2.70 c p1
247.07 264.44 2.70 c p1
247.07 263.53 2.70 c p1
189.07 194.94 2.70 c p1
189.07 206.26 2.70 c p1
242.23 223.20 2.70 c p1
169.73 206.26 2.70 c p1
189.07 196.31 2.70 c p1
189.07 217.17 2.70 c p1
227.73 266.03 2.70 c p1
314.73 331.49 2.70 c p1
314.73 343.88 2.70 c p1
314.73 325.77 2.70 c p1
169.73 210.54 2.70 c p1
314.73 345.94 2.70 c p1
314.73 323.55 2.70 c p1
295.40 273.16 2.70 c p1
242.23 229.44 2.70 c p1
242.23 153.37 2.70 c p1
242.23 257.22 2.70 c p1
251.90 237.32 2.70 c p1
334.07 323.40 2.70 c p1
184.23 245.78 2.70 c p1
251.90 249.58 2.70 c p1
338.90 371.41 2.70 c p1
218.07 247.29 2.70 c p1
300.23 324.20 2.70 c p1
338.90 335.03 2.70 c p1
242.23 261.04 2.70 c p1
242.23 242.25 2.70 c p1
242.23 232.95 2.70 c p1
218.07 205.93 2.70 c p1
300.23 278.95 2.70 c p1
338.90 305.38 2.70 c p1
242.23 258.40 2.70 c p1
218.07 231.19 2.70 c p1
189.07 188.62 2.70 c p1
218.07 218.78 2.70 c p1
169.73 180.92 2.70 c p1
343.73 332.38 2.70 c p1
343.73 331.75 2.70 c p1
242.23 228.42 2.70 c p1
242.23 244.95 2.70 c p1
266.40 285.82 2.70 c p1
343.73 325.41 2.70 c p1
193.90 190.96 2.70 c p1
266.40 279.50 2.70 c p1
266.40 271.22 2.70 c p1
247.07 242.42 2.70 c p1
247.07 268.48 2.70 c p1
305.07 256.27 2.70 c p1
218.07 211.97 2.70 c p1
305.07 270.31 2.70 c p1
208.40 257.06 2.70 c p1
218.07 242.42 2.70 c p1
193.90 195.74 2.70 c p1
193.90 219.93 2.70 c p1
193.90 194.51 2.70 c p1
193.90 185.34 2.70 c p1
193.90 205.53 2.70 c p1
247.07 227.25 2.70 c p1
247.07 256.46 2.70 c p1
189.07 225.44 2.70 c p1
266.40 249.20 2.70 c p1
266.40 249.20 2.70 c p1
266.40 257.58 2.70 c p1
266.40 289.31 2.70 c p1
242.23 245.33 2.70 c p1
242.23 159.82 2.70 c p1
193.90 190.92 2.70 c p1
242.23 209.60 2.70 c p1
295.40 316.20 2.70 c p1
348.57 329.95 2.70 c p1
348.57 323.12 2.70 c p1
203.57 203.68 2.70 c p1
242.23 218.61 2.70 c p1
169.73 192.64 2.70 c p1
218.07 203.75 2.70 c p1
247.07 245.40 2.70 c p1
218.07 216.80 2.70 c p1
218.07 234.37 2.70 c p1
227.73 224.47 2.70 c p1
218.07 234.37 2.70 c p1
227.73 224.47 2.70 c p1
227.73 252.33 2.70 c p1
0.00 0.00 504.00 504.00 cl
0 0 0 srgb
0.75 setlinewidth
[] 0 setdash
1 setlinecap
1 setlinejoin
10.00 setmiterlimit
np
73.07 57.60 m
386.66 0 l
o
np
73.07 57.60 m
0 -7.20 l
o
np
169.73 57.60 m
0 -7.20 l
o
np
266.40 57.60 m
0 -7.20 l
o
np
363.07 57.60 m
0 -7.20 l
o
np
459.73 57.60 m
0 -7.20 l
o
/Font1 findfont 12 s
73.07 31.68 (0) .5 0 t
169.73 31.68 (2) .5 0 t
266.40 31.68 (4) .5 0 t
363.07 31.68 (6) .5 0 t
459.73 31.68 (8) .5 0 t
np
57.60 84.35 m
0 321.30 l
o
np
57.60 84.35 m
-7.20 0 l
o
np
57.60 191.45 m
-7.20 0 l
o
np
57.60 298.55 m
-7.20 0 l
o
np
57.60 405.65 m
-7.20 0 l
o
40.32 84.35 (5) .5 90 t
40.32 191.45 (10) .5 90 t
40.32 298.55 (15) .5 90 t
40.32 405.65 (20) .5 90 t
np
57.60 57.60 m
417.60 0 l
0 417.60 l
-417.60 0 l
0 -417.60 l
o
0.00 0.00 504.00 504.00 cl
/Font1 findfont 12 s
0 0 0 srgb
266.40 2.88 (Engine) .5 0 t
11.52 266.40 (LPH) .5 90 t
ep
%%Trailer
%%Pages: 1
%%EOF
