%!PS-Adobe-3.0 EPSF-3.0
%%DocumentNeededResources: font Helvetica
%%+ font Helvetica-Bold
%%+ font Helvetica-Oblique
%%+ font Helvetica-BoldOblique
%%+ font Symbol
%%Title: R Graphics Output
%%Creator: R Software
%%Pages: (atend)
%%BoundingBox: 0 0 504 504
%%EndComments
%%BeginProlog
/bp  { gs sRGB gs } def
% begin .ps.prolog
/gs  { gsave } bind def
/gr  { grestore } bind def
/ep  { showpage gr gr } bind def
/m   { moveto } bind def
/l  { rlineto } bind def
/np  { newpath } bind def
/cp  { closepath } bind def
/f   { fill } bind def
/o   { stroke } bind def
/c   { newpath 0 360 arc } bind def
/r   { 4 2 roll moveto 1 copy 3 -1 roll exch 0 exch rlineto 0 rlineto -1 mul 0 exch rlineto closepath } bind def
/p1  { stroke } bind def
/p2  { gsave bg fill grestore newpath } bind def
/p3  { gsave bg fill grestore stroke } bind def
/p6  { gsave bg eofill grestore newpath } bind def
/p7  { gsave bg eofill grestore stroke } bind def
/t   { 5 -2 roll moveto gsave rotate
       1 index stringwidth pop
       mul neg 0 rmoveto show grestore } bind def
/ta  { 4 -2 roll moveto gsave rotate show } bind def
/tb  { 2 -1 roll 0 rmoveto show } bind def
/cl  { grestore gsave newpath 3 index 3 index moveto 1 index
       4 -1 roll lineto  exch 1 index lineto lineto
       closepath clip newpath } bind def
/rgb { setrgbcolor } bind def
/s   { scalefont setfont } bind def
% end   .ps.prolog
/sRGB { [ /CIEBasedABC
          << /DecodeLMN
               [ { dup 0.03928 le
                        {12.92321 div}
                        {0.055 add 1.055 div 2.4 exp }
                     ifelse
                 } bind dup dup
               ]
             /MatrixLMN [0.412457 0.212673 0.019334
                         0.357576 0.715152 0.119192
                         0.180437 0.072175 0.950301]
             /WhitePoint [0.9505 1.0 1.0890]
           >>
         ] setcolorspace } bind def
/srgb { setcolor } bind def
%%IncludeResource: font Helvetica
/Helvetica findfont
dup length dict begin
  {1 index /FID ne {def} {pop pop} ifelse} forall
  /Encoding ISOLatin1Encoding def
  currentdict
  end
/Font1 exch definefont pop
%%IncludeResource: font Helvetica-Bold
/Helvetica-Bold findfont
dup length dict begin
  {1 index /FID ne {def} {pop pop} ifelse} forall
  /Encoding ISOLatin1Encoding def
  currentdict
  end
/Font2 exch definefont pop
%%IncludeResource: font Helvetica-Oblique
/Helvetica-Oblique findfont
dup length dict begin
  {1 index /FID ne {def} {pop pop} ifelse} forall
  /Encoding ISOLatin1Encoding def
  currentdict
  end
/Font3 exch definefont pop
%%IncludeResource: font Helvetica-BoldOblique
/Helvetica-BoldOblique findfont
dup length dict begin
  {1 index /FID ne {def} {pop pop} ifelse} forall
  /Encoding ISOLatin1Encoding def
  currentdict
  end
/Font4 exch definefont pop
%%IncludeResource: font Symbol
/Symbol findfont
dup length dict begin
  {1 index /FID ne {def} {pop pop} ifelse} forall
  currentdict
  end
/Font5 exch definefont pop
%%EndProlog
%%Page: 1 1
bp
0.00 356.62 504.00 456.48 cl
48.47 356.62 484.04 456.48 cl
0 0 0 srgb
0.75 setlinewidth
[] 0 setdash
1 setlinecap
1 setlinejoin
10.00 setmiterlimit
np
64.60 422.23 m
5.68 -17.23 l
5.68 5.42 l
5.68 -5.35 l
5.68 -19.27 l
5.68 -12.82 l
5.68 2.36 l
5.69 -7.03 l
5.68 2.57 l
5.68 17.06 l
5.68 4.46 l
5.68 11.17 l
5.68 15.02 l
5.68 -1.57 l
5.68 1.75 l
5.68 -15.74 l
5.68 -22.37 l
5.68 -5.14 l
5.68 -4.25 l
5.68 -2.21 l
5.68 -5.32 l
5.68 13.95 l
5.68 10.32 l
5.68 27.16 l
5.68 -1.79 l
5.68 39.40 l
5.68 -25.41 l
5.68 -41.68 l
5.68 -13.38 l
5.68 -2.00 l
5.68 -3.25 l
5.68 -6.75 l
5.68 2.00 l
5.69 10.60 l
5.68 12.85 l
5.68 28.91 l
5.68 9.95 l
5.68 -28.83 l
5.68 3.25 l
5.68 2.10 l
5.68 -24.84 l
5.68 -6.92 l
5.68 -2.00 l
5.68 -4.89 l
5.68 -0.53 l
5.68 7.78 l
5.68 2.71 l
5.68 23.30 l
5.68 18.63 l
5.68 11.49 l
5.68 -16.34 l
5.68 -25.34 l
5.68 -3.53 l
5.68 -8.46 l
5.68 -3.71 l
5.68 -5.82 l
5.68 -0.32 l
5.68 7.60 l
5.68 -1.25 l
5.68 34.12 l
5.69 21.16 l
5.68 -17.09 l
5.68 -1.14 l
5.68 -15.35 l
5.68 -16.06 l
5.68 -6.75 l
5.68 -1.53 l
5.68 -3.82 l
5.68 -0.75 l
5.68 5.68 l
5.68 10.31 l
5.68 4.78 l
o
0.00 0.00 504.00 504.00 cl
0 0 0 srgb
0.75 setlinewidth
[] 0 setdash
1 setlinecap
1 setlinejoin
10.00 setmiterlimit
np
48.47 356.62 m
435.57 0 l
0 99.86 l
-435.57 0 l
0 -99.86 l
o
np
48.47 367.45 m
0 71.38 l
o
np
48.47 367.45 m
-4.75 0 l
o
np
48.47 385.30 m
-4.75 0 l
o
np
48.47 403.14 m
-4.75 0 l
o
np
48.47 420.98 m
-4.75 0 l
o
np
48.47 438.83 m
-4.75 0 l
o
/Font1 findfont 8 s
37.07 367.45 (1500) .5 90 t
37.07 403.14 (2500) .5 90 t
37.07 438.83 (3500) .5 90 t
/Font1 findfont 12 s
18.06 381.87 (obser) 90 ta
0.360 (v) tb
-0.300 (ed) tb gr
48.47 256.75 484.04 356.62 cl
0.00 256.75 504.00 356.62 cl
48.47 256.75 484.04 356.62 cl
0 0 0 srgb
0.75 setlinewidth
[] 0 setdash
1 setlinecap
1 setlinejoin
10.00 setmiterlimit
np
98.68 330.02 m
5.69 2.72 l
5.68 6.62 l
5.68 2.05 l
5.68 -2.33 l
5.68 -0.85 l
5.68 -0.50 l
5.68 -1.07 l
5.68 -2.08 l
5.68 -5.64 l
5.68 -4.74 l
5.68 2.33 l
5.68 2.08 l
5.68 9.91 l
5.68 14.40 l
5.68 -2.84 l
5.68 -8.34 l
5.68 -4.40 l
5.68 -3.06 l
5.68 -4.20 l
5.68 -3.30 l
5.68 -2.02 l
5.68 -2.28 l
5.68 -0.89 l
5.68 3.49 l
5.68 -14.85 l
5.68 -27.69 l
5.69 -4.18 l
5.68 6.31 l
5.68 0.99 l
5.68 -0.19 l
5.68 0.81 l
5.68 0.59 l
5.68 -1.15 l
5.68 -5.35 l
5.68 -10.46 l
5.68 -9.46 l
5.68 6.44 l
5.68 13.17 l
5.68 -2.10 l
5.68 -4.09 l
5.68 2.33 l
5.68 1.28 l
5.68 0.41 l
5.68 0.19 l
5.68 0.19 l
5.68 -1.14 l
5.68 1.08 l
5.68 5.40 l
5.68 -3.04 l
5.68 -7.39 l
5.68 0.79 l
5.68 -0.04 l
5.68 -3.54 l
5.69 -2.28 l
5.68 -0.93 l
5.68 -0.42 l
5.68 -1.18 l
5.68 1.95 l
5.68 -3.82 l
o
0.00 0.00 504.00 504.00 cl
0 0 0 srgb
0.75 setlinewidth
[] 0 setdash
1 setlinecap
1 setlinejoin
10.00 setmiterlimit
np
48.47 256.75 m
435.57 0 l
0 99.87 l
-435.57 0 l
0 -99.87 l
o
np
48.47 267.74 m
0 83.38 l
o
np
48.47 267.74 m
-4.75 0 l
o
np
48.47 281.63 m
-4.75 0 l
o
np
48.47 295.53 m
-4.75 0 l
o
np
48.47 309.43 m
-4.75 0 l
o
np
48.47 323.33 m
-4.75 0 l
o
np
48.47 337.22 m
-4.75 0 l
o
np
48.47 351.12 m
-4.75 0 l
o
/Font1 findfont 8 s
37.07 267.74 (1950) .5 90 t
37.07 295.53 (2050) .5 90 t
37.07 323.33 (2150) .5 90 t
37.07 351.12 (2250) .5 90 t
/Font1 findfont 12 s
18.06 306.68 (trend) .5 90 t
48.47 156.89 484.04 256.75 cl
0.00 156.89 504.00 256.75 cl
48.47 156.89 484.04 256.75 cl
0 0 0 srgb
0.75 setlinewidth
[] 0 setdash
1 setlinecap
1 setlinejoin
10.00 setmiterlimit
np
64.60 251.73 m
5.68 1.32 l
5.68 -12.26 l
5.68 -31.18 l
5.68 -25.90 l
5.68 -9.13 l
5.68 -4.67 l
5.69 -8.83 l
5.68 -0.49 l
5.68 19.02 l
5.68 9.93 l
5.68 41.26 l
5.68 20.93 l
5.68 1.32 l
5.68 -12.26 l
5.68 -31.18 l
5.68 -25.90 l
5.68 -9.13 l
5.68 -4.67 l
5.68 -8.83 l
5.68 -0.49 l
5.68 19.02 l
5.68 9.93 l
5.68 41.26 l
5.68 20.93 l
5.68 1.32 l
5.68 -12.26 l
5.68 -31.18 l
5.68 -25.90 l
5.68 -9.13 l
5.68 -4.67 l
5.68 -8.83 l
5.68 -0.49 l
5.69 19.02 l
5.68 9.93 l
5.68 41.26 l
5.68 20.93 l
5.68 1.32 l
5.68 -12.26 l
5.68 -31.18 l
5.68 -25.90 l
5.68 -9.13 l
5.68 -4.67 l
5.68 -8.83 l
5.68 -0.49 l
5.68 19.02 l
5.68 9.93 l
5.68 41.26 l
5.68 20.93 l
5.68 1.32 l
5.68 -12.26 l
5.68 -31.18 l
5.68 -25.90 l
5.68 -9.13 l
5.68 -4.67 l
5.68 -8.83 l
5.68 -0.49 l
5.68 19.02 l
5.68 9.93 l
5.68 41.26 l
5.69 20.93 l
5.68 1.32 l
5.68 -12.26 l
5.68 -31.18 l
5.68 -25.90 l
5.68 -9.13 l
5.68 -4.67 l
5.68 -8.83 l
5.68 -0.49 l
5.68 19.02 l
5.68 9.93 l
5.68 41.26 l
o
0.00 0.00 504.00 504.00 cl
0 0 0 srgb
0.75 setlinewidth
[] 0 setdash
1 setlinecap
1 setlinejoin
10.00 setmiterlimit
np
48.47 156.89 m
435.57 0 l
0 99.86 l
-435.57 0 l
0 -99.86 l
o
np
48.47 171.05 m
0 58.73 l
o
np
48.47 171.05 m
-4.75 0 l
o
np
48.47 200.42 m
-4.75 0 l
o
np
48.47 229.78 m
-4.75 0 l
o
/Font1 findfont 8 s
37.07 171.05 (-500) .5 90 t
37.07 200.42 (0) .5 90 t
37.07 229.78 (500) .5 90 t
/Font1 findfont 12 s
18.06 206.82 (seasonal) .5 90 t
48.47 57.02 484.04 156.89 cl
0.00 57.02 504.00 156.89 cl
48.47 57.02 484.04 156.89 cl
0 0 0 srgb
0.75 setlinewidth
[] 0 setdash
1 setlinecap
1 setlinejoin
10.00 setmiterlimit
np
98.68 104.75 m
5.69 -3.62 l
5.68 3.63 l
5.68 9.43 l
5.68 -2.30 l
5.68 -24.82 l
5.68 4.26 l
5.68 -4.03 l
5.68 17.04 l
5.68 7.08 l
5.68 -10.84 l
5.68 0.20 l
5.68 -3.03 l
5.68 3.40 l
5.68 -12.37 l
5.68 4.97 l
5.68 9.63 l
5.68 4.77 l
5.68 -25.40 l
5.68 70.44 l
5.68 -31.56 l
5.68 -40.46 l
5.68 4.77 l
5.68 6.60 l
5.68 -1.55 l
5.68 0.96 l
5.68 10.53 l
5.69 -0.76 l
5.68 10.80 l
5.68 6.67 l
5.68 -4.92 l
5.68 -53.55 l
5.68 19.12 l
5.68 38.17 l
5.68 -15.14 l
5.68 -0.06 l
5.68 3.69 l
5.68 -0.62 l
5.68 -3.47 l
5.68 -6.32 l
5.68 -5.04 l
5.68 -3.72 l
5.68 10.35 l
5.68 19.13 l
5.68 -16.05 l
5.68 -11.54 l
5.68 22.23 l
5.68 -5.48 l
5.68 -2.83 l
5.68 -0.10 l
5.68 1.67 l
5.68 -7.31 l
5.68 -13.10 l
5.68 17.10 l
5.69 15.72 l
5.68 -32.01 l
5.68 11.46 l
5.68 6.76 l
5.68 -1.03 l
5.68 -1.26 l
o
0.00 0.00 504.00 504.00 cl
0 0 0 srgb
0.75 setlinewidth
[] 0 setdash
1 setlinecap
1 setlinejoin
10.00 setmiterlimit
np
48.47 57.02 m
435.57 0 l
0 99.87 l
-435.57 0 l
0 -99.87 l
o
np
48.47 61.95 m
0 89.93 l
o
np
48.47 61.95 m
-4.75 0 l
o
np
48.47 74.79 m
-4.75 0 l
o
np
48.47 87.64 m
-4.75 0 l
o
np
48.47 100.49 m
-4.75 0 l
o
np
48.47 113.34 m
-4.75 0 l
o
np
48.47 126.18 m
-4.75 0 l
o
np
48.47 139.03 m
-4.75 0 l
o
np
48.47 151.88 m
-4.75 0 l
o
/Font1 findfont 8 s
37.07 61.95 (-600) .5 90 t
37.07 87.64 (-200) .5 90 t
37.07 113.34 (200) .5 90 t
37.07 139.03 (600) .5 90 t
np
64.60 57.02 m
408.99 0 l
o
np
64.60 57.02 m
0 -4.75 l
o
np
132.77 57.02 m
0 -4.75 l
o
np
200.93 57.02 m
0 -4.75 l
o
np
269.10 57.02 m
0 -4.75 l
o
np
337.26 57.02 m
0 -4.75 l
o
np
405.43 57.02 m
0 -4.75 l
o
np
473.59 57.02 m
0 -4.75 l
o
64.60 39.92 (1974) .5 0 t
132.77 39.92 (1975) .5 0 t
200.93 39.92 (1976) .5 0 t
269.10 39.92 (1977) .5 0 t
337.26 39.92 (1978) .5 0 t
405.43 39.92 (1979) .5 0 t
473.59 39.92 (1980) .5 0 t
/Font1 findfont 12 s
18.06 86.62 (r) 90 ta
-0.120 (andom) tb gr
266.26 20.91 (Time) .5 0 t
/Font2 findfont 14 s
140.22 478.08 (Decomposition of ad) 0 ta
-0.140 (ditive time series) tb gr
ep
%%Trailer
%%Pages: 1
%%EOF
