%!PS-Adobe-3.0 EPSF-3.0
%%DocumentNeededResources: font Helvetica
%%+ font Helvetica-Bold
%%+ font Helvetica-Oblique
%%+ font Helvetica-BoldOblique
%%+ font Symbol
%%Title: R Graphics Output
%%Creator: R Software
%%Pages: (atend)
%%BoundingBox: 0 0 504 504
%%EndComments
%%BeginProlog
/bp  { gs sRGB gs } def
% begin .ps.prolog
/gs  { gsave } bind def
/gr  { grestore } bind def
/ep  { showpage gr gr } bind def
/m   { moveto } bind def
/l  { rlineto } bind def
/np  { newpath } bind def
/cp  { closepath } bind def
/f   { fill } bind def
/o   { stroke } bind def
/c   { newpath 0 360 arc } bind def
/r   { 4 2 roll moveto 1 copy 3 -1 roll exch 0 exch rlineto 0 rlineto -1 mul 0 exch rlineto closepath } bind def
/p1  { stroke } bind def
/p2  { gsave bg fill grestore newpath } bind def
/p3  { gsave bg fill grestore stroke } bind def
/p6  { gsave bg eofill grestore newpath } bind def
/p7  { gsave bg eofill grestore stroke } bind def
/t   { 5 -2 roll moveto gsave rotate
       1 index stringwidth pop
       mul neg 0 rmoveto show grestore } bind def
/ta  { 4 -2 roll moveto gsave rotate show } bind def
/tb  { 2 -1 roll 0 rmoveto show } bind def
/cl  { grestore gsave newpath 3 index 3 index moveto 1 index
       4 -1 roll lineto  exch 1 index lineto lineto
       closepath clip newpath } bind def
/rgb { setrgbcolor } bind def
/s   { scalefont setfont } bind def
% end   .ps.prolog
/sRGB { [ /CIEBasedABC
          << /DecodeLMN
               [ { dup 0.03928 le
                        {12.92321 div}
                        {0.055 add 1.055 div 2.4 exp }
                     ifelse
                 } bind dup dup
               ]
             /MatrixLMN [0.412457 0.212673 0.019334
                         0.357576 0.715152 0.119192
                         0.180437 0.072175 0.950301]
             /WhitePoint [0.9505 1.0 1.0890]
           >>
         ] setcolorspace } bind def
/srgb { setcolor } bind def
%%IncludeResource: font Helvetica
/Helvetica findfont
dup length dict begin
  {1 index /FID ne {def} {pop pop} ifelse} forall
  /Encoding ISOLatin1Encoding def
  currentdict
  end
/Font1 exch definefont pop
%%IncludeResource: font Helvetica-Bold
/Helvetica-Bold findfont
dup length dict begin
  {1 index /FID ne {def} {pop pop} ifelse} forall
  /Encoding ISOLatin1Encoding def
  currentdict
  end
/Font2 exch definefont pop
%%IncludeResource: font Helvetica-Oblique
/Helvetica-Oblique findfont
dup length dict begin
  {1 index /FID ne {def} {pop pop} ifelse} forall
  /Encoding ISOLatin1Encoding def
  currentdict
  end
/Font3 exch definefont pop
%%IncludeResource: font Helvetica-BoldOblique
/Helvetica-BoldOblique findfont
dup length dict begin
  {1 index /FID ne {def} {pop pop} ifelse} forall
  /Encoding ISOLatin1Encoding def
  currentdict
  end
/Font4 exch definefont pop
%%IncludeResource: font Symbol
/Symbol findfont
dup length dict begin
  {1 index /FID ne {def} {pop pop} ifelse} forall
  currentdict
  end
/Font5 exch definefont pop
%%EndProlog
%%Page: 1 1
bp
59.04 73.44 473.76 444.96 cl
0 0 0 srgb
0.75 setlinewidth
[] 0 setdash
1 setlinecap
1 setlinejoin
10.00 setmiterlimit
np
74.40 343.62 m
5.41 -33.98 l
5.41 10.70 l
5.41 -10.55 l
5.40 -37.99 l
5.41 -25.25 l
5.41 4.64 l
5.41 -13.86 l
5.41 5.07 l
5.41 33.62 l
5.40 8.79 l
5.41 22.02 l
5.41 29.61 l
5.41 -3.09 l
5.41 3.45 l
5.41 -31.02 l
5.41 -44.11 l
5.40 -10.13 l
5.41 -8.37 l
5.41 -4.36 l
5.41 -10.48 l
5.41 27.50 l
5.41 20.33 l
5.40 53.53 l
5.41 -3.52 l
5.41 77.66 l
5.41 -50.08 l
5.41 -82.16 l
5.41 -26.38 l
5.41 -3.94 l
5.40 -6.40 l
5.41 -13.29 l
5.41 3.94 l
5.41 20.89 l
5.41 25.32 l
5.41 56.98 l
5.40 19.62 l
5.41 -56.83 l
5.41 6.40 l
5.41 4.15 l
5.41 -48.96 l
5.41 -13.65 l
5.40 -3.93 l
5.41 -9.64 l
5.41 -1.06 l
5.41 15.34 l
5.41 5.34 l
5.41 45.94 l
5.41 36.71 l
5.40 22.65 l
5.41 -32.21 l
5.41 -49.94 l
5.41 -6.97 l
5.41 -16.67 l
5.41 -7.31 l
5.40 -11.47 l
5.41 -0.63 l
5.41 14.98 l
5.41 -2.46 l
5.41 67.24 l
5.41 41.72 l
5.41 -33.70 l
5.40 -2.25 l
5.41 -30.24 l
5.41 -31.66 l
5.41 -13.29 l
5.41 -3.03 l
5.41 -7.52 l
5.40 -1.48 l
5.41 11.18 l
5.41 20.33 l
5.41 9.43 l
o
0.00 0.00 504.00 504.00 cl
/Font1 findfont 12 s
0 0 0 srgb
266.40 18.72 (Time) .5 0 t
12.96 259.20 (ldeaths) .5 90 t
0.00 0.00 504.00 504.00 cl
0 0 0 srgb
0.75 setlinewidth
[] 0 setdash
1 setlinecap
1 setlinejoin
10.00 setmiterlimit
np
74.40 73.44 m
389.41 0 l
o
np
74.40 73.44 m
0 -7.20 l
o
np
139.30 73.44 m
0 -7.20 l
o
np
204.20 73.44 m
0 -7.20 l
o
np
269.10 73.44 m
0 -7.20 l
o
np
334.01 73.44 m
0 -7.20 l
o
np
398.91 73.44 m
0 -7.20 l
o
np
463.81 73.44 m
0 -7.20 l
o
/Font1 findfont 12 s
74.40 47.52 (1974) .5 0 t
139.30 47.52 (1975) .5 0 t
204.20 47.52 (1976) .5 0 t
269.10 47.52 (1977) .5 0 t
334.01 47.52 (1978) .5 0 t
398.91 47.52 (1979) .5 0 t
463.81 47.52 (1980) .5 0 t
np
59.04 130.14 m
0 281.36 l
o
np
59.04 130.14 m
-7.20 0 l
o
np
59.04 200.48 m
-7.20 0 l
o
np
59.04 270.82 m
-7.20 0 l
o
np
59.04 341.16 m
-7.20 0 l
o
np
59.04 411.50 m
-7.20 0 l
o
41.76 130.14 (0) .5 90 t
41.76 200.48 (1000) .5 90 t
41.76 270.82 (2000) .5 90 t
41.76 341.16 (3000) .5 90 t
41.76 411.50 (4000) .5 90 t
np
59.04 73.44 m
414.72 0 l
0 371.52 l
-414.72 0 l
0 -371.52 l
o
59.04 73.44 473.76 444.96 cl
0 1 0 srgb
0.75 setlinewidth
[] 0 setdash
1 setlinecap
1 setlinejoin
10.00 setmiterlimit
np
106.85 283.06 m
5.41 0.69 l
5.41 1.67 l
5.41 0.52 l
5.40 -0.59 l
5.41 -0.21 l
5.41 -0.13 l
5.41 -0.27 l
5.41 -0.52 l
5.41 -1.43 l
5.41 -1.20 l
5.40 0.59 l
5.41 0.52 l
5.41 2.51 l
5.41 3.65 l
5.41 -0.72 l
5.41 -2.11 l
5.40 -1.12 l
5.41 -0.77 l
5.41 -1.06 l
5.41 -0.84 l
5.41 -0.51 l
5.41 -0.58 l
5.41 -0.22 l
5.40 0.88 l
5.41 -3.76 l
5.41 -7.00 l
5.41 -1.06 l
5.41 1.59 l
5.41 0.26 l
5.40 -0.05 l
5.41 0.20 l
5.41 0.15 l
5.41 -0.29 l
5.41 -1.35 l
5.41 -2.65 l
5.40 -2.39 l
5.41 1.63 l
5.41 3.33 l
5.41 -0.53 l
5.41 -1.04 l
5.41 0.59 l
5.41 0.32 l
5.40 0.11 l
5.41 0.05 l
5.41 0.05 l
5.41 -0.29 l
5.41 0.27 l
5.41 1.37 l
5.40 -0.77 l
5.41 -1.87 l
5.41 0.20 l
5.41 -0.01 l
5.41 -0.90 l
5.41 -0.58 l
5.41 -0.23 l
5.40 -0.11 l
5.41 -0.30 l
5.41 0.50 l
5.41 -0.97 l
o
1 0 0 srgb
np
74.40 191.60 m
5.41 1.58 l
5.41 -14.68 l
5.41 -37.35 l
5.40 -31.02 l
5.41 -10.95 l
5.41 -5.58 l
5.41 -10.58 l
5.41 -0.59 l
5.41 22.78 l
5.40 11.90 l
5.41 49.41 l
5.41 25.08 l
5.41 1.58 l
5.41 -14.68 l
5.41 -37.35 l
5.41 -31.02 l
5.40 -10.95 l
5.41 -5.58 l
5.41 -10.58 l
5.41 -0.59 l
5.41 22.78 l
5.41 11.90 l
5.40 49.41 l
5.41 25.08 l
5.41 1.58 l
5.41 -14.68 l
5.41 -37.35 l
5.41 -31.02 l
5.41 -10.95 l
5.40 -5.58 l
5.41 -10.58 l
5.41 -0.59 l
5.41 22.78 l
5.41 11.90 l
5.41 49.41 l
5.40 25.08 l
5.41 1.58 l
5.41 -14.68 l
5.41 -37.35 l
5.41 -31.02 l
5.41 -10.95 l
5.40 -5.58 l
5.41 -10.58 l
5.41 -0.59 l
5.41 22.78 l
5.41 11.90 l
5.41 49.41 l
5.41 25.08 l
5.40 1.58 l
5.41 -14.68 l
5.41 -37.35 l
5.41 -31.02 l
5.41 -10.95 l
5.41 -5.58 l
5.40 -10.58 l
5.41 -0.59 l
5.41 22.78 l
5.41 11.90 l
5.41 49.41 l
5.41 25.08 l
5.41 1.58 l
5.40 -14.68 l
5.41 -37.35 l
5.41 -31.02 l
5.41 -10.95 l
5.41 -5.58 l
5.41 -10.58 l
5.40 -0.59 l
5.41 22.78 l
5.41 11.90 l
5.41 49.41 l
o
0 0 1 srgb
np
106.85 134.80 m
5.41 -3.96 l
5.41 3.98 l
5.41 10.32 l
5.40 -2.52 l
5.41 -27.18 l
5.41 4.67 l
5.41 -4.41 l
5.41 18.65 l
5.41 7.76 l
5.41 -11.88 l
5.40 0.22 l
5.41 -3.31 l
5.41 3.71 l
5.41 -13.53 l
5.41 5.43 l
5.41 10.55 l
5.40 5.22 l
5.41 -27.81 l
5.41 77.13 l
5.41 -34.56 l
5.41 -44.30 l
5.41 5.23 l
5.41 7.22 l
5.40 -1.70 l
5.41 1.05 l
5.41 11.53 l
5.41 -0.83 l
5.41 11.83 l
5.41 7.31 l
5.40 -5.40 l
5.41 -58.63 l
5.41 20.94 l
5.41 41.79 l
5.41 -16.58 l
5.41 -0.06 l
5.40 4.04 l
5.41 -0.68 l
5.41 -3.80 l
5.41 -6.92 l
5.41 -5.52 l
5.41 -4.07 l
5.41 11.33 l
5.40 20.95 l
5.41 -17.58 l
5.41 -12.64 l
5.41 24.35 l
5.41 -6.00 l
5.41 -3.10 l
5.40 -0.11 l
5.41 1.82 l
5.41 -8.00 l
5.41 -14.35 l
5.41 18.73 l
5.41 17.22 l
5.41 -35.05 l
5.40 12.54 l
5.41 7.40 l
5.41 -1.12 l
5.41 -1.38 l
o
0 0 0 srgb
303.13 444.96 170.63 -72.00 r p1
np
313.93 430.56 m
21.60 0 l
o
0 1 0 srgb
np
313.93 416.16 m
21.60 0 l
o
1 0 0 srgb
np
313.93 401.76 m
21.60 0 l
o
0 0 1 srgb
np
313.93 387.36 m
21.60 0 l
o
/Font1 findfont 12 s
0 0 0 srgb
346.33 426.25 (Puv) 0 ta
-0.300 (odni hodnota) tb gr
346.33 411.85 (T) 0 ta
-1.440 (rendo) tb
-0.180 (v) tb
-0.300 (a slozka) tb gr
346.33 397.45 (Sez) 0 ta
-0.180 (onni slozka) tb gr
346.33 383.05 (Nesystematicka slozka) 0 0 t
ep
%%Trailer
%%Pages: 1
%%EOF
